14,100
14,200
14,300
14,400
14,500
14,600
14,700
14,800
14,900
14,1000
14,1100
14,1200
14,1300
14,1400
15,1500
14,1600
14,1700
14,1800
15,1900
14,2000
14,2100
15,2200
14,2300
17,2400
16,2500
18,2600
19,2700
23,2800
21,2900
24,3000
26,3100
29,3200
30,3300
31,3400
29,3500
36,3600
32,3700
37,3800
33,3900
38,4000
40,4100
36,4200
42,4300
48,4400
46,4500
49,4600
48,4700
59,4800
46,4900
59,5000
52,5100
57,5200
56,5300
65,5400
66,5500
69,5600
72,5700
68,5800
65,5900
80,6000
74,6100
70,6200
80,6300
76,6400
80,6500
86,6600
81,6700
89,6800
90,6900
94,7000
82,7100
93,7200
90,7300
89,7400
96,7500
98,7600
104,7700
96,7800
100,7900
106,8000
105,8100
114,8200
110,8300
109,8400
101,8500
114,8600
14,8700
14,8800
14,8900
14,9000
14,9100
14,9200
14,9300
14,9400
14,9500
14,9600
14,9700
14,9800
14,9900
14,10000
14,10100
14,10200
15,10300
14,10400
14,10500
14,10600
14,10700
14,10800
14,10900
14,11000
14,11100
14,11200
14,11300
14,11400
14,11500
14,11600
14,11700
14,11800
14,11900
14,12000
14,12100
