100,14
200,15
300,16
400,17
500,18
600,20
700,19
800,21
900,23
1000,23
1100,25
1200,28
1300,26
1400,27
1500,26
1600,28
1700,29
1800,30
1900,29
2000,32
2100,33
2200,35
2300,33
2400,37
2500,32
2600,39
2700,40
2800,35
2900,45
3000,42
3100,44
3200,38
3300,48
3400,46
3500,45
3600,42
3700,44
3800,45
3900,52
4000,46
4100,50
4200,54
4300,53
4400,57
4500,56
4600,59
4700,57
4800,57
4900,62
5000,58
5100,62
5200,63
5300,67
5400,66
5500,70
5600,67
5700,66
5800,75
5900,68
6000,68
6100,73
6200,72
6300,73
6400,76
6500,72
6600,74
6700,83
6800,71
6900,81
7000,79
7100,85
7200,89
7300,81
7400,86
7500,85
7600,85
7700,85
7800,93
7900,91
8000,92
8100,99
8200,88
8300,91
8400,96
8500,95
8600,93
8700,95
8800,95
8900,95
9000,89
9100,96
9200,91
9300,102
9400,105
9500,101
9600,106
9700,99
9800,109
9900,105
10000,105
10100,109
10200,106
10300,15
10400,15
10500,14
10600,15
10700,15
10800,15
10900,14
11000,15
11100,14
11200,14
11300,14
11400,15
11500,14
11600,14
11700,14
11800,14
11900,14
12000,14
12100,14
12200,14
12300,14
12400,14
12500,14
12600,14
12700,14
12800,14
12900,14
13000,14
13100,14
13200,14
13300,14
13400,14
13500,14
13600,14
13700,14
13800,14
13900,14
14000,14
14100,14
14200,14
14300,14
14400,14
14500,14
14600,14
14700,14
14800,15
14900,14
15000,14
15100,14
15200,14
15300,14
15400,14
15500,14
15600,14
15700,14
15800,14
15900,14
16000,14
16100,14
16200,14
16300,15
16400,14
16500,14
16600,14
16700,14
16800,14
16900,14
17000,14
17100,14
17200,14
17300,14
17400,14
17500,14
17600,14
17700,14
17800,14
17900,14
18000,14
18100,14
18200,14
18300,14
18400,14
18500,14
18600,14
18700,14
18800,14
18900,14
