0,100
0,200
0,300
0,400
0,500
0,600
0,700
0,800
0,900
0,1000
0,1100
0,1200
0,1300
0,1400
89,1500
87,1600
87,1700
87,1800
87,1900
87,2000
270,2100
264,2200
264,2300
264,2400
264,2500
264,2600
289,2700
280,2800
280,2900
280,3000
280,3100
280,3200
278,3300
272,3400
272,3500
272,3600
272,3700
272,3800
268,3900
260,4000
260,4100
260,4200
260,4300
260,4400
255,4500
249,4600
249,4700
249,4800
249,4900
255,5000
248,5100
239,5200
239,5300
239,5400
239,5500
239,5600
235,5700
230,5800
230,5900
230,6000
230,6100
230,6200
231,6300
224,6400
224,6500
224,6600
224,6700
224,6800
221,6900
216,7000
216,7100
216,7200
216,7300
216,7400
217,7500
209,7600
209,7700
209,7800
209,7900
209,8000
209,8100
204,8200
204,8300
204,8400
204,8500
204,8600
207,8700
201,8800
201,8900
201,9000
201,9100
201,9200
200,9300
195,9400
195,9500
195,9600
195,9700
195,9800
197,9900
190,10000
190,10100
190,10200
190,10300
190,10400
192,10500
187,10600
187,10700
187,10800
187,10900
187,11000
190,11100
184,11200
184,11300
184,11400
184,11500
184,11600
188,11700
183,11800
183,11900
183,12000
183,12100
183,12200
186,12300
180,12400
180,12500
180,12600
180,12700
180,12800
182,12900
178,13000
178,13100
178,13200
178,13300
178,13400
182,13500
176,13600
176,13700
176,13800
176,13900
176,14000
179,14100
175,14200
175,14300
175,14400
175,14500
175,14600
179,14700
173,14800
173,14900
173,15000
173,15100
173,15200
176,15300
172,15400
172,15500
172,15600
172,15700
172,15800
176,15900
171,16000
171,16100
171,16200
171,16300
171,16400
173,16500
169,16600
169,16700
169,16800
169,16900
169,17000
174,17100
168,17200
168,17300
168,17400
168,17500
168,17600
171,17700
167,17800
167,17900
167,18000
167,18100
167,18200
171,18300
166,18400
166,18500
166,18600
166,18700
166,18800
169,18900
165,19000
165,19100
165,19200
165,19300
165,19400
170,19500
164,19600
164,19700
164,19800
164,19900
164,20000
167,20100
164,20200
164,20300
164,20400
164,20500
164,20600
167,20700
161,20800
161,20900
161,21000
161,21100
161,21200
166,21300
160,21400
160,21500
160,21600
160,21700
160,21800
165,21900
160,22000
160,22100
160,22200
160,22300
160,22400
164,22500
159,22600
159,22700
159,22800
159,22900
159,23000
164,23100
159,23200
159,23300
159,23400
159,23500
159,23600
164,23700
158,23800
158,23900
158,24000
158,24100
158,24200
163,24300
157,24400
157,24500
157,24600
157,24700
157,24800
161,24900
156,25000
156,25100
156,25200
156,25300
156,25400
161,25500
156,25600
156,25700
156,25800
156,25900
156,26000
160,26100
155,26200
155,26300
155,26400
155,26500
155,26600
160,26700
154,26800
154,26900
154,27000
154,27100
154,27200
159,27300
154,27400
154,27500
154,27600
154,27700
154,27800
158,27900
153,28000
153,28100
153,28200
153,28300
153,28400
158,28500
153,28600
153,28700
153,28800
153,28900
153,29000
158,29100
152,29200
152,29300
152,29400
152,29500
152,29600
157,29700
152,29800
152,29900
152,30000
152,30100
152,30200
156,30300
151,30400
151,30500
151,30600
151,30700
151,30800
156,30900
150,31000
150,31100
150,31200
150,31300
150,31400
155,31500
150,31600
150,31700
150,31800
150,31900
150,32000
157,32100
150,32200
150,32300
150,32400
150,32500
150,32600
154,32700
149,32800
149,32900
149,33000
149,33100
149,33200
156,33300
149,33400
149,33500
149,33600
149,33700
149,33800
154,33900
149,34000
149,34100
149,34200
149,34300
149,34400
155,34500
148,34600
148,34700
148,34800
148,34900
148,35000
153,35100
148,35200
148,35300
148,35400
148,35500
148,35600
154,35700
148,35800
148,35900
148,36000
148,36100
148,36200
152,36300
147,36400
147,36500
147,36600
147,36700
147,36800
154,36900
148,37000
148,37100
148,37200
148,37300
148,37400
153,37500
147,37600
147,37700
147,37800
147,37900
147,38000
153,38100
146,38200
146,38300
146,38400
146,38500
146,38600
153,38700
146,38800
146,38900
146,39000
146,39100
146,39200
154,39300
147,39400
147,39500
147,39600
147,39700
147,39800
152,39900
145,40000
145,40100
145,40200
145,40300
145,40400
153,40500
146,40600
146,40700
146,40800
146,40900
146,41000
153,41100
145,41200
145,41300
145,41400
145,41500
145,41600
151,41700
145,41800
145,41900
145,42000
145,42100
145,42200
151,42300
144,42400
144,42500
144,42600
144,42700
144,42800
153,42900
145,43000
145,43100
145,43200
145,43300
145,43400
151,43500
144,43600
144,43700
144,43800
144,43900
144,44000
154,44100
145,44200
145,44300
145,44400
145,44500
145,44600
150,44700
144,44800
144,44900
144,45000
144,45100
144,45200
151,45300
143,45400
143,45500
143,45600
143,45700
143,45800
150,45900
143,46000
143,46100
143,46200
143,46300
143,46400
152,46500
144,46600
144,46700
144,46800
144,46900
144,47000
151,47100
143,47200
143,47300
143,47400
143,47500
143,47600
151,47700
143,47800
143,47900
143,48000
143,48100
143,48200
152,48300
144,48400
144,48500
144,48600
144,48700
144,48800
151,48900
143,49000
143,49100
143,49200
143,49300
143,49400
151,49500
143,49600
143,49700
143,49800
143,49900
143,50000
151,50100
143,50200
143,50300
143,50400
143,50500
143,50600
152,50700
144,50800
144,50900
144,51000
144,51100
144,51200
151,51300
142,51400
142,51500
142,51600
142,51700
142,51800
150,51900
142,52000
142,52100
142,52200
142,52300
142,52400
151,52500
142,52600
142,52700
142,52800
142,52900
142,53000
151,53100
143,53200
143,53300
143,53400
143,53500
143,53600
151,53700
143,53800
143,53900
143,54000
143,54100
143,54200
152,54300
144,54400
144,54500
144,54600
144,54700
144,54800
150,54900
142,55000
142,55100
142,55200
142,55300
142,55400
150,55500
141,55600
141,55700
141,55800
141,55900
141,56000
149,56100
141,56200
141,56300
141,56400
141,56500
141,56600
149,56700
141,56800
141,56900
141,57000
141,57100
141,57200
151,57300
143,57400
143,57500
143,57600
143,57700
143,57800
151,57900
143,58000
143,58100
143,58200
143,58300
143,58400
151,58500
142,58600
142,58700
142,58800
142,58900
142,59000
150,59100
142,59200
142,59300
142,59400
142,59500
142,59600
150,59700
141,59800
141,59900
141,60000
141,60100
141,60200
149,60300
141,60400
141,60500
141,60600
141,60700
141,60800
150,60900
142,61000
142,61100
142,61200
142,61300
142,61400
149,61500
141,61600
141,61700
141,61800
141,61900
141,62000
150,62100
141,62200
141,62300
141,62400
141,62500
141,62600
149,62700
140,62800
140,62900
140,63000
140,63100
140,63200
150,63300
141,63400
141,63500
141,63600
141,63700
141,63800
151,63900
142,64000
142,64100
142,64200
142,64300
142,64400
150,64500
141,64600
141,64700
141,64800
141,64900
141,65000
150,65100
142,65200
142,65300
142,65400
142,65500
142,65600
150,65700
141,65800
141,65900
141,66000
141,66100
141,66200
150,66300
142,66400
142,66500
142,66600
142,66700
142,66800
151,66900
142,67000
142,67100
142,67200
142,67300
142,67400
149,67500
141,67600
141,67700
141,67800
141,67900
141,68000
150,68100
141,68200
141,68300
141,68400
141,68500
141,68600
150,68700
142,68800
142,68900
142,69000
142,69100
142,69200
151,69300
143,69400
143,69500
143,69600
143,69700
143,69800
150,69900
142,70000
142,70100
142,70200
142,70300
142,70400
151,70500
143,70600
143,70700
143,70800
143,70900
143,71000
151,71100
143,71200
143,71300
143,71400
143,71500
143,71600
151,71700
143,71800
143,71900
143,72000
143,72100
143,72200
149,72300
141,72400
141,72500
141,72600
141,72700
141,72800
150,72900
142,73000
142,73100
142,73200
142,73300
142,73400
151,73500
142,73600
142,73700
142,73800
142,73900
142,74000
150,74100
142,74200
142,74300
142,74400
142,74500
142,74600
151,74700
142,74800
142,74900
142,75000
142,75100
142,75200
151,75300
142,75400
142,75500
142,75600
142,75700
142,75800
151,75900
143,76000
143,76100
143,76200
143,76300
143,76400
150,76500
141,76600
141,76700
141,76800
141,76900
141,77000
151,77100
143,77200
143,77300
143,77400
143,77500
143,77600
152,77700
144,77800
144,77900
144,78000
144,78100
144,78200
151,78300
143,78400
143,78500
143,78600
143,78700
143,78800
151,78900
142,79000
142,79100
142,79200
142,79300
142,79400
152,79500
143,79600
143,79700
143,79800
143,79900
143,80000
152,80100
144,80200
144,80300
144,80400
144,80500
144,80600
152,80700
143,80800
143,80900
143,81000
143,81100
143,81200
154,81300
145,81400
145,81500
145,81600
145,81700
145,81800
152,81900
144,82000
144,82100
144,82200
144,82300
144,82400
151,82500
143,82600
143,82700
143,82800
143,82900
143,83000
152,83100
143,83200
143,83300
143,83400
143,83500
143,83600
152,83700
144,83800
144,83900
144,84000
144,84100
144,84200
152,84300
144,84400
144,84500
144,84600
144,84700
144,84800
153,84900
144,85000
144,85100
144,85200
144,85300
144,85400
153,85500
144,85600
144,85700
144,85800
144,85900
144,86000
153,86100
144,86200
144,86300
144,86400
144,86500
144,86600
151,86700
143,86800
143,86900
143,87000
143,87100
143,87200
152,87300
143,87400
143,87500
143,87600
143,87700
143,87800
153,87900
144,88000
144,88100
144,88200
144,88300
144,88400
153,88500
144,88600
144,88700
144,88800
144,88900
144,89000
153,89100
144,89200
144,89300
144,89400
144,89500
144,89600
153,89700
144,89800
144,89900
144,90000
144,90100
144,90200
154,90300
144,90400
144,90500
144,90600
144,90700
144,90800
153,90900
144,91000
144,91100
144,91200
144,91300
144,91400
153,91500
144,91600
144,91700
144,91800
144,91900
144,92000
154,92100
145,92200
145,92300
145,92400
145,92500
145,92600
155,92700
146,92800
146,92900
146,93000
146,93100
146,93200
155,93300
146,93400
146,93500
146,93600
146,93700
146,93800
154,93900
144,94000
144,94100
144,94200
144,94300
144,94400
155,94500
146,94600
146,94700
146,94800
146,94900
146,95000
154,95100
145,95200
145,95300
145,95400
145,95500
145,95600
154,95700
145,95800
145,95900
145,96000
145,96100
145,96200
154,96300
145,96400
145,96500
145,96600
145,96700
145,96800
155,96900
146,97000
146,97100
146,97200
146,97300
146,97400
155,97500
146,97600
146,97700
146,97800
146,97900
146,98000
155,98100
146,98200
146,98300
146,98400
146,98500
146,98600
155,98700
146,98800
146,98900
146,99000
146,99100
146,99200
155,99300
146,99400
146,99500
146,99600
146,99700
146,99800
156,99900
147,100000
147,100100
147,100200
147,100300
147,100400
156,100500
147,100600
147,100700
147,100800
147,100900
147,101000
157,101100
147,101200
147,101300
147,101400
147,101500
147,101600
156,101700
147,101800
147,101900
147,102000
147,102100
147,102200
156,102300
147,102400
147,102500
147,102600
147,102700
147,102800
157,102900
148,103000
148,103100
148,103200
148,103300
148,103400
157,103500
148,103600
148,103700
148,103800
148,103900
148,104000
151,104100
147,104200
147,104300
147,104400
147,104500
147,104600
158,104700
149,104800
149,104900
149,105000
149,105100
149,105200
158,105300
148,105400
148,105500
148,105600
148,105700
148,105800
158,105900
148,106000
148,106100
148,106200
148,106300
148,106400
158,106500
149,106600
149,106700
149,106800
149,106900
149,107000
159,107100
150,107200
150,107300
150,107400
150,107500
150,107600
159,107700
149,107800
149,107900
149,108000
149,108100
149,108200
158,108300
149,108400
149,108500
149,108600
149,108700
149,108800
160,108900
150,109000
150,109100
150,109200
150,109300
150,109400
158,109500
149,109600
149,109700
149,109800
149,109900
149,110000
159,110100
150,110200
150,110300
150,110400
150,110500
150,110600
160,110700
151,110800
151,110900
151,111000
151,111100
151,111200
160,111300
151,111400
151,111500
151,111600
151,111700
151,111800
161,111900
151,112000
151,112100
151,112200
151,112300
151,112400
159,112500
150,112600
150,112700
150,112800
150,112900
150,113000
160,113100
150,113200
150,113300
150,113400
150,113500
150,113600
161,113700
152,113800
152,113900
152,114000
152,114100
152,114200
161,114300
152,114400
152,114500
152,114600
152,114700
152,114800
161,114900
152,115000
152,115100
152,115200
152,115300
152,115400
161,115500
152,115600
152,115700
152,115800
152,115900
152,116000
163,116100
153,116200
153,116300
153,116400
153,116500
153,116600
162,116700
152,116800
152,116900
152,117000
152,117100
152,117200
162,117300
153,117400
153,117500
153,117600
153,117700
153,117800
162,117900
152,118000
152,118100
152,118200
152,118300
152,118400
163,118500
154,118600
154,118700
154,118800
154,118900
154,119000
163,119100
154,119200
154,119300
154,119400
154,119500
154,119600
162,119700
152,119800
152,119900
152,120000
152,120100
152,120200
163,120300
154,120400
154,120500
154,120600
154,120700
154,120800
163,120900
154,121000
154,121100
154,121200
154,121300
154,121400
164,121500
155,121600
155,121700
155,121800
155,121900
155,122000
164,122100
154,122200
154,122300
154,122400
154,122500
154,122600
164,122700
154,122800
154,122900
154,123000
154,123100
154,123200
165,123300
155,123400
155,123500
155,123600
155,123700
155,123800
165,123900
156,124000
156,124100
156,124200
156,124300
156,124400
165,124500
155,124600
155,124700
155,124800
155,124900
155,125000
165,125100
156,125200
156,125300
156,125400
156,125500
156,125600
165,125700
155,125800
155,125900
155,126000
155,126100
155,126200
166,126300
156,126400
156,126500
156,126600
156,126700
156,126800
166,126900
157,127000
157,127100
157,127200
157,127300
157,127400
166,127500
156,127600
156,127700
156,127800
156,127900
156,128000
167,128100
157,128200
157,128300
157,128400
157,128500
157,128600
168,128700
159,128800
159,128900
159,129000
159,129100
159,129200
168,129300
158,129400
158,129500
158,129600
158,129700
158,129800
167,129900
157,130000
157,130100
157,130200
157,130300
157,130400
167,130500
158,130600
158,130700
158,130800
158,130900
158,131000
169,131100
159,131200
159,131300
159,131400
159,131500
159,131600
169,131700
158,131800
158,131900
158,132000
158,132100
158,132200
169,132300
159,132400
159,132500
159,132600
159,132700
159,132800
170,132900
160,133000
160,133100
160,133200
160,133300
160,133400
170,133500
160,133600
160,133700
160,133800
160,133900
160,134000
171,134100
160,134200
160,134300
160,134400
160,134500
160,134600
171,134700
161,134800
161,134900
161,135000
161,135100
161,135200
172,135300
162,135400
162,135500
162,135600
162,135700
162,135800
171,135900
161,136000
161,136100
161,136200
161,136300
161,136400
171,136500
161,136600
161,136700
161,136800
161,136900
161,137000
172,137100
162,137200
162,137300
162,137400
162,137500
162,137600
172,137700
161,137800
161,137900
161,138000
161,138100
161,138200
172,138300
162,138400
162,138500
162,138600
162,138700
162,138800
173,138900
163,139000
163,139100
163,139200
163,139300
163,139400
173,139500
162,139600
162,139700
162,139800
162,139900
162,140000
174,140100
164,140200
164,140300
164,140400
164,140500
164,140600
173,140700
163,140800
163,140900
163,141000
163,141100
163,141200
174,141300
164,141400
164,141500
164,141600
164,141700
164,141800
176,141900
165,142000
165,142100
165,142200
165,142300
165,142400
175,142500
164,142600
164,142700
164,142800
164,142900
164,143000
175,143100
165,143200
165,143300
165,143400
165,143500
165,143600
176,143700
166,143800
166,143900
166,144000
166,144100
166,144200
175,144300
165,144400
165,144500
165,144600
165,144700
165,144800
176,144900
165,145000
165,145100
165,145200
165,145300
165,145400
176,145500
166,145600
166,145700
166,145800
166,145900
166,146000
176,146100
166,146200
166,146300
166,146400
166,146500
166,146600
178,146700
167,146800
167,146900
167,147000
167,147100
167,147200
176,147300
166,147400
166,147500
166,147600
166,147700
166,147800
176,147900
166,148000
166,148100
166,148200
166,148300
166,148400
178,148500
167,148600
167,148700
167,148800
167,148900
167,149000
178,149100
167,149200
167,149300
167,149400
167,149500
167,149600
179,149700
169,149800
169,149900
169,150000
169,150100
169,150200
179,150300
168,150400
168,150500
168,150600
168,150700
168,150800
179,150900
169,151000
169,151100
169,151200
169,151300
169,151400
179,151500
169,151600
169,151700
169,151800
169,151900
169,152000
179,152100
168,152200
168,152300
168,152400
168,152500
168,152600
179,152700
169,152800
169,152900
169,153000
169,153100
169,153200
180,153300
170,153400
170,153500
170,153600
170,153700
170,153800
181,153900
171,154000
171,154100
171,154200
171,154300
171,154400
182,154500
170,154600
170,154700
170,154800
170,154900
170,155000
183,155100
172,155200
172,155300
172,155400
172,155500
172,155600
183,155700
172,155800
172,155900
172,156000
172,156100
172,156200
182,156300
172,156400
172,156500
172,156600
172,156700
172,156800
184,156900
173,157000
173,157100
173,157200
173,157300
173,157400
183,157500
173,157600
173,157700
173,157800
173,157900
173,158000
184,158100
173,158200
173,158300
173,158400
173,158500
173,158600
184,158700
173,158800
173,158900
173,159000
173,159100
173,159200
184,159300
173,159400
173,159500
173,159600
173,159700
173,159800
186,159900
175,160000
175,160100
175,160200
175,160300
175,160400
186,160500
174,160600
174,160700
174,160800
174,160900
174,161000
185,161100
175,161200
175,161300
175,161400
175,161500
175,161600
186,161700
175,161800
175,161900
175,162000
175,162100
175,162200
187,162300
175,162400
175,162500
175,162600
175,162700
175,162800
186,162900
175,163000
175,163100
175,163200
175,163300
175,163400
187,163500
176,163600
176,163700
176,163800
176,163900
176,164000
188,164100
177,164200
177,164300
177,164400
177,164500
177,164600
188,164700
177,164800
177,164900
177,165000
177,165100
177,165200
189,165300
178,165400
178,165500
178,165600
178,165700
178,165800
188,165900
178,166000
178,166100
178,166200
178,166300
178,166400
189,166500
177,166600
177,166700
177,166800
177,166900
177,167000
191,167100
180,167200
180,167300
180,167400
180,167500
180,167600
190,167700
179,167800
179,167900
179,168000
179,168100
179,168200
191,168300
180,168400
180,168500
180,168600
180,168700
180,168800
191,168900
180,169000
180,169100
180,169200
180,169300
180,169400
191,169500
180,169600
180,169700
180,169800
180,169900
180,170000
193,170100
182,170200
182,170300
182,170400
182,170500
182,170600
193,170700
181,170800
181,170900
181,171000
181,171100
181,171200
193,171300
182,171400
182,171500
182,171600
182,171700
182,171800
194,171900
183,172000
183,172100
183,172200
183,172300
183,172400
194,172500
183,172600
183,172700
183,172800
183,172900
183,173000
195,173100
183,173200
183,173300
183,173400
183,173500
183,173600
195,173700
184,173800
184,173900
184,174000
184,174100
184,174200
195,174300
184,174400
184,174500
184,174600
184,174700
184,174800
196,174900
185,175000
185,175100
185,175200
185,175300
185,175400
195,175500
184,175600
184,175700
184,175800
184,175900
184,176000
195,176100
184,176200
184,176300
184,176400
184,176500
184,176600
197,176700
186,176800
186,176900
186,177000
186,177100
186,177200
197,177300
186,177400
186,177500
186,177600
186,177700
186,177800
197,177900
185,178000
185,178100
185,178200
185,178300
185,178400
198,178500
187,178600
187,178700
187,178800
187,178900
187,179000
198,179100
187,179200
187,179300
187,179400
187,179500
187,179600
200,179700
189,179800
189,179900
189,180000
189,180100
189,180200
200,180300
189,180400
189,180500
189,180600
189,180700
189,180800
200,180900
189,181000
189,181100
189,181200
189,181300
189,181400
201,181500
190,181600
190,181700
190,181800
190,181900
190,182000
202,182100
190,182200
190,182300
190,182400
190,182500
190,182600
201,182700
190,182800
190,182900
190,183000
190,183100
190,183200
202,183300
191,183400
191,183500
191,183600
191,183700
191,183800
204,183900
192,184000
192,184100
192,184200
192,184300
192,184400
203,184500
192,184600
192,184700
192,184800
192,184900
192,185000
204,185100
193,185200
193,185300
193,185400
193,185500
193,185600
204,185700
193,185800
193,185900
193,186000
193,186100
193,186200
205,186300
193,186400
193,186500
193,186600
193,186700
193,186800
204,186900
193,187000
193,187100
193,187200
193,187300
193,187400
205,187500
194,187600
194,187700
194,187800
194,187900
194,188000
207,188100
195,188200
195,188300
195,188400
195,188500
195,188600
207,188700
195,188800
195,188900
195,189000
195,189100
195,189200
207,189300
195,189400
195,189500
195,189600
195,189700
195,189800
208,189900
196,190000
196,190100
196,190200
196,190300
196,190400
209,190500
197,190600
197,190700
197,190800
197,190900
197,191000
208,191100
196,191200
196,191300
196,191400
196,191500
196,191600
209,191700
197,191800
197,191900
197,192000
197,192100
197,192200
209,192300
198,192400
198,192500
198,192600
198,192700
198,192800
210,192900
198,193000
198,193100
198,193200
198,193300
198,193400
210,193500
199,193600
199,193700
199,193800
199,193900
199,194000
212,194100
200,194200
200,194300
200,194400
200,194500
200,194600
211,194700
199,194800
199,194900
199,195000
199,195100
199,195200
213,195300
201,195400
201,195500
201,195600
201,195700
201,195800
213,195900
202,196000
202,196100
202,196200
202,196300
202,196400
212,196500
201,196600
201,196700
201,196800
201,196900
201,197000
215,197100
203,197200
203,197300
203,197400
203,197500
203,197600
214,197700
202,197800
202,197900
202,198000
202,198100
202,198200
215,198300
203,198400
203,198500
203,198600
203,198700
203,198800
215,198900
204,199000
204,199100
204,199200
204,199300
204,199400
216,199500
204,199600
204,199700
204,199800
204,199900
204,200000
215,200100
204,200200
204,200300
204,200400
204,200500
204,200600
217,200700
205,200800
205,200900
205,201000
205,201100
205,201200
217,201300
206,201400
206,201500
206,201600
206,201700
206,201800
218,201900
206,202000
206,202100
206,202200
206,202300
206,202400
218,202500
207,202600
207,202700
207,202800
207,202900
207,203000
219,203100
207,203200
207,203300
207,203400
207,203500
207,203600
219,203700
208,203800
208,203900
208,204000
208,204100
208,204200
220,204300
209,204400
209,204500
209,204600
209,204700
209,204800
221,204900
209,205000
209,205100
209,205200
209,205300
209,205400
222,205500
209,205600
209,205700
209,205800
209,205900
209,206000
222,206100
210,206200
210,206300
210,206400
210,206500
210,206600
222,206700
211,206800
211,206900
211,207000
211,207100
211,207200
223,207300
212,207400
212,207500
212,207600
212,207700
212,207800
224,207900
213,208000
213,208100
213,208200
213,208300
213,208400
223,208500
212,208600
212,208700
212,208800
212,208900
212,209000
224,209100
214,209200
214,209300
214,209400
214,209500
214,209600
224,209700
214,209800
214,209900
214,210000
214,210100
214,210200
226,210300
215,210400
215,210500
215,210600
215,210700
215,210800
226,210900
216,211000
216,211100
216,211200
216,211300
216,211400
227,211500
216,211600
216,211700
216,211800
216,211900
216,212000
227,212100
216,212200
216,212300
216,212400
216,212500
216,212600
228,212700
217,212800
217,212900
217,213000
217,213100
217,213200
228,213300
218,213400
218,213500
218,213600
218,213700
218,213800
228,213900
218,214000
218,214100
218,214200
218,214300
218,214400
228,214500
218,214600
218,214700
218,214800
218,214900
218,215000
229,215100
219,215200
219,215300
219,215400
219,215500
219,215600
229,215700
220,215800
220,215900
220,216000
220,216100
220,216200
230,216300
220,216400
220,216500
220,216600
220,216700
220,216800
230,216900
221,217000
221,217100
221,217200
221,217300
221,217400
231,217500
221,217600
221,217700
221,217800
221,217900
221,218000
231,218100
221,218200
221,218300
221,218400
221,218500
221,218600
232,218700
222,218800
222,218900
222,219000
222,219100
222,219200
233,219300
223,219400
223,219500
223,219600
223,219700
223,219800
233,219900
224,220000
224,220100
224,220200
224,220300
224,220400
233,220500
224,220600
224,220700
224,220800
224,220900
224,221000
234,221100
225,221200
225,221300
225,221400
225,221500
225,221600
234,221700
225,221800
225,221900
225,222000
225,222100
225,222200
235,222300
226,222400
226,222500
226,222600
226,222700
226,222800
236,222900
227,223000
227,223100
227,223200
227,223300
227,223400
236,223500
227,223600
227,223700
227,223800
227,223900
227,224000
237,224100
228,224200
228,224300
228,224400
228,224500
228,224600
237,224700
228,224800
228,224900
228,225000
228,225100
228,225200
237,225300
229,225400
229,225500
229,225600
229,225700
229,225800
238,225900
229,226000
229,226100
229,226200
229,226300
229,226400
239,226500
230,226600
230,226700
230,226800
230,226900
230,227000
239,227100
230,227200
230,227300
230,227400
230,227500
230,227600
239,227700
230,227800
230,227900
230,228000
230,228100
230,228200
239,228300
230,228400
230,228500
230,228600
230,228700
230,228800
240,228900
231,229000
231,229100
231,229200
231,229300
231,229400
240,229500
232,229600
232,229700
232,229800
232,229900
232,230000
241,230100
233,230200
233,230300
233,230400
233,230500
233,230600
241,230700
232,230800
232,230900
232,231000
232,231100
232,231200
241,231300
234,231400
234,231500
234,231600
234,231700
234,231800
242,231900
233,232000
233,232100
233,232200
233,232300
233,232400
243,232500
234,232600
234,232700
234,232800
234,232900
234,233000
243,233100
235,233200
235,233300
235,233400
235,233500
235,233600
243,233700
236,233800
236,233900
236,234000
236,234100
236,234200
245,234300
236,234400
236,234500
236,234600
236,234700
236,234800
245,234900
237,235000
237,235100
237,235200
237,235300
237,235400
245,235500
237,235600
237,235700
237,235800
237,235900
237,236000
245,236100
238,236200
238,236300
238,236400
238,236500
238,236600
245,236700
238,236800
238,236900
238,237000
238,237100
238,237200
247,237300
239,237400
239,237500
239,237600
239,237700
239,237800
247,237900
239,238000
239,238100
239,238200
239,238300
239,238400
248,238500
241,238600
241,238700
241,238800
241,238900
241,239000
247,239100
240,239200
240,239300
240,239400
240,239500
240,239600
248,239700
240,239800
240,239900
240,240000
240,240100
240,240200
248,240300
241,240400
241,240500
241,240600
241,240700
241,240800
249,240900
241,241000
241,241100
241,241200
241,241300
241,241400
249,241500
242,241600
242,241700
242,241800
242,241900
242,242000
250,242100
243,242200
243,242300
243,242400
243,242500
243,242600
250,242700
243,242800
243,242900
243,243000
243,243100
243,243200
250,243300
243,243400
243,243500
243,243600
243,243700
243,243800
250,243900
243,244000
243,244100
243,244200
243,244300
243,244400
252,244500
245,244600
245,244700
245,244800
245,244900
245,245000
251,245100
244,245200
244,245300
244,245400
244,245500
244,245600
252,245700
244,245800
244,245900
244,246000
244,246100
244,246200
252,246300
245,246400
245,246500
245,246600
245,246700
245,246800
251,246900
245,247000
245,247100
245,247200
245,247300
245,247400
253,247500
246,247600
246,247700
246,247800
246,247900
246,248000
253,248100
247,248200
247,248300
247,248400
247,248500
247,248600
253,248700
247,248800
247,248900
247,249000
247,249100
247,249200
253,249300
247,249400
247,249500
247,249600
247,249700
247,249800
254,249900
248,250000
248,250100
248,250200
248,250300
248,250400
255,250500
249,250600
249,250700
249,250800
249,250900
249,251000
255,251100
248,251200
248,251300
248,251400
248,251500
248,251600
255,251700
250,251800
250,251900
250,252000
250,252100
250,252200
256,252300
249,252400
249,252500
249,252600
249,252700
249,252800
256,252900
250,253000
250,253100
250,253200
250,253300
250,253400
257,253500
251,253600
251,253700
251,253800
251,253900
251,254000
257,254100
250,254200
250,254300
250,254400
250,254500
250,254600
257,254700
251,254800
251,254900
251,255000
251,255100
251,255200
257,255300
251,255400
251,255500
251,255600
251,255700
251,255800
258,255900
252,256000
252,256100
252,256200
252,256300
252,256400
259,256500
253,256600
253,256700
253,256800
253,256900
253,257000
259,257100
253,257200
253,257300
253,257400
253,257500
253,257600
259,257700
253,257800
253,257900
253,258000
253,258100
253,258200
260,258300
254,258400
254,258500
254,258600
254,258700
254,258800
260,258900
255,259000
255,259100
255,259200
255,259300
255,259400
261,259500
255,259600
255,259700
255,259800
255,259900
255,260000
261,260100
255,260200
255,260300
255,260400
255,260500
255,260600
262,260700
255,260800
255,260900
255,261000
255,261100
255,261200
262,261300
256,261400
256,261500
256,261600
256,261700
256,261800
262,261900
256,262000
256,262100
256,262200
256,262300
256,262400
262,262500
256,262600
256,262700
256,262800
256,262900
256,263000
262,263100
256,263200
256,263300
256,263400
256,263500
256,263600
263,263700
258,263800
258,263900
258,264000
258,264100
258,264200
263,264300
257,264400
257,264500
257,264600
257,264700
257,264800
265,264900
259,265000
259,265100
259,265200
259,265300
259,265400
264,265500
259,265600
259,265700
259,265800
259,265900
259,266000
264,266100
259,266200
259,266300
259,266400
259,266500
259,266600
265,266700
260,266800
260,266900
260,267000
260,267100
260,267200
266,267300
260,267400
260,267500
260,267600
260,267700
260,267800
266,267900
260,268000
260,268100
260,268200
260,268300
260,268400
266,268500
261,268600
261,268700
261,268800
261,268900
261,269000
267,269100
261,269200
261,269300
261,269400
261,269500
261,269600
266,269700
261,269800
261,269900
261,270000
261,270100
261,270200
267,270300
261,270400
261,270500
261,270600
261,270700
261,270800
267,270900
261,271000
261,271100
261,271200
261,271300
261,271400
268,271500
262,271600
262,271700
262,271800
262,271900
262,272000
268,272100
263,272200
263,272300
263,272400
263,272500
263,272600
269,272700
263,272800
263,272900
263,273000
263,273100
263,273200
269,273300
263,273400
263,273500
263,273600
263,273700
263,273800
270,273900
264,274000
264,274100
264,274200
264,274300
264,274400
270,274500
264,274600
264,274700
264,274800
264,274900
264,275000
270,275100
264,275200
264,275300
264,275400
264,275500
264,275600
270,275700
265,275800
265,275900
265,276000
265,276100
265,276200
271,276300
265,276400
265,276500
265,276600
265,276700
265,276800
271,276900
266,277000
266,277100
266,277200
266,277300
266,277400
271,277500
266,277600
266,277700
266,277800
266,277900
266,278000
272,278100
266,278200
266,278300
266,278400
266,278500
266,278600
272,278700
267,278800
267,278900
267,279000
267,279100
267,279200
272,279300
267,279400
267,279500
267,279600
267,279700
267,279800
273,279900
267,280000
267,280100
267,280200
267,280300
267,280400
273,280500
267,280600
267,280700
267,280800
267,280900
267,281000
274,281100
268,281200
268,281300
268,281400
268,281500
268,281600
274,281700
268,281800
268,281900
268,282000
268,282100
268,282200
273,282300
268,282400
268,282500
268,282600
268,282700
268,282800
275,282900
269,283000
269,283100
269,283200
269,283300
269,283400
275,283500
269,283600
269,283700
269,283800
269,283900
269,284000
275,284100
269,284200
269,284300
269,284400
269,284500
269,284600
276,284700
270,284800
270,284900
270,285000
270,285100
270,285200
275,285300
270,285400
270,285500
270,285600
270,285700
270,285800
275,285900
270,286000
270,286100
270,286200
270,286300
270,286400
276,286500
271,286600
271,286700
271,286800
271,286900
271,287000
277,287100
271,287200
271,287300
271,287400
271,287500
271,287600
276,287700
272,287800
272,287900
272,288000
272,288100
272,288200
277,288300
272,288400
272,288500
272,288600
272,288700
272,288800
277,288900
272,289000
272,289100
272,289200
272,289300
272,289400
278,289500
272,289600
272,289700
272,289800
272,289900
272,290000
277,290100
272,290200
272,290300
272,290400
272,290500
272,290600
279,290700
273,290800
273,290900
273,291000
273,291100
273,291200
279,291300
274,291400
274,291500
274,291600
274,291700
274,291800
279,291900
273,292000
273,292100
273,292200
273,292300
273,292400
279,292500
274,292600
274,292700
274,292800
274,292900
274,293000
279,293100
274,293200
274,293300
274,293400
274,293500
274,293600
280,293700
275,293800
275,293900
275,294000
275,294100
275,294200
281,294300
275,294400
275,294500
275,294600
275,294700
275,294800
281,294900
275,295000
275,295100
275,295200
275,295300
275,295400
281,295500
275,295600
275,295700
275,295800
275,295900
275,296000
282,296100
276,296200
276,296300
276,296400
276,296500
276,296600
280,296700
275,296800
275,296900
275,297000
275,297100
275,297200
281,297300
276,297400
276,297500
276,297600
276,297700
276,297800
281,297900
276,298000
276,298100
276,298200
276,298300
276,298400
282,298500
277,298600
277,298700
277,298800
277,298900
277,299000
283,299100
278,299200
278,299300
278,299400
278,299500
278,299600
283,299700
277,299800
277,299900
277,300000
277,300100
277,300200
283,300300
277,300400
277,300500
277,300600
277,300700
277,300800
283,300900
277,301000
277,301100
277,301200
277,301300
277,301400
284,301500
278,301600
278,301700
278,301800
278,301900
278,302000
284,302100
278,302200
278,302300
278,302400
278,302500
278,302600
283,302700
278,302800
278,302900
278,303000
278,303100
278,303200
283,303300
278,303400
278,303500
278,303600
278,303700
278,303800
284,303900
279,304000
279,304100
279,304200
279,304300
279,304400
285,304500
279,304600
279,304700
279,304800
279,304900
279,305000
285,305100
279,305200
279,305300
279,305400
279,305500
279,305600
285,305700
279,305800
279,305900
279,306000
279,306100
279,306200
286,306300
281,306400
281,306500
281,306600
281,306700
281,306800
285,306900
280,307000
280,307100
280,307200
280,307300
280,307400
286,307500
280,307600
280,307700
280,307800
280,307900
280,308000
286,308100
281,308200
281,308300
281,308400
281,308500
281,308600
287,308700
281,308800
281,308900
281,309000
281,309100
281,309200
286,309300
281,309400
281,309500
281,309600
281,309700
281,309800
286,309900
281,310000
281,310100
281,310200
281,310300
281,310400
287,310500
281,310600
281,310700
281,310800
281,310900
281,311000
288,311100
282,311200
282,311300
282,311400
282,311500
282,311600
287,311700
282,311800
282,311900
282,312000
282,312100
282,312200
287,312300
282,312400
282,312500
282,312600
282,312700
282,312800
288,312900
283,313000
283,313100
283,313200
283,313300
283,313400
288,313500
283,313600
283,313700
283,313800
283,313900
283,314000
289,314100
283,314200
283,314300
283,314400
283,314500
283,314600
289,314700
284,314800
284,314900
284,315000
284,315100
284,315200
289,315300
284,315400
284,315500
284,315600
284,315700
284,315800
289,315900
284,316000
284,316100
284,316200
284,316300
284,316400
290,316500
285,316600
285,316700
285,316800
285,316900
285,317000
290,317100
285,317200
285,317300
285,317400
285,317500
285,317600
290,317700
285,317800
285,317900
285,318000
285,318100
285,318200
290,318300
285,318400
285,318500
285,318600
285,318700
285,318800
291,318900
286,319000
286,319100
286,319200
286,319300
286,319400
291,319500
285,319600
285,319700
285,319800
285,319900
285,320000
291,320100
285,320200
285,320300
285,320400
285,320500
285,320600
291,320700
286,320800
286,320900
286,321000
286,321100
286,321200
292,321300
287,321400
287,321500
287,321600
287,321700
287,321800
291,321900
286,322000
286,322100
286,322200
286,322300
286,322400
293,322500
287,322600
287,322700
287,322800
287,322900
287,323000
293,323100
287,323200
287,323300
287,323400
287,323500
287,323600
292,323700
287,323800
287,323900
287,324000
287,324100
287,324200
293,324300
288,324400
288,324500
288,324600
288,324700
288,324800
293,324900
288,325000
288,325100
288,325200
288,325300
288,325400
293,325500
288,325600
288,325700
288,325800
288,325900
288,326000
293,326100
289,326200
289,326300
289,326400
289,326500
289,326600
293,326700
288,326800
288,326900
288,327000
288,327100
288,327200
295,327300
289,327400
289,327500
289,327600
289,327700
289,327800
294,327900
289,328000
289,328100
289,328200
289,328300
289,328400
295,328500
290,328600
290,328700
290,328800
290,328900
290,329000
295,329100
290,329200
290,329300
290,329400
290,329500
290,329600
294,329700
289,329800
289,329900
289,330000
289,330100
289,330200
295,330300
290,330400
290,330500
290,330600
290,330700
290,330800
294,330900
289,331000
289,331100
289,331200
289,331300
289,331400
295,331500
290,331600
290,331700
290,331800
290,331900
290,332000
295,332100
290,332200
290,332300
290,332400
290,332500
290,332600
296,332700
291,332800
291,332900
291,333000
291,333100
291,333200
297,333300
291,333400
291,333500
291,333600
291,333700
291,333800
297,333900
291,334000
291,334100
291,334200
291,334300
291,334400
296,334500
291,334600
291,334700
291,334800
291,334900
291,335000
296,335100
290,335200
290,335300
290,335400
290,335500
290,335600
297,335700
291,335800
291,335900
291,336000
291,336100
291,336200
297,336300
292,336400
292,336500
292,336600
292,336700
292,336800
296,336900
291,337000
291,337100
291,337200
291,337300
291,337400
298,337500
292,337600
292,337700
292,337800
292,337900
292,338000
298,338100
293,338200
293,338300
293,338400
293,338500
293,338600
298,338700
293,338800
293,338900
293,339000
293,339100
293,339200
298,339300
293,339400
293,339500
293,339600
293,339700
293,339800
298,339900
293,340000
293,340100
293,340200
293,340300
293,340400
299,340500
294,340600
294,340700
294,340800
294,340900
294,341000
298,341100
294,341200
294,341300
294,341400
294,341500
294,341600
298,341700
293,341800
293,341900
293,342000
293,342100
293,342200
298,342300
293,342400
293,342500
293,342600
293,342700
293,342800
299,342900
293,343000
293,343100
293,343200
293,343300
293,343400
298,343500
293,343600
293,343700
293,343800
293,343900
293,344000
299,344100
294,344200
294,344300
294,344400
294,344500
294,344600
299,344700
294,344800
294,344900
294,345000
294,345100
294,345200
299,345300
294,345400
294,345500
294,345600
294,345700
294,345800
300,345900
295,346000
295,346100
295,346200
295,346300
295,346400
300,346500
295,346600
295,346700
295,346800
295,346900
295,347000
300,347100
295,347200
295,347300
295,347400
295,347500
295,347600
301,347700
296,347800
296,347900
296,348000
296,348100
296,348200
300,348300
295,348400
295,348500
295,348600
295,348700
295,348800
300,348900
295,349000
295,349100
295,349200
295,349300
295,349400
301,349500
295,349600
295,349700
295,349800
295,349900
295,350000
301,350100
296,350200
296,350300
296,350400
296,350500
296,350600
301,350700
296,350800
296,350900
296,351000
296,351100
296,351200
301,351300
296,351400
296,351500
296,351600
296,351700
296,351800
301,351900
296,352000
296,352100
296,352200
296,352300
296,352400
302,352500
297,352600
297,352700
297,352800
297,352900
297,353000
301,353100
296,353200
296,353300
296,353400
296,353500
296,353600
301,353700
296,353800
296,353900
296,354000
296,354100
296,354200
303,354300
297,354400
297,354500
297,354600
297,354700
297,354800
303,354900
298,355000
298,355100
298,355200
298,355300
298,355400
302,355500
298,355600
298,355700
298,355800
298,355900
298,356000
303,356100
297,356200
297,356300
297,356400
297,356500
297,356600
302,356700
298,356800
298,356900
298,357000
298,357100
298,357200
304,357300
299,357400
299,357500
299,357600
299,357700
299,357800
303,357900
298,358000
298,358100
298,358200
298,358300
298,358400
304,358500
299,358600
299,358700
299,358800
299,358900
299,359000
304,359100
299,359200
299,359300
299,359400
299,359500
299,359600
304,359700
299,359800
299,359900
299,360000
299,360100
299,360200
304,360300
299,360400
299,360500
299,360600
299,360700
299,360800
304,360900
299,361000
299,361100
299,361200
299,361300
299,361400
304,361500
299,361600
299,361700
299,361800
299,361900
299,362000
304,362100
299,362200
299,362300
299,362400
299,362500
299,362600
304,362700
300,362800
300,362900
300,363000
300,363100
300,363200
304,363300
299,363400
299,363500
299,363600
299,363700
299,363800
304,363900
300,364000
300,364100
300,364200
300,364300
300,364400
305,364500
300,364600
300,364700
300,364800
300,364900
300,365000
305,365100
300,365200
300,365300
300,365400
300,365500
300,365600
305,365700
301,365800
301,365900
301,366000
301,366100
301,366200
305,366300
300,366400
300,366500
300,366600
300,366700
300,366800
306,366900
301,367000
301,367100
301,367200
301,367300
301,367400
306,367500
301,367600
301,367700
301,367800
301,367900
301,368000
306,368100
301,368200
301,368300
301,368400
301,368500
301,368600
307,368700
302,368800
302,368900
302,369000
302,369100
302,369200
307,369300
301,369400
301,369500
301,369600
301,369700
301,369800
306,369900
302,370000
302,370100
302,370200
302,370300
302,370400
307,370500
302,370600
302,370700
302,370800
302,370900
302,371000
308,371100
303,371200
303,371300
303,371400
303,371500
303,371600
307,371700
302,371800
302,371900
302,372000
302,372100
302,372200
307,372300
302,372400
302,372500
302,372600
302,372700
302,372800
307,372900
302,373000
302,373100
302,373200
302,373300
302,373400
309,373500
304,373600
304,373700
304,373800
304,373900
304,374000
308,374100
303,374200
303,374300
303,374400
303,374500
303,374600
307,374700
303,374800
303,374900
303,375000
303,375100
303,375200
308,375300
304,375400
304,375500
304,375600
304,375700
304,375800
308,375900
304,376000
304,376100
304,376200
304,376300
304,376400
309,376500
304,376600
304,376700
304,376800
304,376900
304,377000
309,377100
304,377200
304,377300
304,377400
304,377500
304,377600
309,377700
304,377800
304,377900
304,378000
304,378100
304,378200
308,378300
304,378400
304,378500
304,378600
304,378700
304,378800
308,378900
304,379000
304,379100
304,379200
304,379300
304,379400
309,379500
304,379600
304,379700
304,379800
304,379900
304,380000
309,380100
305,380200
305,380300
305,380400
305,380500
305,380600
309,380700
304,380800
304,380900
304,381000
304,381100
304,381200
309,381300
305,381400
305,381500
305,381600
305,381700
305,381800
309,381900
304,382000
304,382100
304,382200
304,382300
304,382400
309,382500
304,382600
304,382700
304,382800
304,382900
304,383000
310,383100
305,383200
305,383300
305,383400
305,383500
305,383600
309,383700
305,383800
305,383900
305,384000
305,384100
305,384200
309,384300
305,384400
305,384500
305,384600
305,384700
305,384800
310,384900
305,385000
305,385100
305,385200
305,385300
305,385400
311,385500
305,385600
305,385700
305,385800
305,385900
305,386000
310,386100
305,386200
305,386300
305,386400
305,386500
305,386600
310,386700
305,386800
305,386900
305,387000
305,387100
305,387200
310,387300
305,387400
305,387500
305,387600
305,387700
305,387800
311,387900
307,388000
307,388100
307,388200
307,388300
307,388400
312,388500
307,388600
307,388700
307,388800
307,388900
307,389000
311,389100
306,389200
306,389300
306,389400
306,389500
306,389600
311,389700
307,389800
307,389900
307,390000
307,390100
307,390200
312,390300
307,390400
307,390500
307,390600
307,390700
307,390800
311,390900
306,391000
306,391100
306,391200
306,391300
306,391400
311,391500
306,391600
306,391700
306,391800
306,391900
306,392000
311,392100
307,392200
307,392300
307,392400
307,392500
307,392600
311,392700
307,392800
307,392900
307,393000
307,393100
307,393200
312,393300
307,393400
307,393500
307,393600
307,393700
307,393800
312,393900
307,394000
307,394100
307,394200
307,394300
307,394400
311,394500
306,394600
306,394700
306,394800
306,394900
306,395000
312,395100
307,395200
307,395300
307,395400
307,395500
307,395600
312,395700
308,395800
308,395900
308,396000
308,396100
308,396200
313,396300
308,396400
308,396500
308,396600
308,396700
308,396800
313,396900
308,397000
308,397100
308,397200
308,397300
308,397400
312,397500
308,397600
308,397700
308,397800
308,397900
308,398000
312,398100
308,398200
308,398300
308,398400
308,398500
308,398600
313,398700
308,398800
308,398900
308,399000
308,399100
308,399200
313,399300
308,399400
308,399500
308,399600
308,399700
308,399800
314,399900
309,400000
309,400100
309,400200
309,400300
309,400400
313,400500
309,400600
309,400700
309,400800
309,400900
309,401000
313,401100
309,401200
309,401300
309,401400
309,401500
309,401600
314,401700
309,401800
309,401900
309,402000
309,402100
309,402200
313,402300
309,402400
309,402500
309,402600
309,402700
309,402800
314,402900
309,403000
309,403100
309,403200
309,403300
309,403400
313,403500
309,403600
309,403700
309,403800
309,403900
309,404000
314,404100
309,404200
309,404300
309,404400
309,404500
309,404600
314,404700
309,404800
309,404900
309,405000
309,405100
309,405200
314,405300
310,405400
310,405500
310,405600
310,405700
310,405800
315,405900
310,406000
310,406100
310,406200
310,406300
310,406400
314,406500
310,406600
310,406700
310,406800
310,406900
310,407000
314,407100
310,407200
310,407300
310,407400
310,407500
310,407600
315,407700
310,407800
310,407900
310,408000
310,408100
310,408200
314,408300
310,408400
310,408500
310,408600
310,408700
310,408800
314,408900
310,409000
310,409100
310,409200
310,409300
310,409400
315,409500
310,409600
310,409700
310,409800
310,409900
310,410000
315,410100
311,410200
311,410300
311,410400
311,410500
311,410600
315,410700
310,410800
310,410900
310,411000
310,411100
310,411200
315,411300
311,411400
311,411500
311,411600
311,411700
311,411800
316,411900
311,412000
311,412100
311,412200
311,412300
311,412400
316,412500
312,412600
312,412700
312,412800
312,412900
312,413000
316,413100
311,413200
311,413300
311,413400
311,413500
311,413600
315,413700
311,413800
311,413900
311,414000
311,414100
311,414200
316,414300
311,414400
311,414500
311,414600
311,414700
311,414800
316,414900
312,415000
312,415100
312,415200
312,415300
312,415400
316,415500
311,415600
311,415700
311,415800
311,415900
311,416000
316,416100
312,416200
312,416300
312,416400
312,416500
312,416600
316,416700
312,416800
312,416900
312,417000
312,417100
312,417200
317,417300
312,417400
312,417500
312,417600
312,417700
312,417800
316,417900
312,418000
312,418100
312,418200
312,418300
312,418400
316,418500
312,418600
312,418700
312,418800
312,418900
312,419000
316,419100
311,419200
311,419300
311,419400
311,419500
311,419600
317,419700
312,419800
312,419900
312,420000
312,420100
312,420200
317,420300
313,420400
313,420500
313,420600
313,420700
313,420800
317,420900
313,421000
313,421100
313,421200
313,421300
313,421400
317,421500
312,421600
312,421700
312,421800
312,421900
312,422000
317,422100
313,422200
313,422300
313,422400
313,422500
313,422600
317,422700
313,422800
313,422900
313,423000
313,423100
313,423200
317,423300
312,423400
312,423500
312,423600
312,423700
312,423800
317,423900
313,424000
313,424100
313,424200
313,424300
313,424400
318,424500
314,424600
314,424700
314,424800
314,424900
314,425000
318,425100
313,425200
313,425300
313,425400
313,425500
313,425600
318,425700
313,425800
313,425900
313,426000
313,426100
313,426200
318,426300
314,426400
314,426500
314,426600
314,426700
314,426800
318,426900
314,427000
314,427100
314,427200
314,427300
314,427400
319,427500
314,427600
314,427700
314,427800
314,427900
314,428000
318,428100
314,428200
314,428300
314,428400
314,428500
314,428600
319,428700
314,428800
314,428900
314,429000
314,429100
314,429200
318,429300
314,429400
314,429500
314,429600
314,429700
314,429800
318,429900
314,430000
314,430100
314,430200
314,430300
314,430400
318,430500
314,430600
314,430700
314,430800
314,430900
314,431000
318,431100
314,431200
314,431300
314,431400
314,431500
314,431600
319,431700
314,431800
314,431900
314,432000
314,432100
314,432200
319,432300
315,432400
315,432500
315,432600
315,432700
315,432800
319,432900
314,433000
314,433100
314,433200
314,433300
314,433400
319,433500
315,433600
315,433700
315,433800
315,433900
315,434000
319,434100
314,434200
314,434300
314,434400
314,434500
314,434600
320,434700
315,434800
315,434900
315,435000
315,435100
315,435200
320,435300
315,435400
315,435500
315,435600
315,435700
315,435800
319,435900
315,436000
315,436100
315,436200
315,436300
315,436400
320,436500
316,436600
316,436700
316,436800
316,436900
316,437000
319,437100
316,437200
316,437300
316,437400
316,437500
316,437600
320,437700
315,437800
315,437900
315,438000
315,438100
315,438200
318,438300
315,438400
315,438500
315,438600
315,438700
315,438800
321,438900
316,439000
316,439100
316,439200
316,439300
316,439400
320,439500
316,439600
316,439700
316,439800
316,439900
316,440000
319,440100
316,440200
316,440300
316,440400
316,440500
316,440600
319,440700
316,440800
316,440900
316,441000
316,441100
316,441200
320,441300
316,441400
316,441500
316,441600
316,441700
316,441800
320,441900
317,442000
317,442100
317,442200
317,442300
317,442400
320,442500
317,442600
317,442700
317,442800
317,442900
317,443000
319,443100
316,443200
316,443300
316,443400
316,443500
316,443600
320,443700
317,443800
317,443900
317,444000
317,444100
317,444200
320,444300
318,444400
318,444500
318,444600
318,444700
318,444800
320,444900
317,445000
317,445100
317,445200
317,445300
317,445400
319,445500
317,445600
317,445700
317,445800
317,445900
317,446000
320,446100
317,446200
317,446300
317,446400
317,446500
317,446600
319,446700
316,446800
316,446900
316,447000
316,447100
316,447200
320,447300
317,447400
317,447500
317,447600
317,447700
317,447800
319,447900
317,448000
317,448100
317,448200
317,448300
317,448400
320,448500
317,448600
317,448700
317,448800
317,448900
317,449000
320,449100
318,449200
318,449300
318,449400
318,449500
318,449600
319,449700
316,449800
316,449900
316,450000
316,450100
316,450200
320,450300
317,450400
317,450500
317,450600
317,450700
317,450800
320,450900
317,451000
317,451100
317,451200
317,451300
317,451400
321,451500
319,451600
319,451700
319,451800
319,451900
319,452000
321,452100
319,452200
319,452300
319,452400
319,452500
319,452600
320,452700
318,452800
318,452900
318,453000
318,453100
318,453200
321,453300
318,453400
318,453500
318,453600
318,453700
318,453800
320,453900
318,454000
318,454100
318,454200
318,454300
318,454400
321,454500
319,454600
319,454700
319,454800
319,454900
319,455000
320,455100
318,455200
318,455300
318,455400
318,455500
318,455600
322,455700
319,455800
319,455900
319,456000
319,456100
319,456200
321,456300
319,456400
319,456500
319,456600
319,456700
319,456800
321,456900
319,457000
319,457100
319,457200
319,457300
319,457400
320,457500
318,457600
318,457700
318,457800
318,457900
318,458000
321,458100
320,458200
320,458300
320,458400
320,458500
320,458600
321,458700
319,458800
319,458900
319,459000
319,459100
319,459200
321,459300
320,459400
320,459500
320,459600
320,459700
320,459800
323,459900
320,460000
320,460100
320,460200
320,460300
320,460400
322,460500
319,460600
319,460700
319,460800
319,460900
319,461000
322,461100
320,461200
320,461300
320,461400
320,461500
320,461600
322,461700
320,461800
320,461900
320,462000
320,462100
320,462200
322,462300
320,462400
320,462500
320,462600
320,462700
320,462800
321,462900
319,463000
319,463100
319,463200
319,463300
319,463400
322,463500
320,463600
320,463700
320,463800
320,463900
320,464000
322,464100
320,464200
320,464300
320,464400
320,464500
320,464600
321,464700
319,464800
319,464900
319,465000
319,465100
319,465200
322,465300
320,465400
320,465500
320,465600
320,465700
320,465800
322,465900
320,466000
320,466100
320,466200
320,466300
320,466400
322,466500
321,466600
321,466700
321,466800
321,466900
321,467000
322,467100
320,467200
320,467300
320,467400
320,467500
320,467600
321,467700
320,467800
320,467900
320,468000
320,468100
320,468200
322,468300
321,468400
321,468500
321,468600
321,468700
321,468800
321,468900
320,469000
320,469100
320,469200
320,469300
320,469400
322,469500
320,469600
320,469700
320,469800
320,469900
320,470000
321,470100
321,470200
321,470300
321,470400
321,470500
321,470600
322,470700
321,470800
321,470900
321,471000
321,471100
321,471200
322,471300
321,471400
321,471500
321,471600
321,471700
321,471800
322,471900
321,472000
321,472100
321,472200
321,472300
321,472400
322,472500
321,472600
321,472700
321,472800
321,472900
321,473000
323,473100
322,473200
322,473300
322,473400
322,473500
322,473600
322,473700
321,473800
321,473900
321,474000
321,474100
321,474200
323,474300
322,474400
322,474500
322,474600
322,474700
322,474800
322,474900
322,475000
322,475100
322,475200
322,475300
322,475400
322,475500
322,475600
322,475700
322,475800
322,475900
322,476000
322,476100
322,476200
322,476300
322,476400
322,476500
326,476600
323,476700
322,476800
322,476900
322,477000
322,477100
322,477200
322,477300
322,477400
322,477500
322,477600
322,477700
326,477800
322,477900
322,478000
322,478100
322,478200
322,478300
322,478400
322,478500
322,478600
322,478700
322,478800
322,478900
326,479000
322,479100
322,479200
322,479300
322,479400
322,479500
322,479600
323,479700
323,479800
323,479900
323,480000
323,480100
326,480200
322,480300
322,480400
322,480500
322,480600
322,480700
326,480800
322,480900
322,481000
322,481100
322,481200
322,481300
326,481400
322,481500
322,481600
322,481700
322,481800
322,481900
326,482000
322,482100
322,482200
322,482300
322,482400
322,482500
327,482600
322,482700
322,482800
322,482900
322,483000
322,483100
326,483200
322,483300
322,483400
322,483500
322,483600
322,483700
326,483800
322,483900
322,484000
322,484100
322,484200
322,484300
326,484400
322,484500
322,484600
322,484700
322,484800
322,484900
326,485000
322,485100
322,485200
322,485300
322,485400
322,485500
327,485600
323,485700
323,485800
323,485900
323,486000
323,486100
327,486200
322,486300
322,486400
322,486500
322,486600
322,486700
327,486800
323,486900
323,487000
323,487100
323,487200
323,487300
327,487400
323,487500
323,487600
323,487700
323,487800
323,487900
327,488000
323,488100
323,488200
323,488300
323,488400
323,488500
328,488600
323,488700
323,488800
323,488900
323,489000
323,489100
328,489200
324,489300
324,489400
324,489500
324,489600
324,489700
327,489800
323,489900
323,490000
323,490100
323,490200
323,490300
327,490400
323,490500
323,490600
323,490700
323,490800
323,490900
328,491000
323,491100
323,491200
323,491300
323,491400
323,491500
328,491600
323,491700
323,491800
323,491900
323,492000
323,492100
329,492200
324,492300
324,492400
324,492500
324,492600
324,492700
328,492800
323,492900
323,493000
323,493100
323,493200
323,493300
329,493400
324,493500
324,493600
324,493700
324,493800
324,493900
328,494000
324,494100
324,494200
324,494300
324,494400
324,494500
329,494600
324,494700
324,494800
324,494900
324,495000
324,495100
329,495200
324,495300
324,495400
324,495500
324,495600
324,495700
328,495800
324,495900
324,496000
324,496100
324,496200
324,496300
329,496400
324,496500
324,496600
324,496700
324,496800
324,496900
329,497000
325,497100
325,497200
325,497300
325,497400
325,497500
329,497600
324,497700
324,497800
324,497900
324,498000
324,498100
330,498200
325,498300
325,498400
325,498500
325,498600
325,498700
328,498800
324,498900
324,499000
324,499100
324,499200
324,499300
330,499400
325,499500
325,499600
325,499700
325,499800
325,499900
329,500000
325,500100
325,500200
325,500300
325,500400
325,500500
329,500600
324,500700
324,500800
324,500900
324,501000
324,501100
330,501200
325,501300
325,501400
325,501500
325,501600
325,501700
329,501800
325,501900
325,502000
325,502100
325,502200
325,502300
330,502400
325,502500
325,502600
325,502700
325,502800
325,502900
330,503000
325,503100
325,503200
325,503300
325,503400
325,503500
330,503600
326,503700
326,503800
326,503900
326,504000
326,504100
331,504200
326,504300
326,504400
326,504500
326,504600
326,504700
329,504800
325,504900
325,505000
325,505100
325,505200
325,505300
331,505400
326,505500
326,505600
326,505700
326,505800
326,505900
330,506000
326,506100
326,506200
326,506300
326,506400
326,506500
330,506600
325,506700
325,506800
325,506900
325,507000
325,507100
330,507200
326,507300
326,507400
326,507500
326,507600
326,507700
330,507800
325,507900
325,508000
325,508100
325,508200
325,508300
331,508400
326,508500
326,508600
326,508700
326,508800
326,508900
331,509000
326,509100
326,509200
326,509300
326,509400
326,509500
331,509600
326,509700
326,509800
326,509900
326,510000
326,510100
330,510200
326,510300
326,510400
326,510500
326,510600
326,510700
330,510800
327,510900
327,511000
327,511100
327,511200
327,511300
331,511400
327,511500
327,511600
327,511700
327,511800
327,511900
330,512000
326,512100
326,512200
326,512300
326,512400
326,512500
331,512600
326,512700
326,512800
326,512900
326,513000
326,513100
331,513200
326,513300
326,513400
326,513500
326,513600
326,513700
331,513800
326,513900
326,514000
326,514100
326,514200
326,514300
331,514400
326,514500
326,514600
326,514700
326,514800
326,514900
332,515000
327,515100
327,515200
327,515300
327,515400
327,515500
331,515600
326,515700
326,515800
326,515900
326,516000
326,516100
331,516200
327,516300
327,516400
327,516500
327,516600
327,516700
331,516800
327,516900
327,517000
327,517100
327,517200
327,517300
331,517400
327,517500
327,517600
327,517700
327,517800
327,517900
331,518000
327,518100
327,518200
327,518300
327,518400
327,518500
331,518600
326,518700
326,518800
326,518900
326,519000
326,519100
332,519200
328,519300
328,519400
328,519500
328,519600
328,519700
330,519800
326,519900
326,520000
326,520100
326,520200
326,520300
331,520400
327,520500
327,520600
327,520700
327,520800
327,520900
331,521000
327,521100
327,521200
327,521300
327,521400
327,521500
332,521600
327,521700
327,521800
327,521900
327,522000
327,522100
331,522200
327,522300
327,522400
327,522500
327,522600
327,522700
332,522800
327,522900
327,523000
327,523100
327,523200
327,523300
331,523400
327,523500
327,523600
327,523700
327,523800
327,523900
332,524000
327,524100
327,524200
327,524300
327,524400
327,524500
331,524600
327,524700
327,524800
327,524900
327,525000
327,525100
333,525200
328,525300
328,525400
328,525500
328,525600
328,525700
332,525800
328,525900
328,526000
328,526100
328,526200
328,526300
332,526400
328,526500
328,526600
328,526700
328,526800
328,526900
332,527000
328,527100
328,527200
328,527300
328,527400
328,527500
332,527600
328,527700
328,527800
328,527900
328,528000
328,528100
333,528200
328,528300
328,528400
328,528500
328,528600
328,528700
333,528800
329,528900
329,529000
329,529100
329,529200
329,529300
333,529400
329,529500
329,529600
329,529700
329,529800
329,529900
332,530000
328,530100
328,530200
328,530300
328,530400
328,530500
332,530600
328,530700
328,530800
328,530900
328,531000
328,531100
333,531200
329,531300
329,531400
329,531500
329,531600
329,531700
333,531800
329,531900
329,532000
329,532100
329,532200
329,532300
334,532400
329,532500
329,532600
329,532700
329,532800
329,532900
333,533000
328,533100
328,533200
328,533300
328,533400
328,533500
332,533600
328,533700
328,533800
328,533900
328,534000
328,534100
334,534200
329,534300
329,534400
329,534500
329,534600
329,534700
333,534800
329,534900
329,535000
329,535100
329,535200
329,535300
333,535400
329,535500
329,535600
329,535700
329,535800
329,535900
333,536000
329,536100
329,536200
329,536300
329,536400
329,536500
333,536600
329,536700
329,536800
329,536900
329,537000
329,537100
334,537200
329,537300
329,537400
329,537500
329,537600
329,537700
334,537800
330,537900
330,538000
330,538100
330,538200
330,538300
333,538400
329,538500
329,538600
329,538700
329,538800
329,538900
334,539000
330,539100
330,539200
330,539300
330,539400
330,539500
333,539600
329,539700
329,539800
329,539900
329,540000
329,540100
333,540200
329,540300
329,540400
329,540500
329,540600
329,540700
334,540800
330,540900
330,541000
330,541100
330,541200
330,541300
333,541400
329,541500
329,541600
329,541700
329,541800
329,541900
334,542000
330,542100
330,542200
330,542300
330,542400
330,542500
334,542600
329,542700
329,542800
329,542900
329,543000
329,543100
334,543200
329,543300
329,543400
329,543500
329,543600
329,543700
334,543800
329,543900
329,544000
329,544100
329,544200
329,544300
334,544400
330,544500
330,544600
330,544700
330,544800
330,544900
334,545000
330,545100
330,545200
330,545300
330,545400
330,545500
334,545600
330,545700
330,545800
330,545900
330,546000
330,546100
334,546200
329,546300
329,546400
329,546500
329,546600
329,546700
334,546800
330,546900
330,547000
330,547100
330,547200
330,547300
335,547400
331,547500
331,547600
331,547700
331,547800
331,547900
334,548000
330,548100
330,548200
330,548300
330,548400
330,548500
335,548600
331,548700
331,548800
331,548900
331,549000
331,549100
334,549200
330,549300
330,549400
330,549500
330,549600
330,549700
335,549800
331,549900
331,550000
331,550100
331,550200
331,550300
335,550400
330,550500
330,550600
330,550700
330,550800
330,550900
335,551000
331,551100
331,551200
331,551300
331,551400
331,551500
334,551600
330,551700
330,551800
330,551900
330,552000
330,552100
335,552200
330,552300
330,552400
330,552500
330,552600
330,552700
335,552800
331,552900
331,553000
331,553100
331,553200
331,553300
335,553400
330,553500
330,553600
330,553700
330,553800
330,553900
335,554000
330,554100
330,554200
330,554300
330,554400
330,554500
335,554600
330,554700
330,554800
330,554900
330,555000
330,555100
335,555200
331,555300
331,555400
331,555500
331,555600
331,555700
336,555800
331,555900
331,556000
331,556100
331,556200
331,556300
335,556400
331,556500
331,556600
331,556700
331,556800
331,556900
335,557000
330,557100
330,557200
330,557300
330,557400
330,557500
335,557600
331,557700
331,557800
331,557900
331,558000
331,558100
334,558200
330,558300
330,558400
330,558500
330,558600
330,558700
335,558800
331,558900
331,559000
331,559100
331,559200
331,559300
336,559400
332,559500
332,559600
332,559700
332,559800
332,559900
335,560000
331,560100
331,560200
331,560300
331,560400
331,560500
335,560600
331,560700
331,560800
331,560900
331,561000
331,561100
335,561200
331,561300
331,561400
331,561500
331,561600
331,561700
335,561800
330,561900
330,562000
330,562100
330,562200
330,562300
336,562400
331,562500
331,562600
331,562700
331,562800
331,562900
335,563000
331,563100
331,563200
331,563300
331,563400
331,563500
336,563600
332,563700
332,563800
332,563900
332,564000
332,564100
336,564200
331,564300
331,564400
331,564500
331,564600
331,564700
335,564800
331,564900
331,565000
331,565100
331,565200
331,565300
336,565400
331,565500
331,565600
331,565700
331,565800
331,565900
335,566000
331,566100
331,566200
331,566300
331,566400
331,566500
336,566600
332,566700
332,566800
332,566900
332,567000
332,567100
335,567200
331,567300
331,567400
331,567500
331,567600
331,567700
336,567800
332,567900
332,568000
332,568100
332,568200
332,568300
336,568400
332,568500
332,568600
332,568700
332,568800
332,568900
336,569000
331,569100
331,569200
331,569300
331,569400
331,569500
336,569600
331,569700
331,569800
331,569900
331,570000
331,570100
336,570200
332,570300
332,570400
332,570500
332,570600
332,570700
337,570800
333,570900
333,571000
333,571100
333,571200
333,571300
337,571400
332,571500
332,571600
332,571700
332,571800
332,571900
336,572000
331,572100
331,572200
331,572300
331,572400
331,572500
336,572600
332,572700
332,572800
332,572900
332,573000
332,573100
336,573200
332,573300
332,573400
332,573500
332,573600
332,573700
336,573800
332,573900
332,574000
332,574100
332,574200
332,574300
337,574400
333,574500
333,574600
333,574700
333,574800
333,574900
336,575000
333,575100
333,575200
333,575300
333,575400
333,575500
336,575600
332,575700
332,575800
332,575900
332,576000
332,576100
336,576200
332,576300
332,576400
332,576500
332,576600
332,576700
337,576800
333,576900
333,577000
333,577100
333,577200
333,577300
336,577400
333,577500
333,577600
333,577700
333,577800
333,577900
337,578000
333,578100
333,578200
333,578300
333,578400
333,578500
336,578600
332,578700
332,578800
332,578900
332,579000
332,579100
336,579200
333,579300
333,579400
333,579500
333,579600
333,579700
337,579800
332,579900
332,580000
332,580100
332,580200
332,580300
337,580400
333,580500
333,580600
333,580700
333,580800
333,580900
337,581000
332,581100
332,581200
332,581300
332,581400
332,581500
337,581600
332,581700
332,581800
332,581900
332,582000
332,582100
336,582200
332,582300
332,582400
332,582500
332,582600
332,582700
337,582800
333,582900
333,583000
333,583100
333,583200
333,583300
337,583400
332,583500
332,583600
332,583700
332,583800
332,583900
338,584000
333,584100
333,584200
333,584300
333,584400
333,584500
337,584600
333,584700
333,584800
333,584900
333,585000
333,585100
337,585200
333,585300
333,585400
333,585500
333,585600
333,585700
335,585800
333,585900
333,586000
333,586100
333,586200
333,586300
338,586400
333,586500
333,586600
333,586700
333,586800
333,586900
337,587000
333,587100
333,587200
333,587300
333,587400
333,587500
338,587600
333,587700
333,587800
333,587900
333,588000
333,588100
337,588200
333,588300
333,588400
333,588500
333,588600
333,588700
338,588800
334,588900
334,589000
334,589100
334,589200
334,589300
338,589400
334,589500
334,589600
334,589700
334,589800
334,589900
338,590000
333,590100
333,590200
333,590300
333,590400
333,590500
338,590600
333,590700
333,590800
333,590900
333,591000
333,591100
338,591200
334,591300
334,591400
334,591500
334,591600
334,591700
338,591800
334,591900
334,592000
334,592100
334,592200
334,592300
338,592400
334,592500
334,592600
334,592700
334,592800
334,592900
338,593000
334,593100
334,593200
334,593300
334,593400
334,593500
338,593600
334,593700
334,593800
334,593900
334,594000
334,594100
338,594200
334,594300
334,594400
334,594500
334,594600
334,594700
339,594800
334,594900
334,595000
334,595100
334,595200
334,595300
339,595400
334,595500
334,595600
334,595700
334,595800
334,595900
338,596000
334,596100
334,596200
334,596300
334,596400
334,596500
338,596600
334,596700
334,596800
334,596900
334,597000
334,597100
338,597200
334,597300
334,597400
334,597500
334,597600
334,597700
338,597800
334,597900
334,598000
334,598100
334,598200
334,598300
338,598400
334,598500
334,598600
334,598700
334,598800
334,598900
339,599000
335,599100
335,599200
335,599300
335,599400
335,599500
339,599600
335,599700
335,599800
335,599900
335,600000
335,600100
339,600200
334,600300
334,600400
334,600500
334,600600
334,600700
339,600800
335,600900
335,601000
335,601100
335,601200
335,601300
339,601400
335,601500
335,601600
335,601700
335,601800
335,601900
340,602000
335,602100
335,602200
335,602300
335,602400
335,602500
341,602600
336,602700
336,602800
336,602900
336,603000
336,603100
339,603200
335,603300
335,603400
335,603500
335,603600
335,603700
339,603800
335,603900
335,604000
335,604100
335,604200
335,604300
339,604400
335,604500
335,604600
335,604700
335,604800
335,604900
339,605000
335,605100
335,605200
335,605300
335,605400
335,605500
339,605600
335,605700
335,605800
335,605900
335,606000
335,606100
339,606200
335,606300
335,606400
335,606500
335,606600
335,606700
340,606800
335,606900
335,607000
335,607100
335,607200
335,607300
339,607400
335,607500
335,607600
335,607700
335,607800
335,607900
340,608000
335,608100
335,608200
335,608300
335,608400
335,608500
339,608600
335,608700
335,608800
335,608900
335,609000
335,609100
340,609200
335,609300
335,609400
335,609500
335,609600
335,609700
340,609800
335,609900
335,610000
335,610100
335,610200
335,610300
339,610400
335,610500
335,610600
335,610700
335,610800
335,610900
339,611000
335,611100
335,611200
335,611300
335,611400
335,611500
340,611600
335,611700
335,611800
335,611900
335,612000
335,612100
340,612200
335,612300
335,612400
335,612500
335,612600
335,612700
339,612800
335,612900
335,613000
335,613100
335,613200
335,613300
340,613400
336,613500
336,613600
336,613700
336,613800
336,613900
340,614000
336,614100
336,614200
336,614300
336,614400
336,614500
340,614600
336,614700
336,614800
336,614900
336,615000
336,615100
339,615200
335,615300
335,615400
335,615500
335,615600
335,615700
340,615800
336,615900
336,616000
336,616100
336,616200
336,616300
340,616400
336,616500
336,616600
336,616700
336,616800
336,616900
340,617000
336,617100
336,617200
336,617300
336,617400
336,617500
341,617600
336,617700
336,617800
336,617900
336,618000
336,618100
340,618200
336,618300
336,618400
336,618500
336,618600
336,618700
341,618800
336,618900
336,619000
336,619100
336,619200
336,619300
340,619400
336,619500
336,619600
336,619700
336,619800
336,619900
340,620000
336,620100
336,620200
336,620300
336,620400
336,620500
340,620600
336,620700
336,620800
336,620900
336,621000
336,621100
340,621200
336,621300
336,621400
336,621500
336,621600
336,621700
340,621800
336,621900
336,622000
336,622100
336,622200
336,622300
340,622400
336,622500
336,622600
336,622700
336,622800
336,622900
341,623000
336,623100
336,623200
336,623300
336,623400
336,623500
340,623600
336,623700
336,623800
336,623900
336,624000
336,624100
341,624200
337,624300
337,624400
337,624500
337,624600
337,624700
340,624800
336,624900
336,625000
336,625100
336,625200
336,625300
341,625400
336,625500
336,625600
336,625700
336,625800
336,625900
341,626000
336,626100
336,626200
336,626300
336,626400
336,626500
340,626600
336,626700
336,626800
336,626900
336,627000
336,627100
341,627200
336,627300
336,627400
336,627500
336,627600
336,627700
341,627800
336,627900
336,628000
336,628100
336,628200
336,628300
341,628400
337,628500
337,628600
337,628700
337,628800
337,628900
341,629000
336,629100
336,629200
336,629300
336,629400
336,629500
340,629600
336,629700
336,629800
336,629900
336,630000
336,630100
341,630200
336,630300
336,630400
336,630500
336,630600
336,630700
340,630800
336,630900
336,631000
336,631100
336,631200
336,631300
341,631400
336,631500
336,631600
336,631700
336,631800
336,631900
341,632000
337,632100
337,632200
337,632300
337,632400
337,632500
341,632600
337,632700
337,632800
337,632900
337,633000
337,633100
340,633200
336,633300
336,633400
336,633500
336,633600
336,633700
341,633800
336,633900
336,634000
336,634100
336,634200
336,634300
342,634400
338,634500
338,634600
338,634700
338,634800
338,634900
342,635000
338,635100
338,635200
338,635300
338,635400
338,635500
341,635600
337,635700
337,635800
337,635900
337,636000
337,636100
342,636200
338,636300
338,636400
338,636500
338,636600
338,636700
341,636800
337,636900
337,637000
337,637100
337,637200
337,637300
341,637400
337,637500
337,637600
337,637700
337,637800
337,637900
341,638000
337,638100
337,638200
337,638300
337,638400
337,638500
341,638600
337,638700
337,638800
337,638900
337,639000
337,639100
341,639200
337,639300
337,639400
337,639500
337,639600
337,639700
342,639800
338,639900
338,640000
338,640100
338,640200
338,640300
341,640400
337,640500
337,640600
337,640700
337,640800
337,640900
342,641000
337,641100
337,641200
337,641300
337,641400
337,641500
342,641600
338,641700
338,641800
338,641900
338,642000
338,642100
341,642200
337,642300
337,642400
337,642500
337,642600
337,642700
342,642800
337,642900
337,643000
337,643100
337,643200
337,643300
342,643400
337,643500
337,643600
337,643700
337,643800
337,643900
342,644000
338,644100
338,644200
338,644300
338,644400
338,644500
342,644600
338,644700
338,644800
338,644900
338,645000
338,645100
343,645200
338,645300
338,645400
338,645500
338,645600
338,645700
342,645800
338,645900
338,646000
338,646100
338,646200
338,646300
342,646400
338,646500
338,646600
338,646700
338,646800
338,646900
342,647000
338,647100
338,647200
338,647300
338,647400
338,647500
342,647600
338,647700
338,647800
338,647900
338,648000
338,648100
343,648200
338,648300
338,648400
338,648500
338,648600
338,648700
342,648800
338,648900
338,649000
338,649100
338,649200
338,649300
342,649400
337,649500
337,649600
337,649700
337,649800
337,649900
342,650000
338,650100
338,650200
338,650300
338,650400
338,650500
343,650600
338,650700
338,650800
338,650900
338,651000
338,651100
343,651200
338,651300
338,651400
338,651500
338,651600
338,651700
343,651800
338,651900
338,652000
338,652100
338,652200
338,652300
342,652400
338,652500
338,652600
338,652700
338,652800
338,652900
342,653000
338,653100
338,653200
338,653300
338,653400
338,653500
343,653600
339,653700
339,653800
339,653900
339,654000
339,654100
343,654200
339,654300
339,654400
339,654500
339,654600
339,654700
342,654800
338,654900
338,655000
338,655100
338,655200
338,655300
343,655400
339,655500
339,655600
339,655700
339,655800
339,655900
342,656000
338,656100
338,656200
338,656300
338,656400
338,656500
343,656600
339,656700
339,656800
339,656900
339,657000
339,657100
343,657200
339,657300
339,657400
339,657500
339,657600
339,657700
343,657800
339,657900
339,658000
339,658100
339,658200
339,658300
342,658400
339,658500
339,658600
339,658700
339,658800
339,658900
343,659000
339,659100
339,659200
339,659300
339,659400
339,659500
343,659600
338,659700
338,659800
338,659900
338,660000
338,660100
343,660200
339,660300
339,660400
339,660500
339,660600
339,660700
342,660800
338,660900
338,661000
338,661100
338,661200
338,661300
343,661400
339,661500
339,661600
339,661700
339,661800
339,661900
343,662000
339,662100
339,662200
339,662300
339,662400
339,662500
344,662600
339,662700
339,662800
339,662900
339,663000
339,663100
343,663200
339,663300
339,663400
339,663500
339,663600
339,663700
344,663800
339,663900
339,664000
339,664100
339,664200
339,664300
343,664400
339,664500
339,664600
339,664700
339,664800
339,664900
343,665000
339,665100
339,665200
339,665300
339,665400
339,665500
343,665600
340,665700
340,665800
340,665900
340,666000
340,666100
344,666200
340,666300
340,666400
340,666500
340,666600
340,666700
344,666800
339,666900
339,667000
339,667100
339,667200
339,667300
343,667400
339,667500
339,667600
339,667700
339,667800
339,667900
343,668000
339,668100
339,668200
339,668300
339,668400
339,668500
343,668600
339,668700
339,668800
339,668900
339,669000
339,669100
343,669200
339,669300
339,669400
339,669500
339,669600
339,669700
343,669800
339,669900
339,670000
339,670100
339,670200
339,670300
344,670400
339,670500
339,670600
339,670700
339,670800
339,670900
344,671000
340,671100
340,671200
340,671300
340,671400
340,671500
343,671600
339,671700
339,671800
339,671900
339,672000
339,672100
343,672200
339,672300
339,672400
339,672500
339,672600
339,672700
343,672800
339,672900
339,673000
339,673100
339,673200
339,673300
344,673400
340,673500
340,673600
340,673700
340,673800
340,673900
344,674000
340,674100
340,674200
340,674300
340,674400
340,674500
344,674600
340,674700
340,674800
340,674900
340,675000
340,675100
345,675200
340,675300
340,675400
340,675500
340,675600
340,675700
344,675800
340,675900
340,676000
340,676100
340,676200
340,676300
344,676400
340,676500
340,676600
340,676700
340,676800
340,676900
344,677000
340,677100
340,677200
340,677300
340,677400
340,677500
344,677600
340,677700
340,677800
340,677900
340,678000
340,678100
345,678200
341,678300
341,678400
341,678500
341,678600
341,678700
344,678800
340,678900
340,679000
340,679100
340,679200
340,679300
345,679400
340,679500
340,679600
340,679700
340,679800
340,679900
345,680000
341,680100
341,680200
341,680300
341,680400
341,680500
343,680600
340,680700
340,680800
340,680900
340,681000
340,681100
345,681200
341,681300
341,681400
341,681500
341,681600
341,681700
345,681800
341,681900
341,682000
341,682100
341,682200
341,682300
344,682400
340,682500
340,682600
340,682700
340,682800
340,682900
343,683000
340,683100
340,683200
340,683300
340,683400
340,683500
343,683600
341,683700
341,683800
341,683900
341,684000
341,684100
343,684200
340,684300
340,684400
340,684500
340,684600
340,684700
344,684800
340,684900
340,685000
340,685100
340,685200
340,685300
343,685400
340,685500
340,685600
340,685700
340,685800
340,685900
344,686000
341,686100
341,686200
341,686300
341,686400
341,686500
343,686600
340,686700
340,686800
340,686900
340,687000
340,687100
343,687200
341,687300
341,687400
341,687500
341,687600
341,687700
343,687800
340,687900
340,688000
340,688100
340,688200
340,688300
344,688400
341,688500
341,688600
341,688700
341,688800
341,688900
344,689000
341,689100
341,689200
341,689300
341,689400
341,689500
343,689600
341,689700
341,689800
341,689900
341,690000
341,690100
343,690200
340,690300
340,690400
340,690500
340,690600
340,690700
344,690800
341,690900
341,691000
341,691100
341,691200
341,691300
344,691400
342,691500
342,691600
342,691700
342,691800
342,691900
344,692000
341,692100
341,692200
341,692300
341,692400
341,692500
343,692600
341,692700
341,692800
341,692900
341,693000
341,693100
344,693200
341,693300
341,693400
341,693500
341,693600
341,693700
343,693800
340,693900
340,694000
340,694100
340,694200
340,694300
343,694400
341,694500
341,694600
341,694700
341,694800
341,694900
343,695000
341,695100
341,695200
341,695300
341,695400
341,695500
343,695600
341,695700
341,695800
341,695900
341,696000
341,696100
344,696200
341,696300
341,696400
341,696500
341,696600
341,696700
344,696800
341,696900
341,697000
341,697100
341,697200
341,697300
344,697400
342,697500
342,697600
342,697700
342,697800
342,697900
343,698000
341,698100
341,698200
341,698300
341,698400
341,698500
343,698600
341,698700
341,698800
341,698900
341,699000
341,699100
343,699200
341,699300
341,699400
341,699500
341,699600
341,699700
343,699800
341,699900
341,700000
341,700100
341,700200
341,700300
343,700400
341,700500
341,700600
341,700700
341,700800
341,700900
342,701000
341,701100
341,701200
341,701300
341,701400
341,701500
343,701600
341,701700
341,701800
341,701900
341,702000
341,702100
343,702200
341,702300
341,702400
341,702500
341,702600
341,702700
343,702800
341,702900
341,703000
341,703100
341,703200
341,703300
343,703400
341,703500
341,703600
341,703700
341,703800
341,703900
344,704000
342,704100
342,704200
342,704300
342,704400
342,704500
344,704600
342,704700
342,704800
342,704900
342,705000
342,705100
344,705200
342,705300
342,705400
342,705500
342,705600
342,705700
343,705800
342,705900
342,706000
342,706100
342,706200
342,706300
343,706400
342,706500
342,706600
342,706700
342,706800
342,706900
343,707000
342,707100
342,707200
342,707300
342,707400
342,707500
342,707600
341,707700
341,707800
341,707900
341,708000
341,708100
343,708200
342,708300
342,708400
342,708500
342,708600
342,708700
343,708800
342,708900
342,709000
342,709100
342,709200
342,709300
344,709400
342,709500
342,709600
342,709700
342,709800
342,709900
343,710000
343,710100
343,710200
343,710300
343,710400
343,710500
343,710600
342,710700
342,710800
342,710900
342,711000
342,711100
342,711200
341,711300
341,711400
341,711500
341,711600
341,711700
343,711800
342,711900
342,712000
342,712100
342,712200
342,712300
344,712400
343,712500
343,712600
343,712700
343,712800
343,712900
343,713000
342,713100
342,713200
342,713300
342,713400
342,713500
343,713600
342,713700
342,713800
342,713900
342,714000
342,714100
343,714200
342,714300
342,714400
342,714500
342,714600
342,714700
342,714800
341,714900
341,715000
341,715100
341,715200
341,715300
343,715400
342,715500
342,715600
342,715700
342,715800
342,715900
344,716000
342,716100
342,716200
342,716300
342,716400
342,716500
344,716600
343,716700
343,716800
343,716900
343,717000
343,717100
343,717200
342,717300
342,717400
342,717500
342,717600
342,717700
343,717800
342,717900
342,718000
342,718100
342,718200
342,718300
344,718400
343,718500
343,718600
343,718700
343,718800
343,718900
344,719000
343,719100
343,719200
343,719300
343,719400
343,719500
343,719600
342,719700
342,719800
342,719900
342,720000
342,720100
343,720200
342,720300
342,720400
342,720500
342,720600
342,720700
342,720800
342,720900
342,721000
342,721100
342,721200
342,721300
343,721400
342,721500
342,721600
342,721700
342,721800
342,721900
343,722000
343,722100
343,722200
343,722300
343,722400
343,722500
343,722600
343,722700
343,722800
343,722900
343,723000
343,723100
343,723200
343,723300
343,723400
343,723500
343,723600
346,723700
343,723800
342,723900
342,724000
342,724100
342,724200
342,724300
343,724400
343,724500
343,724600
343,724700
343,724800
347,724900
344,725000
343,725100
343,725200
343,725300
343,725400
343,725500
343,725600
343,725700
343,725800
343,725900
343,726000
346,726100
342,726200
342,726300
342,726400
342,726500
347,726600
343,726700
343,726800
343,726900
343,727000
343,727100
347,727200
344,727300
344,727400
344,727500
344,727600
344,727700
347,727800
343,727900
343,728000
343,728100
343,728200
343,728300
347,728400
343,728500
343,728600
343,728700
343,728800
343,728900
347,729000
343,729100
343,729200
343,729300
343,729400
343,729500
347,729600
343,729700
343,729800
343,729900
343,730000
343,730100
347,730200
343,730300
343,730400
343,730500
343,730600
343,730700
347,730800
343,730900
343,731000
343,731100
343,731200
343,731300
347,731400
344,731500
344,731600
344,731700
344,731800
344,731900
348,732000
344,732100
344,732200
344,732300
344,732400
344,732500
347,732600
343,732700
343,732800
343,732900
343,733000
343,733100
347,733200
343,733300
343,733400
343,733500
343,733600
343,733700
347,733800
343,733900
343,734000
343,734100
343,734200
343,734300
346,734400
342,734500
342,734600
342,734700
342,734800
342,734900
348,735000
343,735100
343,735200
343,735300
343,735400
343,735500
347,735600
343,735700
343,735800
343,735900
343,736000
343,736100
348,736200
344,736300
344,736400
344,736500
344,736600
344,736700
348,736800
343,736900
343,737000
343,737100
343,737200
343,737300
347,737400
343,737500
343,737600
343,737700
343,737800
343,737900
348,738000
343,738100
343,738200
343,738300
343,738400
343,738500
348,738600
343,738700
343,738800
343,738900
343,739000
343,739100
347,739200
343,739300
343,739400
343,739500
343,739600
343,739700
347,739800
343,739900
343,740000
343,740100
343,740200
343,740300
347,740400
343,740500
343,740600
343,740700
343,740800
343,740900
347,741000
343,741100
343,741200
343,741300
343,741400
343,741500
348,741600
344,741700
344,741800
344,741900
344,742000
344,742100
348,742200
344,742300
344,742400
344,742500
344,742600
344,742700
348,742800
344,742900
344,743000
344,743100
344,743200
344,743300
347,743400
343,743500
343,743600
343,743700
343,743800
343,743900
347,744000
343,744100
343,744200
343,744300
343,744400
343,744500
348,744600
344,744700
344,744800
344,744900
344,745000
344,745100
348,745200
344,745300
344,745400
344,745500
344,745600
344,745700
347,745800
343,745900
343,746000
343,746100
343,746200
343,746300
348,746400
344,746500
344,746600
344,746700
344,746800
344,746900
348,747000
343,747100
343,747200
343,747300
343,747400
343,747500
347,747600
343,747700
343,747800
343,747900
343,748000
343,748100
348,748200
344,748300
344,748400
344,748500
344,748600
344,748700
348,748800
343,748900
343,749000
343,749100
343,749200
343,749300
348,749400
343,749500
343,749600
343,749700
343,749800
343,749900
348,750000
344,750100
344,750200
344,750300
344,750400
344,750500
347,750600
343,750700
343,750800
343,750900
343,751000
343,751100
348,751200
344,751300
344,751400
344,751500
344,751600
344,751700
348,751800
344,751900
344,752000
344,752100
344,752200
344,752300
348,752400
344,752500
344,752600
344,752700
344,752800
344,752900
349,753000
344,753100
344,753200
344,753300
344,753400
344,753500
349,753600
345,753700
345,753800
345,753900
345,754000
345,754100
348,754200
344,754300
344,754400
344,754500
344,754600
344,754700
348,754800
344,754900
344,755000
344,755100
344,755200
344,755300
348,755400
344,755500
344,755600
344,755700
344,755800
344,755900
349,756000
345,756100
345,756200
345,756300
345,756400
345,756500
349,756600
345,756700
345,756800
345,756900
345,757000
345,757100
348,757200
344,757300
344,757400
344,757500
344,757600
344,757700
349,757800
345,757900
345,758000
345,758100
345,758200
345,758300
349,758400
345,758500
345,758600
345,758700
345,758800
345,758900
348,759000
344,759100
344,759200
344,759300
344,759400
344,759500
347,759600
344,759700
344,759800
344,759900
344,760000
344,760100
348,760200
345,760300
345,760400
345,760500
345,760600
345,760700
349,760800
345,760900
345,761000
345,761100
345,761200
345,761300
349,761400
345,761500
345,761600
345,761700
345,761800
345,761900
349,762000
345,762100
345,762200
345,762300
345,762400
345,762500
350,762600
346,762700
346,762800
346,762900
346,763000
346,763100
348,763200
344,763300
344,763400
344,763500
344,763600
344,763700
349,763800
345,763900
345,764000
345,764100
345,764200
345,764300
349,764400
345,764500
345,764600
345,764700
345,764800
345,764900
349,765000
345,765100
345,765200
345,765300
345,765400
345,765500
349,765600
345,765700
345,765800
345,765900
345,766000
345,766100
348,766200
344,766300
344,766400
344,766500
344,766600
344,766700
349,766800
345,766900
345,767000
345,767100
345,767200
345,767300
349,767400
345,767500
345,767600
345,767700
345,767800
345,767900
349,768000
345,768100
345,768200
345,768300
345,768400
345,768500
349,768600
345,768700
345,768800
345,768900
345,769000
345,769100
349,769200
346,769300
346,769400
346,769500
346,769600
346,769700
349,769800
345,769900
345,770000
345,770100
345,770200
345,770300
349,770400
345,770500
345,770600
345,770700
345,770800
345,770900
349,771000
345,771100
345,771200
345,771300
345,771400
345,771500
349,771600
345,771700
345,771800
345,771900
345,772000
345,772100
348,772200
345,772300
345,772400
345,772500
345,772600
345,772700
349,772800
345,772900
345,773000
345,773100
345,773200
345,773300
347,773400
344,773500
344,773600
344,773700
344,773800
344,773900
348,774000
345,774100
345,774200
345,774300
345,774400
345,774500
348,774600
345,774700
345,774800
345,774900
345,775000
345,775100
348,775200
346,775300
346,775400
346,775500
346,775600
346,775700
348,775800
345,775900
345,776000
345,776100
345,776200
345,776300
348,776400
345,776500
345,776600
345,776700
345,776800
345,776900
348,777000
346,777100
346,777200
346,777300
346,777400
346,777500
349,777600
346,777700
346,777800
346,777900
346,778000
346,778100
347,778200
345,778300
345,778400
345,778500
345,778600
350,778700
345,778800
345,778900
345,779000
345,779100
345,779200
345,779300
348,779400
345,779500
345,779600
345,779700
345,779800
345,779900
348,780000
345,780100
345,780200
345,780300
345,780400
345,780500
349,780600
345,780700
345,780800
345,780900
345,781000
345,781100
348,781200
346,781300
346,781400
346,781500
346,781600
346,781700
348,781800
345,781900
345,782000
345,782100
345,782200
345,782300
347,782400
345,782500
345,782600
345,782700
345,782800
345,782900
347,783000
345,783100
345,783200
345,783300
345,783400
345,783500
348,783600
346,783700
346,783800
346,783900
346,784000
346,784100
348,784200
345,784300
345,784400
345,784500
345,784600
345,784700
347,784800
345,784900
345,785000
345,785100
345,785200
345,785300
349,785400
346,785500
346,785600
346,785700
346,785800
346,785900
348,786000
346,786100
346,786200
346,786300
346,786400
346,786500
348,786600
346,786700
346,786800
346,786900
346,787000
346,787100
347,787200
345,787300
345,787400
345,787500
345,787600
345,787700
348,787800
346,787900
346,788000
346,788100
346,788200
346,788300
348,788400
346,788500
346,788600
346,788700
346,788800
346,788900
348,789000
346,789100
346,789200
346,789300
346,789400
346,789500
348,789600
347,789700
347,789800
347,789900
347,790000
347,790100
347,790200
345,790300
345,790400
345,790500
345,790600
345,790700
347,790800
346,790900
346,791000
346,791100
346,791200
346,791300
348,791400
346,791500
346,791600
346,791700
346,791800
346,791900
347,792000
346,792100
346,792200
346,792300
346,792400
346,792500
347,792600
346,792700
346,792800
346,792900
346,793000
346,793100
347,793200
346,793300
346,793400
346,793500
346,793600
346,793700
346,793800
345,793900
345,794000
345,794100
345,794200
345,794300
347,794400
346,794500
346,794600
346,794700
346,794800
346,794900
346,795000
345,795100
345,795200
345,795300
345,795400
345,795500
347,795600
346,795700
346,795800
346,795900
346,796000
346,796100
347,796200
347,796300
347,796400
347,796500
347,796600
347,796700
346,796800
346,796900
346,797000
346,797100
346,797200
346,797300
347,797400
346,797500
346,797600
346,797700
346,797800
346,797900
348,798000
347,798100
347,798200
347,798300
347,798400
351,798500
347,798600
346,798700
346,798800
346,798900
346,799000
346,799100
346,799200
346,799300
346,799400
346,799500
346,799600
351,799700
347,799800
347,799900
347,800000
347,800100
347,800200
347,800300
347,800400
347,800500
347,800600
347,800700
347,800800
350,800900
347,801000
347,801100
347,801200
347,801300
347,801400
351,801500
347,801600
347,801700
347,801800
347,801900
347,802000
350,802100
346,802200
346,802300
346,802400
346,802500
346,802600
350,802700
347,802800
347,802900
347,803000
347,803100
347,803200
351,803300
347,803400
347,803500
347,803600
347,803700
347,803800
350,803900
346,804000
346,804100
346,804200
346,804300
346,804400
351,804500
347,804600
347,804700
347,804800
347,804900
347,805000
351,805100
347,805200
347,805300
347,805400
347,805500
347,805600
351,805700
347,805800
347,805900
347,806000
347,806100
347,806200
351,806300
347,806400
347,806500
347,806600
347,806700
347,806800
350,806900
346,807000
346,807100
346,807200
346,807300
346,807400
351,807500
346,807600
346,807700
346,807800
346,807900
346,808000
350,808100
346,808200
346,808300
346,808400
346,808500
346,808600
350,808700
346,808800
346,808900
346,809000
346,809100
346,809200
350,809300
346,809400
346,809500
346,809600
346,809700
346,809800
351,809900
347,810000
347,810100
347,810200
347,810300
347,810400
352,810500
347,810600
347,810700
347,810800
347,810900
347,811000
350,811100
347,811200
347,811300
347,811400
347,811500
