1,100
1,200
1,300
1,400
1,500
1,600
1,700
1,800
1,900
1,1000
1,1100
1,1200
1,1300
1,1400
1,1500
1,1600
1,1700
1,1800
1,1900
1,2000
195,2100
196,2200
196,2300
196,2400
196,2500
196,2600
335,2700
330,2800
330,2900
330,3000
330,3100
330,3200
370,3300
363,3400
363,3500
363,3600
363,3700
363,3800
378,3900
371,4000
371,4100
371,4200
371,4300
371,4400
379,4500
372,4600
372,4700
372,4800
372,4900
372,5000
377,5100
370,5200
370,5300
370,5400
370,5500
370,5600
374,5700
367,5800
367,5900
367,6000
367,6100
367,6200
370,6300
364,6400
364,6500
364,6600
364,6700
364,6800
368,6900
361,7000
361,7100
361,7200
361,7300
361,7400
365,7500
357,7600
357,7700
357,7800
357,7900
357,8000
362,8100
355,8200
355,8300
355,8400
355,8500
355,8600
359,8700
352,8800
352,8900
352,9000
352,9100
352,9200
356,9300
349,9400
349,9500
349,9600
349,9700
349,9800
354,9900
346,10000
346,10100
346,10200
346,10300
346,10400
352,10500
344,10600
344,10700
344,10800
344,10900
344,11000
350,11100
342,11200
342,11300
342,11400
342,11500
342,11600
348,11700
341,11800
341,11900
341,12000
341,12100
341,12200
346,12300
338,12400
338,12500
338,12600
338,12700
338,12800
344,12900
337,13000
337,13100
337,13200
337,13300
337,13400
343,13500
335,13600
335,13700
335,13800
335,13900
335,14000
341,14100
333,14200
333,14300
333,14400
333,14500
333,14600
340,14700
332,14800
332,14900
332,15000
332,15100
332,15200
339,15300
331,15400
331,15500
331,15600
331,15700
331,15800
337,15900
329,16000
329,16100
329,16200
329,16300
329,16400
336,16500
328,16600
328,16700
328,16800
328,16900
328,17000
335,17100
327,17200
327,17300
327,17400
327,17500
327,17600
334,17700
326,17800
326,17900
326,18000
326,18100
326,18200
333,18300
325,18400
325,18500
325,18600
325,18700
325,18800
333,18900
324,19000
324,19100
324,19200
324,19300
324,19400
331,19500
323,19600
323,19700
323,19800
323,19900
323,20000
330,20100
323,20200
323,20300
323,20400
323,20500
323,20600
328,20700
320,20800
320,20900
320,21000
320,21100
320,21200
328,21300
320,21400
320,21500
320,21600
320,21700
320,21800
327,21900
319,22000
319,22100
319,22200
319,22300
319,22400
326,22500
319,22600
319,22700
319,22800
319,22900
319,23000
326,23100
317,23200
317,23300
317,23400
317,23500
317,23600
324,23700
317,23800
317,23900
317,24000
317,24100
317,24200
324,24300
316,24400
316,24500
316,24600
316,24700
316,24800
323,24900
315,25000
315,25100
315,25200
315,25300
315,25400
323,25500
315,25600
315,25700
315,25800
315,25900
315,26000
322,26100
314,26200
314,26300
314,26400
314,26500
314,26600
321,26700
313,26800
313,26900
313,27000
313,27100
313,27200
321,27300
313,27400
313,27500
313,27600
313,27700
313,27800
320,27900
312,28000
312,28100
312,28200
312,28300
312,28400
320,28500
312,28600
312,28700
312,28800
312,28900
312,29000
319,29100
311,29200
311,29300
311,29400
311,29500
311,29600
319,29700
311,29800
311,29900
311,30000
311,30100
311,30200
319,30300
310,30400
310,30500
310,30600
310,30700
310,30800
318,30900
309,31000
309,31100
309,31200
309,31300
309,31400
318,31500
309,31600
309,31700
309,31800
309,31900
309,32000
317,32100
308,32200
308,32300
308,32400
308,32500
308,32600
316,32700
307,32800
307,32900
307,33000
307,33100
307,33200
316,33300
307,33400
307,33500
307,33600
307,33700
307,33800
316,33900
307,34000
307,34100
307,34200
307,34300
307,34400
315,34500
306,34600
306,34700
306,34800
306,34900
306,35000
315,35100
306,35200
306,35300
306,35400
306,35500
306,35600
314,35700
306,35800
306,35900
306,36000
306,36100
306,36200
313,36300
305,36400
305,36500
305,36600
305,36700
305,36800
314,36900
305,37000
305,37100
305,37200
305,37300
305,37400
313,37500
304,37600
304,37700
304,37800
304,37900
304,38000
313,38100
304,38200
304,38300
304,38400
304,38500
304,38600
312,38700
303,38800
303,38900
303,39000
303,39100
303,39200
312,39300
303,39400
303,39500
303,39600
303,39700
303,39800
312,39900
304,40000
304,40100
304,40200
304,40300
304,40400
311,40500
302,40600
302,40700
302,40800
302,40900
302,41000
311,41100
303,41200
303,41300
303,41400
303,41500
303,41600
311,41700
302,41800
302,41900
302,42000
302,42100
302,42200
310,42300
301,42400
301,42500
301,42600
301,42700
301,42800
310,42900
301,43000
301,43100
301,43200
301,43300
301,43400
310,43500
302,43600
302,43700
302,43800
302,43900
302,44000
310,44100
301,44200
301,44300
301,44400
301,44500
301,44600
309,44700
300,44800
300,44900
300,45000
300,45100
300,45200
309,45300
300,45400
300,45500
300,45600
300,45700
300,45800
309,45900
299,46000
299,46100
299,46200
299,46300
299,46400
308,46500
299,46600
299,46700
299,46800
299,46900
299,47000
309,47100
300,47200
300,47300
300,47400
300,47500
300,47600
309,47700
300,47800
300,47900
300,48000
300,48100
300,48200
308,48300
299,48400
299,48500
299,48600
299,48700
299,48800
307,48900
298,49000
298,49100
298,49200
298,49300
298,49400
308,49500
299,49600
299,49700
299,49800
299,49900
299,50000
307,50100
298,50200
298,50300
298,50400
298,50500
298,50600
307,50700
298,50800
298,50900
298,51000
298,51100
298,51200
308,51300
298,51400
298,51500
298,51600
298,51700
298,51800
306,51900
297,52000
297,52100
297,52200
297,52300
297,52400
307,52500
298,52600
298,52700
298,52800
298,52900
298,53000
307,53100
297,53200
297,53300
297,53400
297,53500
297,53600
306,53700
296,53800
296,53900
296,54000
296,54100
296,54200
306,54300
297,54400
297,54500
297,54600
297,54700
297,54800
306,54900
297,55000
297,55100
297,55200
297,55300
297,55400
307,55500
297,55600
297,55700
297,55800
297,55900
297,56000
307,56100
297,56200
297,56300
297,56400
297,56500
297,56600
306,56700
296,56800
296,56900
296,57000
296,57100
296,57200
305,57300
296,57400
296,57500
296,57600
296,57700
296,57800
305,57900
296,58000
296,58100
296,58200
296,58300
296,58400
305,58500
296,58600
296,58700
296,58800
296,58900
296,59000
305,59100
296,59200
296,59300
296,59400
296,59500
296,59600
305,59700
296,59800
296,59900
296,60000
296,60100
296,60200
305,60300
295,60400
295,60500
295,60600
295,60700
295,60800
305,60900
295,61000
295,61100
295,61200
295,61300
295,61400
305,61500
295,61600
295,61700
295,61800
295,61900
295,62000
305,62100
295,62200
295,62300
295,62400
295,62500
295,62600
305,62700
295,62800
295,62900
295,63000
295,63100
295,63200
304,63300
294,63400
294,63500
294,63600
294,63700
294,63800
304,63900
294,64000
294,64100
294,64200
294,64300
294,64400
304,64500
294,64600
294,64700
294,64800
294,64900
294,65000
304,65100
294,65200
294,65300
294,65400
294,65500
294,65600
304,65700
294,65800
294,65900
294,66000
294,66100
294,66200
304,66300
294,66400
294,66500
294,66600
294,66700
294,66800
304,66900
294,67000
294,67100
294,67200
294,67300
294,67400
303,67500
294,67600
294,67700
294,67800
294,67900
294,68000
303,68100
293,68200
293,68300
293,68400
293,68500
293,68600
303,68700
293,68800
293,68900
293,69000
293,69100
293,69200
303,69300
294,69400
294,69500
294,69600
294,69700
294,69800
303,69900
294,70000
294,70100
294,70200
294,70300
294,70400
303,70500
293,70600
293,70700
293,70800
293,70900
293,71000
303,71100
293,71200
293,71300
293,71400
293,71500
293,71600
303,71700
293,71800
293,71900
293,72000
293,72100
293,72200
302,72300
293,72400
293,72500
293,72600
293,72700
293,72800
303,72900
293,73000
293,73100
293,73200
293,73300
293,73400
303,73500
293,73600
293,73700
293,73800
293,73900
293,74000
302,74100
293,74200
293,74300
293,74400
293,74500
293,74600
303,74700
293,74800
293,74900
293,75000
293,75100
293,75200
302,75300
293,75400
293,75500
293,75600
293,75700
293,75800
303,75900
293,76000
293,76100
293,76200
293,76300
293,76400
302,76500
293,76600
293,76700
293,76800
293,76900
293,77000
303,77100
293,77200
293,77300
293,77400
293,77500
293,77600
302,77700
292,77800
292,77900
292,78000
292,78100
292,78200
302,78300
293,78400
293,78500
293,78600
293,78700
293,78800
302,78900
292,79000
292,79100
292,79200
292,79300
292,79400
302,79500
292,79600
292,79700
292,79800
292,79900
292,80000
302,80100
292,80200
292,80300
292,80400
292,80500
292,80600
302,80700
293,80800
293,80900
293,81000
293,81100
293,81200
302,81300
292,81400
292,81500
292,81600
292,81700
292,81800
302,81900
292,82000
292,82100
292,82200
292,82300
292,82400
302,82500
292,82600
292,82700
292,82800
292,82900
292,83000
302,83100
292,83200
292,83300
292,83400
292,83500
292,83600
301,83700
292,83800
292,83900
292,84000
292,84100
292,84200
302,84300
292,84400
292,84500
292,84600
292,84700
292,84800
301,84900
292,85000
292,85100
292,85200
292,85300
292,85400
302,85500
292,85600
292,85700
292,85800
292,85900
292,86000
302,86100
292,86200
292,86300
292,86400
292,86500
292,86600
301,86700
291,86800
291,86900
291,87000
291,87100
291,87200
301,87300
292,87400
292,87500
292,87600
292,87700
292,87800
301,87900
291,88000
291,88100
291,88200
291,88300
291,88400
301,88500
292,88600
292,88700
292,88800
292,88900
292,89000
302,89100
291,89200
291,89300
291,89400
291,89500
291,89600
301,89700
291,89800
291,89900
291,90000
291,90100
291,90200
301,90300
291,90400
291,90500
291,90600
291,90700
291,90800
301,90900
292,91000
292,91100
292,91200
292,91300
292,91400
301,91500
291,91600
291,91700
291,91800
291,91900
291,92000
301,92100
291,92200
291,92300
291,92400
291,92500
291,92600
301,92700
291,92800
291,92900
291,93000
291,93100
291,93200
301,93300
291,93400
291,93500
291,93600
291,93700
291,93800
301,93900
291,94000
291,94100
291,94200
291,94300
291,94400
301,94500
291,94600
291,94700
291,94800
291,94900
291,95000
301,95100
291,95200
291,95300
291,95400
291,95500
291,95600
301,95700
291,95800
291,95900
291,96000
291,96100
291,96200
301,96300
291,96400
291,96500
291,96600
291,96700
291,96800
301,96900
291,97000
291,97100
291,97200
291,97300
291,97400
300,97500
291,97600
291,97700
291,97800
291,97900
291,98000
301,98100
291,98200
291,98300
291,98400
291,98500
291,98600
301,98700
291,98800
291,98900
291,99000
291,99100
291,99200
301,99300
290,99400
290,99500
290,99600
290,99700
290,99800
301,99900
291,100000
291,100100
291,100200
291,100300
291,100400
301,100500
291,100600
291,100700
291,100800
291,100900
291,101000
301,101100
291,101200
291,101300
291,101400
291,101500
291,101600
301,101700
290,101800
290,101900
290,102000
290,102100
290,102200
302,102300
292,102400
292,102500
292,102600
292,102700
292,102800
301,102900
291,103000
291,103100
291,103200
291,103300
291,103400
301,103500
291,103600
291,103700
291,103800
291,103900
291,104000
301,104100
291,104200
291,104300
291,104400
291,104500
291,104600
300,104700
291,104800
291,104900
291,105000
291,105100
291,105200
300,105300
290,105400
290,105500
290,105600
290,105700
290,105800
301,105900
291,106000
291,106100
291,106200
291,106300
291,106400
301,106500
291,106600
291,106700
291,106800
291,106900
291,107000
301,107100
291,107200
291,107300
291,107400
291,107500
291,107600
300,107700
291,107800
291,107900
291,108000
291,108100
291,108200
300,108300
291,108400
291,108500
291,108600
291,108700
291,108800
301,108900
291,109000
291,109100
291,109200
291,109300
291,109400
300,109500
291,109600
291,109700
291,109800
291,109900
291,110000
301,110100
291,110200
291,110300
291,110400
291,110500
291,110600
301,110700
291,110800
291,110900
291,111000
291,111100
291,111200
301,111300
291,111400
291,111500
291,111600
291,111700
291,111800
301,111900
291,112000
291,112100
291,112200
291,112300
291,112400
301,112500
292,112600
292,112700
292,112800
292,112900
292,113000
301,113100
291,113200
291,113300
291,113400
291,113500
291,113600
300,113700
292,113800
292,113900
292,114000
292,114100
292,114200
301,114300
292,114400
292,114500
292,114600
292,114700
292,114800
301,114900
291,115000
291,115100
291,115200
291,115300
291,115400
301,115500
291,115600
291,115700
291,115800
291,115900
291,116000
301,116100
291,116200
291,116300
291,116400
291,116500
291,116600
302,116700
292,116800
292,116900
292,117000
292,117100
292,117200
301,117300
292,117400
292,117500
292,117600
292,117700
292,117800
301,117900
292,118000
292,118100
292,118200
292,118300
292,118400
301,118500
292,118600
292,118700
292,118800
292,118900
292,119000
301,119100
292,119200
292,119300
292,119400
292,119500
292,119600
301,119700
292,119800
292,119900
292,120000
292,120100
292,120200
301,120300
291,120400
291,120500
291,120600
291,120700
291,120800
301,120900
292,121000
292,121100
292,121200
292,121300
292,121400
301,121500
291,121600
291,121700
291,121800
291,121900
291,122000
301,122100
291,122200
291,122300
291,122400
291,122500
291,122600
300,122700
291,122800
291,122900
291,123000
291,123100
291,123200
300,123300
291,123400
291,123500
291,123600
291,123700
291,123800
301,123900
291,124000
291,124100
291,124200
291,124300
291,124400
301,124500
291,124600
291,124700
291,124800
291,124900
291,125000
301,125100
292,125200
292,125300
292,125400
292,125500
292,125600
301,125700
292,125800
292,125900
292,126000
292,126100
292,126200
301,126300
292,126400
292,126500
292,126600
292,126700
292,126800
301,126900
292,127000
292,127100
292,127200
292,127300
292,127400
301,127500
292,127600
292,127700
292,127800
292,127900
292,128000
302,128100
292,128200
292,128300
292,128400
292,128500
292,128600
301,128700
292,128800
292,128900
292,129000
292,129100
292,129200
301,129300
292,129400
292,129500
292,129600
292,129700
292,129800
301,129900
292,130000
292,130100
292,130200
292,130300
292,130400
302,130500
292,130600
292,130700
292,130800
292,130900
292,131000
301,131100
292,131200
292,131300
292,131400
292,131500
292,131600
302,131700
292,131800
292,131900
292,132000
292,132100
292,132200
302,132300
293,132400
293,132500
293,132600
293,132700
293,132800
301,132900
292,133000
292,133100
292,133200
292,133300
292,133400
301,133500
292,133600
292,133700
292,133800
292,133900
292,134000
303,134100
293,134200
293,134300
293,134400
293,134500
293,134600
302,134700
292,134800
292,134900
292,135000
292,135100
292,135200
302,135300
292,135400
292,135500
292,135600
292,135700
292,135800
301,135900
292,136000
292,136100
292,136200
292,136300
292,136400
301,136500
292,136600
292,136700
292,136800
292,136900
292,137000
302,137100
292,137200
292,137300
292,137400
292,137500
292,137600
302,137700
293,137800
293,137900
293,138000
293,138100
293,138200
302,138300
293,138400
293,138500
293,138600
293,138700
293,138800
302,138900
293,139000
293,139100
293,139200
293,139300
293,139400
301,139500
293,139600
293,139700
293,139800
293,139900
293,140000
301,140100
292,140200
292,140300
292,140400
292,140500
292,140600
302,140700
293,140800
293,140900
293,141000
293,141100
293,141200
302,141300
293,141400
293,141500
293,141600
293,141700
293,141800
303,141900
293,142000
293,142100
293,142200
293,142300
293,142400
302,142500
293,142600
293,142700
293,142800
293,142900
293,143000
302,143100
293,143200
293,143300
293,143400
293,143500
293,143600
302,143700
293,143800
293,143900
293,144000
293,144100
293,144200
302,144300
293,144400
293,144500
293,144600
293,144700
293,144800
302,144900
293,145000
293,145100
293,145200
293,145300
293,145400
302,145500
293,145600
293,145700
293,145800
293,145900
293,146000
302,146100
293,146200
293,146300
293,146400
293,146500
293,146600
302,146700
293,146800
293,146900
293,147000
293,147100
293,147200
302,147300
293,147400
293,147500
293,147600
293,147700
293,147800
302,147900
294,148000
294,148100
294,148200
294,148300
294,148400
302,148500
293,148600
293,148700
293,148800
293,148900
293,149000
302,149100
294,149200
294,149300
294,149400
294,149500
294,149600
303,149700
294,149800
294,149900
294,150000
294,150100
294,150200
302,150300
294,150400
294,150500
294,150600
294,150700
294,150800
303,150900
294,151000
294,151100
294,151200
294,151300
294,151400
302,151500
294,151600
294,151700
294,151800
294,151900
294,152000
301,152100
294,152200
294,152300
294,152400
294,152500
294,152600
303,152700
294,152800
294,152900
294,153000
294,153100
294,153200
303,153300
294,153400
294,153500
294,153600
294,153700
294,153800
302,153900
294,154000
294,154100
294,154200
294,154300
294,154400
302,154500
295,154600
295,154700
295,154800
295,154900
295,155000
302,155100
295,155200
295,155300
295,155400
295,155500
295,155600
300,155700
294,155800
294,155900
294,156000
294,156100
294,156200
302,156300
295,156400
295,156500
295,156600
295,156700
295,156800
301,156900
295,157000
295,157100
295,157200
295,157300
295,157400
301,157500
295,157600
295,157700
295,157800
295,157900
295,158000
301,158100
295,158200
295,158300
295,158400
295,158500
295,158600
301,158700
295,158800
295,158900
295,159000
295,159100
295,159200
301,159300
295,159400
295,159500
295,159600
295,159700
295,159800
301,159900
295,160000
295,160100
295,160200
295,160300
295,160400
299,160500
295,160600
295,160700
295,160800
295,160900
295,161000
300,161100
295,161200
295,161300
295,161400
295,161500
295,161600
299,161700
295,161800
295,161900
295,162000
295,162100
295,162200
300,162300
296,162400
296,162500
296,162600
296,162700
296,162800
299,162900
295,163000
295,163100
295,163200
295,163300
295,163400
300,163500
296,163600
296,163700
296,163800
296,163900
296,164000
299,164100
295,164200
295,164300
295,164400
295,164500
295,164600
299,164700
295,164800
295,164900
295,165000
295,165100
295,165200
300,165300
295,165400
295,165500
295,165600
295,165700
295,165800
300,165900
296,166000
296,166100
296,166200
296,166300
296,166400
300,166500
296,166600
296,166700
296,166800
296,166900
296,167000
299,167100
296,167200
296,167300
296,167400
296,167500
296,167600
300,167700
295,167800
295,167900
295,168000
295,168100
295,168200
298,168300
296,168400
296,168500
296,168600
296,168700
296,168800
300,168900
296,169000
296,169100
296,169200
296,169300
296,169400
299,169500
296,169600
296,169700
296,169800
296,169900
296,170000
298,170100
296,170200
296,170300
296,170400
296,170500
296,170600
298,170700
296,170800
296,170900
296,171000
296,171100
296,171200
299,171300
297,171400
297,171500
297,171600
297,171700
297,171800
300,171900
297,172000
297,172100
297,172200
297,172300
297,172400
299,172500
297,172600
297,172700
297,172800
297,172900
297,173000
300,173100
297,173200
297,173300
297,173400
297,173500
297,173600
299,173700
296,173800
296,173900
296,174000
296,174100
296,174200
297,174300
297,174400
297,174500
297,174600
297,174700
297,174800
299,174900
297,175000
297,175100
297,175200
297,175300
297,175400
297,175500
297,175600
297,175700
297,175800
297,175900
297,176000
300,176100
297,176200
297,176300
297,176400
297,176500
297,176600
298,176700
298,176800
298,176900
298,177000
298,177100
306,177200
297,177300
297,177400
297,177500
297,177600
297,177700
297,177800
297,177900
297,178000
297,178100
297,178200
297,178300
306,178400
297,178500
297,178600
297,178700
297,178800
297,178900
297,179000
297,179100
297,179200
297,179300
297,179400
297,179500
306,179600
297,179700
297,179800
297,179900
297,180000
297,180100
307,180200
298,180300
298,180400
298,180500
298,180600
298,180700
307,180800
298,180900
298,181000
298,181100
298,181200
298,181300
307,181400
298,181500
298,181600
298,181700
298,181800
298,181900
307,182000
298,182100
298,182200
298,182300
298,182400
298,182500
307,182600
298,182700
298,182800
298,182900
298,183000
298,183100
307,183200
298,183300
298,183400
298,183500
298,183600
298,183700
308,183800
298,183900
298,184000
298,184100
298,184200
298,184300
308,184400
299,184500
299,184600
299,184700
299,184800
299,184900
308,185000
299,185100
299,185200
299,185300
299,185400
299,185500
308,185600
299,185700
299,185800
299,185900
299,186000
299,186100
308,186200
299,186300
299,186400
299,186500
299,186600
299,186700
308,186800
299,186900
299,187000
299,187100
299,187200
299,187300
308,187400
299,187500
299,187600
299,187700
299,187800
299,187900
308,188000
299,188100
299,188200
299,188300
299,188400
299,188500
308,188600
299,188700
299,188800
299,188900
299,189000
299,189100
308,189200
299,189300
299,189400
299,189500
299,189600
299,189700
309,189800
299,189900
299,190000
299,190100
299,190200
299,190300
309,190400
300,190500
300,190600
300,190700
300,190800
300,190900
309,191000
300,191100
300,191200
300,191300
300,191400
300,191500
308,191600
300,191700
300,191800
300,191900
300,192000
300,192100
309,192200
300,192300
300,192400
300,192500
300,192600
300,192700
309,192800
300,192900
300,193000
300,193100
300,193200
300,193300
309,193400
301,193500
301,193600
301,193700
301,193800
301,193900
309,194000
301,194100
301,194200
301,194300
301,194400
301,194500
309,194600
300,194700
300,194800
300,194900
300,195000
300,195100
310,195200
301,195300
301,195400
301,195500
301,195600
301,195700
310,195800
301,195900
301,196000
301,196100
301,196200
301,196300
309,196400
301,196500
301,196600
301,196700
301,196800
301,196900
310,197000
301,197100
301,197200
301,197300
301,197400
301,197500
310,197600
301,197700
301,197800
301,197900
301,198000
301,198100
310,198200
301,198300
301,198400
301,198500
301,198600
301,198700
310,198800
302,198900
302,199000
302,199100
302,199200
302,199300
310,199400
301,199500
301,199600
301,199700
301,199800
301,199900
311,200000
302,200100
302,200200
302,200300
302,200400
302,200500
310,200600
301,200700
301,200800
301,200900
301,201000
301,201100
310,201200
302,201300
302,201400
302,201500
302,201600
302,201700
311,201800
302,201900
302,202000
302,202100
302,202200
302,202300
311,202400
302,202500
302,202600
302,202700
302,202800
302,202900
311,203000
302,203100
302,203200
302,203300
302,203400
302,203500
311,203600
303,203700
303,203800
303,203900
303,204000
303,204100
311,204200
302,204300
302,204400
302,204500
302,204600
302,204700
311,204800
303,204900
303,205000
303,205100
303,205200
303,205300
311,205400
303,205500
303,205600
303,205700
303,205800
303,205900
311,206000
303,206100
303,206200
303,206300
303,206400
303,206500
311,206600
303,206700
303,206800
303,206900
303,207000
303,207100
312,207200
303,207300
303,207400
303,207500
303,207600
303,207700
312,207800
303,207900
303,208000
303,208100
303,208200
303,208300
312,208400
303,208500
303,208600
303,208700
303,208800
303,208900
312,209000
303,209100
303,209200
303,209300
303,209400
303,209500
312,209600
303,209700
303,209800
303,209900
303,210000
303,210100
312,210200
304,210300
304,210400
304,210500
304,210600
304,210700
312,210800
304,210900
304,211000
304,211100
304,211200
304,211300
312,211400
304,211500
304,211600
304,211700
304,211800
304,211900
313,212000
304,212100
304,212200
304,212300
304,212400
304,212500
313,212600
304,212700
304,212800
304,212900
304,213000
304,213100
313,213200
304,213300
304,213400
304,213500
304,213600
304,213700
314,213800
305,213900
305,214000
305,214100
305,214200
305,214300
313,214400
304,214500
304,214600
304,214700
304,214800
304,214900
313,215000
304,215100
304,215200
304,215300
304,215400
304,215500
313,215600
305,215700
305,215800
305,215900
305,216000
305,216100
314,216200
306,216300
306,216400
306,216500
306,216600
306,216700
313,216800
305,216900
305,217000
305,217100
305,217200
305,217300
314,217400
305,217500
305,217600
305,217700
305,217800
305,217900
314,218000
306,218100
306,218200
306,218300
306,218400
306,218500
313,218600
305,218700
305,218800
305,218900
305,219000
305,219100
314,219200
306,219300
306,219400
306,219500
306,219600
306,219700
314,219800
306,219900
306,220000
306,220100
306,220200
306,220300
314,220400
306,220500
306,220600
306,220700
306,220800
306,220900
314,221000
307,221100
307,221200
307,221300
307,221400
307,221500
315,221600
306,221700
306,221800
306,221900
306,222000
306,222100
314,222200
306,222300
306,222400
306,222500
306,222600
306,222700
314,222800
306,222900
306,223000
306,223100
306,223200
306,223300
315,223400
307,223500
307,223600
307,223700
307,223800
307,223900
315,224000
307,224100
307,224200
307,224300
307,224400
307,224500
315,224600
306,224700
306,224800
306,224900
306,225000
306,225100
316,225200
307,225300
307,225400
307,225500
307,225600
307,225700
315,225800
307,225900
307,226000
307,226100
307,226200
307,226300
315,226400
307,226500
307,226600
307,226700
307,226800
307,226900
316,227000
307,227100
307,227200
307,227300
307,227400
307,227500
316,227600
307,227700
307,227800
307,227900
307,228000
307,228100
316,228200
307,228300
307,228400
307,228500
307,228600
307,228700
316,228800
308,228900
308,229000
308,229100
308,229200
308,229300
316,229400
308,229500
308,229600
308,229700
308,229800
308,229900
317,230000
309,230100
309,230200
309,230300
309,230400
309,230500
317,230600
308,230700
308,230800
308,230900
308,231000
308,231100
317,231200
308,231300
308,231400
308,231500
308,231600
308,231700
317,231800
309,231900
309,232000
309,232100
309,232200
309,232300
318,232400
309,232500
309,232600
309,232700
309,232800
309,232900
317,233000
309,233100
309,233200
309,233300
309,233400
309,233500
317,233600
308,233700
308,233800
308,233900
308,234000
308,234100
317,234200
309,234300
309,234400
309,234500
309,234600
309,234700
317,234800
309,234900
309,235000
309,235100
309,235200
309,235300
317,235400
309,235500
309,235600
309,235700
309,235800
309,235900
317,236000
309,236100
309,236200
309,236300
309,236400
309,236500
317,236600
309,236700
309,236800
309,236900
309,237000
309,237100
318,237200
309,237300
309,237400
309,237500
309,237600
309,237700
317,237800
310,237900
310,238000
310,238100
310,238200
310,238300
319,238400
310,238500
310,238600
310,238700
310,238800
310,238900
318,239000
310,239100
310,239200
310,239300
310,239400
310,239500
318,239600
310,239700
310,239800
310,239900
310,240000
310,240100
318,240200
310,240300
310,240400
310,240500
310,240600
310,240700
319,240800
311,240900
311,241000
311,241100
311,241200
311,241300
319,241400
310,241500
310,241600
310,241700
310,241800
310,241900
319,242000
310,242100
310,242200
310,242300
310,242400
310,242500
320,242600
311,242700
311,242800
311,242900
311,243000
311,243100
319,243200
311,243300
311,243400
311,243500
311,243600
311,243700
319,243800
311,243900
311,244000
311,244100
311,244200
311,244300
319,244400
311,244500
311,244600
311,244700
311,244800
311,244900
319,245000
312,245100
312,245200
312,245300
312,245400
312,245500
319,245600
311,245700
311,245800
311,245900
311,246000
311,246100
320,246200
312,246300
312,246400
312,246500
312,246600
312,246700
320,246800
312,246900
312,247000
312,247100
312,247200
312,247300
320,247400
312,247500
312,247600
312,247700
312,247800
312,247900
320,248000
312,248100
312,248200
312,248300
312,248400
312,248500
321,248600
312,248700
312,248800
312,248900
312,249000
312,249100
320,249200
312,249300
312,249400
312,249500
312,249600
312,249700
320,249800
312,249900
312,250000
312,250100
312,250200
312,250300
320,250400
312,250500
312,250600
312,250700
312,250800
312,250900
320,251000
312,251100
312,251200
312,251300
312,251400
312,251500
321,251600
313,251700
313,251800
313,251900
313,252000
313,252100
321,252200
313,252300
313,252400
313,252500
313,252600
313,252700
321,252800
313,252900
313,253000
313,253100
313,253200
313,253300
321,253400
313,253500
313,253600
313,253700
313,253800
313,253900
321,254000
314,254100
314,254200
314,254300
314,254400
314,254500
322,254600
314,254700
314,254800
314,254900
314,255000
314,255100
322,255200
314,255300
314,255400
314,255500
314,255600
314,255700
322,255800
314,255900
314,256000
314,256100
314,256200
314,256300
322,256400
314,256500
314,256600
314,256700
314,256800
314,256900
322,257000
315,257100
315,257200
315,257300
315,257400
315,257500
323,257600
315,257700
315,257800
315,257900
315,258000
315,258100
322,258200
315,258300
315,258400
315,258500
315,258600
315,258700
322,258800
315,258900
315,259000
315,259100
315,259200
315,259300
322,259400
315,259500
315,259600
315,259700
315,259800
315,259900
323,260000
315,260100
315,260200
315,260300
315,260400
315,260500
324,260600
316,260700
316,260800
316,260900
316,261000
316,261100
323,261200
315,261300
315,261400
315,261500
315,261600
315,261700
323,261800
315,261900
315,262000
315,262100
315,262200
315,262300
323,262400
315,262500
315,262600
315,262700
315,262800
315,262900
324,263000
316,263100
316,263200
316,263300
316,263400
316,263500
324,263600
316,263700
316,263800
316,263900
316,264000
316,264100
324,264200
316,264300
316,264400
316,264500
316,264600
316,264700
324,264800
317,264900
317,265000
317,265100
317,265200
317,265300
325,265400
317,265500
317,265600
317,265700
317,265800
317,265900
324,266000
317,266100
317,266200
317,266300
317,266400
317,266500
325,266600
317,266700
317,266800
317,266900
317,267000
317,267100
324,267200
317,267300
317,267400
317,267500
317,267600
317,267700
325,267800
317,267900
317,268000
317,268100
317,268200
317,268300
325,268400
317,268500
317,268600
317,268700
317,268800
317,268900
325,269000
318,269100
318,269200
318,269300
318,269400
318,269500
325,269600
318,269700
318,269800
318,269900
318,270000
318,270100
325,270200
318,270300
318,270400
318,270500
318,270600
318,270700
325,270800
317,270900
317,271000
317,271100
317,271200
317,271300
326,271400
318,271500
318,271600
318,271700
318,271800
318,271900
325,272000
318,272100
318,272200
318,272300
318,272400
318,272500
326,272600
318,272700
318,272800
318,272900
318,273000
318,273100
326,273200
318,273300
318,273400
318,273500
318,273600
318,273700
326,273800
319,273900
319,274000
319,274100
319,274200
319,274300
327,274400
319,274500
319,274600
319,274700
319,274800
319,274900
326,275000
319,275100
319,275200
319,275300
319,275400
319,275500
326,275600
319,275700
319,275800
319,275900
319,276000
319,276100
327,276200
319,276300
319,276400
319,276500
319,276600
319,276700
327,276800
320,276900
320,277000
320,277100
320,277200
320,277300
327,277400
320,277500
320,277600
320,277700
320,277800
320,277900
327,278000
320,278100
320,278200
320,278300
320,278400
320,278500
328,278600
320,278700
320,278800
320,278900
320,279000
320,279100
327,279200
320,279300
320,279400
320,279500
320,279600
320,279700
327,279800
320,279900
320,280000
320,280100
320,280200
320,280300
328,280400
320,280500
320,280600
320,280700
320,280800
320,280900
328,281000
321,281100
321,281200
321,281300
321,281400
321,281500
327,281600
320,281700
320,281800
320,281900
320,282000
320,282100
328,282200
321,282300
321,282400
321,282500
321,282600
321,282700
329,282800
321,282900
321,283000
321,283100
321,283200
321,283300
328,283400
321,283500
321,283600
321,283700
321,283800
321,283900
329,284000
321,284100
321,284200
321,284300
321,284400
321,284500
329,284600
322,284700
322,284800
322,284900
322,285000
322,285100
329,285200
322,285300
322,285400
322,285500
322,285600
322,285700
329,285800
322,285900
322,286000
322,286100
322,286200
322,286300
329,286400
322,286500
322,286600
322,286700
322,286800
322,286900
330,287000
322,287100
322,287200
322,287300
322,287400
322,287500
330,287600
322,287700
322,287800
322,287900
322,288000
322,288100
330,288200
323,288300
323,288400
323,288500
323,288600
323,288700
330,288800
323,288900
323,289000
323,289100
323,289200
323,289300
330,289400
323,289500
323,289600
323,289700
323,289800
323,289900
330,290000
323,290100
323,290200
323,290300
323,290400
323,290500
331,290600
324,290700
324,290800
324,290900
324,291000
324,291100
331,291200
324,291300
324,291400
324,291500
324,291600
324,291700
332,291800
324,291900
324,292000
324,292100
324,292200
324,292300
331,292400
324,292500
324,292600
324,292700
324,292800
324,292900
331,293000
324,293100
324,293200
324,293300
324,293400
324,293500
331,293600
324,293700
324,293800
324,293900
324,294000
324,294100
331,294200
325,294300
325,294400
325,294500
325,294600
325,294700
332,294800
325,294900
325,295000
325,295100
325,295200
325,295300
332,295400
324,295500
324,295600
324,295700
324,295800
324,295900
332,296000
325,296100
325,296200
325,296300
325,296400
325,296500
332,296600
325,296700
325,296800
325,296900
325,297000
325,297100
332,297200
325,297300
325,297400
325,297500
325,297600
325,297700
332,297800
325,297900
325,298000
325,298100
325,298200
325,298300
332,298400
325,298500
325,298600
325,298700
325,298800
325,298900
333,299000
325,299100
325,299200
325,299300
325,299400
325,299500
333,299600
326,299700
326,299800
326,299900
326,300000
326,300100
334,300200
326,300300
326,300400
326,300500
326,300600
326,300700
333,300800
326,300900
326,301000
326,301100
326,301200
326,301300
333,301400
326,301500
326,301600
326,301700
326,301800
326,301900
334,302000
327,302100
327,302200
327,302300
327,302400
327,302500
334,302600
327,302700
327,302800
327,302900
327,303000
327,303100
334,303200
327,303300
327,303400
327,303500
327,303600
327,303700
334,303800
327,303900
327,304000
327,304100
327,304200
327,304300
334,304400
327,304500
327,304600
327,304700
327,304800
327,304900
334,305000
327,305100
327,305200
327,305300
327,305400
327,305500
334,305600
327,305700
327,305800
327,305900
327,306000
327,306100
335,306200
327,306300
327,306400
327,306500
327,306600
327,306700
334,306800
327,306900
327,307000
327,307100
327,307200
327,307300
335,307400
328,307500
328,307600
328,307700
328,307800
328,307900
335,308000
328,308100
328,308200
328,308300
328,308400
328,308500
335,308600
328,308700
328,308800
328,308900
328,309000
328,309100
335,309200
328,309300
328,309400
328,309500
328,309600
328,309700
335,309800
328,309900
328,310000
328,310100
328,310200
328,310300
336,310400
329,310500
329,310600
329,310700
329,310800
329,310900
335,311000
328,311100
328,311200
328,311300
328,311400
328,311500
336,311600
329,311700
329,311800
329,311900
329,312000
329,312100
336,312200
329,312300
329,312400
329,312500
329,312600
329,312700
336,312800
329,312900
329,313000
329,313100
329,313200
329,313300
336,313400
329,313500
329,313600
329,313700
329,313800
329,313900
336,314000
329,314100
329,314200
329,314300
329,314400
329,314500
336,314600
330,314700
330,314800
330,314900
330,315000
330,315100
337,315200
330,315300
330,315400
330,315500
330,315600
330,315700
337,315800
330,315900
330,316000
330,316100
330,316200
330,316300
337,316400
331,316500
331,316600
331,316700
331,316800
331,316900
337,317000
331,317100
331,317200
331,317300
331,317400
331,317500
337,317600
331,317700
331,317800
331,317900
331,318000
331,318100
338,318200
331,318300
331,318400
331,318500
331,318600
331,318700
338,318800
331,318900
331,319000
331,319100
331,319200
331,319300
338,319400
331,319500
331,319600
331,319700
331,319800
331,319900
338,320000
332,320100
332,320200
332,320300
332,320400
332,320500
338,320600
332,320700
332,320800
332,320900
332,321000
332,321100
339,321200
332,321300
332,321400
332,321500
332,321600
332,321700
339,321800
332,321900
332,322000
332,322100
332,322200
332,322300
339,322400
332,322500
332,322600
332,322700
332,322800
332,322900
340,323000
333,323100
333,323200
333,323300
333,323400
333,323500
339,323600
333,323700
333,323800
333,323900
333,324000
333,324100
340,324200
333,324300
333,324400
333,324500
333,324600
333,324700
339,324800
333,324900
333,325000
333,325100
333,325200
333,325300
340,325400
333,325500
333,325600
333,325700
333,325800
333,325900
340,326000
333,326100
333,326200
333,326300
333,326400
333,326500
341,326600
334,326700
334,326800
334,326900
334,327000
334,327100
340,327200
334,327300
334,327400
334,327500
334,327600
334,327700
341,327800
334,327900
334,328000
334,328100
334,328200
334,328300
340,328400
334,328500
334,328600
334,328700
334,328800
334,328900
341,329000
334,329100
334,329200
334,329300
334,329400
334,329500
341,329600
335,329700
335,329800
335,329900
335,330000
335,330100
341,330200
335,330300
335,330400
335,330500
335,330600
335,330700
342,330800
336,330900
336,331000
336,331100
336,331200
336,331300
342,331400
335,331500
335,331600
335,331700
335,331800
335,331900
342,332000
336,332100
336,332200
336,332300
336,332400
336,332500
342,332600
336,332700
336,332800
336,332900
336,333000
336,333100
342,333200
336,333300
336,333400
336,333500
336,333600
336,333700
342,333800
336,333900
336,334000
336,334100
336,334200
336,334300
343,334400
336,334500
336,334600
336,334700
336,334800
336,334900
343,335000
336,335100
336,335200
336,335300
336,335400
336,335500
343,335600
337,335700
337,335800
337,335900
337,336000
337,336100
343,336200
337,336300
337,336400
337,336500
337,336600
337,336700
343,336800
337,336900
337,337000
337,337100
337,337200
337,337300
344,337400
337,337500
337,337600
337,337700
337,337800
337,337900
343,338000
337,338100
337,338200
337,338300
337,338400
337,338500
343,338600
338,338700
338,338800
338,338900
338,339000
338,339100
343,339200
338,339300
338,339400
338,339500
338,339600
338,339700
344,339800
338,339900
338,340000
338,340100
338,340200
338,340300
344,340400
338,340500
338,340600
338,340700
338,340800
338,340900
344,341000
338,341100
338,341200
338,341300
338,341400
338,341500
345,341600
338,341700
338,341800
338,341900
338,342000
338,342100
344,342200
339,342300
339,342400
339,342500
339,342600
339,342700
344,342800
339,342900
339,343000
339,343100
339,343200
339,343300
345,343400
340,343500
340,343600
340,343700
340,343800
340,343900
345,344000
339,344100
339,344200
339,344300
339,344400
339,344500
343,344600
339,344700
339,344800
339,344900
339,345000
339,345100
345,345200
340,345300
340,345400
340,345500
340,345600
340,345700
344,345800
340,345900
340,346000
340,346100
340,346200
340,346300
343,346400
340,346500
340,346600
340,346700
340,346800
340,346900
344,347000
340,347100
340,347200
340,347300
340,347400
340,347500
344,347600
340,347700
340,347800
340,347900
340,348000
340,348100
344,348200
340,348300
340,348400
340,348500
340,348600
340,348700
345,348800
341,348900
341,349000
341,349100
341,349200
341,349300
343,349400
341,349500
341,349600
341,349700
341,349800
341,349900
344,350000
340,350100
340,350200
340,350300
340,350400
340,350500
344,350600
341,350700
341,350800
341,350900
341,351000
341,351100
344,351200
342,351300
342,351400
342,351500
342,351600
342,351700
344,351800
341,351900
341,352000
341,352100
341,352200
341,352300
345,352400
342,352500
342,352600
342,352700
342,352800
342,352900
344,353000
342,353100
342,353200
342,353300
342,353400
342,353500
344,353600
341,353700
341,353800
341,353900
341,354000
341,354100
345,354200
342,354300
342,354400
342,354500
342,354600
342,354700
345,354800
342,354900
342,355000
342,355100
342,355200
342,355300
345,355400
343,355500
343,355600
343,355700
343,355800
343,355900
345,356000
342,356100
342,356200
342,356300
342,356400
342,356500
344,356600
342,356700
342,356800
342,356900
342,357000
342,357100
345,357200
343,357300
343,357400
343,357500
343,357600
343,357700
344,357800
343,357900
343,358000
343,358100
343,358200
343,358300
346,358400
344,358500
344,358600
344,358700
344,358800
344,358900
344,359000
343,359100
343,359200
343,359300
343,359400
343,359500
345,359600
344,359700
344,359800
344,359900
344,360000
344,360100
345,360200
344,360300
344,360400
344,360500
344,360600
344,360700
345,360800
344,360900
344,361000
344,361100
344,361200
344,361300
345,361400
343,361500
343,361600
343,361700
343,361800
343,361900
345,362000
344,362100
344,362200
344,362300
344,362400
344,362500
347,362600
344,362700
344,362800
344,362900
344,363000
344,363100
345,363200
344,363300
344,363400
344,363500
344,363600
344,363700
346,363800
345,363900
345,364000
345,364100
345,364200
345,364300
346,364400
345,364500
345,364600
345,364700
345,364800
345,364900
347,365000
345,365100
345,365200
345,365300
345,365400
345,365500
347,365600
346,365700
346,365800
346,365900
346,366000
346,366100
345,366200
345,366300
345,366400
345,366500
345,366600
345,366700
348,366800
346,366900
346,367000
346,367100
346,367200
346,367300
347,367400
347,367500
347,367600
347,367700
347,367800
347,367900
348,368000
347,368100
347,368200
347,368300
347,368400
347,368500
347,368600
347,368700
347,368800
347,368900
347,369000
353,369100
348,369200
346,369300
346,369400
346,369500
346,369600
346,369700
347,369800
347,369900
347,370000
347,370100
347,370200
353,370300
347,370400
347,370500
347,370600
347,370700
347,370800
347,370900
347,371000
347,371100
347,371200
347,371300
347,371400
354,371500
347,371600
347,371700
347,371800
347,371900
347,372000
353,372100
347,372200
347,372300
347,372400
347,372500
347,372600
355,372700
348,372800
348,372900
348,373000
348,373100
348,373200
354,373300
347,373400
347,373500
347,373600
347,373700
347,373800
354,373900
348,374000
348,374100
348,374200
348,374300
348,374400
354,374500
348,374600
348,374700
348,374800
348,374900
348,375000
354,375100
348,375200
348,375300
348,375400
348,375500
348,375600
355,375700
349,375800
349,375900
349,376000
349,376100
349,376200
355,376300
348,376400
348,376500
348,376600
348,376700
348,376800
355,376900
349,377000
349,377100
349,377200
349,377300
349,377400
356,377500
349,377600
349,377700
349,377800
349,377900
349,378000
355,378100
349,378200
349,378300
349,378400
349,378500
349,378600
356,378700
349,378800
349,378900
349,379000
349,379100
349,379200
355,379300
348,379400
348,379500
348,379600
348,379700
348,379800
355,379900
349,380000
349,380100
349,380200
349,380300
349,380400
356,380500
349,380600
349,380700
349,380800
349,380900
349,381000
356,381100
350,381200
350,381300
350,381400
350,381500
350,381600
356,381700
349,381800
349,381900
349,382000
349,382100
349,382200
356,382300
350,382400
350,382500
350,382600
350,382700
350,382800
357,382900
351,383000
351,383100
351,383200
351,383300
351,383400
356,383500
350,383600
350,383700
350,383800
350,383900
350,384000
357,384100
351,384200
351,384300
351,384400
351,384500
351,384600
357,384700
350,384800
350,384900
350,385000
350,385100
350,385200
358,385300
351,385400
351,385500
351,385600
351,385700
351,385800
357,385900
351,386000
351,386100
351,386200
351,386300
351,386400
358,386500
351,386600
351,386700
351,386800
351,386900
351,387000
357,387100
351,387200
351,387300
351,387400
351,387500
351,387600
358,387700
351,387800
351,387900
351,388000
351,388100
351,388200
358,388300
351,388400
351,388500
351,388600
351,388700
351,388800
357,388900
351,389000
351,389100
351,389200
351,389300
351,389400
357,389500
351,389600
351,389700
351,389800
351,389900
351,390000
358,390100
351,390200
351,390300
351,390400
351,390500
351,390600
358,390700
352,390800
352,390900
352,391000
352,391100
352,391200
358,391300
352,391400
352,391500
352,391600
352,391700
352,391800
359,391900
353,392000
353,392100
353,392200
353,392300
353,392400
359,392500
352,392600
352,392700
352,392800
352,392900
352,393000
359,393100
353,393200
353,393300
353,393400
353,393500
353,393600
360,393700
353,393800
353,393900
353,394000
353,394100
353,394200
361,394300
354,394400
354,394500
354,394600
354,394700
354,394800
361,394900
354,395000
354,395100
354,395200
354,395300
354,395400
360,395500
354,395600
354,395700
354,395800
354,395900
354,396000
360,396100
353,396200
353,396300
353,396400
353,396500
353,396600
360,396700
354,396800
354,396900
354,397000
354,397100
354,397200
360,397300
353,397400
353,397500
353,397600
353,397700
353,397800
360,397900
354,398000
354,398100
354,398200
354,398300
354,398400
360,398500
354,398600
354,398700
354,398800
354,398900
354,399000
361,399100
354,399200
354,399300
354,399400
354,399500
354,399600
361,399700
355,399800
355,399900
355,400000
355,400100
355,400200
361,400300
355,400400
355,400500
355,400600
355,400700
355,400800
362,400900
355,401000
355,401100
355,401200
355,401300
355,401400
362,401500
355,401600
355,401700
355,401800
355,401900
355,402000
362,402100
356,402200
356,402300
356,402400
356,402500
356,402600
362,402700
355,402800
355,402900
355,403000
355,403100
355,403200
362,403300
356,403400
356,403500
356,403600
356,403700
356,403800
363,403900
356,404000
356,404100
356,404200
356,404300
356,404400
362,404500
356,404600
356,404700
356,404800
356,404900
356,405000
363,405100
356,405200
356,405300
356,405400
356,405500
356,405600
363,405700
357,405800
357,405900
357,406000
357,406100
357,406200
363,406300
356,406400
356,406500
356,406600
356,406700
356,406800
362,406900
356,407000
356,407100
356,407200
356,407300
356,407400
364,407500
357,407600
357,407700
357,407800
357,407900
357,408000
363,408100
357,408200
357,408300
357,408400
357,408500
357,408600
364,408700
357,408800
357,408900
357,409000
357,409100
357,409200
363,409300
357,409400
357,409500
357,409600
357,409700
357,409800
362,409900
356,410000
356,410100
356,410200
356,410300
356,410400
363,410500
357,410600
357,410700
357,410800
357,410900
357,411000
363,411100
357,411200
357,411300
357,411400
357,411500
357,411600
363,411700
357,411800
357,411900
357,412000
357,412100
357,412200
363,412300
357,412400
357,412500
357,412600
357,412700
357,412800
363,412900
357,413000
357,413100
357,413200
357,413300
357,413400
364,413500
357,413600
357,413700
357,413800
357,413900
357,414000
364,414100
358,414200
358,414300
358,414400
358,414500
358,414600
364,414700
357,414800
357,414900
357,415000
357,415100
357,415200
364,415300
358,415400
358,415500
358,415600
358,415700
358,415800
364,415900
358,416000
358,416100
358,416200
358,416300
358,416400
365,416500
358,416600
358,416700
358,416800
358,416900
358,417000
364,417100
358,417200
358,417300
358,417400
358,417500
358,417600
364,417700
358,417800
358,417900
358,418000
358,418100
358,418200
364,418300
358,418400
358,418500
358,418600
358,418700
358,418800
365,418900
359,419000
359,419100
359,419200
359,419300
359,419400
365,419500
359,419600
359,419700
359,419800
359,419900
359,420000
365,420100
359,420200
359,420300
359,420400
359,420500
359,420600
365,420700
358,420800
358,420900
358,421000
358,421100
358,421200
365,421300
359,421400
359,421500
359,421600
359,421700
359,421800
365,421900
359,422000
359,422100
359,422200
359,422300
359,422400
365,422500
358,422600
358,422700
358,422800
358,422900
358,423000
365,423100
359,423200
359,423300
359,423400
359,423500
359,423600
365,423700
359,423800
359,423900
359,424000
359,424100
359,424200
366,424300
359,424400
359,424500
359,424600
359,424700
359,424800
367,424900
360,425000
360,425100
360,425200
360,425300
360,425400
366,425500
360,425600
360,425700
360,425800
360,425900
360,426000
366,426100
360,426200
360,426300
360,426400
360,426500
360,426600
366,426700
360,426800
360,426900
360,427000
360,427100
360,427200
367,427300
360,427400
360,427500
360,427600
360,427700
360,427800
366,427900
360,428000
360,428100
360,428200
360,428300
360,428400
367,428500
361,428600
361,428700
361,428800
361,428900
361,429000
368,429100
361,429200
361,429300
361,429400
361,429500
361,429600
368,429700
361,429800
361,429900
361,430000
361,430100
361,430200
367,430300
361,430400
361,430500
361,430600
361,430700
361,430800
367,430900
361,431000
361,431100
361,431200
361,431300
361,431400
367,431500
361,431600
361,431700
361,431800
361,431900
361,432000
368,432100
361,432200
361,432300
361,432400
361,432500
361,432600
368,432700
362,432800
362,432900
362,433000
362,433100
362,433200
368,433300
362,433400
362,433500
362,433600
362,433700
362,433800
368,433900
362,434000
362,434100
362,434200
362,434300
362,434400
368,434500
362,434600
362,434700
362,434800
362,434900
362,435000
368,435100
362,435200
362,435300
362,435400
362,435500
362,435600
369,435700
362,435800
362,435900
362,436000
362,436100
362,436200
368,436300
362,436400
362,436500
362,436600
362,436700
362,436800
369,436900
363,437000
363,437100
363,437200
363,437300
363,437400
369,437500
363,437600
363,437700
363,437800
363,437900
363,438000
369,438100
363,438200
363,438300
363,438400
363,438500
363,438600
369,438700
363,438800
363,438900
363,439000
363,439100
363,439200
369,439300
363,439400
363,439500
363,439600
363,439700
363,439800
369,439900
364,440000
364,440100
364,440200
364,440300
364,440400
369,440500
363,440600
363,440700
363,440800
363,440900
363,441000
370,441100
364,441200
364,441300
364,441400
364,441500
364,441600
369,441700
364,441800
364,441900
364,442000
364,442100
364,442200
370,442300
364,442400
364,442500
364,442600
364,442700
364,442800
370,442900
364,443000
364,443100
364,443200
364,443300
364,443400
370,443500
364,443600
364,443700
364,443800
364,443900
364,444000
371,444100
365,444200
365,444300
365,444400
365,444500
365,444600
370,444700
365,444800
365,444900
365,445000
365,445100
365,445200
370,445300
365,445400
365,445500
365,445600
365,445700
365,445800
371,445900
365,446000
365,446100
365,446200
365,446300
365,446400
371,446500
365,446600
365,446700
365,446800
365,446900
365,447000
371,447100
365,447200
365,447300
365,447400
365,447500
365,447600
371,447700
364,447800
364,447900
364,448000
364,448100
364,448200
370,448300
365,448400
365,448500
365,448600
365,448700
365,448800
371,448900
365,449000
365,449100
365,449200
365,449300
365,449400
371,449500
365,449600
365,449700
365,449800
365,449900
365,450000
371,450100
365,450200
365,450300
365,450400
365,450500
365,450600
372,450700
366,450800
366,450900
366,451000
366,451100
366,451200
371,451300
365,451400
365,451500
365,451600
365,451700
365,451800
371,451900
366,452000
366,452100
366,452200
366,452300
366,452400
371,452500
365,452600
365,452700
365,452800
365,452900
365,453000
372,453100
366,453200
366,453300
366,453400
366,453500
366,453600
371,453700
365,453800
365,453900
365,454000
365,454100
365,454200
371,454300
365,454400
365,454500
365,454600
365,454700
365,454800
372,454900
366,455000
366,455100
366,455200
366,455300
366,455400
372,455500
366,455600
366,455700
366,455800
366,455900
366,456000
372,456100
366,456200
366,456300
366,456400
366,456500
366,456600
372,456700
366,456800
366,456900
366,457000
366,457100
366,457200
372,457300
366,457400
366,457500
366,457600
366,457700
366,457800
372,457900
366,458000
366,458100
366,458200
366,458300
366,458400
372,458500
366,458600
366,458700
366,458800
366,458900
366,459000
372,459100
367,459200
367,459300
367,459400
367,459500
367,459600
373,459700
367,459800
367,459900
367,460000
367,460100
367,460200
372,460300
367,460400
367,460500
367,460600
367,460700
367,460800
373,460900
367,461000
367,461100
367,461200
367,461300
367,461400
373,461500
367,461600
367,461700
367,461800
367,461900
367,462000
373,462100
367,462200
367,462300
367,462400
367,462500
367,462600
373,462700
367,462800
367,462900
367,463000
367,463100
367,463200
373,463300
368,463400
368,463500
368,463600
368,463700
368,463800
374,463900
368,464000
368,464100
368,464200
368,464300
368,464400
374,464500
368,464600
368,464700
368,464800
368,464900
368,465000
373,465100
367,465200
367,465300
367,465400
367,465500
367,465600
373,465700
368,465800
368,465900
368,466000
368,466100
368,466200
374,466300
368,466400
368,466500
368,466600
368,466700
368,466800
372,466900
368,467000
368,467100
368,467200
368,467300
368,467400
374,467500
369,467600
369,467700
369,467800
369,467900
369,468000
373,468100
368,468200
368,468300
368,468400
368,468500
368,468600
373,468700
368,468800
368,468900
368,469000
368,469100
368,469200
373,469300
369,469400
369,469500
369,469600
369,469700
369,469800
372,469900
369,470000
369,470100
369,470200
369,470300
369,470400
372,470500
369,470600
369,470700
369,470800
369,470900
369,471000
373,471100
370,471200
370,471300
370,471400
370,471500
370,471600
372,471700
369,471800
369,471900
369,472000
369,472100
369,472200
372,472300
369,472400
369,472500
369,472600
369,472700
369,472800
372,472900
369,473000
369,473100
369,473200
369,473300
369,473400
373,473500
369,473600
369,473700
369,473800
369,473900
369,474000
372,474100
370,474200
370,474300
370,474400
370,474500
370,474600
372,474700
370,474800
370,474900
370,475000
370,475100
370,475200
373,475300
370,475400
370,475500
370,475600
370,475700
370,475800
372,475900
370,476000
370,476100
370,476200
370,476300
370,476400
373,476500
370,476600
370,476700
370,476800
370,476900
370,477000
373,477100
371,477200
371,477300
371,477400
371,477500
371,477600
372,477700
370,477800
370,477900
370,478000
370,478100
370,478200
372,478300
370,478400
370,478500
370,478600
370,478700
370,478800
372,478900
371,479000
371,479100
371,479200
371,479300
371,479400
372,479500
370,479600
370,479700
370,479800
370,479900
370,480000
371,480100
370,480200
370,480300
370,480400
370,480500
370,480600
371,480700
370,480800
370,480900
370,481000
370,481100
370,481200
372,481300
371,481400
371,481500
371,481600
371,481700
377,481800
372,481900
371,482000
371,482100
371,482200
371,482300
371,482400
372,482500
370,482600
370,482700
370,482800
370,482900
377,483000
371,483100
371,483200
371,483300
371,483400
371,483500
377,483600
371,483700
371,483800
371,483900
371,484000
371,484100
377,484200
371,484300
371,484400
371,484500
371,484600
371,484700
378,484800
371,484900
371,485000
371,485100
371,485200
371,485300
378,485400
371,485500
371,485600
371,485700
371,485800
371,485900
377,486000
371,486100
371,486200
371,486300
371,486400
371,486500
378,486600
372,486700
372,486800
372,486900
372,487000
372,487100
378,487200
371,487300
371,487400
371,487500
371,487600
371,487700
378,487800
372,487900
372,488000
372,488100
372,488200
372,488300
378,488400
372,488500
372,488600
372,488700
372,488800
372,488900
378,489000
371,489100
371,489200
371,489300
371,489400
371,489500
378,489600
372,489700
372,489800
372,489900
372,490000
372,490100
379,490200
373,490300
373,490400
373,490500
373,490600
373,490700
378,490800
372,490900
372,491000
372,491100
372,491200
372,491300
378,491400
372,491500
372,491600
372,491700
372,491800
372,491900
379,492000
372,492100
372,492200
372,492300
372,492400
372,492500
379,492600
372,492700
372,492800
372,492900
372,493000
372,493100
380,493200
373,493300
373,493400
373,493500
373,493600
373,493700
379,493800
372,493900
372,494000
372,494100
372,494200
372,494300
379,494400
372,494500
372,494600
372,494700
372,494800
372,494900
379,495000
372,495100
372,495200
372,495300
372,495400
372,495500
379,495600
373,495700
373,495800
373,495900
373,496000
373,496100
379,496200
372,496300
372,496400
372,496500
372,496600
372,496700
379,496800
373,496900
373,497000
373,497100
373,497200
373,497300
380,497400
373,497500
373,497600
373,497700
373,497800
373,497900
380,498000
373,498100
373,498200
373,498300
373,498400
373,498500
380,498600
373,498700
373,498800
373,498900
373,499000
373,499100
380,499200
373,499300
373,499400
373,499500
373,499600
373,499700
380,499800
373,499900
373,500000
373,500100
373,500200
373,500300
380,500400
373,500500
373,500600
373,500700
373,500800
373,500900
379,501000
373,501100
373,501200
373,501300
373,501400
373,501500
380,501600
373,501700
373,501800
373,501900
373,502000
373,502100
380,502200
374,502300
374,502400
374,502500
374,502600
374,502700
380,502800
374,502900
374,503000
374,503100
374,503200
374,503300
381,503400
374,503500
374,503600
374,503700
374,503800
374,503900
381,504000
375,504100
375,504200
375,504300
375,504400
375,504500
381,504600
374,504700
374,504800
374,504900
374,505000
374,505100
381,505200
374,505300
374,505400
374,505500
374,505600
374,505700
381,505800
374,505900
374,506000
374,506100
374,506200
374,506300
381,506400
374,506500
374,506600
374,506700
374,506800
374,506900
380,507000
373,507100
373,507200
373,507300
373,507400
373,507500
381,507600
375,507700
375,507800
375,507900
375,508000
375,508100
381,508200
374,508300
374,508400
374,508500
374,508600
374,508700
381,508800
375,508900
375,509000
375,509100
375,509200
375,509300
382,509400
375,509500
375,509600
375,509700
375,509800
375,509900
382,510000
376,510100
376,510200
376,510300
376,510400
376,510500
381,510600
375,510700
375,510800
375,510900
375,511000
375,511100
382,511200
376,511300
376,511400
376,511500
376,511600
376,511700
382,511800
376,511900
376,512000
376,512100
376,512200
376,512300
382,512400
376,512500
376,512600
376,512700
376,512800
376,512900
382,513000
375,513100
375,513200
375,513300
375,513400
375,513500
383,513600
376,513700
376,513800
376,513900
376,514000
376,514100
382,514200
376,514300
376,514400
376,514500
376,514600
376,514700
382,514800
375,514900
375,515000
375,515100
375,515200
375,515300
383,515400
376,515500
376,515600
376,515700
376,515800
376,515900
382,516000
376,516100
376,516200
376,516300
376,516400
376,516500
382,516600
376,516700
376,516800
376,516900
376,517000
376,517100
383,517200
376,517300
376,517400
376,517500
376,517600
376,517700
383,517800
376,517900
376,518000
376,518100
376,518200
376,518300
383,518400
377,518500
377,518600
377,518700
377,518800
377,518900
382,519000
376,519100
376,519200
376,519300
376,519400
376,519500
383,519600
376,519700
376,519800
376,519900
376,520000
376,520100
383,520200
377,520300
377,520400
377,520500
377,520600
377,520700
383,520800
377,520900
377,521000
377,521100
377,521200
377,521300
384,521400
377,521500
377,521600
377,521700
377,521800
377,521900
383,522000
377,522100
377,522200
377,522300
377,522400
377,522500
383,522600
377,522700
377,522800
377,522900
377,523000
377,523100
384,523200
377,523300
377,523400
377,523500
377,523600
377,523700
384,523800
378,523900
378,524000
378,524100
378,524200
378,524300
384,524400
378,524500
378,524600
378,524700
378,524800
378,524900
384,525000
378,525100
378,525200
378,525300
378,525400
378,525500
384,525600
378,525700
378,525800
378,525900
378,526000
378,526100
384,526200
378,526300
378,526400
378,526500
378,526600
378,526700
384,526800
378,526900
378,527000
378,527100
378,527200
378,527300
385,527400
378,527500
378,527600
378,527700
378,527800
378,527900
384,528000
378,528100
378,528200
378,528300
378,528400
378,528500
384,528600
378,528700
378,528800
378,528900
378,529000
378,529100
384,529200
378,529300
378,529400
378,529500
378,529600
378,529700
384,529800
378,529900
378,530000
378,530100
378,530200
378,530300
385,530400
379,530500
379,530600
379,530700
379,530800
379,530900
385,531000
378,531100
378,531200
378,531300
378,531400
378,531500
385,531600
379,531700
379,531800
379,531900
379,532000
379,532100
385,532200
379,532300
379,532400
379,532500
379,532600
379,532700
385,532800
379,532900
379,533000
379,533100
379,533200
379,533300
384,533400
379,533500
379,533600
379,533700
379,533800
379,533900
385,534000
379,534100
379,534200
379,534300
379,534400
379,534500
385,534600
379,534700
379,534800
379,534900
379,535000
379,535100
385,535200
378,535300
378,535400
378,535500
378,535600
378,535700
385,535800
379,535900
379,536000
379,536100
379,536200
379,536300
385,536400
379,536500
379,536600
379,536700
379,536800
379,536900
385,537000
379,537100
379,537200
379,537300
379,537400
379,537500
385,537600
379,537700
379,537800
379,537900
379,538000
379,538100
385,538200
379,538300
379,538400
379,538500
379,538600
379,538700
385,538800
379,538900
379,539000
379,539100
379,539200
379,539300
385,539400
379,539500
379,539600
379,539700
379,539800
379,539900
385,540000
380,540100
380,540200
380,540300
380,540400
380,540500
385,540600
379,540700
379,540800
379,540900
379,541000
379,541100
386,541200
380,541300
380,541400
380,541500
380,541600
380,541700
385,541800
379,541900
379,542000
379,542100
379,542200
379,542300
386,542400
380,542500
380,542600
380,542700
380,542800
380,542900
386,543000
380,543100
380,543200
380,543300
380,543400
380,543500
386,543600
380,543700
380,543800
380,543900
380,544000
380,544100
384,544200
379,544300
379,544400
379,544500
379,544600
379,544700
386,544800
380,544900
380,545000
380,545100
380,545200
380,545300
384,545400
380,545500
380,545600
380,545700
380,545800
380,545900
385,546000
380,546100
380,546200
380,546300
380,546400
380,546500
385,546600
381,546700
381,546800
381,546900
381,547000
381,547100
384,547200
380,547300
380,547400
380,547500
380,547600
380,547700
384,547800
380,547900
380,548000
380,548100
380,548200
380,548300
385,548400
381,548500
381,548600
381,548700
381,548800
381,548900
384,549000
380,549100
380,549200
380,549300
380,549400
380,549500
384,549600
381,549700
381,549800
381,549900
381,550000
381,550100
384,550200
380,550300
380,550400
380,550500
380,550600
380,550700
384,550800
381,550900
381,551000
381,551100
381,551200
381,551300
384,551400
381,551500
381,551600
381,551700
381,551800
381,551900
384,552000
381,552100
381,552200
381,552300
381,552400
381,552500
383,552600
381,552700
381,552800
381,552900
381,553000
381,553100
384,553200
381,553300
381,553400
381,553500
381,553600
381,553700
384,553800
381,553900
381,554000
381,554100
381,554200
381,554300
383,554400
380,554500
380,554600
380,554700
380,554800
380,554900
384,555000
382,555100
382,555200
382,555300
382,555400
382,555500
384,555600
382,555700
382,555800
382,555900
382,556000
382,556100
384,556200
381,556300
381,556400
381,556500
381,556600
381,556700
383,556800
382,556900
382,557000
382,557100
382,557200
382,557300
385,557400
382,557500
382,557600
382,557700
382,557800
382,557900
383,558000
382,558100
382,558200
382,558300
382,558400
382,558500
383,558600
382,558700
382,558800
382,558900
382,559000
382,559100
383,559200
382,559300
382,559400
382,559500
382,559600
389,559700
382,559800
382,559900
382,560000
382,560100
382,560200
382,560300
382,560400
382,560500
382,560600
382,560700
382,560800
382,560900
383,561000
382,561100
382,561200
382,561300
382,561400
382,561500
383,561600
383,561700
383,561800
383,561900
383,562000
388,562100
382,562200
382,562300
382,562400
382,562500
382,562600
388,562700
382,562800
382,562900
382,563000
382,563100
382,563200
389,563300
383,563400
383,563500
383,563600
383,563700
383,563800
388,563900
382,564000
382,564100
382,564200
382,564300
382,564400
389,564500
383,564600
383,564700
383,564800
383,564900
383,565000
388,565100
382,565200
382,565300
382,565400
382,565500
382,565600
390,565700
383,565800
383,565900
383,566000
383,566100
383,566200
389,566300
382,566400
382,566500
382,566600
382,566700
382,566800
389,566900
383,567000
383,567100
383,567200
383,567300
383,567400
389,567500
383,567600
383,567700
383,567800
383,567900
383,568000
390,568100
383,568200
383,568300
383,568400
383,568500
383,568600
390,568700
383,568800
383,568900
383,569000
383,569100
383,569200
390,569300
383,569400
383,569500
383,569600
383,569700
383,569800
389,569900
383,570000
383,570100
383,570200
383,570300
383,570400
389,570500
383,570600
383,570700
383,570800
383,570900
383,571000
390,571100
383,571200
383,571300
383,571400
383,571500
383,571600
390,571700
384,571800
384,571900
384,572000
384,572100
384,572200
390,572300
384,572400
384,572500
384,572600
384,572700
384,572800
390,572900
384,573000
384,573100
384,573200
384,573300
384,573400
390,573500
383,573600
383,573700
383,573800
383,573900
383,574000
391,574100
383,574200
383,574300
383,574400
383,574500
383,574600
390,574700
384,574800
384,574900
384,575000
384,575100
384,575200
391,575300
384,575400
384,575500
384,575600
384,575700
384,575800
391,575900
384,576000
384,576100
384,576200
384,576300
384,576400
391,576500
384,576600
384,576700
384,576800
384,576900
384,577000
391,577100
385,577200
385,577300
385,577400
385,577500
385,577600
391,577700
384,577800
384,577900
384,578000
384,578100
384,578200
391,578300
384,578400
384,578500
384,578600
384,578700
384,578800
391,578900
385,579000
385,579100
385,579200
385,579300
385,579400
391,579500
385,579600
385,579700
385,579800
385,579900
385,580000
391,580100
385,580200
385,580300
385,580400
385,580500
385,580600
391,580700
384,580800
384,580900
384,581000
384,581100
384,581200
391,581300
384,581400
384,581500
384,581600
384,581700
384,581800
391,581900
384,582000
384,582100
384,582200
384,582300
384,582400
391,582500
385,582600
385,582700
385,582800
385,582900
385,583000
392,583100
385,583200
385,583300
385,583400
385,583500
385,583600
392,583700
386,583800
386,583900
386,584000
386,584100
386,584200
391,584300
385,584400
385,584500
385,584600
385,584700
385,584800
392,584900
385,585000
385,585100
385,585200
385,585300
385,585400
391,585500
385,585600
385,585700
385,585800
385,585900
385,586000
392,586100
386,586200
386,586300
386,586400
386,586500
386,586600
392,586700
385,586800
385,586900
385,587000
385,587100
385,587200
393,587300
386,587400
386,587500
386,587600
386,587700
386,587800
392,587900
386,588000
386,588100
386,588200
386,588300
386,588400
392,588500
386,588600
386,588700
386,588800
386,588900
386,589000
392,589100
386,589200
386,589300
386,589400
386,589500
386,589600
392,589700
386,589800
386,589900
386,590000
386,590100
386,590200
392,590300
386,590400
386,590500
386,590600
386,590700
386,590800
393,590900
386,591000
386,591100
386,591200
386,591300
386,591400
392,591500
386,591600
386,591700
386,591800
386,591900
386,592000
392,592100
386,592200
386,592300
386,592400
386,592500
386,592600
392,592700
386,592800
386,592900
386,593000
386,593100
386,593200
392,593300
385,593400
385,593500
385,593600
385,593700
385,593800
392,593900
386,594000
386,594100
386,594200
386,594300
386,594400
394,594500
387,594600
387,594700
387,594800
387,594900
387,595000
394,595100
387,595200
387,595300
387,595400
387,595500
387,595600
394,595700
387,595800
387,595900
387,596000
387,596100
387,596200
393,596300
386,596400
386,596500
386,596600
386,596700
386,596800
393,596900
386,597000
386,597100
386,597200
386,597300
386,597400
393,597500
386,597600
386,597700
386,597800
386,597900
386,598000
394,598100
388,598200
388,598300
388,598400
388,598500
388,598600
392,598700
386,598800
386,598900
386,599000
386,599100
386,599200
393,599300
386,599400
386,599500
386,599600
386,599700
386,599800
393,599900
387,600000
387,600100
387,600200
387,600300
387,600400
393,600500
387,600600
387,600700
387,600800
387,600900
387,601000
393,601100
387,601200
387,601300
387,601400
387,601500
387,601600
393,601700
386,601800
386,601900
386,602000
386,602100
386,602200
393,602300
387,602400
387,602500
387,602600
387,602700
387,602800
394,602900
387,603000
387,603100
387,603200
387,603300
387,603400
394,603500
387,603600
387,603700
387,603800
387,603900
387,604000
393,604100
386,604200
386,604300
386,604400
386,604500
386,604600
392,604700
386,604800
386,604900
386,605000
386,605100
386,605200
394,605300
387,605400
387,605500
387,605600
387,605700
387,605800
393,605900
387,606000
387,606100
387,606200
387,606300
387,606400
394,606500
388,606600
388,606700
388,606800
388,606900
388,607000
394,607100
387,607200
387,607300
387,607400
387,607500
387,607600
393,607700
387,607800
387,607900
387,608000
387,608100
387,608200
394,608300
388,608400
388,608500
388,608600
388,608700
388,608800
394,608900
388,609000
388,609100
388,609200
388,609300
388,609400
394,609500
388,609600
388,609700
388,609800
388,609900
388,610000
393,610100
387,610200
387,610300
387,610400
387,610500
387,610600
394,610700
388,610800
388,610900
388,611000
388,611100
388,611200
394,611300
388,611400
388,611500
388,611600
388,611700
388,611800
394,611900
388,612000
388,612100
388,612200
388,612300
388,612400
395,612500
389,612600
389,612700
389,612800
389,612900
389,613000
394,613100
387,613200
387,613300
387,613400
387,613500
387,613600
394,613700
388,613800
388,613900
388,614000
388,614100
388,614200
394,614300
388,614400
388,614500
388,614600
388,614700
388,614800
395,614900
389,615000
389,615100
389,615200
389,615300
389,615400
394,615500
388,615600
388,615700
388,615800
388,615900
388,616000
394,616100
388,616200
388,616300
388,616400
388,616500
388,616600
395,616700
388,616800
388,616900
388,617000
388,617100
388,617200
395,617300
389,617400
389,617500
389,617600
389,617700
389,617800
394,617900
388,618000
388,618100
388,618200
388,618300
388,618400
395,618500
389,618600
389,618700
389,618800
389,618900
389,619000
395,619100
389,619200
389,619300
389,619400
389,619500
389,619600
396,619700
389,619800
389,619900
389,620000
389,620100
389,620200
395,620300
389,620400
389,620500
389,620600
389,620700
389,620800
395,620900
389,621000
389,621100
389,621200
389,621300
389,621400
394,621500
389,621600
389,621700
389,621800
389,621900
389,622000
396,622100
389,622200
389,622300
389,622400
389,622500
389,622600
395,622700
389,622800
389,622900
389,623000
389,623100
389,623200
394,623300
389,623400
389,623500
389,623600
389,623700
389,623800
394,623900
389,624000
389,624100
389,624200
389,624300
389,624400
394,624500
389,624600
389,624700
389,624800
389,624900
389,625000
393,625100
389,625200
389,625300
389,625400
389,625500
389,625600
394,625700
389,625800
389,625900
389,626000
389,626100
389,626200
393,626300
389,626400
389,626500
389,626600
389,626700
389,626800
393,626900
390,627000
390,627100
390,627200
390,627300
390,627400
395,627500
390,627600
390,627700
390,627800
390,627900
390,628000
393,628100
390,628200
390,628300
390,628400
390,628500
390,628600
393,628700
390,628800
390,628900
390,629000
390,629100
390,629200
394,629300
390,629400
390,629500
390,629600
390,629700
390,629800
394,629900
391,630000
391,630100
391,630200
391,630300
391,630400
392,630500
390,630600
390,630700
390,630800
390,630900
390,631000
394,631100
390,631200
390,631300
390,631400
390,631500
390,631600
392,631700
390,631800
390,631900
390,632000
390,632100
390,632200
393,632300
390,632400
390,632500
390,632600
390,632700
390,632800
393,632900
391,633000
391,633100
391,633200
391,633300
391,633400
393,633500
390,633600
390,633700
390,633800
390,633900
390,634000
392,634100
390,634200
390,634300
390,634400
390,634500
390,634600
393,634700
391,634800
391,634900
391,635000
391,635100
391,635200
392,635300
391,635400
391,635500
391,635600
391,635700
391,635800
392,635900
391,636000
391,636100
391,636200
391,636300
391,636400
392,636500
391,636600
391,636700
391,636800
391,636900
391,637000
392,637100
391,637200
391,637300
391,637400
391,637500
391,637600
390,637700
390,637800
390,637900
390,638000
390,638100
397,638200
392,638300
390,638400
390,638500
390,638600
390,638700
390,638800
391,638900
391,639000
391,639100
391,639200
391,639300
397,639400
391,639500
391,639600
391,639700
391,639800
391,639900
397,640000
391,640100
391,640200
391,640300
391,640400
391,640500
398,640600
391,640700
391,640800
391,640900
391,641000
391,641100
398,641200
391,641300
391,641400
391,641500
391,641600
391,641700
398,641800
391,641900
391,642000
391,642100
391,642200
391,642300
398,642400
391,642500
391,642600
391,642700
391,642800
391,642900
399,643000
392,643100
392,643200
392,643300
392,643400
392,643500
398,643600
391,643700
391,643800
391,643900
391,644000
391,644100
398,644200
391,644300
391,644400
391,644500
391,644600
391,644700
399,644800
392,644900
392,645000
392,645100
392,645200
392,645300
398,645400
391,645500
391,645600
391,645700
391,645800
391,645900
398,646000
391,646100
391,646200
391,646300
391,646400
391,646500
398,646600
391,646700
391,646800
391,646900
391,647000
391,647100
399,647200
392,647300
392,647400
392,647500
392,647600
392,647700
398,647800
392,647900
392,648000
392,648100
392,648200
392,648300
399,648400
392,648500
392,648600
392,648700
392,648800
392,648900
400,649000
392,649100
392,649200
392,649300
392,649400
392,649500
399,649600
392,649700
392,649800
392,649900
392,650000
392,650100
399,650200
392,650300
392,650400
392,650500
392,650600
392,650700
400,650800
393,650900
393,651000
393,651100
393,651200
393,651300
398,651400
392,651500
392,651600
392,651700
392,651800
392,651900
399,652000
392,652100
392,652200
392,652300
392,652400
392,652500
399,652600
392,652700
392,652800
392,652900
392,653000
392,653100
399,653200
392,653300
392,653400
392,653500
392,653600
392,653700
400,653800
392,653900
392,654000
392,654100
392,654200
392,654300
399,654400
393,654500
393,654600
393,654700
393,654800
393,654900
400,655000
393,655100
393,655200
393,655300
393,655400
393,655500
399,655600
392,655700
392,655800
392,655900
392,656000
392,656100
399,656200
392,656300
392,656400
392,656500
392,656600
392,656700
399,656800
392,656900
392,657000
392,657100
392,657200
392,657300
399,657400
392,657500
392,657600
392,657700
392,657800
392,657900
399,658000
393,658100
393,658200
393,658300
393,658400
393,658500
399,658600
392,658700
392,658800
392,658900
392,659000
392,659100
400,659200
393,659300
393,659400
393,659500
393,659600
393,659700
400,659800
392,659900
392,660000
392,660100
392,660200
392,660300
399,660400
392,660500
392,660600
392,660700
392,660800
392,660900
400,661000
393,661100
393,661200
393,661300
393,661400
393,661500
401,661600
394,661700
394,661800
394,661900
394,662000
394,662100
401,662200
394,662300
394,662400
394,662500
394,662600
394,662700
401,662800
394,662900
394,663000
394,663100
394,663200
394,663300
400,663400
393,663500
393,663600
393,663700
393,663800
393,663900
401,664000
394,664100
394,664200
394,664300
394,664400
394,664500
401,664600
394,664700
394,664800
394,664900
394,665000
394,665100
401,665200
394,665300
394,665400
394,665500
394,665600
394,665700
401,665800
394,665900
394,666000
394,666100
394,666200
394,666300
401,666400
394,666500
394,666600
394,666700
394,666800
394,666900
401,667000
394,667100
394,667200
394,667300
394,667400
394,667500
400,667600
393,667700
393,667800
393,667900
393,668000
393,668100
400,668200
393,668300
393,668400
393,668500
393,668600
393,668700
