0,100
0,200
0,300
0,400
0,500
0,600
0,700
0,800
0,900
0,1000
60,1100
56,1200
56,1300
56,1400
56,1500
56,1600
56,1700
38,1800
36,1900
36,2000
36,2100
36,2200
36,2300
24,2400
23,2500
23,2600
23,2700
23,2800
23,2900
23,3000
17,3100
16,3200
16,3300
16,3400
16,3500
16,3600
13,3700
12,3800
12,3900
12,4000
12,4100
12,4200
12,4300
10,4400
9,4500
9,4600
9,4700
9,4800
9,4900
8,5000
8,5100
8,5200
8,5300
8,5400
8,5500
8,5600
8,5700
8,5800
8,5900
8,6000
8,6100
7,6200
6,6300
6,6400
6,6500
6,6600
6,6700
4,6800
4,6900
4,7000
4,7100
4,7200
4,7300
5,7400
5,7500
5,7600
5,7700
5,7800
5,7900
4,8000
4,8100
4,8200
4,8300
4,8400
4,8500
4,8600
4,8700
4,8800
4,8900
4,9000
4,9100
4,9200
3,9300
3,9400
3,9500
3,9600
3,9700
4,9800
4,9900
4,10000
4,10100
4,10200
4,10300
3,10400
3,10500
3,10600
3,10700
3,10800
3,10900
3,11000
2,11100
2,11200
2,11300
2,11400
2,11500
3,11600
3,11700
3,11800
3,11900
3,12000
3,12100
3,12200
2,12300
2,12400
2,12500
2,12600
2,12700
3,12800
3,12900
3,13000
3,13100
3,13200
3,13300
3,13400
2,13500
2,13600
2,13700
2,13800
2,13900
2,14000
2,14100
2,14200
2,14300
2,14400
2,14500
3,14600
2,14700
2,14800
2,14900
2,15000
2,15100
2,15200
2,15300
2,15400
2,15500
2,15600
2,15700
2,15800
2,15900
2,16000
2,16100
2,16200
2,16300
2,16400
2,16500
2,16600
2,16700
2,16800
2,16900
3,17000
2,17100
2,17200
2,17300
2,17400
2,17500
2,17600
2,17700
2,17800
2,17900
2,18000
2,18100
3,18200
2,18300
2,18400
2,18500
2,18600
2,18700
1,18800
2,18900
2,19000
2,19100
2,19200
2,19300
2,19400
2,19500
2,19600
2,19700
2,19800
2,19900
2,20000
2,20100
2,20200
2,20300
2,20400
2,20500
3,20600
2,20700
2,20800
2,20900
2,21000
2,21100
2,21200
2,21300
2,21400
2,21500
2,21600
2,21700
2,21800
2,21900
2,22000
2,22100
2,22200
2,22300
2,22400
2,22500
2,22600
2,22700
2,22800
2,22900
2,23000
2,23100
2,23200
2,23300
2,23400
3,23500
3,23600
2,23700
2,23800
2,23900
2,24000
2,24100
2,24200
2,24300
2,24400
2,24500
2,24600
2,24700
2,24800
3,24900
3,25000
3,25100
3,25200
3,25300
2,25400
2,25500
2,25600
2,25700
2,25800
2,25900
2,26000
2,26100
2,26200
2,26300
2,26400
2,26500
2,26600
1,26700
1,26800
1,26900
1,27000
1,27100
1,27200
1,27300
1,27400
1,27500
1,27600
1,27700
2,27800
1,27900
1,28000
1,28100
1,28200
1,28300
2,28400
2,28500
2,28600
2,28700
2,28800
2,28900
2,29000
2,29100
2,29200
2,29300
2,29400
2,29500
2,29600
2,29700
2,29800
2,29900
2,30000
2,30100
2,30200
2,30300
2,30400
2,30500
2,30600
2,30700
1,30800
1,30900
1,31000
1,31100
1,31200
1,31300
2,31400
2,31500
2,31600
2,31700
2,31800
2,31900
2,32000
2,32100
2,32200
2,32300
2,32400
2,32500
2,32600
2,32700
2,32800
2,32900
2,33000
2,33100
1,33200
2,33300
2,33400
2,33500
2,33600
2,33700
2,33800
2,33900
2,34000
2,34100
2,34200
2,34300
2,34400
2,34500
2,34600
2,34700
2,34800
2,34900
1,35000
2,35100
2,35200
2,35300
2,35400
2,35500
2,35600
2,35700
2,35800
2,35900
2,36000
2,36100
3,36200
2,36300
2,36400
2,36500
2,36600
2,36700
2,36800
2,36900
2,37000
2,37100
2,37200
2,37300
2,37400
2,37500
2,37600
2,37700
2,37800
2,37900
2,38000
2,38100
2,38200
2,38300
2,38400
2,38500
2,38600
2,38700
2,38800
2,38900
2,39000
2,39100
2,39200
2,39300
2,39400
2,39500
2,39600
2,39700
2,39800
2,39900
2,40000
2,40100
2,40200
2,40300
2,40400
2,40500
2,40600
2,40700
2,40800
2,40900
2,41000
2,41100
2,41200
2,41300
2,41400
2,41500
3,41600
3,41700
3,41800
3,41900
3,42000
3,42100
3,42200
2,42300
2,42400
2,42500
2,42600
2,42700
2,42800
2,42900
2,43000
2,43100
2,43200
2,43300
2,43400
2,43500
2,43600
2,43700
2,43800
2,43900
2,44000
3,44100
3,44200
3,44300
3,44400
3,44500
3,44600
3,44700
3,44800
3,44900
3,45000
3,45100
2,45200
2,45300
2,45400
2,45500
2,45600
2,45700
1,45800
1,45900
1,46000
1,46100
1,46200
2,46300
2,46400
2,46500
2,46600
2,46700
2,46800
2,46900
2,47000
2,47100
2,47200
2,47300
2,47400
3,47500
3,47600
3,47700
3,47800
3,47900
3,48000
3,48100
3,48200
3,48300
3,48400
3,48500
3,48600
3,48700
3,48800
3,48900
3,49000
3,49100
3,49200
4,49300
3,49400
3,49500
3,49600
3,49700
3,49800
3,49900
3,50000
3,50100
3,50200
3,50300
3,50400
3,50500
4,50600
4,50700
4,50800
4,50900
4,51000
4,51100
3,51200
3,51300
3,51400
3,51500
3,51600
3,51700
3,51800
3,51900
3,52000
3,52100
3,52200
4,52300
3,52400
3,52500
3,52600
3,52700
3,52800
3,52900
3,53000
3,53100
3,53200
3,53300
3,53400
4,53500
4,53600
4,53700
4,53800
4,53900
4,54000
4,54100
4,54200
4,54300
4,54400
4,54500
4,54600
4,54700
4,54800
4,54900
4,55000
4,55100
4,55200
4,55300
5,55400
5,55500
5,55600
5,55700
5,55800
5,55900
4,56000
4,56100
4,56200
4,56300
4,56400
5,56500
4,56600
4,56700
4,56800
4,56900
4,57000
4,57100
4,57200
4,57300
4,57400
4,57500
4,57600
4,57700
4,57800
4,57900
4,58000
4,58100
4,58200
4,58300
4,58400
4,58500
4,58600
4,58700
4,58800
4,58900
3,59000
3,59100
3,59200
3,59300
3,59400
3,59500
3,59600
3,59700
3,59800
3,59900
3,60000
4,60100
4,60200
4,60300
4,60400
4,60500
4,60600
5,60700
5,60800
5,60900
5,61000
5,61100
5,61200
5,61300
5,61400
5,61500
5,61600
5,61700
5,61800
5,61900
5,62000
5,62100
5,62200
5,62300
5,62400
5,62500
5,62600
5,62700
5,62800
5,62900
5,63000
6,63100
6,63200
6,63300
6,63400
6,63500
6,63600
6,63700
6,63800
6,63900
6,64000
6,64100
6,64200
7,64300
6,64400
6,64500
6,64600
6,64700
6,64800
7,64900
6,65000
6,65100
6,65200
6,65300
6,65400
6,65500
6,65600
6,65700
6,65800
6,65900
6,66000
7,66100
7,66200
7,66300
7,66400
7,66500
7,66600
6,66700
6,66800
6,66900
6,67000
6,67100
6,67200
7,67300
7,67400
7,67500
7,67600
7,67700
7,67800
8,67900
7,68000
7,68100
7,68200
7,68300
7,68400
9,68500
8,68600
8,68700
8,68800
8,68900
8,69000
9,69100
8,69200
8,69300
8,69400
8,69500
8,69600
10,69700
9,69800
9,69900
9,70000
9,70100
9,70200
9,70300
8,70400
8,70500
8,70600
8,70700
8,70800
10,70900
9,71000
9,71100
9,71200
9,71300
9,71400
11,71500
10,71600
10,71700
10,71800
10,71900
10,72000
12,72100
11,72200
11,72300
11,72400
11,72500
11,72600
11,72700
11,72800
11,72900
11,73000
11,73100
11,73200
12,73300
11,73400
11,73500
11,73600
11,73700
11,73800
13,73900
12,74000
12,74100
12,74200
12,74300
12,74400
14,74500
13,74600
13,74700
13,74800
13,74900
13,75000
13,75100
12,75200
12,75300
12,75400
12,75500
12,75600
15,75700
14,75800
14,75900
14,76000
14,76100
14,76200
15,76300
14,76400
14,76500
14,76600
14,76700
14,76800
15,76900
14,77000
14,77100
14,77200
14,77300
14,77400
18,77500
17,77600
17,77700
17,77800
17,77900
17,78000
18,78100
17,78200
17,78300
17,78400
17,78500
17,78600
18,78700
17,78800
17,78900
17,79000
17,79100
17,79200
19,79300
17,79400
17,79500
17,79600
17,79700
17,79800
20,79900
19,80000
19,80100
19,80200
19,80300
19,80400
21,80500
19,80600
19,80700
19,80800
19,80900
19,81000
21,81100
19,81200
19,81300
19,81400
19,81500
19,81600
22,81700
21,81800
21,81900
21,82000
21,82100
21,82200
22,82300
21,82400
21,82500
21,82600
21,82700
21,82800
23,82900
21,83000
21,83100
21,83200
21,83300
21,83400
25,83500
24,83600
24,83700
24,83800
24,83900
24,84000
25,84100
24,84200
24,84300
24,84400
24,84500
24,84600
27,84700
25,84800
25,84900
25,85000
25,85100
25,85200
24,85300
23,85400
23,85500
23,85600
23,85700
23,85800
27,85900
26,86000
26,86100
26,86200
26,86300
26,86400
28,86500
26,86600
26,86700
26,86800
26,86900
26,87000
29,87100
27,87200
27,87300
27,87400
27,87500
27,87600
31,87700
29,87800
29,87900
29,88000
29,88100
29,88200
30,88300
29,88400
29,88500
29,88600
29,88700
29,88800
32,88900
29,89000
29,89100
29,89200
29,89300
29,89400
32,89500
30,89600
30,89700
30,89800
30,89900
30,90000
32,90100
30,90200
30,90300
30,90400
30,90500
30,90600
33,90700
30,90800
30,90900
30,91000
30,91100
30,91200
33,91300
31,91400
31,91500
31,91600
31,91700
31,91800
34,91900
32,92000
32,92100
32,92200
32,92300
32,92400
35,92500
33,92600
33,92700
33,92800
33,92900
33,93000
34,93100
32,93200
32,93300
32,93400
32,93500
32,93600
35,93700
33,93800
33,93900
33,94000
33,94100
33,94200
37,94300
35,94400
35,94500
35,94600
35,94700
35,94800
37,94900
35,95000
35,95100
35,95200
35,95300
35,95400
37,95500
34,95600
34,95700
34,95800
34,95900
34,96000
38,96100
36,96200
36,96300
36,96400
36,96500
36,96600
38,96700
36,96800
36,96900
36,97000
36,97100
36,97200
39,97300
37,97400
37,97500
37,97600
37,97700
37,97800
39,97900
37,98000
37,98100
37,98200
37,98300
37,98400
39,98500
37,98600
37,98700
37,98800
37,98900
37,99000
40,99100
37,99200
37,99300
37,99400
37,99500
37,99600
41,99700
38,99800
38,99900
38,100000
38,100100
38,100200
41,100300
38,100400
38,100500
38,100600
38,100700
38,100800
40,100900
38,101000
38,101100
38,101200
38,101300
38,101400
41,101500
38,101600
38,101700
38,101800
38,101900
38,102000
41,102100
39,102200
39,102300
39,102400
39,102500
39,102600
43,102700
40,102800
40,102900
40,103000
40,103100
40,103200
42,103300
39,103400
39,103500
39,103600
39,103700
39,103800
44,103900
41,104000
41,104100
41,104200
41,104300
41,104400
44,104500
40,104600
40,104700
40,104800
40,104900
40,105000
44,105100
41,105200
41,105300
41,105400
41,105500
41,105600
44,105700
42,105800
42,105900
42,106000
42,106100
42,106200
44,106300
41,106400
41,106500
41,106600
41,106700
41,106800
44,106900
41,107000
41,107100
41,107200
41,107300
41,107400
43,107500
41,107600
41,107700
41,107800
41,107900
41,108000
45,108100
42,108200
42,108300
42,108400
42,108500
42,108600
46,108700
43,108800
43,108900
43,109000
43,109100
43,109200
46,109300
44,109400
44,109500
44,109600
44,109700
44,109800
45,109900
43,110000
43,110100
43,110200
43,110300
43,110400
46,110500
43,110600
43,110700
43,110800
43,110900
43,111000
44,111100
42,111200
42,111300
42,111400
42,111500
42,111600
47,111700
44,111800
44,111900
44,112000
44,112100
44,112200
44,112300
42,112400
42,112500
42,112600
42,112700
42,112800
47,112900
44,113000
44,113100
44,113200
44,113300
44,113400
46,113500
43,113600
43,113700
43,113800
43,113900
43,114000
48,114100
45,114200
45,114300
45,114400
45,114500
45,114600
48,114700
45,114800
45,114900
45,115000
45,115100
45,115200
47,115300
45,115400
45,115500
45,115600
45,115700
45,115800
49,115900
46,116000
46,116100
46,116200
46,116300
46,116400
48,116500
45,116600
45,116700
45,116800
45,116900
45,117000
48,117100
45,117200
45,117300
45,117400
45,117500
45,117600
49,117700
46,117800
46,117900
46,118000
46,118100
46,118200
49,118300
45,118400
45,118500
45,118600
45,118700
45,118800
49,118900
46,119000
46,119100
46,119200
46,119300
46,119400
48,119500
45,119600
45,119700
45,119800
45,119900
45,120000
49,120100
46,120200
46,120300
46,120400
46,120500
46,120600
49,120700
47,120800
47,120900
47,121000
47,121100
47,121200
49,121300
46,121400
46,121500
46,121600
46,121700
46,121800
51,121900
47,122000
47,122100
47,122200
47,122300
47,122400
49,122500
47,122600
47,122700
47,122800
47,122900
47,123000
50,123100
47,123200
47,123300
47,123400
47,123500
47,123600
50,123700
48,123800
48,123900
48,124000
48,124100
48,124200
50,124300
48,124400
48,124500
48,124600
48,124700
48,124800
49,124900
47,125000
47,125100
47,125200
47,125300
47,125400
49,125500
47,125600
47,125700
47,125800
47,125900
47,126000
51,126100
48,126200
48,126300
48,126400
48,126500
48,126600
51,126700
48,126800
48,126900
48,127000
48,127100
48,127200
49,127300
46,127400
46,127500
46,127600
46,127700
46,127800
49,127900
47,128000
47,128100
47,128200
47,128300
47,128400
51,128500
48,128600
48,128700
48,128800
48,128900
48,129000
51,129100
48,129200
48,129300
48,129400
48,129500
48,129600
50,129700
48,129800
48,129900
48,130000
48,130100
48,130200
51,130300
48,130400
48,130500
48,130600
48,130700
48,130800
49,130900
46,131000
46,131100
46,131200
46,131300
46,131400
50,131500
47,131600
47,131700
47,131800
47,131900
47,132000
52,132100
48,132200
48,132300
48,132400
48,132500
48,132600
51,132700
48,132800
48,132900
48,133000
48,133100
48,133200
51,133300
48,133400
48,133500
48,133600
48,133700
48,133800
52,133900
49,134000
49,134100
49,134200
49,134300
49,134400
51,134500
48,134600
48,134700
48,134800
48,134900
48,135000
52,135100
48,135200
48,135300
48,135400
48,135500
48,135600
52,135700
49,135800
49,135900
49,136000
49,136100
49,136200
51,136300
47,136400
47,136500
47,136600
47,136700
47,136800
52,136900
49,137000
49,137100
49,137200
49,137300
49,137400
52,137500
49,137600
49,137700
49,137800
49,137900
49,138000
51,138100
48,138200
48,138300
48,138400
48,138500
48,138600
52,138700
48,138800
48,138900
48,139000
48,139100
48,139200
52,139300
49,139400
49,139500
49,139600
49,139700
49,139800
51,139900
49,140000
49,140100
49,140200
49,140300
49,140400
52,140500
49,140600
49,140700
49,140800
49,140900
49,141000
53,141100
49,141200
49,141300
49,141400
49,141500
49,141600
52,141700
49,141800
49,141900
49,142000
49,142100
49,142200
52,142300
49,142400
49,142500
49,142600
49,142700
49,142800
54,142900
50,143000
50,143100
50,143200
50,143300
50,143400
52,143500
48,143600
48,143700
48,143800
48,143900
48,144000
52,144100
49,144200
49,144300
49,144400
49,144500
49,144600
53,144700
49,144800
49,144900
49,145000
49,145100
49,145200
53,145300
50,145400
50,145500
50,145600
50,145700
50,145800
53,145900
49,146000
49,146100
49,146200
49,146300
49,146400
51,146500
48,146600
48,146700
48,146800
48,146900
48,147000
53,147100
49,147200
49,147300
49,147400
49,147500
49,147600
54,147700
50,147800
50,147900
50,148000
50,148100
50,148200
53,148300
50,148400
50,148500
50,148600
50,148700
50,148800
52,148900
49,149000
49,149100
49,149200
49,149300
49,149400
53,149500
50,149600
50,149700
50,149800
50,149900
50,150000
52,150100
49,150200
49,150300
49,150400
49,150500
49,150600
53,150700
50,150800
50,150900
50,151000
50,151100
50,151200
53,151300
49,151400
49,151500
49,151600
49,151700
49,151800
53,151900
50,152000
50,152100
50,152200
50,152300
50,152400
53,152500
51,152600
51,152700
51,152800
51,152900
51,153000
53,153100
50,153200
50,153300
50,153400
50,153500
50,153600
53,153700
50,153800
50,153900
50,154000
50,154100
50,154200
52,154300
50,154400
50,154500
50,154600
50,154700
50,154800
52,154900
50,155000
50,155100
50,155200
50,155300
50,155400
53,155500
50,155600
50,155700
50,155800
50,155900
50,156000
53,156100
49,156200
49,156300
49,156400
49,156500
49,156600
53,156700
50,156800
50,156900
50,157000
50,157100
50,157200
53,157300
50,157400
50,157500
50,157600
50,157700
50,157800
53,157900
50,158000
50,158100
50,158200
50,158300
50,158400
53,158500
50,158600
50,158700
50,158800
50,158900
50,159000
52,159100
49,159200
49,159300
49,159400
49,159500
49,159600
52,159700
49,159800
49,159900
49,160000
49,160100
49,160200
53,160300
50,160400
50,160500
50,160600
50,160700
50,160800
53,160900
50,161000
50,161100
50,161200
50,161300
50,161400
53,161500
50,161600
50,161700
50,161800
50,161900
50,162000
54,162100
51,162200
51,162300
51,162400
51,162500
51,162600
53,162700
50,162800
50,162900
50,163000
50,163100
50,163200
52,163300
50,163400
50,163500
50,163600
50,163700
50,163800
53,163900
51,164000
51,164100
51,164200
51,164300
51,164400
54,164500
50,164600
50,164700
50,164800
50,164900
50,165000
53,165100
50,165200
50,165300
50,165400
50,165500
50,165600
54,165700
51,165800
51,165900
51,166000
51,166100
51,166200
53,166300
50,166400
50,166500
50,166600
50,166700
50,166800
53,166900
49,167000
49,167100
49,167200
49,167300
49,167400
54,167500
51,167600
51,167700
51,167800
51,167900
51,168000
54,168100
50,168200
50,168300
50,168400
50,168500
50,168600
53,168700
50,168800
50,168900
50,169000
50,169100
50,169200
53,169300
50,169400
50,169500
50,169600
50,169700
50,169800
54,169900
50,170000
50,170100
50,170200
50,170300
50,170400
54,170500
51,170600
51,170700
51,170800
51,170900
51,171000
53,171100
51,171200
51,171300
51,171400
51,171500
51,171600
53,171700
50,171800
50,171900
50,172000
50,172100
50,172200
54,172300
50,172400
50,172500
50,172600
50,172700
50,172800
54,172900
50,173000
50,173100
50,173200
50,173300
50,173400
52,173500
50,173600
50,173700
50,173800
50,173900
50,174000
54,174100
50,174200
50,174300
50,174400
50,174500
50,174600
53,174700
49,174800
49,174900
49,175000
49,175100
49,175200
53,175300
50,175400
50,175500
50,175600
50,175700
50,175800
54,175900
51,176000
51,176100
51,176200
51,176300
51,176400
54,176500
50,176600
50,176700
50,176800
50,176900
50,177000
54,177100
50,177200
50,177300
50,177400
50,177500
50,177600
53,177700
50,177800
50,177900
50,178000
50,178100
50,178200
53,178300
50,178400
50,178500
50,178600
50,178700
50,178800
53,178900
50,179000
50,179100
50,179200
50,179300
50,179400
52,179500
48,179600
48,179700
48,179800
48,179900
48,180000
52,180100
49,180200
49,180300
49,180400
49,180500
49,180600
53,180700
50,180800
50,180900
50,181000
50,181100
50,181200
54,181300
50,181400
50,181500
50,181600
50,181700
50,181800
53,181900
50,182000
50,182100
50,182200
50,182300
50,182400
53,182500
50,182600
50,182700
50,182800
50,182900
50,183000
53,183100
50,183200
50,183300
50,183400
50,183500
50,183600
53,183700
50,183800
50,183900
50,184000
50,184100
50,184200
54,184300
51,184400
51,184500
51,184600
51,184700
51,184800
53,184900
50,185000
50,185100
50,185200
50,185300
50,185400
53,185500
50,185600
50,185700
50,185800
50,185900
50,186000
53,186100
51,186200
51,186300
51,186400
51,186500
51,186600
53,186700
50,186800
50,186900
50,187000
50,187100
50,187200
53,187300
50,187400
50,187500
50,187600
50,187700
50,187800
52,187900
49,188000
49,188100
49,188200
49,188300
49,188400
53,188500
50,188600
50,188700
50,188800
50,188900
50,189000
51,189100
48,189200
48,189300
48,189400
48,189500
48,189600
52,189700
50,189800
50,189900
50,190000
50,190100
50,190200
53,190300
49,190400
49,190500
49,190600
49,190700
49,190800
53,190900
50,191000
50,191100
50,191200
50,191300
50,191400
52,191500
49,191600
49,191700
49,191800
49,191900
49,192000
53,192100
50,192200
50,192300
50,192400
50,192500
50,192600
52,192700
50,192800
50,192900
50,193000
50,193100
50,193200
51,193300
48,193400
48,193500
48,193600
48,193700
48,193800
53,193900
50,194000
50,194100
50,194200
50,194300
50,194400
52,194500
49,194600
49,194700
49,194800
49,194900
49,195000
52,195100
49,195200
49,195300
49,195400
49,195500
49,195600
52,195700
49,195800
49,195900
49,196000
49,196100
49,196200
54,196300
51,196400
51,196500
51,196600
51,196700
51,196800
52,196900
49,197000
49,197100
49,197200
49,197300
49,197400
52,197500
48,197600
48,197700
48,197800
48,197900
48,198000
53,198100
50,198200
50,198300
50,198400
50,198500
50,198600
53,198700
50,198800
50,198900
50,199000
50,199100
50,199200
53,199300
49,199400
49,199500
49,199600
49,199700
49,199800
53,199900
50,200000
50,200100
50,200200
50,200300
50,200400
52,200500
49,200600
49,200700
49,200800
49,200900
49,201000
51,201100
48,201200
48,201300
48,201400
48,201500
48,201600
51,201700
48,201800
48,201900
48,202000
48,202100
48,202200
53,202300
50,202400
50,202500
50,202600
50,202700
50,202800
53,202900
50,203000
50,203100
50,203200
50,203300
50,203400
52,203500
50,203600
50,203700
50,203800
50,203900
50,204000
53,204100
50,204200
50,204300
50,204400
50,204500
50,204600
53,204700
50,204800
50,204900
50,205000
50,205100
50,205200
52,205300
49,205400
49,205500
49,205600
49,205700
49,205800
52,205900
49,206000
49,206100
49,206200
49,206300
49,206400
52,206500
49,206600
49,206700
49,206800
49,206900
49,207000
50,207100
47,207200
47,207300
47,207400
47,207500
47,207600
52,207700
49,207800
49,207900
49,208000
49,208100
49,208200
50,208300
47,208400
47,208500
47,208600
47,208700
47,208800
52,208900
48,209000
48,209100
48,209200
48,209300
48,209400
52,209500
49,209600
49,209700
49,209800
49,209900
49,210000
52,210100
50,210200
50,210300
50,210400
50,210500
50,210600
51,210700
47,210800
47,210900
47,211000
47,211100
47,211200
53,211300
50,211400
50,211500
50,211600
50,211700
50,211800
52,211900
49,212000
49,212100
49,212200
49,212300
49,212400
52,212500
49,212600
49,212700
49,212800
49,212900
49,213000
51,213100
49,213200
49,213300
49,213400
49,213500
49,213600
51,213700
48,213800
48,213900
48,214000
48,214100
48,214200
53,214300
50,214400
50,214500
50,214600
50,214700
50,214800
51,214900
48,215000
48,215100
48,215200
48,215300
48,215400
50,215500
47,215600
47,215700
47,215800
47,215900
47,216000
51,216100
48,216200
48,216300
48,216400
48,216500
48,216600
51,216700
48,216800
48,216900
48,217000
48,217100
48,217200
52,217300
50,217400
50,217500
50,217600
50,217700
50,217800
52,217900
49,218000
49,218100
49,218200
49,218300
49,218400
51,218500
48,218600
48,218700
48,218800
48,218900
48,219000
53,219100
50,219200
50,219300
50,219400
50,219500
50,219600
52,219700
49,219800
49,219900
49,220000
49,220100
49,220200
51,220300
49,220400
49,220500
49,220600
49,220700
49,220800
53,220900
50,221000
50,221100
50,221200
50,221300
50,221400
52,221500
49,221600
49,221700
49,221800
49,221900
49,222000
52,222100
49,222200
49,222300
49,222400
49,222500
49,222600
51,222700
48,222800
48,222900
48,223000
48,223100
48,223200
50,223300
48,223400
48,223500
48,223600
48,223700
48,223800
52,223900
49,224000
49,224100
49,224200
49,224300
49,224400
52,224500
49,224600
49,224700
49,224800
49,224900
49,225000
51,225100
48,225200
48,225300
48,225400
48,225500
48,225600
50,225700
48,225800
48,225900
48,226000
48,226100
48,226200
50,226300
48,226400
48,226500
48,226600
48,226700
48,226800
51,226900
48,227000
48,227100
48,227200
48,227300
48,227400
51,227500
49,227600
49,227700
49,227800
49,227900
49,228000
50,228100
47,228200
47,228300
47,228400
47,228500
47,228600
51,228700
48,228800
48,228900
48,229000
48,229100
48,229200
51,229300
48,229400
48,229500
48,229600
48,229700
48,229800
50,229900
47,230000
47,230100
47,230200
47,230300
47,230400
52,230500
49,230600
49,230700
49,230800
49,230900
49,231000
51,231100
48,231200
48,231300
48,231400
48,231500
48,231600
51,231700
48,231800
48,231900
48,232000
48,232100
48,232200
51,232300
48,232400
48,232500
48,232600
48,232700
48,232800
50,232900
47,233000
47,233100
47,233200
47,233300
47,233400
50,233500
47,233600
47,233700
47,233800
47,233900
47,234000
51,234100
48,234200
48,234300
48,234400
48,234500
48,234600
51,234700
48,234800
48,234900
48,235000
48,235100
48,235200
51,235300
47,235400
47,235500
47,235600
47,235700
47,235800
52,235900
48,236000
48,236100
48,236200
48,236300
48,236400
50,236500
47,236600
47,236700
47,236800
47,236900
47,237000
51,237100
49,237200
49,237300
49,237400
49,237500
49,237600
50,237700
47,237800
47,237900
47,238000
47,238100
47,238200
50,238300
48,238400
48,238500
48,238600
48,238700
48,238800
50,238900
47,239000
47,239100
47,239200
47,239300
47,239400
50,239500
47,239600
47,239700
47,239800
47,239900
47,240000
50,240100
47,240200
47,240300
47,240400
47,240500
47,240600
51,240700
49,240800
49,240900
49,241000
49,241100
49,241200
51,241300
48,241400
48,241500
48,241600
48,241700
48,241800
50,241900
47,242000
47,242100
47,242200
47,242300
47,242400
51,242500
48,242600
48,242700
48,242800
48,242900
48,243000
48,243100
45,243200
45,243300
45,243400
45,243500
45,243600
50,243700
47,243800
47,243900
47,244000
47,244100
47,244200
52,244300
49,244400
49,244500
49,244600
49,244700
49,244800
50,244900
48,245000
48,245100
48,245200
48,245300
48,245400
51,245500
49,245600
49,245700
49,245800
49,245900
49,246000
51,246100
48,246200
48,246300
48,246400
48,246500
48,246600
50,246700
47,246800
47,246900
47,247000
47,247100
47,247200
51,247300
48,247400
48,247500
48,247600
48,247700
48,247800
51,247900
48,248000
48,248100
48,248200
48,248300
48,248400
49,248500
46,248600
46,248700
46,248800
46,248900
46,249000
51,249100
48,249200
48,249300
48,249400
48,249500
48,249600
50,249700
47,249800
47,249900
47,250000
47,250100
47,250200
50,250300
47,250400
47,250500
47,250600
47,250700
47,250800
50,250900
48,251000
48,251100
48,251200
48,251300
48,251400
50,251500
47,251600
47,251700
47,251800
47,251900
47,252000
51,252100
47,252200
47,252300
47,252400
47,252500
47,252600
51,252700
48,252800
48,252900
48,253000
48,253100
48,253200
49,253300
46,253400
46,253500
46,253600
46,253700
46,253800
49,253900
46,254000
46,254100
46,254200
46,254300
46,254400
49,254500
47,254600
47,254700
47,254800
47,254900
47,255000
49,255100
46,255200
46,255300
46,255400
46,255500
46,255600
50,255700
47,255800
47,255900
47,256000
47,256100
47,256200
49,256300
46,256400
46,256500
46,256600
46,256700
46,256800
50,256900
47,257000
47,257100
47,257200
47,257300
47,257400
50,257500
47,257600
47,257700
47,257800
47,257900
47,258000
48,258100
46,258200
46,258300
46,258400
46,258500
46,258600
49,258700
47,258800
47,258900
47,259000
47,259100
47,259200
48,259300
46,259400
46,259500
46,259600
46,259700
46,259800
49,259900
46,260000
46,260100
46,260200
46,260300
46,260400
49,260500
46,260600
46,260700
46,260800
46,260900
46,261000
49,261100
45,261200
45,261300
45,261400
45,261500
45,261600
49,261700
46,261800
46,261900
46,262000
46,262100
46,262200
49,262300
46,262400
46,262500
46,262600
46,262700
46,262800
48,262900
46,263000
46,263100
46,263200
46,263300
46,263400
49,263500
46,263600
46,263700
46,263800
46,263900
46,264000
50,264100
46,264200
46,264300
46,264400
46,264500
46,264600
49,264700
46,264800
46,264900
46,265000
46,265100
46,265200
49,265300
46,265400
46,265500
46,265600
46,265700
46,265800
48,265900
46,266000
46,266100
46,266200
46,266300
46,266400
49,266500
46,266600
46,266700
46,266800
46,266900
46,267000
47,267100
44,267200
44,267300
44,267400
44,267500
44,267600
48,267700
45,267800
45,267900
45,268000
45,268100
45,268200
48,268300
45,268400
45,268500
45,268600
45,268700
45,268800
49,268900
46,269000
46,269100
46,269200
46,269300
46,269400
48,269500
45,269600
45,269700
45,269800
45,269900
45,270000
49,270100
46,270200
46,270300
46,270400
46,270500
46,270600
49,270700
46,270800
46,270900
46,271000
46,271100
46,271200
48,271300
46,271400
46,271500
46,271600
46,271700
46,271800
48,271900
45,272000
45,272100
45,272200
45,272300
45,272400
49,272500
47,272600
47,272700
47,272800
47,272900
47,273000
48,273100
45,273200
45,273300
45,273400
45,273500
45,273600
50,273700
46,273800
46,273900
46,274000
46,274100
46,274200
49,274300
45,274400
45,274500
45,274600
45,274700
45,274800
48,274900
45,275000
45,275100
45,275200
45,275300
45,275400
48,275500
45,275600
45,275700
45,275800
45,275900
45,276000
48,276100
45,276200
45,276300
45,276400
45,276500
45,276600
48,276700
45,276800
45,276900
45,277000
45,277100
45,277200
48,277300
46,277400
46,277500
46,277600
46,277700
46,277800
48,277900
46,278000
46,278100
46,278200
46,278300
46,278400
48,278500
45,278600
45,278700
45,278800
45,278900
45,279000
49,279100
46,279200
46,279300
46,279400
46,279500
46,279600
48,279700
45,279800
45,279900
45,280000
45,280100
45,280200
47,280300
44,280400
44,280500
44,280600
44,280700
44,280800
48,280900
46,281000
46,281100
46,281200
46,281300
46,281400
48,281500
45,281600
45,281700
45,281800
45,281900
45,282000
48,282100
44,282200
44,282300
44,282400
44,282500
44,282600
47,282700
45,282800
45,282900
45,283000
45,283100
45,283200
47,283300
44,283400
44,283500
44,283600
44,283700
44,283800
47,283900
44,284000
44,284100
44,284200
44,284300
44,284400
48,284500
45,284600
45,284700
45,284800
45,284900
45,285000
47,285100
44,285200
44,285300
44,285400
44,285500
44,285600
48,285700
46,285800
46,285900
46,286000
46,286100
46,286200
47,286300
44,286400
44,286500
44,286600
44,286700
44,286800
47,286900
45,287000
45,287100
45,287200
45,287300
45,287400
47,287500
45,287600
45,287700
45,287800
45,287900
45,288000
47,288100
44,288200
44,288300
44,288400
44,288500
44,288600
48,288700
46,288800
46,288900
46,289000
46,289100
46,289200
47,289300
44,289400
44,289500
44,289600
44,289700
44,289800
46,289900
44,290000
44,290100
44,290200
44,290300
44,290400
47,290500
45,290600
45,290700
45,290800
45,290900
45,291000
47,291100
44,291200
44,291300
44,291400
44,291500
44,291600
46,291700
44,291800
44,291900
44,292000
44,292100
44,292200
47,292300
44,292400
44,292500
44,292600
44,292700
44,292800
48,292900
45,293000
45,293100
45,293200
45,293300
45,293400
47,293500
44,293600
44,293700
44,293800
44,293900
44,294000
47,294100
45,294200
45,294300
45,294400
45,294500
45,294600
47,294700
44,294800
44,294900
44,295000
44,295100
44,295200
47,295300
44,295400
44,295500
44,295600
44,295700
44,295800
46,295900
43,296000
43,296100
43,296200
43,296300
43,296400
46,296500
43,296600
43,296700
43,296800
43,296900
43,297000
46,297100
44,297200
44,297300
44,297400
44,297500
44,297600
46,297700
43,297800
43,297900
43,298000
43,298100
43,298200
46,298300
43,298400
43,298500
43,298600
43,298700
43,298800
46,298900
43,299000
43,299100
43,299200
43,299300
43,299400
47,299500
44,299600
44,299700
44,299800
44,299900
44,300000
46,300100
44,300200
44,300300
44,300400
44,300500
44,300600
47,300700
45,300800
45,300900
45,301000
45,301100
45,301200
47,301300
44,301400
44,301500
44,301600
44,301700
44,301800
44,301900
42,302000
42,302100
42,302200
42,302300
42,302400
46,302500
43,302600
43,302700
43,302800
43,302900
43,303000
46,303100
44,303200
44,303300
44,303400
44,303500
44,303600
47,303700
44,303800
44,303900
44,304000
44,304100
44,304200
45,304300
43,304400
43,304500
43,304600
43,304700
43,304800
46,304900
43,305000
43,305100
43,305200
43,305300
43,305400
47,305500
44,305600
44,305700
44,305800
44,305900
44,306000
46,306100
44,306200
44,306300
44,306400
44,306500
44,306600
43,306700
41,306800
41,306900
41,307000
41,307100
41,307200
46,307300
43,307400
43,307500
43,307600
43,307700
43,307800
45,307900
43,308000
43,308100
43,308200
43,308300
43,308400
44,308500
41,308600
41,308700
41,308800
41,308900
41,309000
46,309100
44,309200
44,309300
44,309400
44,309500
44,309600
44,309700
40,309800
40,309900
40,310000
40,310100
40,310200
45,310300
43,310400
43,310500
43,310600
43,310700
43,310800
46,310900
43,311000
43,311100
43,311200
43,311300
43,311400
45,311500
42,311600
42,311700
42,311800
42,311900
42,312000
46,312100
43,312200
43,312300
43,312400
43,312500
43,312600
46,312700
43,312800
43,312900
43,313000
43,313100
43,313200
43,313300
41,313400
41,313500
41,313600
41,313700
41,313800
46,313900
44,314000
44,314100
44,314200
44,314300
44,314400
45,314500
42,314600
42,314700
42,314800
42,314900
42,315000
43,315100
41,315200
41,315300
41,315400
41,315500
41,315600
44,315700
42,315800
42,315900
42,316000
42,316100
42,316200
44,316300
42,316400
42,316500
42,316600
42,316700
42,316800
45,316900
43,317000
43,317100
43,317200
43,317300
43,317400
46,317500
43,317600
43,317700
43,317800
43,317900
43,318000
45,318100
43,318200
43,318300
43,318400
43,318500
43,318600
45,318700
42,318800
42,318900
42,319000
42,319100
42,319200
44,319300
41,319400
41,319500
41,319600
41,319700
41,319800
43,319900
40,320000
40,320100
40,320200
40,320300
40,320400
44,320500
42,320600
42,320700
42,320800
42,320900
42,321000
43,321100
41,321200
41,321300
41,321400
41,321500
41,321600
43,321700
42,321800
42,321900
42,322000
42,322100
42,322200
44,322300
42,322400
42,322500
42,322600
42,322700
42,322800
43,322900
41,323000
41,323100
41,323200
41,323300
41,323400
45,323500
42,323600
42,323700
42,323800
42,323900
42,324000
44,324100
42,324200
42,324300
42,324400
42,324500
42,324600
43,324700
41,324800
41,324900
41,325000
41,325100
41,325200
44,325300
42,325400
42,325500
42,325600
42,325700
42,325800
44,325900
42,326000
42,326100
42,326200
42,326300
42,326400
44,326500
41,326600
41,326700
41,326800
41,326900
41,327000
44,327100
42,327200
42,327300
42,327400
42,327500
42,327600
44,327700
42,327800
42,327900
42,328000
42,328100
42,328200
42,328300
40,328400
40,328500
40,328600
40,328700
40,328800
43,328900
41,329000
41,329100
41,329200
41,329300
41,329400
43,329500
42,329600
42,329700
42,329800
42,329900
42,330000
43,330100
41,330200
41,330300
41,330400
41,330500
41,330600
42,330700
40,330800
40,330900
40,331000
40,331100
40,331200
43,331300
41,331400
41,331500
41,331600
41,331700
41,331800
43,331900
41,332000
41,332100
41,332200
41,332300
41,332400
43,332500
41,332600
41,332700
41,332800
41,332900
41,333000
41,333100
39,333200
39,333300
39,333400
39,333500
39,333600
41,333700
39,333800
39,333900
39,334000
39,334100
39,334200
42,334300
41,334400
41,334500
41,334600
41,334700
41,334800
42,334900
41,335000
41,335100
41,335200
41,335300
41,335400
42,335500
41,335600
41,335700
41,335800
41,335900
41,336000
43,336100
41,336200
41,336300
41,336400
41,336500
41,336600
43,336700
41,336800
41,336900
41,337000
41,337100
41,337200
44,337300
42,337400
42,337500
42,337600
42,337700
42,337800
41,337900
40,338000
