0,100
0,200
0,300
0,400
0,500
0,600
0,700
0,800
0,900
0,1000
0,1100
0,1200
0,1300
0,1400
0,1500
0,1600
0,1700
0,1800
0,1900
0,2000
0,2100
0,2200
0,2300
0,2400
0,2500
0,2600
0,2700
153,2800
140,2900
140,3000
140,3100
140,3200
140,3300
337,3400
310,3500
310,3600
310,3700
310,3800
310,3900
428,4000
393,4100
393,4200
393,4300
393,4400
393,4500
470,4600
431,4700
431,4800
431,4900
431,5000
431,5100
484,5200
446,5300
446,5400
446,5500
446,5600
446,5700
485,5800
447,5900
447,6000
447,6100
447,6200
447,6300
462,6400
426,6500
426,6600
426,6700
426,6800
426,6900
435,7000
401,7100
401,7200
401,7300
401,7400
401,7500
417,7600
383,7700
383,7800
383,7900
383,8000
383,8100
400,8200
368,8300
368,8400
368,8500
368,8600
368,8700
387,8800
357,8900
357,9000
357,9100
357,9200
357,9300
377,9400
348,9500
348,9600
348,9700
348,9800
348,9900
368,10000
338,10100
338,10200
338,10300
338,10400
338,10500
357,10600
329,10700
329,10800
329,10900
329,11000
329,11100
348,11200
320,11300
320,11400
320,11500
320,11600
320,11700
339,11800
312,11900
312,12000
312,12100
312,12200
312,12300
331,12400
305,12500
305,12600
305,12700
305,12800
305,12900
325,13000
299,13100
299,13200
299,13300
299,13400
299,13500
316,13600
292,13700
292,13800
292,13900
292,14000
292,14100
310,14200
285,14300
285,14400
285,14500
285,14600
285,14700
304,14800
280,14900
280,15000
280,15100
280,15200
280,15300
297,15400
273,15500
273,15600
273,15700
273,15800
273,15900
291,16000
268,16100
268,16200
268,16300
268,16400
268,16500
285,16600
262,16700
262,16800
262,16900
262,17000
262,17100
277,17200
255,17300
255,17400
255,17500
255,17600
255,17700
274,17800
253,17900
253,18000
253,18100
253,18200
253,18300
272,18400
250,18500
250,18600
250,18700
250,18800
250,18900
268,19000
247,19100
247,19200
247,19300
247,19400
247,19500
264,19600
243,19700
243,19800
243,19900
243,20000
243,20100
261,20200
240,20300
240,20400
240,20500
240,20600
240,20700
255,20800
237,20900
237,21000
237,21100
237,21200
237,21300
253,21400
233,21500
233,21600
233,21700
233,21800
233,21900
251,22000
230,22100
230,22200
230,22300
230,22400
230,22500
247,22600
228,22700
228,22800
228,22900
228,23000
228,23100
245,23200
225,23300
225,23400
225,23500
225,23600
225,23700
242,23800
223,23900
223,24000
223,24100
223,24200
223,24300
239,24400
220,24500
220,24600
220,24700
220,24800
220,24900
236,25000
218,25100
218,25200
218,25300
218,25400
218,25500
234,25600
216,25700
216,25800
216,25900
216,26000
216,26100
231,26200
213,26300
213,26400
213,26500
213,26600
213,26700
230,26800
212,26900
212,27000
212,27100
212,27200
212,27300
227,27400
209,27500
209,27600
209,27700
209,27800
209,27900
225,28000
207,28100
207,28200
207,28300
207,28400
207,28500
223,28600
205,28700
205,28800
205,28900
205,29000
205,29100
222,29200
204,29300
204,29400
204,29500
204,29600
204,29700
220,29800
202,29900
202,30000
202,30100
202,30200
202,30300
218,30400
200,30500
200,30600
200,30700
200,30800
200,30900
216,31000
199,31100
199,31200
199,31300
199,31400
199,31500
214,31600
197,31700
197,31800
197,31900
197,32000
197,32100
212,32200
196,32300
196,32400
196,32500
196,32600
196,32700
211,32800
194,32900
194,33000
194,33100
194,33200
194,33300
210,33400
193,33500
193,33600
193,33700
193,33800
193,33900
208,34000
192,34100
192,34200
192,34300
192,34400
192,34500
207,34600
191,34700
191,34800
191,34900
191,35000
191,35100
205,35200
189,35300
189,35400
189,35500
189,35600
189,35700
203,35800
188,35900
188,36000
188,36100
188,36200
188,36300
203,36400
187,36500
187,36600
187,36700
187,36800
187,36900
202,37000
186,37100
186,37200
186,37300
186,37400
186,37500
201,37600
185,37700
185,37800
185,37900
185,38000
185,38100
199,38200
183,38300
183,38400
183,38500
183,38600
183,38700
199,38800
183,38900
183,39000
183,39100
183,39200
183,39300
198,39400
182,39500
182,39600
182,39700
182,39800
182,39900
196,40000
181,40100
181,40200
181,40300
181,40400
181,40500
196,40600
180,40700
180,40800
180,40900
180,41000
180,41100
195,41200
179,41300
179,41400
179,41500
179,41600
179,41700
193,41800
178,41900
178,42000
178,42100
178,42200
178,42300
192,42400
177,42500
177,42600
177,42700
177,42800
177,42900
192,43000
177,43100
177,43200
177,43300
177,43400
177,43500
190,43600
175,43700
175,43800
175,43900
175,44000
175,44100
189,44200
174,44300
174,44400
174,44500
174,44600
174,44700
189,44800
174,44900
174,45000
174,45100
174,45200
174,45300
187,45400
172,45500
172,45600
172,45700
172,45800
172,45900
187,46000
172,46100
172,46200
172,46300
172,46400
172,46500
186,46600
172,46700
172,46800
172,46900
172,47000
172,47100
185,47200
171,47300
171,47400
171,47500
171,47600
171,47700
185,47800
171,47900
171,48000
171,48100
171,48200
171,48300
184,48400
169,48500
169,48600
169,48700
169,48800
169,48900
183,49000
168,49100
168,49200
168,49300
168,49400
168,49500
182,49600
168,49700
168,49800
168,49900
168,50000
168,50100
182,50200
168,50300
168,50400
168,50500
168,50600
168,50700
181,50800
167,50900
167,51000
167,51100
167,51200
167,51300
181,51400
166,51500
166,51600
166,51700
166,51800
166,51900
179,52000
165,52100
165,52200
165,52300
165,52400
165,52500
179,52600
165,52700
165,52800
165,52900
165,53000
165,53100
178,53200
164,53300
164,53400
164,53500
164,53600
164,53700
178,53800
165,53900
165,54000
165,54100
165,54200
165,54300
178,54400
164,54500
164,54600
164,54700
164,54800
164,54900
177,55000
163,55100
163,55200
163,55300
163,55400
163,55500
176,55600
162,55700
162,55800
162,55900
162,56000
162,56100
176,56200
163,56300
163,56400
163,56500
163,56600
163,56700
176,56800
162,56900
162,57000
162,57100
162,57200
162,57300
175,57400
161,57500
161,57600
161,57700
161,57800
161,57900
175,58000
161,58100
161,58200
161,58300
161,58400
161,58500
174,58600
160,58700
160,58800
160,58900
160,59000
160,59100
174,59200
160,59300
160,59400
160,59500
160,59600
160,59700
174,59800
160,59900
160,60000
160,60100
160,60200
160,60300
173,60400
159,60500
159,60600
159,60700
159,60800
159,60900
173,61000
159,61100
159,61200
159,61300
159,61400
159,61500
172,61600
158,61700
158,61800
158,61900
158,62000
158,62100
172,62200
159,62300
159,62400
159,62500
159,62600
159,62700
171,62800
158,62900
158,63000
158,63100
158,63200
158,63300
171,63400
157,63500
157,63600
157,63700
157,63800
157,63900
169,64000
157,64100
157,64200
157,64300
157,64400
157,64500
170,64600
157,64700
157,64800
157,64900
157,65000
157,65100
169,65200
157,65300
157,65400
157,65500
157,65600
157,65700
169,65800
156,65900
156,66000
156,66100
156,66200
156,66300
169,66400
156,66500
156,66600
156,66700
156,66800
156,66900
168,67000
155,67100
155,67200
155,67300
155,67400
155,67500
167,67600
156,67700
156,67800
156,67900
156,68000
156,68100
167,68200
155,68300
155,68400
155,68500
155,68600
155,68700
166,68800
154,68900
154,69000
154,69100
154,69200
154,69300
166,69400
154,69500
154,69600
154,69700
154,69800
154,69900
166,70000
154,70100
154,70200
154,70300
154,70400
154,70500
166,70600
154,70700
154,70800
154,70900
154,71000
154,71100
166,71200
153,71300
153,71400
153,71500
153,71600
153,71700
166,71800
153,71900
153,72000
153,72100
153,72200
153,72300
165,72400
153,72500
153,72600
153,72700
153,72800
153,72900
165,73000
153,73100
153,73200
153,73300
153,73400
153,73500
165,73600
152,73700
152,73800
152,73900
152,74000
152,74100
165,74200
152,74300
152,74400
152,74500
152,74600
152,74700
165,74800
152,74900
152,75000
152,75100
152,75200
152,75300
165,75400
153,75500
153,75600
153,75700
153,75800
153,75900
161,76000
152,76100
152,76200
152,76300
152,76400
152,76500
164,76600
152,76700
152,76800
152,76900
152,77000
152,77100
164,77200
152,77300
152,77400
152,77500
152,77600
152,77700
164,77800
152,77900
152,78000
152,78100
152,78200
152,78300
159,78400
151,78500
151,78600
151,78700
151,78800
151,78900
164,79000
152,79100
152,79200
152,79300
152,79400
152,79500
159,79600
151,79700
151,79800
151,79900
151,80000
151,80100
163,80200
151,80300
151,80400
151,80500
151,80600
151,80700
159,80800
151,80900
151,81000
151,81100
151,81200
151,81300
163,81400
150,81500
150,81600
150,81700
150,81800
150,81900
162,82000
151,82100
151,82200
151,82300
151,82400
151,82500
159,82600
150,82700
150,82800
150,82900
150,83000
150,83100
158,83200
151,83300
151,83400
151,83500
151,83600
151,83700
159,83800
151,83900
151,84000
151,84100
151,84200
151,84300
158,84400
150,84500
150,84600
150,84700
150,84800
150,84900
158,85000
151,85100
151,85200
151,85300
151,85400
151,85500
158,85600
150,85700
150,85800
150,85900
150,86000
150,86100
159,86200
150,86300
150,86400
150,86500
150,86600
150,86700
158,86800
150,86900
150,87000
150,87100
150,87200
150,87300
158,87400
150,87500
150,87600
150,87700
150,87800
150,87900
162,88000
151,88100
151,88200
151,88300
151,88400
151,88500
159,88600
150,88700
150,88800
150,88900
150,89000
150,89100
158,89200
150,89300
150,89400
150,89500
150,89600
150,89700
158,89800
150,89900
150,90000
150,90100
150,90200
150,90300
158,90400
150,90500
150,90600
150,90700
150,90800
150,90900
158,91000
150,91100
150,91200
150,91300
150,91400
150,91500
159,91600
150,91700
150,91800
150,91900
150,92000
150,92100
159,92200
150,92300
150,92400
150,92500
150,92600
150,92700
158,92800
150,92900
150,93000
150,93100
150,93200
150,93300
158,93400
151,93500
151,93600
151,93700
151,93800
151,93900
158,94000
151,94100
151,94200
151,94300
151,94400
151,94500
154,94600
151,94700
151,94800
151,94900
151,95000
151,95100
159,95200
150,95300
150,95400
150,95500
150,95600
150,95700
155,95800
150,95900
150,96000
150,96100
150,96200
150,96300
158,96400
151,96500
151,96600
151,96700
151,96800
151,96900
155,97000
151,97100
151,97200
151,97300
151,97400
151,97500
158,97600
150,97700
150,97800
150,97900
150,98000
150,98100
155,98200
150,98300
150,98400
150,98500
150,98600
150,98700
155,98800
151,98900
151,99000
151,99100
151,99200
151,99300
155,99400
151,99500
151,99600
151,99700
151,99800
151,99900
155,100000
151,100100
151,100200
151,100300
151,100400
151,100500
155,100600
151,100700
151,100800
151,100900
151,101000
151,101100
155,101200
151,101300
151,101400
151,101500
151,101600
151,101700
155,101800
151,101900
151,102000
151,102100
151,102200
151,102300
155,102400
151,102500
151,102600
151,102700
151,102800
151,102900
151,103000
151,103100
151,103200
151,103300
151,103400
151,103500
156,103600
152,103700
152,103800
152,103900
152,104000
152,104100
152,104200
152,104300
152,104400
152,104500
152,104600
152,104700
156,104800
152,104900
152,105000
152,105100
152,105200
152,105300
153,105400
153,105500
153,105600
153,105700
153,105800
153,105900
152,106000
152,106100
152,106200
152,106300
152,106400
152,106500
152,106600
152,106700
152,106800
152,106900
152,107000
152,107100
153,107200
153,107300
153,107400
153,107500
153,107600
153,107700
152,107800
152,107900
152,108000
152,108100
152,108200
152,108300
153,108400
153,108500
153,108600
153,108700
153,108800
153,108900
153,109000
153,109100
153,109200
153,109300
153,109400
153,109500
153,109600
153,109700
153,109800
153,109900
153,110000
153,110100
154,110200
154,110300
154,110400
154,110500
154,110600
154,110700
154,110800
154,110900
154,111000
154,111100
154,111200
154,111300
154,111400
154,111500
154,111600
154,111700
154,111800
154,111900
154,112000
154,112100
154,112200
154,112300
154,112400
154,112500
154,112600
154,112700
154,112800
154,112900
154,113000
154,113100
154,113200
154,113300
154,113400
154,113500
154,113600
154,113700
155,113800
155,113900
155,114000
155,114100
155,114200
155,114300
155,114400
155,114500
155,114600
155,114700
155,114800
155,114900
155,115000
155,115100
155,115200
155,115300
155,115400
155,115500
156,115600
156,115700
156,115800
156,115900
156,116000
156,116100
156,116200
156,116300
156,116400
156,116500
156,116600
156,116700
156,116800
156,116900
156,117000
156,117100
156,117200
156,117300
156,117400
156,117500
156,117600
156,117700
156,117800
156,117900
156,118000
156,118100
156,118200
156,118300
156,118400
156,118500
157,118600
157,118700
157,118800
157,118900
157,119000
157,119100
157,119200
157,119300
157,119400
157,119500
157,119600
157,119700
158,119800
158,119900
158,120000
158,120100
158,120200
158,120300
158,120400
158,120500
158,120600
158,120700
158,120800
158,120900
159,121000
159,121100
159,121200
159,121300
159,121400
159,121500
158,121600
158,121700
158,121800
158,121900
158,122000
158,122100
159,122200
159,122300
159,122400
159,122500
159,122600
175,122700
159,122800
159,122900
159,123000
159,123100
159,123200
159,123300
159,123400
159,123500
159,123600
159,123700
159,123800
159,123900
159,124000
159,124100
159,124200
159,124300
159,124400
176,124500
160,124600
160,124700
160,124800
160,124900
160,125000
176,125100
160,125200
160,125300
160,125400
160,125500
160,125600
177,125700
161,125800
161,125900
161,126000
161,126100
161,126200
177,126300
161,126400
161,126500
161,126600
161,126700
161,126800
178,126900
162,127000
162,127100
162,127200
162,127300
162,127400
178,127500
162,127600
162,127700
162,127800
162,127900
162,128000
178,128100
162,128200
162,128300
162,128400
162,128500
162,128600
179,128700
163,128800
163,128900
163,129000
163,129100
163,129200
180,129300
163,129400
163,129500
163,129600
163,129700
163,129800
179,129900
164,130000
164,130100
164,130200
164,130300
164,130400
181,130500
164,130600
164,130700
164,130800
164,130900
164,131000
181,131100
164,131200
164,131300
164,131400
164,131500
164,131600
181,131700
164,131800
164,131900
164,132000
164,132100
164,132200
182,132300
166,132400
166,132500
166,132600
166,132700
166,132800
182,132900
166,133000
166,133100
166,133200
166,133300
166,133400
183,133500
166,133600
166,133700
166,133800
166,133900
166,134000
184,134100
167,134200
167,134300
167,134400
167,134500
167,134600
184,134700
167,134800
167,134900
167,135000
167,135100
167,135200
185,135300
168,135400
168,135500
168,135600
168,135700
168,135800
185,135900
168,136000
168,136100
168,136200
168,136300
168,136400
186,136500
169,136600
169,136700
169,136800
169,136900
169,137000
186,137100
169,137200
169,137300
169,137400
169,137500
169,137600
187,137700
170,137800
170,137900
170,138000
170,138100
170,138200
188,138300
171,138400
171,138500
171,138600
171,138700
171,138800
188,138900
171,139000
171,139100
171,139200
171,139300
171,139400
189,139500
172,139600
172,139700
172,139800
172,139900
172,140000
189,140100
172,140200
172,140300
172,140400
172,140500
172,140600
191,140700
173,140800
173,140900
173,141000
173,141100
173,141200
191,141300
174,141400
174,141500
174,141600
174,141700
174,141800
191,141900
174,142000
174,142100
174,142200
174,142300
174,142400
192,142500
175,142600
175,142700
175,142800
175,142900
175,143000
193,143100
176,143200
176,143300
176,143400
176,143500
176,143600
194,143700
176,143800
176,143900
176,144000
176,144100
176,144200
195,144300
177,144400
177,144500
177,144600
177,144700
177,144800
195,144900
178,145000
178,145100
178,145200
178,145300
178,145400
196,145500
179,145600
179,145700
179,145800
179,145900
179,146000
197,146100
179,146200
179,146300
179,146400
179,146500
179,146600
197,146700
180,146800
180,146900
180,147000
180,147100
180,147200
198,147300
181,147400
181,147500
181,147600
181,147700
181,147800
199,147900
182,148000
182,148100
182,148200
182,148300
182,148400
200,148500
182,148600
182,148700
182,148800
182,148900
182,149000
201,149100
183,149200
183,149300
183,149400
183,149500
183,149600
202,149700
184,149800
184,149900
184,150000
184,150100
184,150200
202,150300
184,150400
184,150500
184,150600
184,150700
184,150800
203,150900
185,151000
185,151100
185,151200
185,151300
185,151400
205,151500
186,151600
186,151700
186,151800
186,151900
186,152000
205,152100
186,152200
186,152300
186,152400
186,152500
186,152600
206,152700
188,152800
188,152900
188,153000
188,153100
188,153200
207,153300
188,153400
188,153500
188,153600
188,153700
188,153800
208,153900
189,154000
189,154100
189,154200
189,154300
189,154400
208,154500
190,154600
190,154700
190,154800
190,154900
190,155000
210,155100
192,155200
192,155300
192,155400
192,155500
192,155600
210,155700
192,155800
192,155900
192,156000
192,156100
192,156200
212,156300
193,156400
193,156500
193,156600
193,156700
193,156800
212,156900
193,157000
193,157100
193,157200
193,157300
193,157400
213,157500
194,157600
194,157700
194,157800
194,157900
194,158000
215,158100
195,158200
195,158300
195,158400
195,158500
195,158600
216,158700
196,158800
196,158900
196,159000
196,159100
196,159200
216,159300
198,159400
198,159500
198,159600
198,159700
198,159800
218,159900
199,160000
199,160100
199,160200
199,160300
199,160400
219,160500
199,160600
199,160700
199,160800
199,160900
199,161000
220,161100
200,161200
200,161300
200,161400
200,161500
200,161600
221,161700
202,161800
202,161900
202,162000
202,162100
202,162200
223,162300
203,162400
203,162500
203,162600
203,162700
203,162800
224,162900
204,163000
204,163100
204,163200
204,163300
204,163400
224,163500
205,163600
205,163700
205,163800
205,163900
205,164000
226,164100
207,164200
207,164300
207,164400
207,164500
207,164600
227,164700
207,164800
207,164900
207,165000
207,165100
207,165200
228,165300
208,165400
208,165500
208,165600
208,165700
208,165800
230,165900
209,166000
209,166100
209,166200
209,166300
209,166400
232,166500
211,166600
211,166700
211,166800
211,166900
211,167000
232,167100
213,167200
213,167300
213,167400
213,167500
213,167600
234,167700
213,167800
213,167900
213,168000
213,168100
213,168200
235,168300
215,168400
215,168500
215,168600
215,168700
215,168800
237,168900
215,169000
215,169100
215,169200
215,169300
215,169400
237,169500
217,169600
217,169700
217,169800
217,169900
217,170000
240,170100
219,170200
219,170300
219,170400
219,170500
219,170600
241,170700
219,170800
219,170900
219,171000
219,171100
219,171200
241,171300
221,171400
221,171500
221,171600
221,171700
221,171800
243,171900
223,172000
223,172100
223,172200
223,172300
223,172400
244,172500
224,172600
224,172700
224,172800
224,172900
224,173000
246,173100
224,173200
224,173300
224,173400
224,173500
224,173600
247,173700
226,173800
226,173900
226,174000
226,174100
226,174200
249,174300
228,174400
228,174500
228,174600
228,174700
228,174800
250,174900
229,175000
229,175100
229,175200
229,175300
229,175400
251,175500
230,175600
230,175700
230,175800
230,175900
230,176000
252,176100
231,176200
231,176300
231,176400
231,176500
231,176600
255,176700
233,176800
233,176900
233,177000
233,177100
233,177200
257,177300
235,177400
235,177500
235,177600
235,177700
235,177800
258,177900
236,178000
236,178100
236,178200
236,178300
236,178400
260,178500
237,178600
237,178700
237,178800
237,178900
237,179000
261,179100
239,179200
239,179300
239,179400
239,179500
239,179600
261,179700
240,179800
240,179900
240,180000
240,180100
240,180200
264,180300
241,180400
241,180500
241,180600
241,180700
241,180800
264,180900
242,181000
242,181100
242,181200
242,181300
242,181400
242,181500
244,181600
244,181700
244,181800
244,181900
244,182000
268,182100
245,182200
245,182300
245,182400
245,182500
245,182600
270,182700
247,182800
247,182900
247,183000
247,183100
247,183200
270,183300
248,183400
248,183500
248,183600
248,183700
248,183800
248,183900
249,184000
249,184100
249,184200
249,184300
249,184400
275,184500
252,184600
252,184700
252,184800
252,184900
252,185000
276,185100
253,185200
253,185300
253,185400
253,185500
253,185600
277,185700
255,185800
255,185900
255,186000
255,186100
255,186200
255,186300
256,186400
256,186500
256,186600
256,186700
256,186800
281,186900
258,187000
258,187100
258,187200
258,187300
258,187400
283,187500
259,187600
259,187700
259,187800
259,187900
259,188000
286,188100
263,188200
263,188300
263,188400
263,188500
263,188600
287,188700
263,188800
263,188900
263,189000
263,189100
263,189200
288,189300
265,189400
265,189500
265,189600
265,189700
265,189800
293,189900
269,190000
269,190100
269,190200
269,190300
269,190400
293,190500
269,190600
269,190700
269,190800
269,190900
269,191000
269,191100
271,191200
271,191300
271,191400
271,191500
271,191600
297,191700
273,191800
273,191900
273,192000
273,192100
273,192200
299,192300
275,192400
275,192500
275,192600
275,192700
275,192800
301,192900
277,193000
277,193100
277,193200
277,193300
277,193400
277,193500
279,193600
279,193700
279,193800
279,193900
279,194000
305,194100
280,194200
280,194300
280,194400
280,194500
280,194600
280,194700
282,194800
282,194900
282,195000
282,195100
282,195200
310,195300
285,195400
285,195500
285,195600
285,195700
285,195800
285,195900
287,196000
287,196100
287,196200
287,196300
287,196400
313,196500
289,196600
289,196700
289,196800
289,196900
289,197000
289,197100
291,197200
291,197300
291,197400
291,197500
291,197600
318,197700
292,197800
292,197900
292,198000
292,198100
292,198200
292,198300
295,198400
295,198500
295,198600
295,198700
295,198800
321,198900
296,199000
296,199100
296,199200
296,199300
296,199400
296,199500
298,199600
298,199700
298,199800
298,199900
298,200000
327,200100
301,200200
301,200300
301,200400
301,200500
301,200600
301,200700
303,200800
303,200900
303,201000
303,201100
303,201200
331,201300
305,201400
305,201500
305,201600
305,201700
305,201800
305,201900
307,202000
307,202100
307,202200
307,202300
307,202400
335,202500
308,202600
308,202700
308,202800
308,202900
308,203000
308,203100
311,203200
311,203300
311,203400
311,203500
311,203600
340,203700
313,203800
313,203900
313,204000
313,204100
313,204200
313,204300
315,204400
315,204500
315,204600
315,204700
315,204800
345,204900
318,205000
318,205100
318,205200
318,205300
318,205400
318,205500
320,205600
320,205700
320,205800
320,205900
320,206000
320,206100
323,206200
323,206300
323,206400
323,206500
323,206600
323,206700
323,206800
323,206900
323,207000
323,207100
323,207200
323,207300
325,207400
325,207500
325,207600
325,207700
325,207800
325,207900
328,208000
328,208100
328,208200
328,208300
328,208400
328,208500
330,208600
330,208700
330,208800
330,208900
330,209000
330,209100
333,209200
333,209300
333,209400
333,209500
333,209600
333,209700
333,209800
333,209900
333,210000
333,210100
333,210200
333,210300
335,210400
335,210500
335,210600
335,210700
335,210800
335,210900
338,211000
338,211100
338,211200
338,211300
338,211400
338,211500
341,211600
341,211700
341,211800
341,211900
341,212000
341,212100
342,212200
342,212300
342,212400
342,212500
342,212600
342,212700
345,212800
345,212900
345,213000
345,213100
345,213200
345,213300
347,213400
347,213500
347,213600
347,213700
347,213800
347,213900
350,214000
350,214100
350,214200
350,214300
350,214400
350,214500
354,214600
354,214700
354,214800
354,214900
354,215000
354,215100
355,215200
355,215300
355,215400
355,215500
355,215600
355,215700
359,215800
359,215900
359,216000
359,216100
359,216200
359,216300
361,216400
361,216500
361,216600
361,216700
361,216800
361,216900
364,217000
364,217100
364,217200
364,217300
364,217400
364,217500
367,217600
367,217700
367,217800
367,217900
367,218000
367,218100
369,218200
369,218300
369,218400
369,218500
369,218600
369,218700
372,218800
372,218900
372,219000
372,219100
372,219200
372,219300
375,219400
375,219500
375,219600
375,219700
375,219800
375,219900
377,220000
377,220100
377,220200
377,220300
377,220400
377,220500
380,220600
380,220700
380,220800
380,220900
380,221000
380,221100
383,221200
383,221300
383,221400
383,221500
383,221600
383,221700
385,221800
385,221900
385,222000
385,222100
385,222200
385,222300
388,222400
388,222500
388,222600
388,222700
388,222800
388,222900
390,223000
390,223100
390,223200
390,223300
390,223400
390,223500
393,223600
393,223700
393,223800
393,223900
393,224000
393,224100
396,224200
396,224300
396,224400
396,224500
396,224600
396,224700
398,224800
398,224900
398,225000
398,225100
398,225200
398,225300
401,225400
401,225500
401,225600
401,225700
401,225800
401,225900
404,226000
404,226100
404,226200
404,226300
404,226400
404,226500
407,226600
407,226700
407,226800
407,226900
407,227000
407,227100
419,227200
410,227300
410,227400
410,227500
410,227600
410,227700
413,227800
413,227900
413,228000
413,228100
413,228200
413,228300
424,228400
415,228500
415,228600
415,228700
415,228800
415,228900
427,229000
417,229100
417,229200
417,229300
417,229400
417,229500
429,229600
420,229700
420,229800
420,229900
420,230000
420,230100
432,230200
424,230300
424,230400
424,230500
424,230600
424,230700
434,230800
425,230900
425,231000
425,231100
425,231200
425,231300
437,231400
429,231500
429,231600
429,231700
429,231800
429,231900
440,232000
431,232100
431,232200
431,232300
431,232400
431,232500
443,232600
434,232700
434,232800
434,232900
434,233000
434,233100
452,233200
436,233300
436,233400
436,233500
436,233600
436,233700
449,233800
439,233900
439,234000
439,234100
439,234200
439,234300
459,234400
442,234500
442,234600
442,234700
442,234800
442,234900
461,235000
444,235100
444,235200
444,235300
444,235400
444,235500
464,235600
446,235700
446,235800
446,235900
446,236000
446,236100
467,236200
450,236300
450,236400
450,236500
450,236600
450,236700
470,236800
452,236900
452,237000
452,237100
452,237200
452,237300
473,237400
456,237500
456,237600
456,237700
456,237800
456,237900
477,238000
459,238100
459,238200
459,238300
459,238400
459,238500
481,238600
462,238700
462,238800
462,238900
462,239000
462,239100
485,239200
465,239300
465,239400
465,239500
465,239600
465,239700
492,239800
468,239900
468,240000
468,240100
468,240200
468,240300
490,240400
471,240500
471,240600
471,240700
471,240800
471,240900
493,241000
474,241100
474,241200
474,241300
474,241400
474,241500
497,241600
477,241700
477,241800
477,241900
477,242000
477,242100
500,242200
481,242300
481,242400
481,242500
481,242600
481,242700
504,242800
484,242900
484,243000
484,243100
484,243200
484,243300
514,243400
488,243500
488,243600
488,243700
488,243800
488,243900
510,244000
490,244100
490,244200
490,244300
490,244400
490,244500
513,244600
493,244700
493,244800
493,244900
493,245000
493,245100
516,245200
496,245300
496,245400
496,245500
496,245600
496,245700
519,245800
500,245900
500,246000
500,246100
500,246200
500,246300
522,246400
503,246500
503,246600
503,246700
503,246800
503,246900
525,247000
506,247100
506,247200
506,247300
506,247400
506,247500
528,247600
509,247700
509,247800
509,247900
509,248000
509,248100
531,248200
512,248300
512,248400
512,248500
512,248600
512,248700
534,248800
515,248900
515,249000
515,249100
515,249200
515,249300
543,249400
519,249500
519,249600
519,249700
519,249800
519,249900
541,250000
521,250100
521,250200
521,250300
521,250400
521,250500
543,250600
525,250700
525,250800
525,250900
525,251000
525,251100
547,251200
528,251300
528,251400
528,251500
528,251600
528,251700
549,251800
531,251900
531,252000
531,252100
531,252200
531,252300
552,252400
534,252500
534,252600
534,252700
534,252800
534,252900
555,253000
537,253100
537,253200
537,253300
537,253400
537,253500
559,253600
540,253700
540,253800
540,253900
540,254000
540,254100
567,254200
543,254300
543,254400
543,254500
543,254600
543,254700
564,254800
545,254900
545,255000
545,255100
545,255200
545,255300
573,255400
550,255500
550,255600
550,255700
550,255800
550,255900
570,256000
552,256100
552,256200
552,256300
552,256400
552,256500
579,256600
555,256700
555,256800
555,256900
555,257000
555,257100
575,257200
558,257300
558,257400
558,257500
558,257600
558,257700
585,257800
561,257900
561,258000
561,258100
561,258200
561,258300
588,258400
564,258500
564,258600
564,258700
564,258800
564,258900
591,259000
567,259100
567,259200
567,259300
567,259400
567,259500
594,259600
569,259700
569,259800
569,259900
569,260000
569,260100
595,260200
573,260300
573,260400
573,260500
573,260600
573,260700
600,260800
575,260900
575,261000
575,261100
575,261200
575,261300
601,261400
578,261500
578,261600
578,261700
578,261800
578,261900
606,262000
581,262100
581,262200
581,262300
581,262400
581,262500
608,262600
584,262700
584,262800
584,262900
584,263000
584,263100
611,263200
587,263300
587,263400
587,263500
587,263600
587,263700
613,263800
590,263900
590,264000
590,264100
590,264200
590,264300
617,264400
593,264500
593,264600
593,264700
593,264800
593,264900
618,265000
596,265100
596,265200
596,265300
596,265400
596,265500
622,265600
599,265700
599,265800
599,265900
599,266000
599,266100
625,266200
602,266300
602,266400
602,266500
602,266600
602,266700
628,266800
606,266900
606,267000
606,267100
606,267200
606,267300
633,267400
609,267500
609,267600
609,267700
609,267800
609,267900
634,268000
612,268100
612,268200
612,268300
612,268400
612,268500
639,268600
615,268700
615,268800
615,268900
615,269000
615,269100
639,269200
618,269300
618,269400
618,269500
618,269600
618,269700
645,269800
621,269900
621,270000
621,270100
621,270200
621,270300
646,270400
624,270500
624,270600
624,270700
624,270800
624,270900
651,271000
627,271100
627,271200
627,271300
627,271400
627,271500
653,271600
630,271700
630,271800
630,271900
630,272000
630,272100
655,272200
634,272300
634,272400
634,272500
634,272600
634,272700
657,272800
637,272900
637,273000
637,273100
637,273200
637,273300
660,273400
640,273500
640,273600
640,273700
640,273800
640,273900
664,274000
643,274100
643,274200
643,274300
643,274400
643,274500
665,274600
647,274700
647,274800
647,274900
647,275000
647,275100
667,275200
649,275300
649,275400
649,275500
649,275600
649,275700
667,275800
651,275900
651,276000
651,276100
651,276200
651,276300
674,276400
655,276500
655,276600
655,276700
655,276800
655,276900
676,277000
658,277100
658,277200
658,277300
658,277400
658,277500
680,277600
661,277700
661,277800
661,277900
661,278000
661,278100
678,278200
664,278300
664,278400
664,278500
664,278600
664,278700
681,278800
667,278900
667,279000
667,279100
667,279200
667,279300
680,279400
669,279500
669,279600
669,279700
669,279800
669,279900
681,280000
672,280100
672,280200
672,280300
672,280400
672,280500
682,280600
675,280700
675,280800
675,280900
675,281000
675,281100
680,281200
677,281300
677,281400
677,281500
677,281600
677,281700
677,281800
680,281900
680,282000
680,282100
680,282200
680,282300
682,282400
683,282500
683,282600
683,282700
683,282800
683,282900
683,283000
685,283100
685,283200
685,283300
685,283400
685,283500
677,283600
686,283700
686,283800
686,283900
686,284000
686,284100
684,284200
689,284300
689,284400
689,284500
689,284600
689,284700
684,284800
691,284900
691,285000
691,285100
691,285200
691,285300
687,285400
693,285500
693,285600
693,285700
693,285800
693,285900
678,286000
694,286100
694,286200
694,286300
694,286400
694,286500
679,286600
695,286700
695,286800
695,286900
695,287000
695,287100
688,287200
701,287300
701,287400
701,287500
701,287600
701,287700
689,287800
703,287900
703,288000
703,288100
703,288200
703,288300
686,288400
704,288500
704,288600
704,288700
704,288800
704,288900
685,289000
705,289100
705,289200
705,289300
705,289400
705,289500
687,289600
708,289700
708,289800
708,289900
708,290000
708,290100
689,290200
708,290300
708,290400
708,290500
708,290600
708,290700
691,290800
712,290900
712,291000
712,291100
712,291200
712,291300
692,291400
715,291500
715,291600
715,291700
715,291800
715,291900
694,292000
717,292100
717,292200
717,292300
717,292400
717,292500
693,292600
720,292700
720,292800
720,292900
720,293000
720,293100
693,293200
721,293300
721,293400
721,293500
721,293600
721,293700
695,293800
724,293900
724,294000
724,294100
724,294200
724,294300
696,294400
727,294500
727,294600
727,294700
727,294800
727,294900
699,295000
731,295100
731,295200
731,295300
731,295400
731,295500
700,295600
732,295700
732,295800
732,295900
732,296000
732,296100
695,296200
732,296300
732,296400
732,296500
732,296600
732,296700
700,296800
736,296900
736,297000
736,297100
736,297200
736,297300
698,297400
735,297500
735,297600
735,297700
735,297800
735,297900
695,298000
735,298100
735,298200
735,298300
735,298400
735,298500
701,298600
741,298700
741,298800
741,298900
741,299000
741,299100
698,299200
741,299300
741,299400
741,299500
741,299600
741,299700
703,299800
742,299900
742,300000
742,300100
742,300200
742,300300
703,300400
744,300500
744,300600
744,300700
744,300800
744,300900
705,301000
746,301100
746,301200
746,301300
746,301400
746,301500
703,301600
746,301700
746,301800
746,301900
746,302000
746,302100
705,302200
747,302300
747,302400
747,302500
747,302600
747,302700
698,302800
742,302900
742,303000
742,303100
742,303200
742,303300
705,303400
747,303500
747,303600
747,303700
747,303800
747,303900
705,304000
749,304100
749,304200
749,304300
749,304400
749,304500
707,304600
750,304700
750,304800
750,304900
750,305000
750,305100
705,305200
748,305300
748,305400
748,305500
748,305600
748,305700
707,305800
751,305900
751,306000
751,306100
751,306200
751,306300
706,306400
750,306500
750,306600
750,306700
750,306800
750,306900
707,307000
751,307100
751,307200
751,307300
751,307400
751,307500
708,307600
751,307700
751,307800
751,307900
751,308000
751,308100
709,308200
752,308300
752,308400
752,308500
752,308600
752,308700
709,308800
752,308900
752,309000
752,309100
752,309200
752,309300
704,309400
748,309500
748,309600
748,309700
748,309800
748,309900
710,310000
753,310100
753,310200
753,310300
753,310400
753,310500
707,310600
750,310700
750,310800
750,310900
750,311000
750,311100
706,311200
750,311300
750,311400
750,311500
750,311600
750,311700
711,311800
754,311900
754,312000
754,312100
754,312200
754,312300
705,312400
749,312500
749,312600
749,312700
749,312800
749,312900
712,313000
755,313100
755,313200
755,313300
755,313400
755,313500
713,313600
756,313700
756,313800
756,313900
756,314000
756,314100
709,314200
753,314300
753,314400
753,314500
753,314600
753,314700
710,314800
755,314900
755,315000
755,315100
755,315200
755,315300
714,315400
757,315500
757,315600
757,315700
757,315800
757,315900
715,316000
758,316100
758,316200
758,316300
758,316400
758,316500
716,316600
760,316700
760,316800
760,316900
760,317000
760,317100
718,317200
762,317300
762,317400
762,317500
762,317600
762,317700
719,317800
761,317900
761,318000
761,318100
761,318200
761,318300
713,318400
757,318500
757,318600
757,318700
757,318800
757,318900
716,319000
759,319100
759,319200
759,319300
759,319400
759,319500
720,319600
764,319700
764,319800
764,319900
764,320000
764,320100
714,320200
758,320300
758,320400
758,320500
758,320600
758,320700
717,320800
761,320900
761,321000
761,321100
761,321200
761,321300
723,321400
765,321500
765,321600
765,321700
765,321800
765,321900
724,322000
767,322100
767,322200
767,322300
767,322400
767,322500
715,322600
760,322700
760,322800
760,322900
760,323000
760,323100
724,323200
767,323300
767,323400
767,323500
767,323600
767,323700
718,323800
762,323900
762,324000
762,324100
762,324200
762,324300
723,324400
766,324500
766,324600
766,324700
766,324800
766,324900
718,325000
762,325100
762,325200
762,325300
762,325400
762,325500
725,325600
768,325700
768,325800
768,325900
768,326000
768,326100
726,326200
770,326300
770,326400
770,326500
770,326600
770,326700
717,326800
762,326900
762,327000
762,327100
762,327200
762,327300
721,327400
765,327500
765,327600
765,327700
765,327800
765,327900
720,328000
764,328100
764,328200
764,328300
764,328400
764,328500
727,328600
771,328700
771,328800
771,328900
771,329000
771,329100
726,329200
770,329300
770,329400
770,329500
770,329600
770,329700
726,329800
770,329900
770,330000
770,330100
770,330200
770,330300
721,330400
765,330500
765,330600
765,330700
765,330800
765,330900
727,331000
771,331100
771,331200
771,331300
771,331400
771,331500
722,331600
767,331700
767,331800
767,331900
767,332000
767,332100
724,332200
769,332300
769,332400
769,332500
769,332600
769,332700
726,332800
770,332900
770,333000
770,333100
770,333200
770,333300
725,333400
770,333500
770,333600
770,333700
770,333800
770,333900
728,334000
773,334100
773,334200
773,334300
773,334400
773,334500
728,334600
772,334700
772,334800
772,334900
772,335000
772,335100
729,335200
774,335300
774,335400
774,335500
774,335600
774,335700
729,335800
774,335900
774,336000
774,336100
774,336200
774,336300
724,336400
769,336500
769,336600
769,336700
769,336800
769,336900
724,337000
770,337100
770,337200
770,337300
770,337400
770,337500
730,337600
774,337700
774,337800
774,337900
774,338000
774,338100
728,338200
774,338300
774,338400
774,338500
774,338600
774,338700
733,338800
777,338900
777,339000
777,339100
777,339200
777,339300
734,339400
778,339500
778,339600
778,339700
778,339800
778,339900
729,340000
775,340100
775,340200
775,340300
775,340400
775,340500
734,340600
779,340700
779,340800
779,340900
779,341000
779,341100
733,341200
779,341300
779,341400
779,341500
779,341600
779,341700
737,341800
782,341900
782,342000
782,342100
782,342200
782,342300
731,342400
777,342500
777,342600
777,342700
777,342800
777,342900
737,343000
782,343100
782,343200
782,343300
782,343400
782,343500
738,343600
783,343700
783,343800
783,343900
783,344000
783,344100
736,344200
780,344300
780,344400
780,344500
780,344600
780,344700
738,344800
784,344900
784,345000
784,345100
784,345200
784,345300
737,345400
782,345500
782,345600
782,345700
782,345800
782,345900
736,346000
781,346100
781,346200
781,346300
781,346400
781,346500
739,346600
784,346700
784,346800
784,346900
784,347000
784,347100
738,347200
784,347300
784,347400
784,347500
784,347600
784,347700
738,347800
784,347900
784,348000
784,348100
784,348200
784,348300
741,348400
786,348500
786,348600
786,348700
786,348800
786,348900
740,349000
786,349100
786,349200
786,349300
786,349400
786,349500
734,349600
780,349700
780,349800
780,349900
780,350000
780,350100
742,350200
787,350300
787,350400
787,350500
787,350600
787,350700
741,350800
786,350900
786,351000
786,351100
786,351200
786,351300
741,351400
786,351500
786,351600
786,351700
786,351800
786,351900
741,352000
787,352100
787,352200
787,352300
787,352400
787,352500
737,352600
782,352700
782,352800
782,352900
782,353000
782,353100
739,353200
785,353300
785,353400
785,353500
785,353600
785,353700
749,353800
786,353900
786,354000
786,354100
786,354200
786,354300
741,354400
787,354500
787,354600
787,354700
787,354800
787,354900
741,355000
787,355100
787,355200
787,355300
787,355400
787,355500
736,355600
783,355700
783,355800
783,355900
783,356000
783,356100
735,356200
781,356300
781,356400
781,356500
781,356600
781,356700
740,356800
787,356900
787,357000
787,357100
787,357200
787,357300
740,357400
787,357500
787,357600
787,357700
787,357800
787,357900
738,358000
784,358100
784,358200
784,358300
784,358400
784,358500
739,358600
787,358700
787,358800
787,358900
787,359000
787,359100
737,359200
784,359300
784,359400
784,359500
784,359600
784,359700
744,359800
790,359900
790,360000
790,360100
790,360200
790,360300
742,360400
788,360500
788,360600
788,360700
788,360800
788,360900
740,361000
787,361100
787,361200
787,361300
787,361400
787,361500
740,361600
786,361700
786,361800
786,361900
786,362000
786,362100
741,362200
788,362300
788,362400
788,362500
788,362600
788,362700
743,362800
790,362900
790,363000
790,363100
790,363200
790,363300
746,363400
792,363500
792,363600
792,363700
792,363800
792,363900
746,364000
792,364100
792,364200
792,364300
792,364400
792,364500
743,364600
789,364700
789,364800
789,364900
789,365000
789,365100
746,365200
792,365300
792,365400
792,365500
792,365600
792,365700
747,365800
793,365900
793,366000
793,366100
793,366200
793,366300
746,366400
792,366500
792,366600
792,366700
792,366800
792,366900
750,367000
796,367100
796,367200
796,367300
796,367400
796,367500
750,367600
796,367700
796,367800
796,367900
796,368000
796,368100
749,368200
795,368300
795,368400
795,368500
795,368600
795,368700
746,368800
792,368900
792,369000
792,369100
792,369200
792,369300
751,369400
796,369500
796,369600
796,369700
796,369800
796,369900
751,370000
796,370100
796,370200
796,370300
796,370400
796,370500
754,370600
798,370700
798,370800
798,370900
798,371000
798,371100
752,371200
798,371300
798,371400
798,371500
798,371600
798,371700
753,371800
798,371900
798,372000
798,372100
798,372200
798,372300
753,372400
799,372500
799,372600
799,372700
799,372800
799,372900
755,373000
799,373100
799,373200
799,373300
799,373400
799,373500
753,373600
799,373700
799,373800
799,373900
799,374000
799,374100
753,374200
799,374300
799,374400
799,374500
799,374600
799,374700
755,374800
800,374900
800,375000
800,375100
800,375200
800,375300
755,375400
799,375500
799,375600
799,375700
799,375800
799,375900
755,376000
801,376100
801,376200
801,376300
801,376400
801,376500
758,376600
802,376700
802,376800
802,376900
802,377000
802,377100
754,377200
800,377300
800,377400
800,377500
800,377600
800,377700
748,377800
794,377900
794,378000
794,378100
794,378200
794,378300
750,378400
796,378500
796,378600
796,378700
796,378800
796,378900
755,379000
801,379100
801,379200
801,379300
801,379400
801,379500
755,379600
800,379700
800,379800
800,379900
800,380000
800,380100
755,380200
801,380300
801,380400
801,380500
801,380600
801,380700
756,380800
801,380900
801,381000
801,381100
801,381200
801,381300
755,381400
801,381500
801,381600
801,381700
801,381800
801,381900
755,382000
801,382100
801,382200
801,382300
801,382400
801,382500
753,382600
798,382700
798,382800
798,382900
798,383000
798,383100
757,383200
802,383300
802,383400
802,383500
802,383600
802,383700
754,383800
799,383900
799,384000
799,384100
799,384200
799,384300
758,384400
802,384500
802,384600
802,384700
802,384800
802,384900
751,385000
796,385100
796,385200
796,385300
796,385400
796,385500
752,385600
796,385700
796,385800
796,385900
796,386000
796,386100
758,386200
804,386300
804,386400
804,386500
804,386600
804,386700
759,386800
803,386900
803,387000
803,387100
803,387200
803,387300
754,387400
800,387500
800,387600
800,387700
800,387800
800,387900
757,388000
801,388100
801,388200
801,388300
801,388400
801,388500
755,388600
801,388700
801,388800
801,388900
801,389000
801,389100
754,389200
798,389300
798,389400
798,389500
798,389600
798,389700
759,389800
804,389900
804,390000
804,390100
804,390200
804,390300
760,390400
803,390500
803,390600
803,390700
803,390800
803,390900
756,391000
801,391100
801,391200
801,391300
801,391400
801,391500
760,391600
804,391700
804,391800
804,391900
804,392000
804,392100
759,392200
803,392300
803,392400
803,392500
803,392600
803,392700
759,392800
803,392900
803,393000
803,393100
803,393200
803,393300
763,393400
806,393500
806,393600
806,393700
806,393800
806,393900
763,394000
806,394100
806,394200
806,394300
806,394400
806,394500
766,394600
809,394700
809,394800
809,394900
809,395000
809,395100
764,395200
808,395300
808,395400
808,395500
808,395600
808,395700
765,395800
808,395900
808,396000
808,396100
808,396200
808,396300
762,396400
805,396500
805,396600
805,396700
805,396800
805,396900
766,397000
808,397100
808,397200
808,397300
808,397400
808,397500
764,397600
807,397700
807,397800
807,397900
807,398000
807,398100
763,398200
806,398300
806,398400
806,398500
806,398600
806,398700
766,398800
808,398900
808,399000
808,399100
808,399200
808,399300
768,399400
810,399500
810,399600
810,399700
810,399800
810,399900
769,400000
811,400100
811,400200
811,400300
811,400400
811,400500
766,400600
809,400700
809,400800
809,400900
809,401000
809,401100
769,401200
812,401300
812,401400
812,401500
812,401600
812,401700
770,401800
813,401900
813,402000
813,402100
813,402200
813,402300
770,402400
812,402500
812,402600
812,402700
812,402800
812,402900
768,403000
811,403100
811,403200
811,403300
811,403400
811,403500
770,403600
813,403700
813,403800
813,403900
813,404000
813,404100
769,404200
813,404300
813,404400
813,404500
813,404600
813,404700
768,404800
812,404900
812,405000
812,405100
812,405200
812,405300
767,405400
811,405500
811,405600
811,405700
811,405800
811,405900
768,406000
813,406100
813,406200
813,406300
813,406400
813,406500
769,406600
814,406700
814,406800
814,406900
814,407000
814,407100
769,407200
813,407300
813,407400
813,407500
813,407600
813,407700
769,407800
813,407900
813,408000
813,408100
813,408200
813,408300
770,408400
814,408500
814,408600
814,408700
814,408800
814,408900
769,409000
814,409100
814,409200
814,409300
814,409400
814,409500
770,409600
814,409700
814,409800
814,409900
814,410000
814,410100
768,410200
812,410300
812,410400
812,410500
812,410600
812,410700
769,410800
814,410900
814,411000
814,411100
814,411200
814,411300
764,411400
809,411500
809,411600
809,411700
809,411800
809,411900
809,412000
814,412100
814,412200
814,412300
814,412400
814,412500
766,412600
810,412700
810,412800
810,412900
810,413000
810,413100
810,413200
814,413300
814,413400
814,413500
814,413600
814,413700
765,413800
810,413900
810,414000
810,414100
810,414200
810,414300
810,414400
810,414500
810,414600
810,414700
810,414800
810,414900
810,415000
809,415100
809,415200
809,415300
809,415400
809,415500
809,415600
809,415700
809,415800
809,415900
809,416000
809,416100
809,416200
811,416300
811,416400
811,416500
811,416600
811,416700
811,416800
813,416900
813,417000
813,417100
813,417200
813,417300
813,417400
816,417500
816,417600
816,417700
816,417800
816,417900
767,418000
812,418100
812,418200
812,418300
812,418400
812,418500
812,418600
817,418700
817,418800
817,418900
817,419000
817,419100
817,419200
815,419300
815,419400
815,419500
815,419600
815,419700
815,419800
814,419900
814,420000
814,420100
814,420200
814,420300
814,420400
817,420500
817,420600
817,420700
817,420800
817,420900
817,421000
818,421100
818,421200
818,421300
818,421400
818,421500
818,421600
818,421700
818,421800
818,421900
818,422000
818,422100
776,422200
819,422300
819,422400
819,422500
819,422600
819,422700
819,422800
820,422900
820,423000
820,423100
820,423200
820,423300
776,423400
819,423500
819,423600
819,423700
819,423800
819,423900
819,424000
817,424100
817,424200
817,424300
817,424400
817,424500
779,424600
821,424700
821,424800
821,424900
821,425000
821,425100
821,425200
820,425300
820,425400
820,425500
820,425600
820,425700
776,425800
819,425900
819,426000
819,426100
819,426200
819,426300
778,426400
822,426500
822,426600
822,426700
822,426800
822,426900
778,427000
821,427100
821,427200
821,427300
821,427400
821,427500
778,427600
822,427700
822,427800
822,427900
822,428000
822,428100
778,428200
821,428300
821,428400
821,428500
821,428600
821,428700
781,428800
823,428900
823,429000
823,429100
823,429200
823,429300
780,429400
823,429500
823,429600
823,429700
823,429800
823,429900
779,430000
822,430100
822,430200
822,430300
822,430400
822,430500
777,430600
820,430700
820,430800
820,430900
820,431000
820,431100
778,431200
821,431300
821,431400
821,431500
821,431600
821,431700
779,431800
822,431900
822,432000
822,432100
822,432200
822,432300
778,432400
822,432500
822,432600
822,432700
822,432800
822,432900
784,433000
825,433100
825,433200
825,433300
825,433400
825,433500
780,433600
824,433700
824,433800
824,433900
824,434000
824,434100
782,434200
824,434300
824,434400
824,434500
824,434600
824,434700
781,434800
824,434900
824,435000
824,435100
824,435200
824,435300
782,435400
823,435500
823,435600
823,435700
823,435800
823,435900
781,436000
824,436100
824,436200
824,436300
824,436400
824,436500
784,436600
824,436700
824,436800
824,436900
824,437000
824,437100
782,437200
823,437300
823,437400
823,437500
823,437600
823,437700
783,437800
823,437900
823,438000
823,438100
823,438200
823,438300
779,438400
820,438500
820,438600
820,438700
820,438800
820,438900
781,439000
824,439100
824,439200
824,439300
824,439400
824,439500
783,439600
825,439700
825,439800
825,439900
825,440000
825,440100
782,440200
825,440300
825,440400
825,440500
825,440600
825,440700
784,440800
825,440900
825,441000
825,441100
825,441200
825,441300
783,441400
825,441500
825,441600
825,441700
825,441800
825,441900
779,442000
821,442100
821,442200
821,442300
821,442400
821,442500
781,442600
824,442700
824,442800
824,442900
824,443000
824,443100
780,443200
822,443300
822,443400
822,443500
822,443600
822,443700
785,443800
826,443900
826,444000
826,444100
826,444200
826,444300
785,444400
826,444500
826,444600
826,444700
826,444800
826,444900
781,445000
822,445100
822,445200
822,445300
822,445400
822,445500
785,445600
826,445700
826,445800
826,445900
826,446000
826,446100
781,446200
823,446300
823,446400
823,446500
823,446600
823,446700
778,446800
821,446900
821,447000
821,447100
821,447200
821,447300
778,447400
821,447500
821,447600
821,447700
821,447800
821,447900
779,448000
821,448100
821,448200
821,448300
821,448400
821,448500
786,448600
826,448700
826,448800
826,448900
826,449000
826,449100
783,449200
824,449300
824,449400
824,449500
824,449600
824,449700
783,449800
825,449900
825,450000
825,450100
825,450200
825,450300
785,450400
826,450500
826,450600
826,450700
826,450800
826,450900
789,451000
830,451100
830,451200
830,451300
830,451400
830,451500
788,451600
829,451700
829,451800
829,451900
829,452000
829,452100
790,452200
829,452300
829,452400
829,452500
829,452600
829,452700
790,452800
829,452900
829,453000
829,453100
829,453200
829,453300
788,453400
828,453500
828,453600
828,453700
828,453800
828,453900
793,454000
832,454100
832,454200
832,454300
832,454400
832,454500
790,454600
831,454700
831,454800
831,454900
831,455000
831,455100
788,455200
829,455300
829,455400
829,455500
829,455600
829,455700
790,455800
830,455900
830,456000
830,456100
830,456200
830,456300
792,456400
832,456500
832,456600
832,456700
832,456800
832,456900
793,457000
833,457100
833,457200
833,457300
833,457400
833,457500
794,457600
832,457700
832,457800
832,457900
832,458000
832,458100
793,458200
832,458300
832,458400
832,458500
832,458600
832,458700
794,458800
833,458900
833,459000
833,459100
833,459200
833,459300
792,459400
832,459500
832,459600
832,459700
832,459800
832,459900
795,460000
834,460100
834,460200
834,460300
834,460400
834,460500
795,460600
834,460700
834,460800
834,460900
834,461000
834,461100
791,461200
831,461300
831,461400
831,461500
831,461600
831,461700
793,461800
832,461900
832,462000
832,462100
832,462200
832,462300
792,462400
832,462500
832,462600
832,462700
832,462800
832,462900
792,463000
831,463100
831,463200
831,463300
831,463400
831,463500
795,463600
834,463700
834,463800
834,463900
834,464000
834,464100
790,464200
830,464300
830,464400
830,464500
830,464600
830,464700
792,464800
831,464900
831,465000
831,465100
831,465200
831,465300
793,465400
832,465500
832,465600
832,465700
832,465800
832,465900
794,466000
833,466100
833,466200
833,466300
833,466400
833,466500
793,466600
832,466700
832,466800
832,466900
832,467000
832,467100
793,467200
833,467300
833,467400
833,467500
833,467600
833,467700
793,467800
833,467900
833,468000
833,468100
833,468200
833,468300
795,468400
834,468500
834,468600
834,468700
834,468800
834,468900
795,469000
834,469100
834,469200
834,469300
834,469400
834,469500
795,469600
834,469700
834,469800
834,469900
834,470000
834,470100
794,470200
833,470300
833,470400
833,470500
833,470600
833,470700
795,470800
834,470900
834,471000
834,471100
834,471200
834,471300
789,471400
829,471500
829,471600
829,471700
829,471800
829,471900
795,472000
834,472100
834,472200
834,472300
834,472400
834,472500
789,472600
829,472700
829,472800
829,472900
829,473000
829,473100
796,473200
834,473300
834,473400
834,473500
834,473600
834,473700
795,473800
835,473900
835,474000
835,474100
835,474200
835,474300
797,474400
836,474500
836,474600
836,474700
836,474800
836,474900
792,475000
831,475100
831,475200
831,475300
831,475400
831,475500
791,475600
831,475700
831,475800
831,475900
831,476000
831,476100
792,476200
831,476300
831,476400
831,476500
831,476600
831,476700
798,476800
836,476900
836,477000
836,477100
836,477200
836,477300
792,477400
831,477500
831,477600
831,477700
831,477800
831,477900
794,478000
834,478100
834,478200
834,478300
834,478400
834,478500
795,478600
834,478700
834,478800
834,478900
834,479000
834,479100
792,479200
832,479300
832,479400
832,479500
832,479600
832,479700
799,479800
838,479900
838,480000
838,480100
838,480200
838,480300
795,480400
834,480500
834,480600
834,480700
834,480800
834,480900
797,481000
836,481100
836,481200
836,481300
836,481400
836,481500
796,481600
835,481700
835,481800
835,481900
835,482000
835,482100
801,482200
839,482300
839,482400
839,482500
839,482600
839,482700
801,482800
840,482900
840,483000
840,483100
840,483200
840,483300
801,483400
839,483500
839,483600
839,483700
839,483800
839,483900
798,484000
837,484100
837,484200
837,484300
837,484400
837,484500
803,484600
841,484700
841,484800
841,484900
841,485000
841,485100
804,485200
842,485300
842,485400
842,485500
842,485600
842,485700
800,485800
838,485900
838,486000
838,486100
838,486200
838,486300
804,486400
841,486500
841,486600
841,486700
841,486800
841,486900
800,487000
838,487100
838,487200
838,487300
838,487400
838,487500
804,487600
841,487700
841,487800
841,487900
841,488000
841,488100
802,488200
840,488300
840,488400
840,488500
840,488600
840,488700
803,488800
840,488900
840,489000
840,489100
840,489200
840,489300
803,489400
841,489500
841,489600
841,489700
841,489800
841,489900
801,490000
839,490100
839,490200
839,490300
839,490400
839,490500
803,490600
840,490700
840,490800
840,490900
840,491000
840,491100
802,491200
840,491300
840,491400
840,491500
840,491600
840,491700
803,491800
840,491900
840,492000
840,492100
840,492200
840,492300
802,492400
839,492500
839,492600
839,492700
839,492800
839,492900
803,493000
841,493100
841,493200
841,493300
841,493400
841,493500
803,493600
840,493700
840,493800
840,493900
840,494000
840,494100
802,494200
839,494300
839,494400
839,494500
839,494600
839,494700
803,494800
840,494900
840,495000
840,495100
840,495200
840,495300
803,495400
840,495500
840,495600
840,495700
840,495800
840,495900
801,496000
839,496100
839,496200
839,496300
839,496400
839,496500
804,496600
841,496700
841,496800
841,496900
841,497000
841,497100
804,497200
841,497300
841,497400
841,497500
841,497600
841,497700
804,497800
841,497900
841,498000
841,498100
841,498200
841,498300
803,498400
840,498500
840,498600
840,498700
840,498800
840,498900
804,499000
841,499100
841,499200
841,499300
841,499400
841,499500
805,499600
842,499700
842,499800
842,499900
842,500000
842,500100
803,500200
841,500300
841,500400
841,500500
841,500600
841,500700
804,500800
842,500900
842,501000
842,501100
842,501200
842,501300
803,501400
841,501500
841,501600
841,501700
841,501800
841,501900
802,502000
839,502100
839,502200
839,502300
839,502400
839,502500
802,502600
839,502700
839,502800
839,502900
839,503000
839,503100
800,503200
837,503300
837,503400
837,503500
837,503600
837,503700
801,503800
838,503900
838,504000
838,504100
838,504200
838,504300
800,504400
837,504500
837,504600
837,504700
837,504800
837,504900
802,505000
839,505100
839,505200
839,505300
839,505400
839,505500
803,505600
840,505700
840,505800
840,505900
840,506000
840,506100
801,506200
839,506300
839,506400
839,506500
839,506600
839,506700
803,506800
840,506900
840,507000
840,507100
840,507200
840,507300
805,507400
841,507500
841,507600
841,507700
841,507800
841,507900
805,508000
842,508100
842,508200
842,508300
842,508400
842,508500
803,508600
840,508700
840,508800
840,508900
840,509000
840,509100
805,509200
842,509300
842,509400
842,509500
842,509600
842,509700
803,509800
840,509900
840,510000
840,510100
840,510200
840,510300
803,510400
841,510500
841,510600
841,510700
841,510800
841,510900
805,511000
841,511100
841,511200
841,511300
841,511400
841,511500
805,511600
841,511700
841,511800
841,511900
841,512000
841,512100
806,512200
842,512300
842,512400
842,512500
842,512600
842,512700
808,512800
844,512900
844,513000
844,513100
844,513200
844,513300
806,513400
842,513500
842,513600
842,513700
842,513800
842,513900
807,514000
843,514100
843,514200
843,514300
843,514400
843,514500
814,514600
850,514700
850,514800
850,514900
850,515000
850,515100
813,515200
848,515300
848,515400
848,515500
848,515600
848,515700
813,515800
849,515900
849,516000
849,516100
849,516200
849,516300
813,516400
848,516500
848,516600
848,516700
848,516800
848,516900
813,517000
849,517100
849,517200
849,517300
849,517400
849,517500
812,517600
848,517700
848,517800
848,517900
848,518000
848,518100
812,518200
848,518300
848,518400
848,518500
848,518600
848,518700
812,518800
847,518900
847,519000
847,519100
847,519200
847,519300
812,519400
848,519500
848,519600
848,519700
848,519800
848,519900
810,520000
846,520100
846,520200
846,520300
846,520400
846,520500
811,520600
847,520700
847,520800
847,520900
847,521000
847,521100
812,521200
848,521300
848,521400
848,521500
848,521600
848,521700
810,521800
847,521900
847,522000
847,522100
847,522200
847,522300
813,522400
848,522500
848,522600
848,522700
848,522800
848,522900
814,523000
850,523100
850,523200
850,523300
850,523400
850,523500
814,523600
849,523700
849,523800
849,523900
849,524000
849,524100
812,524200
849,524300
849,524400
849,524500
849,524600
849,524700
813,524800
848,524900
848,525000
848,525100
848,525200
848,525300
813,525400
849,525500
849,525600
849,525700
849,525800
849,525900
813,526000
848,526100
848,526200
848,526300
848,526400
848,526500
812,526600
848,526700
848,526800
848,526900
848,527000
848,527100
815,527200
850,527300
850,527400
850,527500
850,527600
850,527700
815,527800
850,527900
850,528000
850,528100
850,528200
850,528300
815,528400
850,528500
850,528600
850,528700
850,528800
850,528900
812,529000
848,529100
848,529200
848,529300
848,529400
848,529500
814,529600
849,529700
849,529800
849,529900
849,530000
849,530100
814,530200
850,530300
850,530400
850,530500
850,530600
850,530700
813,530800
848,530900
848,531000
848,531100
848,531200
848,531300
812,531400
848,531500
848,531600
848,531700
848,531800
848,531900
815,532000
850,532100
850,532200
850,532300
850,532400
850,532500
813,532600
849,532700
849,532800
849,532900
849,533000
849,533100
809,533200
844,533300
844,533400
844,533500
844,533600
844,533700
810,533800
847,533900
847,534000
847,534100
847,534200
847,534300
811,534400
847,534500
847,534600
847,534700
847,534800
847,534900
809,535000
846,535100
846,535200
846,535300
846,535400
846,535500
812,535600
848,535700
848,535800
848,535900
848,536000
848,536100
811,536200
847,536300
847,536400
847,536500
847,536600
847,536700
811,536800
846,536900
846,537000
846,537100
846,537200
846,537300
817,537400
853,537500
853,537600
853,537700
853,537800
853,537900
812,538000
848,538100
848,538200
848,538300
848,538400
848,538500
816,538600
852,538700
852,538800
852,538900
852,539000
852,539100
818,539200
853,539300
853,539400
853,539500
853,539600
853,539700
813,539800
849,539900
849,540000
849,540100
849,540200
849,540300
812,540400
848,540500
848,540600
848,540700
848,540800
848,540900
814,541000
850,541100
850,541200
850,541300
850,541400
850,541500
815,541600
851,541700
851,541800
851,541900
851,542000
851,542100
819,542200
854,542300
854,542400
854,542500
854,542600
854,542700
814,542800
849,542900
849,543000
849,543100
849,543200
849,543300
815,543400
850,543500
850,543600
850,543700
850,543800
850,543900
813,544000
849,544100
849,544200
849,544300
849,544400
849,544500
815,544600
850,544700
850,544800
850,544900
850,545000
850,545100
821,545200
855,545300
855,545400
855,545500
855,545600
855,545700
823,545800
858,545900
858,546000
858,546100
858,546200
858,546300
821,546400
855,546500
855,546600
855,546700
855,546800
855,546900
821,547000
855,547100
855,547200
855,547300
855,547400
855,547500
818,547600
852,547700
852,547800
852,547900
852,548000
852,548100
822,548200
856,548300
856,548400
856,548500
856,548600
856,548700
821,548800
856,548900
856,549000
856,549100
856,549200
856,549300
825,549400
858,549500
858,549600
858,549700
858,549800
858,549900
821,550000
856,550100
856,550200
856,550300
856,550400
856,550500
820,550600
853,550700
853,550800
853,550900
853,551000
853,551100
822,551200
857,551300
857,551400
857,551500
857,551600
857,551700
824,551800
857,551900
857,552000
857,552100
857,552200
857,552300
823,552400
857,552500
857,552600
857,552700
857,552800
857,552900
823,553000
857,553100
857,553200
857,553300
857,553400
857,553500
821,553600
855,553700
855,553800
855,553900
855,554000
855,554100
825,554200
858,554300
858,554400
858,554500
858,554600
858,554700
819,554800
854,554900
854,555000
854,555100
854,555200
854,555300
821,555400
855,555500
855,555600
855,555700
855,555800
855,555900
823,556000
857,556100
857,556200
857,556300
857,556400
857,556500
824,556600
857,556700
857,556800
857,556900
857,557000
857,557100
823,557200
856,557300
856,557400
856,557500
856,557600
856,557700
823,557800
856,557900
856,558000
856,558100
856,558200
856,558300
823,558400
856,558500
856,558600
856,558700
856,558800
856,558900
823,559000
856,559100
856,559200
856,559300
856,559400
856,559500
822,559600
855,559700
855,559800
855,559900
855,560000
855,560100
822,560200
856,560300
856,560400
856,560500
856,560600
856,560700
823,560800
857,560900
857,561000
857,561100
857,561200
857,561300
824,561400
856,561500
856,561600
856,561700
856,561800
856,561900
818,562000
852,562100
852,562200
852,562300
852,562400
852,562500
821,562600
854,562700
854,562800
854,562900
854,563000
854,563100
823,563200
857,563300
857,563400
857,563500
857,563600
857,563700
823,563800
856,563900
856,564000
856,564100
856,564200
856,564300
823,564400
857,564500
857,564600
857,564700
857,564800
857,564900
825,565000
858,565100
858,565200
858,565300
858,565400
858,565500
821,565600
854,565700
854,565800
854,565900
854,566000
854,566100
825,566200
858,566300
858,566400
858,566500
858,566600
858,566700
823,566800
856,566900
856,567000
856,567100
856,567200
856,567300
821,567400
855,567500
855,567600
855,567700
855,567800
855,567900
822,568000
855,568100
855,568200
855,568300
855,568400
855,568500
819,568600
853,568700
853,568800
853,568900
853,569000
853,569100
827,569200
859,569300
859,569400
859,569500
859,569600
859,569700
826,569800
859,569900
859,570000
859,570100
859,570200
859,570300
822,570400
854,570500
854,570600
854,570700
854,570800
854,570900
822,571000
854,571100
854,571200
854,571300
854,571400
854,571500
821,571600
854,571700
854,571800
854,571900
854,572000
854,572100
822,572200
855,572300
855,572400
855,572500
855,572600
855,572700
828,572800
860,572900
860,573000
860,573100
860,573200
860,573300
823,573400
855,573500
855,573600
855,573700
855,573800
855,573900
825,574000
857,574100
857,574200
857,574300
857,574400
857,574500
827,574600
860,574700
860,574800
860,574900
860,575000
860,575100
828,575200
860,575300
860,575400
860,575500
860,575600
860,575700
826,575800
860,575900
860,576000
860,576100
860,576200
860,576300
826,576400
859,576500
859,576600
859,576700
859,576800
859,576900
828,577000
860,577100
860,577200
860,577300
860,577400
860,577500
828,577600
860,577700
860,577800
860,577900
860,578000
860,578100
828,578200
860,578300
860,578400
860,578500
860,578600
860,578700
828,578800
861,578900
861,579000
861,579100
861,579200
861,579300
828,579400
860,579500
860,579600
860,579700
860,579800
860,579900
825,580000
858,580100
858,580200
858,580300
858,580400
858,580500
830,580600
862,580700
862,580800
862,580900
862,581000
862,581100
831,581200
862,581300
862,581400
862,581500
862,581600
862,581700
828,581800
860,581900
860,582000
860,582100
860,582200
860,582300
833,582400
865,582500
865,582600
865,582700
865,582800
865,582900
827,583000
860,583100
860,583200
860,583300
860,583400
860,583500
832,583600
863,583700
863,583800
863,583900
863,584000
863,584100
832,584200
864,584300
864,584400
864,584500
864,584600
864,584700
830,584800
862,584900
862,585000
862,585100
862,585200
862,585300
830,585400
862,585500
862,585600
862,585700
862,585800
862,585900
829,586000
861,586100
861,586200
861,586300
861,586400
861,586500
827,586600
859,586700
859,586800
859,586900
859,587000
859,587100
832,587200
863,587300
863,587400
863,587500
863,587600
863,587700
832,587800
863,587900
863,588000
863,588100
863,588200
863,588300
831,588400
863,588500
863,588600
863,588700
863,588800
863,588900
831,589000
863,589100
863,589200
863,589300
863,589400
863,589500
832,589600
862,589700
862,589800
862,589900
862,590000
862,590100
831,590200
864,590300
864,590400
864,590500
864,590600
864,590700
833,590800
864,590900
864,591000
864,591100
864,591200
864,591300
832,591400
863,591500
863,591600
863,591700
863,591800
863,591900
835,592000
865,592100
865,592200
865,592300
865,592400
865,592500
832,592600
863,592700
863,592800
863,592900
863,593000
863,593100
832,593200
863,593300
863,593400
863,593500
