1,50
1,100
1,150
1,200
1,250
1,300
1,350
1,400
1,450
1,500
1,550
1,600
0,650
0,700
0,750
0,800
0,850
0,900
0,950
0,1000
0,1050
0,1100
0,1150
0,1200
0,1250
0,1300
0,1350
0,1400
0,1450
0,1500
0,1550
0,1600
0,1650
0,1700
0,1750
0,1800
0,1850
0,1900
0,1950
0,2000
0,2050
0,2100
0,2150
0,2200
0,2250
0,2300
0,2350
0,2400
0,2450
0,2500
0,2550
0,2600
0,2650
0,2700
0,2750
0,2800
0,2850
0,2900
0,2950
0,3000
0,3050
0,3100
0,3150
0,3200
0,3250
0,3300
0,3350
0,3400
0,3450
0,3500
0,3550
0,3600
0,3650
0,3700
0,3750
0,3800
0,3850
0,3900
0,3950
0,4000
0,4050
0,4100
0,4150
0,4200
0,4250
0,4300
0,4350
0,4400
0,4450
0,4500
0,4550
0,4600
0,4650
0,4700
0,4750
0,4800
0,4850
0,4900
0,4950
0,5000
0,5050
0,5100
0,5150
0,5200
0,5250
0,5300
0,5350
0,5400
0,5450
0,5500
0,5550
0,5600
0,5650
0,5700
0,5750
0,5800
0,5850
0,5900
0,5950
0,6000
0,6050
0,6100
0,6150
0,6200
0,6250
0,6300
0,6350
0,6400
0,6450
0,6500
0,6550
0,6600
0,6650
0,6700
0,6750
0,6800
0,6850
0,6900
0,6950
0,7000
0,7050
0,7100
0,7150
0,7200
0,7250
0,7300
0,7350
0,7400
0,7450
0,7500
0,7550
0,7600
0,7650
0,7700
0,7750
0,7800
0,7850
0,7900
0,7950
0,8000
0,8050
0,8100
0,8150
0,8200
0,8250
0,8300
0,8350
0,8400
0,8450
0,8500
0,8550
0,8600
0,8650
0,8700
0,8750
0,8800
0,8850
0,8900
0,8950
0,9000
0,9050
0,9100
0,9150
0,9200
227,9250
249,9300
249,9350
249,9400
249,9450
249,9500
249,9550
249,9600
249,9650
249,9700
284,9750
293,9800
294,9850
294,9900
294,9950
294,10000
294,10050
294,10100
294,10150
294,10200
294,10250
294,10300
289,10350
292,10400
292,10450
292,10500
292,10550
292,10600
292,10650
292,10700
292,10750
292,10800
292,10850
292,10900
278,10950
277,11000
277,11050
277,11100
277,11150
277,11200
277,11250
277,11300
277,11350
277,11400
277,11450
262,11500
264,11550
262,11600
262,11650
262,11700
262,11750
262,11800
262,11850
262,11900
262,11950
262,12000
262,12050
259,12100
261,12150
258,12200
258,12250
258,12300
258,12350
258,12400
258,12450
258,12500
258,12550
258,12600
255,12650
256,12700
253,12750
253,12800
253,12850
253,12900
253,12950
253,13000
253,13050
253,13100
253,13150
253,13200
244,13250
240,13300
240,13350
240,13400
240,13450
240,13500
240,13550
240,13600
240,13650
240,13700
240,13750
244,13800
242,13850
242,13900
242,13950
242,14000
242,14050
242,14100
242,14150
242,14200
237,14250
237,14300
235,14350
235,14400
235,14450
235,14500
235,14550
235,14600
235,14650
235,14700
235,14750
230,14800
229,14850
229,14900
229,14950
229,15000
229,15050
229,15100
229,15150
229,15200
229,15250
224,15300
220,15350
220,15400
220,15450
220,15500
220,15550
220,15600
220,15650
220,15700
220,15750
226,15800
227,15850
224,15900
224,15950
224,16000
224,16050
224,16100
224,16150
224,16200
224,16250
223,16300
222,16350
222,16400
222,16450
222,16500
222,16550
222,16600
215,16650
213,16700
213,16750
213,16800
213,16850
213,16900
213,16950
213,17000
213,17050
213,17100
211,17150
210,17200
210,17250
210,17300
210,17350
210,17400
210,17450
210,17500
210,17550
211,17600
209,17650
209,17700
209,17750
209,17800
209,17850
209,17900
209,17950
209,18000
208,18050
208,18100
206,18150
206,18200
206,18250
206,18300
206,18350
206,18400
206,18450
206,18500
206,18550
206,18600
206,18650
208,18700
207,18750
204,18800
204,18850
204,18900
204,18950
204,19000
204,19050
204,19100
204,19150
204,19200
204,19250
205,19300
206,19350
202,19400
202,19450
202,19500
202,19550
202,19600
202,19650
202,19700
202,19750
202,19800
202,19850
202,19900
201,19950
198,20000
198,20050
198,20100
198,20150
198,20200
198,20250
198,20300
198,20350
198,20400
198,20450
201,20500
200,20550
197,20600
197,20650
197,20700
197,20750
197,20800
197,20850
197,20900
197,20950
197,21000
197,21050
200,21100
202,21150
201,21200
201,21250
201,21300
201,21350
201,21400
201,21450
201,21500
201,21550
201,21600
201,21650
208,21700
204,21750
204,21800
204,21850
204,21900
204,21950
204,22000
204,22050
204,22100
204,22150
204,22200
201,22250
201,22300
198,22350
198,22400
198,22450
198,22500
198,22550
198,22600
198,22650
198,22700
198,22750
198,22800
198,22850
198,22900
197,22950
195,23000
195,23050
195,23100
195,23150
195,23200
195,23250
195,23300
195,23350
195,23400
195,23450
198,23500
197,23550
195,23600
195,23650
195,23700
195,23750
195,23800
195,23850
195,23900
195,23950
195,24000
195,24050
201,24100
198,24150
198,24200
198,24250
198,24300
198,24350
198,24400
198,24450
198,24500
198,24550
198,24600
198,24650
200,24700
197,24750
196,24800
196,24850
196,24900
196,24950
196,25000
196,25050
196,25100
196,25150
196,25200
193,25250
193,25300
194,25350
194,25400
194,25450
194,25500
194,25550
194,25600
194,25650
194,25700
194,25750
191,25800
188,25850
188,25900
188,25950
188,26000
188,26050
188,26100
188,26150
188,26200
188,26250
191,26300
192,26350
189,26400
189,26450
189,26500
189,26550
189,26600
189,26650
189,26700
189,26750
189,26800
189,26850
194,26900
190,26950
190,27000
190,27050
190,27100
190,27150
190,27200
190,27250
190,27300
190,27350
190,27400
190,27450
188,27500
187,27550
187,27600
187,27650
187,27700
187,27750
187,27800
187,27850
187,27900
196,27950
195,28000
194,28050
194,28100
194,28150
194,28200
194,28250
194,28300
194,28350
194,28400
194,28450
190,28500
190,28550
188,28600
188,28650
188,28700
188,28750
188,28800
188,28850
188,28900
188,28950
188,29000
188,29050
192,29100
190,29150
190,29200
190,29250
190,29300
190,29350
190,29400
190,29450
190,29500
190,29550
190,29600
188,29650
187,29700
186,29750
186,29800
186,29850
186,29900
186,29950
186,30000
186,30050
186,30100
186,30150
186,30200
184,30250
184,30300
184,30350
184,30400
184,30450
184,30500
184,30550
184,30600
184,30650
184,30700
187,30750
186,30800
186,30850
186,30900
186,30950
186,31000
186,31050
186,31100
186,31150
186,31200
189,31250
190,31300
187,31350
187,31400
187,31450
187,31500
187,31550
187,31600
187,31650
187,31700
187,31750
188,31800
190,31850
186,31900
186,31950
186,32000
186,32050
186,32100
186,32150
186,32200
186,32250
186,32300
189,32350
189,32400
185,32450
185,32500
185,32550
185,32600
185,32650
185,32700
185,32750
185,32800
185,32850
189,32900
189,32950
187,33000
187,33050
187,33100
187,33150
187,33200
187,33250
187,33300
187,33350
187,33400
186,33450
189,33500
186,33550
186,33600
186,33650
186,33700
186,33750
186,33800
186,33850
186,33900
186,33950
181,34000
182,34050
180,34100
180,34150
180,34200
180,34250
180,34300
180,34350
180,34400
180,34450
180,34500
193,34550
192,34600
190,34650
190,34700
190,34750
190,34800
190,34850
190,34900
190,34950
190,35000
190,35050
184,35100
182,35150
182,35200
182,35250
182,35300
182,35350
182,35400
182,35450
182,35500
182,35550
181,35600
182,35650
179,35700
179,35750
179,35800
179,35850
179,35900
179,35950
179,36000
179,36050
179,36100
184,36150
182,36200
181,36250
181,36300
181,36350
181,36400
181,36450
181,36500
181,36550
181,36600
181,36650
182,36700
180,36750
180,36800
180,36850
180,36900
180,36950
180,37000
180,37050
180,37100
180,37150
184,37200
180,37250
180,37300
180,37350
180,37400
180,37450
180,37500
180,37550
180,37600
181,37650
181,37700
180,37750
180,37800
180,37850
180,37900
180,37950
180,38000
180,38050
180,38100
180,38150
181,38200
179,38250
179,38300
179,38350
179,38400
179,38450
179,38500
179,38550
179,38600
183,38650
183,38700
180,38750
180,38800
180,38850
180,38900
180,38950
180,39000
180,39050
180,39100
180,39150
179,39200
177,39250
177,39300
177,39350
177,39400
177,39450
177,39500
177,39550
177,39600
177,39650
179,39700
176,39750
176,39800
176,39850
176,39900
176,39950
176,40000
176,40050
176,40100
176,40150
179,40200
181,40250
179,40300
179,40350
179,40400
179,40450
179,40500
179,40550
179,40600
179,40650
178,40700
179,40750
176,40800
176,40850
176,40900
176,40950
176,41000
176,41050
176,41100
176,41150
185,41200
184,41250
182,41300
182,41350
182,41400
182,41450
182,41500
182,41550
182,41600
182,41650
174,41700
173,41750
173,41800
173,41850
173,41900
173,41950
173,42000
173,42050
173,42100
173,42150
176,42200
174,42250
174,42300
174,42350
174,42400
174,42450
174,42500
174,42550
174,42600
174,42650
175,42700
172,42750
172,42800
172,42850
172,42900
172,42950
172,43000
172,43050
172,43100
172,43150
176,43200
175,43250
175,43300
175,43350
175,43400
175,43450
175,43500
175,43550
175,43600
175,43650
175,43700
174,43750
174,43800
174,43850
174,43900
174,43950
174,44000
174,44050
174,44100
174,44150
179,44200
176,44250
176,44300
176,44350
176,44400
176,44450
176,44500
176,44550
176,44600
180,44650
182,44700
179,44750
179,44800
179,44850
179,44900
179,44950
179,45000
179,45050
179,45100
179,45150
178,45200
181,45250
179,45300
179,45350
179,45400
179,45450
179,45500
179,45550
179,45600
179,45650
179,45700
179,45750
177,45800
177,45850
174,45900
174,45950
174,46000
174,46050
174,46100
174,46150
174,46200
174,46250
174,46300
174,46350
179,46400
178,46450
175,46500
175,46550
175,46600
175,46650
175,46700
175,46750
175,46800
175,46850
175,46900
175,46950
175,47000
175,47050
176,47100
176,47150
176,47200
176,47250
176,47300
176,47350
176,47400
176,47450
176,47500
180,47550
183,47600
182,47650
182,47700
182,47750
182,47800
182,47850
182,47900
182,47950
182,48000
182,48050
182,48100
182,48150
183,48200
182,48250
182,48300
182,48350
182,48400
182,48450
182,48500
182,48550
182,48600
182,48650
182,48700
178,48750
179,48800
179,48850
179,48900
179,48950
179,49000
179,49050
179,49100
179,49150
179,49200
179,49250
179,49300
179,49350
178,49400
177,49450
176,49500
176,49550
176,49600
176,49650
176,49700
176,49750
176,49800
176,49850
176,49900
176,49950
181,50000
181,50050
178,50100
178,50150
178,50200
178,50250
178,50300
178,50350
178,50400
178,50450
178,50500
177,50550
177,50600
177,50650
177,50700
177,50750
177,50800
177,50850
177,50900
177,50950
177,51000
177,51050
177,51100
179,51150
179,51200
177,51250
177,51300
177,51350
177,51400
177,51450
177,51500
177,51550
177,51600
177,51650
185,51700
184,51750
182,51800
182,51850
182,51900
182,51950
182,52000
182,52050
182,52100
182,52150
182,52200
179,52250
178,52300
179,52350
179,52400
179,52450
179,52500
179,52550
179,52600
179,52650
179,52700
179,52750
179,52800
179,52850
179,52900
177,52950
177,53000
177,53050
177,53100
177,53150
177,53200
177,53250
177,53300
177,53350
177,53400
182,53450
179,53500
179,53550
179,53600
179,53650
179,53700
179,53750
179,53800
179,53850
179,53900
179,53950
178,54000
181,54050
180,54100
180,54150
180,54200
180,54250
180,54300
180,54350
180,54400
180,54450
180,54500
180,54550
181,54600
178,54650
178,54700
178,54750
178,54800
178,54850
178,54900
178,54950
178,55000
182,55050
180,55100
180,55150
180,55200
180,55250
180,55300
180,55350
180,55400
180,55450
180,55500
180,55550
182,55600
181,55650
181,55700
181,55750
181,55800
181,55850
181,55900
181,55950
181,56000
181,56050
181,56100
183,56150
182,56200
182,56250
182,56300
182,56350
182,56400
182,56450
182,56500
182,56550
182,56600
182,56650
187,56700
188,56750
187,56800
187,56850
187,56900
187,56950
187,57000
187,57050
187,57100
187,57150
187,57200
187,57250
185,57300
183,57350
183,57400
183,57450
183,57500
183,57550
183,57600
183,57650
183,57700
183,57750
183,57800
187,57850
187,57900
187,57950
187,58000
187,58050
187,58100
187,58150
187,58200
187,58250
187,58300
187,58350
187,58400
190,58450
188,58500
188,58550
188,58600
188,58650
188,58700
188,58750
188,58800
188,58850
188,58900
190,58950
189,59000
188,59050
188,59100
188,59150
188,59200
188,59250
188,59300
188,59350
188,59400
192,59450
194,59500
194,59550
194,59600
194,59650
194,59700
194,59750
194,59800
194,59850
194,59900
191,59950
190,60000
190,60050
190,60100
190,60150
190,60200
190,60250
190,60300
190,60350
193,60400
193,60450
192,60500
192,60550
192,60600
192,60650
192,60700
192,60750
192,60800
192,60850
192,60900
194,60950
192,61000
192,61050
192,61100
192,61150
192,61200
192,61250
192,61300
192,61350
194,61400
194,61450
194,61500
194,61550
194,61600
194,61650
194,61700
194,61750
194,61800
194,61850
195,61900
196,61950
195,62000
195,62050
195,62100
195,62150
195,62200
195,62250
195,62300
195,62350
195,62400
197,62450
195,62500
195,62550
195,62600
195,62650
195,62700
195,62750
195,62800
195,62850
200,62900
201,62950
200,63000
200,63050
200,63100
200,63150
200,63200
200,63250
200,63300
200,63350
200,63400
200,63450
200,63500
200,63550
200,63600
200,63650
200,63700
200,63750
200,63800
200,63850
201,63900
203,63950
203,64000
203,64050
203,64100
203,64150
203,64200
203,64250
203,64300
208,64350
211,64400
209,64450
209,64500
209,64550
209,64600
209,64650
209,64700
209,64750
209,64800
207,64850
206,64900
206,64950
206,65000
206,65050
206,65100
206,65150
206,65200
206,65250
208,65300
208,65350
210,65400
210,65450
210,65500
210,65550
210,65600
210,65650
210,65700
210,65750
210,65800
210,65850
210,65900
210,65950
210,66000
210,66050
210,66100
210,66150
210,66200
210,66250
210,66300
213,66350
211,66400
211,66450
211,66500
211,66550
211,66600
211,66650
211,66700
211,66750
212,66800
213,66850
213,66900
213,66950
213,67000
213,67050
213,67100
213,67150
213,67200
213,67250
214,67300
216,67350
214,67400
214,67450
214,67500
214,67550
214,67600
214,67650
214,67700
214,67750
214,67800
217,67850
216,67900
216,67950
216,68000
216,68050
216,68100
216,68150
216,68200
216,68250
218,68300
220,68350
220,68400
220,68450
220,68500
220,68550
220,68600
220,68650
220,68700
220,68750
219,68800
221,68850
219,68900
219,68950
219,69000
219,69050
219,69100
219,69150
219,69200
219,69250
220,69300
223,69350
221,69400
221,69450
221,69500
221,69550
221,69600
221,69650
221,69700
221,69750
221,69800
223,69850
223,69900
223,69950
223,70000
223,70050
223,70100
223,70150
223,70200
222,70250
225,70300
225,70350
225,70400
225,70450
225,70500
225,70550
225,70600
225,70650
225,70700
224,70750
227,70800
227,70850
227,70900
227,70950
227,71000
227,71050
227,71100
227,71150
225,71200
228,71250
228,71300
228,71350
228,71400
228,71450
228,71500
228,71550
228,71600
228,71650
227,71700
229,71750
229,71800
229,71850
229,71900
229,71950
229,72000
229,72050
229,72100
228,72150
231,72200
231,72250
231,72300
231,72350
231,72400
231,72450
231,72500
231,72550
234,72600
236,72650
236,72700
236,72750
236,72800
236,72850
236,72900
236,72950
236,73000
236,73050
238,73100
238,73150
238,73200
238,73250
238,73300
238,73350
238,73400
238,73450
240,73500
242,73550
242,73600
242,73650
242,73700
242,73750
242,73800
242,73850
242,73900
238,73950
241,74000
243,74050
243,74100
243,74150
243,74200
243,74250
243,74300
243,74350
243,74400
247,74450
248,74500
248,74550
248,74600
248,74650
248,74700
248,74750
248,74800
248,74850
244,74900
249,74950
248,75000
248,75050
248,75100
248,75150
248,75200
248,75250
248,75300
248,75350
248,75400
250,75450
250,75500
250,75550
250,75600
250,75650
250,75700
250,75750
250,75800
248,75850
252,75900
252,75950
252,76000
252,76050
252,76100
252,76150
252,76200
252,76250
248,76300
254,76350
254,76400
254,76450
254,76500
254,76550
254,76600
254,76650
254,76700
254,76750
254,76800
258,76850
258,76900
258,76950
258,77000
258,77050
258,77100
258,77150
258,77200
257,77250
261,77300
261,77350
261,77400
261,77450
261,77500
261,77550
261,77600
261,77650
257,77700
264,77750
264,77800
264,77850
264,77900
264,77950
264,78000
264,78050
264,78100
256,78150
261,78200
266,78250
266,78300
266,78350
266,78400
266,78450
266,78500
266,78550
266,78600
263,78650
269,78700
269,78750
269,78800
269,78850
269,78900
269,78950
269,79000
269,79050
266,79100
274,79150
274,79200
274,79250
274,79300
274,79350
274,79400
274,79450
274,79500
265,79550
273,79600
273,79650
273,79700
273,79750
273,79800
273,79850
273,79900
268,79950
277,80000
277,80050
277,80100
277,80150
277,80200
277,80250
277,80300
277,80350
277,80400
284,80450
284,80500
284,80550
284,80600
284,80650
284,80700
284,80750
277,80800
287,80850
287,80900
287,80950
287,81000
287,81050
287,81100
287,81150
287,81200
277,81250
288,81300
288,81350
288,81400
288,81450
288,81500
288,81550
288,81600
288,81650
282,81700
293,81750
293,81800
293,81850
293,81900
293,81950
293,82000
293,82050
281,82100
292,82150
294,82200
294,82250
294,82300
294,82350
294,82400
294,82450
294,82500
286,82550
299,82600
299,82650
299,82700
299,82750
299,82800
299,82850
299,82900
299,82950
290,83000
301,83050
301,83100
301,83150
301,83200
301,83250
301,83300
301,83350
301,83400
298,83450
304,83500
304,83550
304,83600
304,83650
304,83700
304,83750
304,83800
294,83850
310,83900
310,83950
310,84000
310,84050
310,84100
310,84150
310,84200
310,84250
298,84300
311,84350
311,84400
311,84450
311,84500
311,84550
311,84600
311,84650
311,84700
300,84750
316,84800
316,84850
316,84900
316,84950
316,85000
316,85050
316,85100
316,85150
306,85200
320,85250
320,85300
320,85350
320,85400
320,85450
320,85500
320,85550
320,85600
309,85650
324,85700
324,85750
324,85800
324,85850
324,85900
324,85950
324,86000
324,86050
312,86100
328,86150
328,86200
328,86250
328,86300
328,86350
328,86400
328,86450
328,86500
318,86550
333,86600
333,86650
333,86700
333,86750
333,86800
333,86850
333,86900
333,86950
325,87000
339,87050
339,87100
339,87150
339,87200
339,87250
339,87300
339,87350
339,87400
324,87450
341,87500
341,87550
341,87600
341,87650
341,87700
341,87750
341,87800
341,87850
327,87900
342,87950
342,88000
342,88050
342,88100
342,88150
342,88200
342,88250
326,88300
330,88350
344,88400
344,88450
344,88500
344,88550
344,88600
344,88650
344,88700
335,88750
351,88800
351,88850
351,88900
351,88950
351,89000
351,89050
351,89100
351,89150
339,89200
354,89250
354,89300
354,89350
354,89400
354,89450
354,89500
354,89550
342,89600
351,89650
359,89700
359,89750
359,89800
359,89850
359,89900
359,89950
359,90000
346,90050
361,90100
361,90150
361,90200
361,90250
361,90300
361,90350
361,90400
361,90450
361,90500
347,90550
350,90600
365,90650
365,90700
365,90750
365,90800
365,90850
365,90900
365,90950
365,91000
365,91050
354,91100
369,91150
369,91200
369,91250
369,91300
369,91350
369,91400
369,91450
369,91500
369,91550
359,91600
362,91650
375,91700
375,91750
375,91800
375,91850
375,91900
375,91950
375,92000
375,92050
375,92100
367,92150
383,92200
383,92250
383,92300
383,92350
383,92400
383,92450
383,92500
383,92550
383,92600
383,92650
372,92700
387,92750
387,92800
387,92850
387,92900
387,92950
387,93000
387,93050
387,93100
387,93150
370,93200
373,93250
386,93300
386,93350
386,93400
386,93450
386,93500
386,93550
386,93600
386,93650
386,93700
372,93750
375,93800
389,93850
389,93900
389,93950
389,94000
389,94050
389,94100
389,94150
389,94200
379,94250
381,94300
394,94350
394,94400
394,94450
394,94500
394,94550
394,94600
394,94650
394,94700
394,94750
379,94800
381,94850
395,94900
395,94950
395,95000
395,95050
395,95100
395,95150
395,95200
395,95250
395,95300
384,95350
397,95400
397,95450
397,95500
397,95550
397,95600
397,95650
397,95700
397,95750
397,95800
397,95850
391,95900
405,95950
405,96000
405,96050
405,96100
405,96150
405,96200
405,96250
405,96300
405,96350
405,96400
397,96450
410,96500
410,96550
410,96600
410,96650
410,96700
410,96750
410,96800
410,96850
410,96900
395,96950
402,97000
409,97050
409,97100
409,97150
409,97200
409,97250
409,97300
409,97350
409,97400
409,97450
396,97500
410,97550
410,97600
410,97650
410,97700
410,97750
410,97800
410,97850
410,97900
410,97950
401,98000
403,98050
416,98100
416,98150
416,98200
416,98250
416,98300
416,98350
416,98400
416,98450
416,98500
402,98550
414,98600
416,98650
416,98700
416,98750
416,98800
416,98850
416,98900
416,98950
416,99000
416,99050
408,99100
421,99150
421,99200
421,99250
421,99300
421,99350
421,99400
421,99450
421,99500
421,99550
409,99600
412,99650
423,99700
423,99750
423,99800
423,99850
423,99900
423,99950
423,100000
423,100050
423,100100
411,100150
425,100200
425,100250
425,100300
425,100350
425,100400
425,100450
425,100500
425,100550
425,100600
415,100650
427,100700
427,100750
427,100800
427,100850
427,100900
427,100950
427,101000
427,101050
427,101100
417,101150
429,101200
429,101250
429,101300
429,101350
429,101400
429,101450
429,101500
429,101550
429,101600
419,101650
431,101700
431,101750
431,101800
431,101850
431,101900
431,101950
431,102000
431,102050
421,102100
424,102150
436,102200
436,102250
436,102300
436,102350
436,102400
436,102450
436,102500
436,102550
436,102600
425,102650
437,102700
437,102750
437,102800
437,102850
437,102900
437,102950
437,103000
437,103050
437,103100
426,103150
432,103200
439,103250
439,103300
439,103350
439,103400
439,103450
439,103500
439,103550
439,103600
439,103650
428,103700
439,103750
439,103800
439,103850
439,103900
439,103950
439,104000
439,104050
439,104100
439,104150
431,104200
443,104250
443,104300
443,104350
443,104400
443,104450
443,104500
443,104550
443,104600
432,104650
436,104700
444,104750
444,104800
444,104850
444,104900
444,104950
444,105000
444,105050
444,105100
433,105150
445,105200
445,105250
445,105300
445,105350
445,105400
445,105450
445,105500
445,105550
435,105600
437,105650
448,105700
448,105750
448,105800
448,105850
448,105900
448,105950
448,106000
448,106050
436,106100
439,106150
450,106200
450,106250
450,106300
450,106350
450,106400
450,106450
450,106500
450,106550
450,106600
443,106650
453,106700
453,106750
453,106800
453,106850
453,106900
453,106950
453,107000
453,107050
441,107100
444,107150
454,107200
454,107250
454,107300
454,107350
454,107400
454,107450
454,107500
454,107550
442,107600
454,107650
454,107700
454,107750
454,107800
454,107850
454,107900
454,107950
448,108000
449,108050
461,108100
461,108150
461,108200
461,108250
461,108300
461,108350
461,108400
461,108450
461,108500
456,108550
467,108600
467,108650
467,108700
467,108750
467,108800
467,108850
467,108900
467,108950
467,109000
453,109050
464,109100
464,109150
464,109200
464,109250
464,109300
464,109350
464,109400
464,109450
464,109500
452,109550
463,109600
463,109650
463,109700
463,109750
463,109800
463,109850
463,109900
463,109950
463,110000
451,110050
458,110100
463,110150
463,110200
463,110250
463,110300
463,110350
463,110400
463,110450
463,110500
451,110550
455,110600
463,110650
463,110700
463,110750
463,110800
463,110850
463,110900
463,110950
463,111000
455,111050
461,111100
467,111150
467,111200
467,111250
467,111300
467,111350
467,111400
467,111450
467,111500
454,111550
466,111600
466,111650
466,111700
466,111750
466,111800
466,111850
466,111900
466,111950
466,112000
456,112050
468,112100
468,112150
468,112200
468,112250
468,112300
468,112350
468,112400
468,112450
458,112500
461,112550
470,112600
470,112650
470,112700
470,112750
470,112800
470,112850
470,112900
470,112950
470,113000
461,113050
472,113100
472,113150
472,113200
472,113250
472,113300
472,113350
472,113400
472,113450
459,113500
461,113550
471,113600
471,113650
471,113700
471,113750
471,113800
471,113850
471,113900
471,113950
463,114000
474,114050
474,114100
474,114150
474,114200
474,114250
474,114300
474,114350
474,114400
474,114450
464,114500
475,114550
475,114600
475,114650
475,114700
475,114750
475,114800
475,114850
475,114900
475,114950
465,115000
476,115050
476,115100
476,115150
476,115200
476,115250
476,115300
476,115350
476,115400
476,115450
466,115500
469,115550
478,115600
478,115650
478,115700
478,115750
478,115800
478,115850
478,115900
478,115950
478,116000
473,116050
484,116100
484,116150
484,116200
484,116250
484,116300
484,116350
484,116400
484,116450
484,116500
474,116550
482,116600
484,116650
484,116700
484,116750
484,116800
484,116850
484,116900
484,116950
484,117000
471,117050
478,117100
482,117150
482,117200
482,117250
482,117300
482,117350
482,117400
482,117450
482,117500
470,117550
472,117600
482,117650
482,117700
482,117750
482,117800
482,117850
482,117900
482,117950
482,118000
482,118050
474,118100
484,118150
484,118200
484,118250
484,118300
484,118350
484,118400
484,118450
484,118500
484,118550
471,118600
475,118650
483,118700
483,118750
483,118800
483,118850
483,118900
483,118950
483,119000
483,119050
483,119100
474,119150
484,119200
484,119250
484,119300
484,119350
484,119400
484,119450
484,119500
484,119550
476,119600
486,119650
486,119700
486,119750
486,119800
486,119850
486,119900
486,119950
486,120000
475,120050
483,120100
486,120150
486,120200
486,120250
486,120300
486,120350
486,120400
486,120450
486,120500
479,120550
488,120600
488,120650
488,120700
488,120750
488,120800
488,120850
488,120900
477,120950
487,121000
487,121050
487,121100
487,121150
487,121200
487,121250
487,121300
487,121350
487,121400
479,121450
489,121500
489,121550
489,121600
489,121650
489,121700
489,121750
489,121800
489,121850
479,121900
482,121950
492,122000
492,122050
492,122100
492,122150
492,122200
492,122250
492,122300
492,122350
479,122400
483,122450
490,122500
490,122550
490,122600
490,122650
490,122700
490,122750
490,122800
490,122850
480,122900
485,122950
490,123000
490,123050
490,123100
490,123150
490,123200
490,123250
490,123300
490,123350
484,123400
494,123450
494,123500
494,123550
494,123600
494,123650
494,123700
494,123750
494,123800
482,123850
493,123900
493,123950
493,124000
493,124050
493,124100
493,124150
493,124200
493,124250
485,124300
495,124350
495,124400
495,124450
495,124500
495,124550
495,124600
495,124650
495,124700
487,124750
488,124800
497,124850
497,124900
497,124950
497,125000
497,125050
497,125100
497,125150
486,125200
496,125250
496,125300
496,125350
496,125400
496,125450
496,125500
496,125550
496,125600
496,125650
487,125700
497,125750
497,125800
497,125850
497,125900
497,125950
497,126000
497,126050
497,126100
489,126150
498,126200
498,126250
498,126300
498,126350
498,126400
498,126450
498,126500
498,126550
487,126600
489,126650
498,126700
498,126750
498,126800
498,126850
498,126900
498,126950
498,127000
498,127050
489,127100
496,127150
499,127200
499,127250
499,127300
499,127350
499,127400
499,127450
489,127500
491,127550
500,127600
500,127650
500,127700
500,127750
500,127800
500,127850
500,127900
500,127950
492,128000
502,128050
502,128100
502,128150
502,128200
502,128250
502,128300
502,128350
502,128400
502,128450
493,128500
502,128550
502,128600
502,128650
502,128700
502,128750
502,128800
502,128850
502,128900
492,128950
501,129000
501,129050
501,129100
501,129150
501,129200
501,129250
501,129300
501,129350
501,129400
494,129450
504,129500
504,129550
504,129600
504,129650
504,129700
504,129750
504,129800
504,129850
504,129900
496,129950
505,130000
505,130050
505,130100
505,130150
505,130200
505,130250
505,130300
505,130350
494,130400
496,130450
505,130500
505,130550
505,130600
505,130650
505,130700
505,130750
505,130800
505,130850
495,130900
497,130950
505,131000
505,131050
505,131100
505,131150
505,131200
505,131250
505,131300
505,131350
497,131400
507,131450
507,131500
507,131550
507,131600
507,131650
507,131700
507,131750
507,131800
497,131850
500,131900
506,131950
506,132000
506,132050
506,132100
506,132150
506,132200
506,132250
497,132300
506,132350
506,132400
506,132450
506,132500
506,132550
506,132600
506,132650
496,132700
503,132750
506,132800
506,132850
506,132900
506,132950
506,133000
506,133050
506,133100
497,133150
500,133200
508,133250
508,133300
508,133350
508,133400
508,133450
508,133500
508,133550
508,133600
499,133650
506,133700
509,133750
509,133800
509,133850
509,133900
509,133950
509,134000
509,134050
509,134100
500,134150
509,134200
509,134250
509,134300
509,134350
509,134400
509,134450
509,134500
509,134550
501,134600
510,134650
510,134700
510,134750
510,134800
510,134850
510,134900
510,134950
510,135000
503,135050
512,135100
512,135150
512,135200
512,135250
512,135300
512,135350
512,135400
502,135450
512,135500
512,135550
512,135600
512,135650
512,135700
512,135750
512,135800
512,135850
512,135900
503,135950
512,136000
512,136050
512,136100
512,136150
512,136200
512,136250
512,136300
512,136350
502,136400
504,136450
512,136500
512,136550
512,136600
512,136650
512,136700
512,136750
512,136800
512,136850
504,136900
512,136950
512,137000
512,137050
512,137100
512,137150
512,137200
512,137250
512,137300
504,137350
513,137400
513,137450
513,137500
513,137550
513,137600
513,137650
513,137700
506,137750
515,137800
515,137850
515,137900
515,137950
515,138000
515,138050
515,138100
515,138150
505,138200
514,138250
514,138300
514,138350
514,138400
514,138450
514,138500
514,138550
514,138600
506,138650
515,138700
515,138750
515,138800
515,138850
515,138900
515,138950
515,139000
515,139050
508,139100
518,139150
518,139200
518,139250
518,139300
518,139350
518,139400
518,139450
518,139500
507,139550
516,139600
516,139650
516,139700
516,139750
516,139800
516,139850
516,139900
516,139950
516,140000
508,140050
517,140100
517,140150
517,140200
517,140250
517,140300
517,140350
517,140400
517,140450
508,140500
517,140550
517,140600
517,140650
517,140700
517,140750
517,140800
517,140850
517,140900
510,140950
518,141000
518,141050
518,141100
518,141150
518,141200
518,141250
518,141300
518,141350
510,141400
519,141450
519,141500
519,141550
519,141600
519,141650
519,141700
519,141750
519,141800
511,141850
520,141900
520,141950
520,142000
520,142050
520,142100
520,142150
520,142200
520,142250
511,142300
520,142350
520,142400
520,142450
520,142500
520,142550
520,142600
520,142650
520,142700
512,142750
518,142800
521,142850
521,142900
521,142950
521,143000
521,143050
521,143100
513,143150
522,143200
522,143250
522,143300
522,143350
522,143400
522,143450
513,143500
517,143550
522,143600
522,143650
522,143700
522,143750
522,143800
522,143850
522,143900
512,143950
521,144000
521,144050
521,144100
521,144150
521,144200
521,144250
521,144300
521,144350
511,144400
520,144450
520,144500
520,144550
520,144600
520,144650
520,144700
520,144750
520,144800
511,144850
519,144900
519,144950
519,145000
519,145050
519,145100
519,145150
519,145200
519,145250
512,145300
519,145350
519,145400
519,145450
519,145500
519,145550
519,145600
519,145650
508,145700
511,145750
518,145800
518,145850
518,145900
518,145950
518,146000
518,146050
518,146100
509,146150
515,146200
518,146250
518,146300
518,146350
518,146400
518,146450
518,146500
518,146550
510,146600
519,146650
519,146700
519,146750
519,146800
519,146850
519,146900
519,146950
508,147000
512,147050
518,147100
518,147150
518,147200
518,147250
518,147300
518,147350
518,147400
508,147450
517,147500
517,147550
517,147600
517,147650
517,147700
517,147750
517,147800
517,147850
510,147900
517,147950
517,148000
517,148050
517,148100
517,148150
517,148200
517,148250
508,148300
513,148350
517,148400
517,148450
517,148500
517,148550
517,148600
517,148650
517,148700
507,148750
510,148800
516,148850
516,148900
516,148950
516,149000
516,149050
516,149100
516,149150
508,149200
513,149250
518,149300
518,149350
518,149400
518,149450
518,149500
518,149550
518,149600
506,149650
509,149700
516,149750
516,149800
516,149850
516,149900
516,149950
516,150000
516,150050
509,150100
515,150150
519,150200
519,150250
519,150300
519,150350
519,150400
519,150450
519,150500
511,150550
520,150600
520,150650
520,150700
520,150750
520,150800
520,150850
511,150900
519,150950
519,151000
519,151050
519,151100
519,151150
519,151200
519,151250
519,151300
511,151350
519,151400
519,151450
519,151500
519,151550
519,151600
519,151650
519,151700
519,151750
513,151800
520,151850
520,151900
520,151950
520,152000
520,152050
520,152100
520,152150
508,152200
510,152250
518,152300
518,152350
518,152400
518,152450
518,152500
518,152550
518,152600
518,152650
511,152700
519,152750
519,152800
519,152850
519,152900
519,152950
519,153000
519,153050
519,153100
513,153150
522,153200
522,153250
522,153300
522,153350
522,153400
522,153450
522,153500
522,153550
512,153600
521,153650
521,153700
521,153750
521,153800
521,153850
521,153900
521,153950
521,154000
515,154050
522,154100
522,154150
522,154200
522,154250
522,154300
522,154350
522,154400
513,154450
522,154500
522,154550
522,154600
522,154650
522,154700
522,154750
522,154800
522,154850
514,154900
521,154950
521,155000
521,155050
521,155100
521,155150
521,155200
513,155250
522,155300
522,155350
522,155400
522,155450
522,155500
522,155550
522,155600
514,155650
523,155700
523,155750
523,155800
523,155850
523,155900
523,155950
523,156000
523,156050
516,156100
524,156150
524,156200
524,156250
524,156300
524,156350
524,156400
515,156450
516,156500
524,156550
524,156600
524,156650
524,156700
524,156750
524,156800
524,156850
515,156900
520,156950
524,157000
524,157050
524,157100
524,157150
524,157200
524,157250
524,157300
516,157350
518,157400
525,157450
525,157500
525,157550
525,157600
525,157650
525,157700
525,157750
516,157800
519,157850
525,157900
525,157950
525,158000
525,158050
525,158100
525,158150
525,158200
516,158250
518,158300
526,158350
526,158400
526,158450
526,158500
526,158550
526,158600
526,158650
518,158700
526,158750
526,158800
526,158850
526,158900
526,158950
526,159000
516,159050
518,159100
526,159150
526,159200
526,159250
526,159300
526,159350
526,159400
526,159450
526,159500
526,159550
526,159600
526,159650
526,159700
526,159750
526,159800
526,159850
526,159900
526,159950
526,160000
526,160050
526,160100
526,160150
526,160200
526,160250
526,160300
526,160350
526,160400
526,160450
526,160500
526,160550
526,160600
526,160650
526,160700
526,160750
526,160800
526,160850
526,160900
526,160950
526,161000
526,161050
526,161100
526,161150
526,161200
526,161250
526,161300
526,161350
526,161400
526,161450
526,161500
526,161550
526,161600
526,161650
526,161700
526,161750
526,161800
526,161850
526,161900
526,161950
526,162000
526,162050
526,162100
526,162150
526,162200
526,162250
526,162300
526,162350
526,162400
526,162450
526,162500
526,162550
526,162600
526,162650
526,162700
526,162750
526,162800
526,162850
526,162900
526,162950
526,163000
526,163050
526,163100
526,163150
526,163200
526,163250
526,163300
526,163350
526,163400
526,163450
526,163500
526,163550
526,163600
526,163650
526,163700
526,163750
526,163800
526,163850
526,163900
526,163950
526,164000
526,164050
526,164100
526,164150
526,164200
526,164250
526,164300
526,164350
526,164400
526,164450
526,164500
526,164550
526,164600
526,164650
526,164700
526,164750
526,164800
526,164850
526,164900
526,164950
526,165000
526,165050
526,165100
526,165150
526,165200
526,165250
526,165300
526,165350
526,165400
526,165450
526,165500
526,165550
526,165600
526,165650
526,165700
526,165750
526,165800
526,165850
526,165900
526,165950
526,166000
526,166050
526,166100
526,166150
526,166200
526,166250
526,166300
526,166350
526,166400
526,166450
526,166500
526,166550
526,166600
526,166650
526,166700
526,166750
526,166800
526,166850
526,166900
526,166950
526,167000
526,167050
526,167100
526,167150
526,167200
526,167250
526,167300
526,167350
526,167400
526,167450
526,167500
526,167550
526,167600
526,167650
526,167700
526,167750
526,167800
526,167850
526,167900
526,167950
526,168000
526,168050
526,168100
526,168150
526,168200
526,168250
526,168300
526,168350
526,168400
526,168450
526,168500
526,168550
526,168600
526,168650
526,168700
526,168750
526,168800
526,168850
526,168900
526,168950
526,169000
526,169050
526,169100
526,169150
526,169200
526,169250
526,169300
526,169350
526,169400
526,169450
526,169500
526,169550
526,169600
526,169650
526,169700
526,169750
526,169800
526,169850
526,169900
526,169950
526,170000
526,170050
526,170100
526,170150
526,170200
526,170250
526,170300
526,170350
526,170400
526,170450
526,170500
526,170550
526,170600
526,170650
526,170700
526,170750
526,170800
526,170850
526,170900
526,170950
526,171000
526,171050
526,171100
526,171150
526,171200
526,171250
526,171300
526,171350
526,171400
526,171450
526,171500
526,171550
526,171600
526,171650
526,171700
526,171750
526,171800
526,171850
526,171900
526,171950
526,172000
526,172050
526,172100
526,172150
526,172200
526,172250
526,172300
526,172350
526,172400
526,172450
526,172500
526,172550
526,172600
526,172650
526,172700
526,172750
526,172800
526,172850
526,172900
526,172950
526,173000
526,173050
526,173100
526,173150
526,173200
526,173250
526,173300
526,173350
526,173400
526,173450
526,173500
526,173550
526,173600
526,173650
526,173700
526,173750
526,173800
526,173850
526,173900
526,173950
526,174000
526,174050
526,174100
526,174150
526,174200
526,174250
526,174300
526,174350
526,174400
526,174450
526,174500
526,174550
526,174600
526,174650
526,174700
526,174750
526,174800
526,174850
526,174900
526,174950
526,175000
526,175050
526,175100
526,175150
526,175200
526,175250
526,175300
526,175350
526,175400
526,175450
526,175500
526,175550
526,175600
526,175650
526,175700
526,175750
526,175800
526,175850
526,175900
526,175950
526,176000
526,176050
526,176100
526,176150
526,176200
526,176250
526,176300
526,176350
526,176400
526,176450
526,176500
526,176550
526,176600
526,176650
526,176700
526,176750
526,176800
526,176850
526,176900
526,176950
526,177000
526,177050
526,177100
526,177150
526,177200
526,177250
526,177300
526,177350
526,177400
526,177450
526,177500
526,177550
526,177600
526,177650
526,177700
526,177750
526,177800
526,177850
526,177900
526,177950
526,178000
526,178050
526,178100
526,178150
526,178200
526,178250
526,178300
526,178350
526,178400
526,178450
526,178500
526,178550
526,178600
526,178650
526,178700
526,178750
526,178800
526,178850
526,178900
526,178950
526,179000
526,179050
526,179100
526,179150
526,179200
526,179250
526,179300
526,179350
526,179400
526,179450
526,179500
526,179550
526,179600
526,179650
526,179700
526,179750
526,179800
526,179850
526,179900
526,179950
526,180000
526,180050
526,180100
526,180150
526,180200
526,180250
526,180300
526,180350
526,180400
526,180450
526,180500
526,180550
526,180600
526,180650
526,180700
526,180750
526,180800
526,180850
526,180900
526,180950
526,181000
526,181050
526,181100
526,181150
526,181200
526,181250
526,181300
526,181350
526,181400
526,181450
526,181500
526,181550
526,181600
526,181650
526,181700
526,181750
526,181800
526,181850
526,181900
526,181950
526,182000
526,182050
526,182100
526,182150
526,182200
526,182250
526,182300
526,182350
526,182400
526,182450
526,182500
526,182550
526,182600
526,182650
526,182700
526,182750
526,182800
526,182850
526,182900
526,182950
526,183000
526,183050
526,183100
526,183150
526,183200
526,183250
526,183300
526,183350
526,183400
526,183450
526,183500
526,183550
526,183600
526,183650
526,183700
526,183750
526,183800
526,183850
526,183900
526,183950
526,184000
526,184050
526,184100
526,184150
526,184200
526,184250
526,184300
526,184350
526,184400
526,184450
526,184500
526,184550
526,184600
526,184650
526,184700
526,184750
526,184800
526,184850
526,184900
526,184950
526,185000
526,185050
526,185100
526,185150
526,185200
526,185250
526,185300
526,185350
526,185400
526,185450
526,185500
526,185550
526,185600
526,185650
526,185700
526,185750
526,185800
526,185850
526,185900
526,185950
526,186000
526,186050
526,186100
526,186150
526,186200
526,186250
526,186300
526,186350
526,186400
526,186450
526,186500
526,186550
526,186600
526,186650
526,186700
526,186750
526,186800
526,186850
526,186900
526,186950
526,187000
526,187050
526,187100
526,187150
526,187200
526,187250
526,187300
526,187350
526,187400
526,187450
526,187500
526,187550
526,187600
526,187650
526,187700
526,187750
526,187800
526,187850
526,187900
526,187950
526,188000
526,188050
526,188100
526,188150
526,188200
526,188250
526,188300
526,188350
526,188400
526,188450
526,188500
526,188550
526,188600
526,188650
526,188700
526,188750
526,188800
526,188850
526,188900
526,188950
526,189000
526,189050
526,189100
526,189150
526,189200
526,189250
526,189300
526,189350
526,189400
526,189450
526,189500
526,189550
526,189600
526,189650
526,189700
526,189750
526,189800
526,189850
526,189900
526,189950
526,190000
526,190050
526,190100
526,190150
526,190200
526,190250
526,190300
526,190350
526,190400
526,190450
526,190500
526,190550
526,190600
526,190650
526,190700
526,190750
526,190800
526,190850
526,190900
526,190950
526,191000
526,191050
526,191100
526,191150
526,191200
526,191250
526,191300
526,191350
526,191400
526,191450
526,191500
526,191550
526,191600
526,191650
526,191700
526,191750
526,191800
526,191850
526,191900
526,191950
526,192000
526,192050
526,192100
526,192150
526,192200
526,192250
526,192300
526,192350
526,192400
526,192450
526,192500
526,192550
526,192600
526,192650
526,192700
526,192750
526,192800
526,192850
526,192900
526,192950
526,193000
526,193050
526,193100
526,193150
526,193200
526,193250
526,193300
526,193350
526,193400
526,193450
526,193500
526,193550
526,193600
526,193650
526,193700
526,193750
526,193800
526,193850
526,193900
526,193950
526,194000
526,194050
526,194100
526,194150
526,194200
526,194250
526,194300
526,194350
526,194400
526,194450
526,194500
526,194550
526,194600
526,194650
526,194700
526,194750
526,194800
526,194850
526,194900
526,194950
526,195000
526,195050
526,195100
526,195150
526,195200
526,195250
526,195300
526,195350
526,195400
526,195450
526,195500
526,195550
526,195600
526,195650
526,195700
526,195750
526,195800
526,195850
526,195900
526,195950
526,196000
526,196050
526,196100
526,196150
526,196200
526,196250
526,196300
526,196350
526,196400
526,196450
526,196500
526,196550
526,196600
526,196650
526,196700
526,196750
526,196800
526,196850
526,196900
526,196950
526,197000
526,197050
526,197100
526,197150
526,197200
526,197250
526,197300
526,197350
526,197400
526,197450
526,197500
526,197550
526,197600
526,197650
526,197700
526,197750
526,197800
526,197850
526,197900
526,197950
526,198000
526,198050
526,198100
526,198150
526,198200
526,198250
526,198300
526,198350
526,198400
526,198450
526,198500
526,198550
526,198600
526,198650
526,198700
526,198750
526,198800
526,198850
526,198900
526,198950
526,199000
526,199050
526,199100
526,199150
526,199200
526,199250
526,199300
526,199350
526,199400
526,199450
526,199500
526,199550
526,199600
526,199650
526,199700
526,199750
526,199800
526,199850
526,199900
526,199950
526,200000
526,200050
526,200100
526,200150
526,200200
526,200250
526,200300
526,200350
526,200400
526,200450
526,200500
526,200550
526,200600
526,200650
526,200700
526,200750
526,200800
526,200850
526,200900
526,200950
526,201000
526,201050
526,201100
526,201150
526,201200
526,201250
526,201300
526,201350
526,201400
526,201450
526,201500
526,201550
526,201600
526,201650
526,201700
526,201750
526,201800
526,201850
526,201900
526,201950
526,202000
526,202050
526,202100
526,202150
526,202200
526,202250
526,202300
526,202350
526,202400
526,202450
526,202500
526,202550
526,202600
526,202650
526,202700
526,202750
526,202800
526,202850
526,202900
526,202950
526,203000
526,203050
526,203100
526,203150
526,203200
526,203250
526,203300
526,203350
526,203400
526,203450
526,203500
526,203550
526,203600
526,203650
526,203700
526,203750
526,203800
526,203850
526,203900
526,203950
526,204000
526,204050
526,204100
526,204150
526,204200
526,204250
526,204300
526,204350
526,204400
526,204450
526,204500
526,204550
526,204600
526,204650
526,204700
526,204750
526,204800
526,204850
526,204900
526,204950
526,205000
526,205050
526,205100
526,205150
526,205200
526,205250
526,205300
526,205350
526,205400
526,205450
526,205500
526,205550
526,205600
526,205650
526,205700
526,205750
526,205800
526,205850
526,205900
526,205950
526,206000
526,206050
526,206100
526,206150
526,206200
526,206250
526,206300
526,206350
526,206400
526,206450
526,206500
526,206550
526,206600
526,206650
526,206700
526,206750
526,206800
526,206850
526,206900
526,206950
526,207000
526,207050
526,207100
526,207150
526,207200
526,207250
526,207300
526,207350
526,207400
526,207450
526,207500
526,207550
526,207600
526,207650
526,207700
526,207750
526,207800
526,207850
526,207900
526,207950
526,208000
526,208050
526,208100
526,208150
526,208200
526,208250
526,208300
526,208350
526,208400
526,208450
526,208500
526,208550
526,208600
526,208650
526,208700
526,208750
526,208800
526,208850
526,208900
526,208950
526,209000
526,209050
526,209100
526,209150
526,209200
526,209250
526,209300
526,209350
526,209400
526,209450
526,209500
526,209550
526,209600
526,209650
526,209700
526,209750
526,209800
526,209850
526,209900
526,209950
526,210000
526,210050
526,210100
526,210150
526,210200
526,210250
526,210300
526,210350
526,210400
526,210450
526,210500
526,210550
526,210600
526,210650
526,210700
526,210750
526,210800
526,210850
526,210900
526,210950
526,211000
526,211050
526,211100
526,211150
526,211200
526,211250
526,211300
526,211350
526,211400
526,211450
526,211500
526,211550
526,211600
526,211650
526,211700
526,211750
526,211800
526,211850
526,211900
526,211950
526,212000
526,212050
526,212100
526,212150
526,212200
526,212250
526,212300
526,212350
526,212400
526,212450
526,212500
526,212550
526,212600
526,212650
526,212700
526,212750
526,212800
526,212850
526,212900
526,212950
526,213000
526,213050
526,213100
526,213150
526,213200
526,213250
526,213300
526,213350
526,213400
526,213450
526,213500
526,213550
526,213600
526,213650
526,213700
526,213750
526,213800
526,213850
526,213900
526,213950
526,214000
526,214050
526,214100
526,214150
526,214200
526,214250
526,214300
526,214350
526,214400
526,214450
526,214500
526,214550
526,214600
526,214650
526,214700
526,214750
526,214800
526,214850
526,214900
526,214950
526,215000
526,215050
526,215100
526,215150
526,215200
526,215250
526,215300
526,215350
526,215400
526,215450
526,215500
526,215550
526,215600
526,215650
526,215700
526,215750
526,215800
526,215850
526,215900
526,215950
526,216000
526,216050
526,216100
526,216150
526,216200
526,216250
526,216300
526,216350
526,216400
526,216450
526,216500
526,216550
526,216600
526,216650
526,216700
526,216750
526,216800
526,216850
526,216900
526,216950
526,217000
526,217050
526,217100
526,217150
526,217200
526,217250
526,217300
526,217350
526,217400
526,217450
526,217500
526,217550
526,217600
526,217650
526,217700
526,217750
526,217800
526,217850
526,217900
526,217950
526,218000
526,218050
526,218100
526,218150
526,218200
526,218250
526,218300
526,218350
526,218400
526,218450
526,218500
526,218550
526,218600
526,218650
526,218700
526,218750
526,218800
526,218850
526,218900
526,218950
526,219000
526,219050
526,219100
526,219150
526,219200
526,219250
526,219300
526,219350
526,219400
526,219450
526,219500
526,219550
526,219600
526,219650
526,219700
526,219750
526,219800
526,219850
526,219900
526,219950
526,220000
526,220050
526,220100
526,220150
526,220200
526,220250
526,220300
526,220350
526,220400
526,220450
526,220500
526,220550
526,220600
526,220650
526,220700
526,220750
526,220800
526,220850
526,220900
526,220950
526,221000
526,221050
526,221100
526,221150
526,221200
526,221250
526,221300
526,221350
526,221400
526,221450
526,221500
526,221550
526,221600
526,221650
526,221700
526,221750
526,221800
526,221850
526,221900
526,221950
526,222000
526,222050
526,222100
526,222150
526,222200
526,222250
526,222300
526,222350
526,222400
526,222450
526,222500
526,222550
526,222600
526,222650
526,222700
526,222750
526,222800
526,222850
526,222900
526,222950
526,223000
526,223050
526,223100
526,223150
526,223200
526,223250
526,223300
526,223350
526,223400
526,223450
526,223500
526,223550
526,223600
526,223650
526,223700
526,223750
526,223800
526,223850
526,223900
526,223950
526,224000
526,224050
526,224100
526,224150
526,224200
526,224250
526,224300
526,224350
526,224400
526,224450
526,224500
526,224550
526,224600
526,224650
526,224700
526,224750
526,224800
526,224850
526,224900
526,224950
526,225000
526,225050
526,225100
526,225150
526,225200
526,225250
526,225300
526,225350
526,225400
526,225450
526,225500
526,225550
526,225600
526,225650
526,225700
526,225750
526,225800
526,225850
526,225900
526,225950
526,226000
526,226050
526,226100
526,226150
526,226200
526,226250
526,226300
526,226350
526,226400
526,226450
526,226500
526,226550
526,226600
526,226650
526,226700
526,226750
526,226800
526,226850
526,226900
526,226950
526,227000
526,227050
526,227100
526,227150
526,227200
526,227250
526,227300
526,227350
526,227400
526,227450
526,227500
526,227550
526,227600
526,227650
526,227700
526,227750
526,227800
526,227850
526,227900
526,227950
526,228000
526,228050
526,228100
526,228150
526,228200
526,228250
526,228300
526,228350
526,228400
526,228450
526,228500
526,228550
526,228600
526,228650
