4,100
4,200
4,300
4,400
4,500
4,600
4,700
4,800
4,900
4,1000
5,1100
4,1200
4,1300
4,1400
4,1500
4,1600
4,1700
4,1800
4,1900
4,2000
4,2100
4,2200
52,2300
50,2400
50,2500
50,2600
50,2700
50,2800
80,2900
77,3000
77,3100
77,3200
77,3300
77,3400
74,3500
72,3600
72,3700
72,3800
72,3900
72,4000
67,4100
64,4200
64,4300
64,4400
64,4500
64,4600
61,4700
60,4800
60,4900
60,5000
60,5100
60,5200
57,5300
56,5400
56,5500
56,5600
56,5700
56,5800
54,5900
53,6000
53,6100
53,6200
53,6300
53,6400
52,6500
50,6600
50,6700
50,6800
50,6900
50,7000
48,7100
47,7200
47,7300
47,7400
47,7500
47,7600
46,7700
46,7800
46,7900
46,8000
46,8100
46,8200
44,8300
43,8400
43,8500
43,8600
43,8700
43,8800
43,8900
41,9000
41,9100
41,9200
41,9300
41,9400
41,9500
40,9600
40,9700
40,9800
40,9900
40,10000
40,10100
39,10200
39,10300
39,10400
39,10500
39,10600
38,10700
37,10800
37,10900
37,11000
37,11100
37,11200
38,11300
36,11400
36,11500
36,11600
36,11700
36,11800
36,11900
35,12000
35,12100
35,12200
35,12300
35,12400
35,12500
34,12600
34,12700
34,12800
34,12900
34,13000
34,13100
33,13200
33,13300
33,13400
33,13500
33,13600
33,13700
32,13800
32,13900
32,14000
32,14100
32,14200
32,14300
32,14400
32,14500
32,14600
32,14700
32,14800
31,14900
31,15000
31,15100
31,15200
31,15300
31,15400
31,15500
30,15600
30,15700
30,15800
30,15900
30,16000
30,16100
30,16200
30,16300
30,16400
30,16500
30,16600
30,16700
28,16800
28,16900
28,17000
28,17100
28,17200
29,17300
28,17400
28,17500
28,17600
28,17700
28,17800
28,17900
27,18000
27,18100
27,18200
27,18300
27,18400
27,18500
26,18600
26,18700
26,18800
26,18900
26,19000
27,19100
26,19200
26,19300
26,19400
26,19500
26,19600
26,19700
26,19800
26,19900
26,20000
26,20100
26,20200
25,20300
25,20400
25,20500
25,20600
25,20700
25,20800
25,20900
25,21000
25,21100
25,21200
25,21300
25,21400
24,21500
24,21600
24,21700
24,21800
24,21900
24,22000
24,22100
24,22200
24,22300
24,22400
24,22500
24,22600
24,22700
23,22800
23,22900
23,23000
23,23100
23,23200
23,23300
23,23400
23,23500
23,23600
23,23700
23,23800
23,23900
23,24000
23,24100
23,24200
23,24300
23,24400
23,24500
23,24600
23,24700
23,24800
23,24900
23,25000
22,25100
22,25200
22,25300
22,25400
22,25500
22,25600
22,25700
22,25800
22,25900
22,26000
22,26100
22,26200
21,26300
21,26400
21,26500
21,26600
21,26700
21,26800
22,26900
21,27000
21,27100
21,27200
21,27300
21,27400
21,27500
20,27600
20,27700
20,27800
20,27900
20,28000
20,28100
20,28200
20,28300
20,28400
20,28500
20,28600
21,28700
20,28800
20,28900
20,29000
20,29100
20,29200
20,29300
20,29400
20,29500
20,29600
20,29700
20,29800
20,29900
20,30000
20,30100
20,30200
20,30300
20,30400
20,30500
19,30600
19,30700
19,30800
19,30900
19,31000
20,31100
19,31200
19,31300
19,31400
19,31500
19,31600
19,31700
19,31800
19,31900
19,32000
19,32100
19,32200
19,32300
19,32400
19,32500
19,32600
19,32700
19,32800
19,32900
18,33000
18,33100
18,33200
18,33300
18,33400
19,33500
19,33600
19,33700
19,33800
19,33900
19,34000
19,34100
18,34200
18,34300
18,34400
18,34500
18,34600
18,34700
18,34800
18,34900
18,35000
18,35100
18,35200
19,35300
18,35400
18,35500
18,35600
18,35700
18,35800
18,35900
17,36000
17,36100
17,36200
17,36300
17,36400
18,36500
17,36600
17,36700
17,36800
17,36900
17,37000
18,37100
17,37200
17,37300
17,37400
17,37500
17,37600
18,37700
17,37800
17,37900
17,38000
17,38100
17,38200
18,38300
17,38400
17,38500
17,38600
17,38700
17,38800
18,38900
16,39000
16,39100
16,39200
16,39300
16,39400
17,39500
17,39600
17,39700
17,39800
17,39900
17,40000
17,40100
17,40200
17,40300
17,40400
17,40500
17,40600
16,40700
17,40800
17,40900
17,41000
17,41100
17,41200
17,41300
16,41400
16,41500
16,41600
16,41700
16,41800
17,41900
16,42000
16,42100
16,42200
16,42300
16,42400
16,42500
16,42600
16,42700
16,42800
16,42900
16,43000
16,43100
16,43200
16,43300
16,43400
16,43500
16,43600
16,43700
16,43800
16,43900
16,44000
16,44100
16,44200
16,44300
15,44400
15,44500
15,44600
15,44700
15,44800
15,44900
16,45000
16,45100
16,45200
16,45300
16,45400
16,45500
16,45600
16,45700
16,45800
16,45900
16,46000
16,46100
15,46200
15,46300
15,46400
15,46500
15,46600
15,46700
15,46800
15,46900
15,47000
15,47100
15,47200
15,47300
15,47400
15,47500
15,47600
15,47700
15,47800
15,47900
15,48000
15,48100
15,48200
15,48300
15,48400
15,48500
15,48600
15,48700
15,48800
15,48900
15,49000
15,49100
15,49200
15,49300
15,49400
15,49500
15,49600
15,49700
15,49800
15,49900
15,50000
15,50100
15,50200
15,50300
15,50400
15,50500
15,50600
15,50700
15,50800
15,50900
14,51000
15,51100
15,51200
15,51300
15,51400
15,51500
15,51600
15,51700
15,51800
15,51900
15,52000
15,52100
15,52200
14,52300
14,52400
14,52500
14,52600
14,52700
15,52800
14,52900
14,53000
14,53100
14,53200
14,53300
14,53400
14,53500
14,53600
14,53700
14,53800
14,53900
14,54000
14,54100
14,54200
14,54300
14,54400
14,54500
14,54600
14,54700
14,54800
14,54900
14,55000
14,55100
14,55200
13,55300
13,55400
13,55500
13,55600
13,55700
14,55800
14,55900
14,56000
14,56100
14,56200
14,56300
14,56400
15,56500
15,56600
15,56700
15,56800
15,56900
14,57000
14,57100
14,57200
14,57300
14,57400
14,57500
14,57600
14,57700
14,57800
14,57900
14,58000
14,58100
14,58200
14,58300
14,58400
14,58500
14,58600
14,58700
14,58800
13,58900
13,59000
13,59100
13,59200
13,59300
14,59400
13,59500
13,59600
13,59700
13,59800
13,59900
13,60000
13,60100
13,60200
13,60300
13,60400
13,60500
13,60600
13,60700
13,60800
13,60900
13,61000
13,61100
14,61200
13,61300
13,61400
13,61500
13,61600
13,61700
13,61800
13,61900
13,62000
13,62100
13,62200
13,62300
14,62400
13,62500
13,62600
13,62700
13,62800
13,62900
13,63000
13,63100
13,63200
13,63300
13,63400
13,63500
13,63600
13,63700
13,63800
13,63900
13,64000
13,64100
13,64200
13,64300
13,64400
13,64500
13,64600
13,64700
13,64800
13,64900
13,65000
13,65100
13,65200
13,65300
13,65400
13,65500
13,65600
13,65700
13,65800
13,65900
13,66000
13,66100
13,66200
13,66300
13,66400
13,66500
13,66600
13,66700
13,66800
13,66900
13,67000
13,67100
13,67200
13,67300
13,67400
13,67500
13,67600
13,67700
13,67800
13,67900
13,68000
13,68100
13,68200
13,68300
13,68400
13,68500
13,68600
13,68700
13,68800
13,68900
13,69000
13,69100
13,69200
13,69300
13,69400
13,69500
13,69600
13,69700
13,69800
13,69900
13,70000
13,70100
13,70200
13,70300
13,70400
13,70500
13,70600
13,70700
13,70800
13,70900
13,71000
13,71100
13,71200
13,71300
12,71400
12,71500
12,71600
12,71700
12,71800
12,71900
12,72000
12,72100
12,72200
12,72300
12,72400
12,72500
12,72600
12,72700
12,72800
12,72900
12,73000
12,73100
12,73200
12,73300
12,73400
12,73500
12,73600
12,73700
13,73800
13,73900
13,74000
13,74100
13,74200
13,74300
13,74400
13,74500
13,74600
13,74700
13,74800
13,74900
12,75000
12,75100
12,75200
12,75300
12,75400
12,75500
13,75600
12,75700
12,75800
12,75900
12,76000
12,76100
13,76200
12,76300
12,76400
12,76500
12,76600
12,76700
12,76800
12,76900
12,77000
12,77100
12,77200
12,77300
12,77400
12,77500
12,77600
12,77700
12,77800
12,77900
13,78000
12,78100
12,78200
12,78300
12,78400
12,78500
13,78600
12,78700
12,78800
12,78900
12,79000
12,79100
12,79200
12,79300
12,79400
12,79500
12,79600
12,79700
12,79800
12,79900
12,80000
12,80100
12,80200
12,80300
12,80400
12,80500
12,80600
12,80700
12,80800
12,80900
12,81000
12,81100
12,81200
12,81300
12,81400
12,81500
12,81600
12,81700
12,81800
12,81900
12,82000
12,82100
12,82200
13,82300
13,82400
13,82500
13,82600
13,82700
12,82800
12,82900
12,83000
12,83100
12,83200
12,83300
13,83400
12,83500
12,83600
12,83700
12,83800
12,83900
12,84000
12,84100
12,84200
12,84300
12,84400
12,84500
12,84600
11,84700
11,84800
11,84900
11,85000
11,85100
12,85200
12,85300
12,85400
12,85500
12,85600
12,85700
12,85800
12,85900
12,86000
12,86100
12,86200
12,86300
12,86400
11,86500
11,86600
11,86700
11,86800
11,86900
12,87000
12,87100
12,87200
12,87300
12,87400
12,87500
11,87600
11,87700
11,87800
11,87900
11,88000
11,88100
12,88200
11,88300
11,88400
11,88500
11,88600
11,88700
12,88800
12,88900
12,89000
12,89100
12,89200
12,89300
11,89400
11,89500
11,89600
11,89700
11,89800
11,89900
12,90000
11,90100
11,90200
11,90300
11,90400
11,90500
12,90600
11,90700
11,90800
11,90900
11,91000
11,91100
11,91200
11,91300
11,91400
11,91500
11,91600
11,91700
12,91800
11,91900
11,92000
11,92100
11,92200
11,92300
11,92400
11,92500
11,92600
11,92700
11,92800
11,92900
11,93000
11,93100
11,93200
11,93300
11,93400
11,93500
11,93600
10,93700
10,93800
10,93900
10,94000
10,94100
11,94200
12,94300
12,94400
12,94500
12,94600
12,94700
12,94800
12,94900
12,95000
12,95100
12,95200
12,95300
11,95400
11,95500
11,95600
11,95700
11,95800
11,95900
12,96000
11,96100
11,96200
11,96300
11,96400
11,96500
11,96600
11,96700
11,96800
11,96900
11,97000
11,97100
12,97200
11,97300
11,97400
11,97500
11,97600
11,97700
11,97800
11,97900
11,98000
11,98100
11,98200
11,98300
11,98400
11,98500
11,98600
11,98700
11,98800
11,98900
11,99000
11,99100
11,99200
11,99300
11,99400
11,99500
12,99600
11,99700
11,99800
11,99900
11,100000
11,100100
11,100200
11,100300
11,100400
11,100500
11,100600
11,100700
11,100800
11,100900
11,101000
11,101100
11,101200
11,101300
11,101400
11,101500
11,101600
11,101700
11,101800
11,101900
12,102000
11,102100
11,102200
11,102300
11,102400
11,102500
11,102600
11,102700
11,102800
11,102900
11,103000
11,103100
11,103200
11,103300
11,103400
11,103500
11,103600
11,103700
11,103800
11,103900
11,104000
11,104100
11,104200
11,104300
11,104400
10,104500
10,104600
10,104700
10,104800
10,104900
10,105000
11,105100
11,105200
11,105300
11,105400
11,105500
11,105600
11,105700
11,105800
11,105900
11,106000
11,106100
11,106200
11,106300
11,106400
11,106500
11,106600
11,106700
11,106800
11,106900
11,107000
11,107100
11,107200
11,107300
11,107400
11,107500
11,107600
11,107700
11,107800
11,107900
11,108000
10,108100
10,108200
10,108300
10,108400
10,108500
11,108600
11,108700
11,108800
11,108900
11,109000
11,109100
10,109200
10,109300
10,109400
10,109500
10,109600
10,109700
11,109800
11,109900
11,110000
11,110100
11,110200
11,110300
11,110400
10,110500
10,110600
10,110700
10,110800
10,110900
11,111000
10,111100
10,111200
10,111300
10,111400
10,111500
11,111600
11,111700
11,111800
11,111900
11,112000
11,112100
11,112200
10,112300
10,112400
10,112500
10,112600
10,112700
11,112800
10,112900
10,113000
10,113100
10,113200
10,113300
11,113400
11,113500
11,113600
11,113700
11,113800
11,113900
11,114000
10,114100
10,114200
10,114300
10,114400
10,114500
10,114600
10,114700
10,114800
10,114900
10,115000
10,115100
11,115200
10,115300
10,115400
10,115500
10,115600
10,115700
11,115800
11,115900
11,116000
11,116100
11,116200
11,116300
11,116400
10,116500
10,116600
10,116700
10,116800
10,116900
11,117000
10,117100
10,117200
10,117300
10,117400
10,117500
10,117600
10,117700
10,117800
10,117900
10,118000
10,118100
11,118200
11,118300
11,118400
11,118500
11,118600
11,118700
11,118800
11,118900
11,119000
11,119100
11,119200
11,119300
11,119400
11,119500
11,119600
11,119700
11,119800
11,119900
11,120000
10,120100
10,120200
10,120300
10,120400
10,120500
10,120600
10,120700
10,120800
10,120900
10,121000
10,121100
10,121200
10,121300
10,121400
10,121500
10,121600
10,121700
11,121800
10,121900
10,122000
10,122100
10,122200
10,122300
11,122400
10,122500
10,122600
10,122700
10,122800
10,122900
11,123000
11,123100
11,123200
11,123300
11,123400
11,123500
11,123600
10,123700
10,123800
10,123900
10,124000
10,124100
11,124200
10,124300
10,124400
10,124500
10,124600
10,124700
11,124800
11,124900
11,125000
11,125100
11,125200
11,125300
11,125400
10,125500
10,125600
10,125700
10,125800
10,125900
11,126000
11,126100
11,126200
11,126300
11,126400
11,126500
11,126600
11,126700
11,126800
11,126900
11,127000
11,127100
11,127200
11,127300
11,127400
11,127500
11,127600
11,127700
10,127800
11,127900
11,128000
11,128100
11,128200
11,128300
11,128400
10,128500
10,128600
10,128700
10,128800
10,128900
10,129000
10,129100
10,129200
10,129300
10,129400
10,129500
11,129600
11,129700
11,129800
11,129900
11,130000
11,130100
11,130200
10,130300
10,130400
10,130500
10,130600
10,130700
11,130800
11,130900
11,131000
11,131100
11,131200
11,131300
10,131400
10,131500
10,131600
10,131700
10,131800
10,131900
10,132000
10,132100
10,132200
10,132300
10,132400
10,132500
10,132600
10,132700
10,132800
10,132900
10,133000
10,133100
11,133200
10,133300
10,133400
10,133500
10,133600
10,133700
10,133800
10,133900
10,134000
10,134100
10,134200
10,134300
10,134400
10,134500
10,134600
10,134700
10,134800
10,134900
10,135000
10,135100
10,135200
10,135300
10,135400
10,135500
10,135600
10,135700
10,135800
10,135900
10,136000
10,136100
10,136200
10,136300
10,136400
10,136500
10,136600
10,136700
10,136800
10,136900
10,137000
10,137100
10,137200
10,137300
10,137400
11,137500
11,137600
11,137700
11,137800
11,137900
10,138000
10,138100
10,138200
10,138300
10,138400
10,138500
11,138600
10,138700
10,138800
10,138900
10,139000
10,139100
10,139200
10,139300
10,139400
10,139500
10,139600
10,139700
11,139800
10,139900
10,140000
10,140100
10,140200
10,140300
11,140400
11,140500
11,140600
11,140700
11,140800
11,140900
10,141000
11,141100
11,141200
11,141300
11,141400
11,141500
10,141600
11,141700
11,141800
11,141900
11,142000
11,142100
10,142200
10,142300
10,142400
10,142500
10,142600
10,142700
11,142800
11,142900
11,143000
11,143100
11,143200
11,143300
11,143400
10,143500
10,143600
10,143700
10,143800
10,143900
10,144000
11,144100
11,144200
11,144300
11,144400
11,144500
11,144600
10,144700
10,144800
10,144900
10,145000
10,145100
10,145200
9,145300
9,145400
9,145500
9,145600
9,145700
10,145800
10,145900
10,146000
10,146100
10,146200
10,146300
10,146400
10,146500
10,146600
10,146700
10,146800
10,146900
10,147000
10,147100
10,147200
10,147300
10,147400
10,147500
10,147600
10,147700
10,147800
10,147900
10,148000
10,148100
10,148200
11,148300
11,148400
11,148500
11,148600
11,148700
11,148800
10,148900
10,149000
10,149100
10,149200
10,149300
10,149400
11,149500
11,149600
11,149700
11,149800
11,149900
11,150000
10,150100
10,150200
10,150300
10,150400
10,150500
11,150600
10,150700
10,150800
10,150900
10,151000
10,151100
10,151200
10,151300
10,151400
10,151500
10,151600
10,151700
10,151800
11,151900
11,152000
11,152100
11,152200
11,152300
10,152400
10,152500
10,152600
10,152700
10,152800
10,152900
10,153000
11,153100
11,153200
11,153300
11,153400
11,153500
11,153600
11,153700
11,153800
11,153900
11,154000
11,154100
11,154200
10,154300
10,154400
10,154500
10,154600
10,154700
10,154800
10,154900
10,155000
10,155100
10,155200
10,155300
10,155400
10,155500
10,155600
10,155700
10,155800
10,155900
10,156000
10,156100
10,156200
10,156300
10,156400
10,156500
10,156600
11,156700
11,156800
11,156900
11,157000
11,157100
10,157200
10,157300
10,157400
10,157500
10,157600
10,157700
11,157800
10,157900
10,158000
10,158100
10,158200
10,158300
10,158400
10,158500
10,158600
10,158700
10,158800
10,158900
10,159000
10,159100
10,159200
10,159300
10,159400
10,159500
10,159600
10,159700
10,159800
10,159900
10,160000
10,160100
10,160200
10,160300
10,160400
10,160500
10,160600
10,160700
10,160800
10,160900
10,161000
10,161100
10,161200
10,161300
10,161400
10,161500
10,161600
10,161700
10,161800
10,161900
10,162000
11,162100
11,162200
11,162300
11,162400
11,162500
10,162600
10,162700
10,162800
10,162900
10,163000
10,163100
10,163200
11,163300
11,163400
11,163500
11,163600
11,163700
10,163800
10,163900
10,164000
10,164100
10,164200
10,164300
10,164400
10,164500
10,164600
10,164700
10,164800
10,164900
10,165000
10,165100
10,165200
10,165300
10,165400
10,165500
11,165600
10,165700
10,165800
10,165900
10,166000
10,166100
10,166200
10,166300
10,166400
10,166500
10,166600
10,166700
10,166800
11,166900
11,167000
11,167100
11,167200
11,167300
11,167400
10,167500
10,167600
10,167700
10,167800
10,167900
10,168000
10,168100
10,168200
10,168300
10,168400
10,168500
10,168600
10,168700
10,168800
10,168900
10,169000
10,169100
10,169200
10,169300
10,169400
10,169500
10,169600
10,169700
10,169800
10,169900
10,170000
10,170100
10,170200
10,170300
10,170400
10,170500
10,170600
10,170700
10,170800
10,170900
10,171000
10,171100
10,171200
10,171300
10,171400
10,171500
11,171600
11,171700
11,171800
11,171900
11,172000
11,172100
11,172200
10,172300
10,172400
10,172500
10,172600
10,172700
11,172800
10,172900
10,173000
10,173100
10,173200
10,173300
11,173400
10,173500
10,173600
10,173700
10,173800
10,173900
10,174000
11,174100
11,174200
11,174300
11,174400
11,174500
10,174600
10,174700
10,174800
10,174900
10,175000
10,175100
11,175200
10,175300
10,175400
10,175500
10,175600
10,175700
10,175800
10,175900
10,176000
10,176100
10,176200
10,176300
11,176400
10,176500
10,176600
10,176700
10,176800
10,176900
10,177000
10,177100
10,177200
10,177300
10,177400
10,177500
11,177600
11,177700
11,177800
11,177900
11,178000
11,178100
11,178200
11,178300
11,178400
11,178500
11,178600
11,178700
11,178800
11,178900
11,179000
11,179100
11,179200
11,179300
10,179400
11,179500
11,179600
11,179700
11,179800
11,179900
11,180000
11,180100
11,180200
11,180300
11,180400
11,180500
11,180600
11,180700
11,180800
11,180900
11,181000
11,181100
11,181200
11,181300
11,181400
11,181500
11,181600
11,181700
10,181800
10,181900
10,182000
10,182100
10,182200
10,182300
10,182400
11,182500
11,182600
11,182700
11,182800
11,182900
10,183000
10,183100
10,183200
10,183300
10,183400
10,183500
10,183600
10,183700
10,183800
10,183900
10,184000
10,184100
10,184200
10,184300
10,184400
10,184500
10,184600
10,184700
10,184800
12,184900
12,185000
12,185100
12,185200
12,185300
12,185400
11,185500
11,185600
11,185700
11,185800
11,185900
11,186000
11,186100
11,186200
11,186300
11,186400
11,186500
11,186600
11,186700
11,186800
11,186900
11,187000
11,187100
11,187200
11,187300
11,187400
11,187500
11,187600
11,187700
11,187800
11,187900
11,188000
11,188100
11,188200
11,188300
11,188400
11,188500
11,188600
11,188700
11,188800
11,188900
11,189000
11,189100
11,189200
11,189300
11,189400
11,189500
11,189600
10,189700
10,189800
10,189900
10,190000
10,190100
10,190200
11,190300
11,190400
11,190500
11,190600
11,190700
11,190800
11,190900
11,191000
11,191100
11,191200
11,191300
11,191400
12,191500
12,191600
12,191700
12,191800
12,191900
12,192000
11,192100
11,192200
11,192300
11,192400
11,192500
11,192600
11,192700
11,192800
11,192900
11,193000
11,193100
11,193200
11,193300
11,193400
11,193500
11,193600
11,193700
11,193800
11,193900
11,194000
11,194100
11,194200
11,194300
11,194400
12,194500
12,194600
12,194700
12,194800
12,194900
12,195000
11,195100
11,195200
11,195300
11,195400
11,195500
11,195600
12,195700
12,195800
12,195900
12,196000
12,196100
12,196200
11,196300
11,196400
11,196500
11,196600
11,196700
11,196800
12,196900
12,197000
12,197100
12,197200
12,197300
12,197400
12,197500
12,197600
12,197700
12,197800
12,197900
12,198000
11,198100
11,198200
11,198300
11,198400
11,198500
11,198600
11,198700
11,198800
11,198900
11,199000
11,199100
11,199200
12,199300
12,199400
12,199500
12,199600
12,199700
12,199800
12,199900
12,200000
12,200100
12,200200
12,200300
12,200400
12,200500
12,200600
12,200700
12,200800
12,200900
12,201000
12,201100
12,201200
12,201300
12,201400
12,201500
12,201600
12,201700
12,201800
12,201900
12,202000
12,202100
12,202200
12,202300
12,202400
12,202500
12,202600
12,202700
12,202800
12,202900
12,203000
12,203100
12,203200
12,203300
12,203400
12,203500
12,203600
12,203700
12,203800
12,203900
12,204000
12,204100
12,204200
12,204300
12,204400
12,204500
12,204600
13,204700
13,204800
13,204900
13,205000
13,205100
13,205200
12,205300
12,205400
12,205500
12,205600
12,205700
12,205800
12,205900
12,206000
12,206100
12,206200
12,206300
12,206400
13,206500
13,206600
13,206700
13,206800
13,206900
13,207000
13,207100
13,207200
13,207300
13,207400
13,207500
13,207600
12,207700
12,207800
12,207900
12,208000
12,208100
12,208200
12,208300
12,208400
12,208500
12,208600
12,208700
12,208800
13,208900
13,209000
13,209100
13,209200
13,209300
13,209400
13,209500
13,209600
13,209700
13,209800
13,209900
13,210000
13,210100
13,210200
13,210300
13,210400
13,210500
13,210600
13,210700
13,210800
13,210900
13,211000
13,211100
13,211200
13,211300
13,211400
13,211500
13,211600
13,211700
13,211800
14,211900
14,212000
14,212100
14,212200
14,212300
14,212400
13,212500
13,212600
13,212700
13,212800
13,212900
13,213000
12,213100
12,213200
12,213300
12,213400
12,213500
12,213600
13,213700
13,213800
13,213900
13,214000
13,214100
13,214200
14,214300
14,214400
14,214500
14,214600
14,214700
14,214800
13,214900
14,215000
14,215100
14,215200
14,215300
14,215400
14,215500
14,215600
14,215700
14,215800
14,215900
14,216000
13,216100
14,216200
14,216300
14,216400
14,216500
14,216600
14,216700
14,216800
14,216900
14,217000
14,217100
14,217200
14,217300
15,217400
15,217500
15,217600
15,217700
15,217800
15,217900
15,218000
15,218100
15,218200
15,218300
15,218400
14,218500
14,218600
14,218700
14,218800
14,218900
14,219000
15,219100
15,219200
15,219300
15,219400
15,219500
15,219600
14,219700
14,219800
14,219900
14,220000
14,220100
14,220200
15,220300
15,220400
15,220500
15,220600
15,220700
15,220800
15,220900
15,221000
15,221100
15,221200
15,221300
15,221400
15,221500
15,221600
15,221700
15,221800
15,221900
15,222000
15,222100
15,222200
15,222300
15,222400
15,222500
15,222600
15,222700
15,222800
15,222900
15,223000
15,223100
15,223200
16,223300
15,223400
15,223500
15,223600
15,223700
15,223800
15,223900
16,224000
16,224100
16,224200
16,224300
16,224400
15,224500
15,224600
15,224700
15,224800
15,224900
15,225000
16,225100
16,225200
16,225300
16,225400
16,225500
16,225600
16,225700
16,225800
16,225900
16,226000
16,226100
16,226200
16,226300
17,226400
17,226500
17,226600
17,226700
17,226800
16,226900
16,227000
16,227100
16,227200
16,227300
16,227400
16,227500
16,227600
16,227700
16,227800
16,227900
16,228000
16,228100
17,228200
17,228300
17,228400
17,228500
17,228600
18,228700
17,228800
17,228900
17,229000
17,229100
17,229200
16,229300
17,229400
17,229500
17,229600
17,229700
17,229800
17,229900
17,230000
17,230100
17,230200
17,230300
17,230400
18,230500
17,230600
17,230700
17,230800
17,230900
17,231000
18,231100
17,231200
17,231300
17,231400
17,231500
17,231600
18,231700
18,231800
18,231900
18,232000
18,232100
18,232200
19,232300
18,232400
18,232500
18,232600
18,232700
18,232800
19,232900
18,233000
18,233100
18,233200
18,233300
18,233400
19,233500
19,233600
19,233700
19,233800
19,233900
19,234000
19,234100
19,234200
19,234300
19,234400
19,234500
19,234600
20,234700
19,234800
19,234900
19,235000
19,235100
19,235200
20,235300
20,235400
20,235500
20,235600
20,235700
20,235800
20,235900
20,236000
20,236100
20,236200
20,236300
20,236400
20,236500
20,236600
20,236700
20,236800
20,236900
20,237000
21,237100
20,237200
20,237300
20,237400
20,237500
20,237600
21,237700
22,237800
22,237900
22,238000
22,238100
22,238200
22,238300
21,238400
21,238500
21,238600
21,238700
21,238800
22,238900
21,239000
21,239100
21,239200
21,239300
21,239400
22,239500
22,239600
22,239700
22,239800
22,239900
22,240000
23,240100
23,240200
23,240300
23,240400
23,240500
23,240600
24,240700
23,240800
23,240900
23,241000
23,241100
23,241200
24,241300
23,241400
23,241500
23,241600
23,241700
23,241800
25,241900
24,242000
24,242100
24,242200
24,242300
24,242400
25,242500
24,242600
24,242700
24,242800
24,242900
24,243000
25,243100
24,243200
24,243300
24,243400
24,243500
24,243600
26,243700
25,243800
25,243900
25,244000
25,244100
25,244200
26,244300
26,244400
26,244500
26,244600
26,244700
26,244800
27,244900
26,245000
26,245100
26,245200
26,245300
26,245400
27,245500
27,245600
27,245700
27,245800
27,245900
27,246000
28,246100
27,246200
27,246300
27,246400
27,246500
27,246600
29,246700
29,246800
29,246900
29,247000
29,247100
29,247200
29,247300
28,247400
28,247500
28,247600
28,247700
28,247800
29,247900
29,248000
29,248100
29,248200
29,248300
29,248400
31,248500
30,248600
30,248700
30,248800
30,248900
30,249000
31,249100
30,249200
30,249300
30,249400
30,249500
30,249600
32,249700
30,249800
30,249900
30,250000
30,250100
30,250200
33,250300
32,250400
32,250500
32,250600
32,250700
32,250800
33,250900
32,251000
32,251100
32,251200
32,251300
32,251400
35,251500
33,251600
33,251700
33,251800
33,251900
33,252000
35,252100
35,252200
35,252300
35,252400
35,252500
35,252600
36,252700
35,252800
35,252900
35,253000
35,253100
35,253200
37,253300
36,253400
36,253500
36,253600
36,253700
36,253800
38,253900
37,254000
37,254100
37,254200
37,254300
37,254400
39,254500
38,254600
38,254700
38,254800
38,254900
38,255000
41,255100
41,255200
41,255300
41,255400
41,255500
41,255600
42,255700
41,255800
41,255900
41,256000
41,256100
41,256200
43,256300
42,256400
42,256500
42,256600
42,256700
42,256800
44,256900
43,257000
43,257100
43,257200
43,257300
43,257400
44,257500
44,257600
44,257700
44,257800
44,257900
44,258000
47,258100
45,258200
45,258300
45,258400
45,258500
45,258600
48,258700
46,258800
46,258900
46,259000
46,259100
46,259200
49,259300
48,259400
48,259500
48,259600
48,259700
48,259800
51,259900
50,260000
50,260100
50,260200
50,260300
50,260400
52,260500
51,260600
51,260700
51,260800
51,260900
51,261000
54,261100
53,261200
53,261300
53,261400
53,261500
53,261600
56,261700
54,261800
54,261900
54,262000
54,262100
54,262200
58,262300
57,262400
57,262500
57,262600
57,262700
57,262800
60,262900
58,263000
58,263100
58,263200
58,263300
58,263400
62,263500
61,263600
61,263700
61,263800
61,263900
61,264000
64,264100
63,264200
63,264300
63,264400
63,264500
63,264600
67,264700
65,264800
65,264900
65,265000
65,265100
65,265200
70,265300
68,265400
68,265500
68,265600
68,265700
68,265800
71,265900
70,266000
70,266100
70,266200
70,266300
70,266400
74,266500
73,266600
73,266700
73,266800
73,266900
73,267000
76,267100
75,267200
75,267300
75,267400
75,267500
75,267600
80,267700
80,267800
80,267900
80,268000
80,268100
80,268200
83,268300
82,268400
82,268500
82,268600
82,268700
82,268800
85,268900
84,269000
84,269100
84,269200
84,269300
84,269400
88,269500
88,269600
88,269700
88,269800
88,269900
88,270000
92,270100
91,270200
91,270300
91,270400
91,270500
91,270600
96,270700
94,270800
94,270900
94,271000
94,271100
94,271200
99,271300
98,271400
98,271500
98,271600
98,271700
98,271800
103,271900
103,272000
103,272100
103,272200
103,272300
103,272400
107,272500
107,272600
107,272700
107,272800
107,272900
107,273000
111,273100
111,273200
111,273300
111,273400
111,273500
111,273600
116,273700
115,273800
115,273900
115,274000
115,274100
115,274200
121,274300
120,274400
120,274500
120,274600
120,274700
120,274800
125,274900
125,275000
125,275100
125,275200
125,275300
125,275400
130,275500
130,275600
130,275700
130,275800
130,275900
130,276000
135,276100
134,276200
134,276300
134,276400
134,276500
134,276600
140,276700
140,276800
140,276900
140,277000
140,277100
140,277200
146,277300
146,277400
146,277500
146,277600
146,277700
146,277800
151,277900
151,278000
151,278100
151,278200
151,278300
151,278400
157,278500
157,278600
157,278700
157,278800
157,278900
157,279000
163,279100
163,279200
163,279300
163,279400
163,279500
163,279600
169,279700
170,279800
170,279900
170,280000
170,280100
170,280200
175,280300
176,280400
176,280500
176,280600
176,280700
176,280800
182,280900
182,281000
182,281100
182,281200
182,281300
182,281400
188,281500
189,281600
189,281700
189,281800
189,281900
189,282000
196,282100
196,282200
196,282300
196,282400
196,282500
196,282600
202,282700
202,282800
202,282900
202,283000
202,283100
202,283200
209,283300
209,283400
209,283500
209,283600
209,283700
209,283800
216,283900
216,284000
216,284100
216,284200
216,284300
216,284400
224,284500
224,284600
224,284700
224,284800
224,284900
224,285000
231,285100
231,285200
231,285300
231,285400
231,285500
231,285600
238,285700
239,285800
239,285900
239,286000
239,286100
239,286200
246,286300
246,286400
246,286500
246,286600
246,286700
246,286800
254,286900
254,287000
254,287100
254,287200
254,287300
254,287400
262,287500
262,287600
262,287700
262,287800
262,287900
262,288000
269,288100
269,288200
269,288300
269,288400
269,288500
269,288600
277,288700
277,288800
277,288900
277,289000
277,289100
277,289200
285,289300
285,289400
285,289500
285,289600
285,289700
285,289800
293,289900
293,290000
293,290100
293,290200
293,290300
293,290400
301,290500
302,290600
302,290700
302,290800
302,290900
302,291000
309,291100
310,291200
310,291300
310,291400
310,291500
310,291600
317,291700
317,291800
317,291900
317,292000
317,292100
317,292200
326,292300
325,292400
325,292500
325,292600
325,292700
325,292800
334,292900
335,293000
335,293100
335,293200
335,293300
335,293400
342,293500
342,293600
342,293700
342,293800
342,293900
342,294000
351,294100
351,294200
351,294300
351,294400
351,294500
351,294600
358,294700
360,294800
360,294900
360,295000
360,295100
360,295200
367,295300
368,295400
368,295500
368,295600
368,295700
368,295800
374,295900
376,296000
376,296100
376,296200
376,296300
376,296400
383,296500
384,296600
384,296700
384,296800
384,296900
384,297000
390,297100
392,297200
392,297300
392,297400
392,297500
392,297600
398,297700
401,297800
401,297900
401,298000
401,298100
401,298200
405,298300
408,298400
408,298500
408,298600
408,298700
408,298800
412,298900
417,299000
417,299100
417,299200
417,299300
417,299400
418,299500
424,299600
424,299700
424,299800
424,299900
424,300000
425,300100
432,300200
432,300300
432,300400
432,300500
432,300600
431,300700
440,300800
440,300900
440,301000
440,301100
440,301200
436,301300
447,301400
447,301500
447,301600
447,301700
447,301800
440,301900
454,302000
454,302100
454,302200
454,302300
454,302400
447,302500
462,302600
462,302700
462,302800
462,302900
462,303000
453,303100
470,303200
470,303300
470,303400
470,303500
470,303600
458,303700
476,303800
476,303900
476,304000
476,304100
476,304200
463,304300
483,304400
483,304500
483,304600
483,304700
483,304800
469,304900
489,305000
489,305100
489,305200
489,305300
489,305400
471,305500
494,305600
494,305700
494,305800
494,305900
494,306000
478,306100
499,306200
499,306300
499,306400
499,306500
499,306600
482,306700
505,306800
505,306900
505,307000
505,307100
505,307200
486,307300
509,307400
509,307500
509,307600
509,307700
509,307800
492,307900
514,308000
514,308100
514,308200
514,308300
514,308400
496,308500
520,308600
520,308700
520,308800
520,308900
520,309000
501,309100
525,309200
525,309300
525,309400
525,309500
525,309600
505,309700
529,309800
529,309900
529,310000
529,310100
529,310200
508,310300
533,310400
533,310500
533,310600
533,310700
533,310800
513,310900
536,311000
536,311100
536,311200
536,311300
536,311400
516,311500
540,311600
540,311700
540,311800
540,311900
540,312000
520,312100
543,312200
543,312300
543,312400
543,312500
543,312600
523,312700
548,312800
548,312900
548,313000
548,313100
548,313200
527,313300
551,313400
551,313500
551,313600
551,313700
551,313800
531,313900
555,314000
555,314100
555,314200
555,314300
555,314400
535,314500
557,314600
557,314700
557,314800
557,314900
557,315000
538,315100
561,315200
561,315300
561,315400
561,315500
561,315600
540,315700
564,315800
564,315900
564,316000
564,316100
564,316200
543,316300
566,316400
566,316500
566,316600
566,316700
566,316800
546,316900
568,317000
568,317100
568,317200
568,317300
568,317400
549,317500
571,317600
571,317700
571,317800
571,317900
571,318000
553,318100
575,318200
575,318300
575,318400
575,318500
575,318600
553,318700
576,318800
576,318900
576,319000
576,319100
576,319200
556,319300
578,319400
578,319500
578,319600
578,319700
578,319800
559,319900
581,320000
581,320100
581,320200
581,320300
581,320400
562,320500
585,320600
585,320700
585,320800
585,320900
585,321000
565,321100
586,321200
586,321300
586,321400
586,321500
586,321600
567,321700
589,321800
589,321900
589,322000
589,322100
589,322200
571,322300
593,322400
593,322500
593,322600
593,322700
593,322800
573,322900
594,323000
594,323100
594,323200
594,323300
594,323400
576,323500
597,323600
597,323700
597,323800
597,323900
597,324000
577,324100
598,324200
598,324300
598,324400
598,324500
598,324600
581,324700
601,324800
601,324900
601,325000
601,325100
601,325200
583,325300
604,325400
604,325500
604,325600
604,325700
604,325800
585,325900
606,326000
606,326100
606,326200
606,326300
606,326400
587,326500
608,326600
608,326700
608,326800
608,326900
608,327000
590,327100
611,327200
611,327300
611,327400
611,327500
611,327600
592,327700
613,327800
613,327900
613,328000
613,328100
613,328200
595,328300
615,328400
615,328500
615,328600
615,328700
615,328800
598,328900
618,329000
618,329100
618,329200
618,329300
618,329400
600,329500
620,329600
620,329700
620,329800
620,329900
620,330000
601,330100
622,330200
622,330300
622,330400
622,330500
622,330600
604,330700
624,330800
624,330900
624,331000
624,331100
624,331200
605,331300
625,331400
625,331500
625,331600
625,331700
625,331800
608,331900
628,332000
628,332100
628,332200
628,332300
628,332400
611,332500
630,332600
630,332700
630,332800
630,332900
630,333000
612,333100
632,333200
632,333300
632,333400
632,333500
632,333600
613,333700
633,333800
633,333900
633,334000
633,334100
633,334200
616,334300
635,334400
635,334500
635,334600
635,334700
635,334800
616,334900
635,335000
635,335100
635,335200
635,335300
635,335400
619,335500
637,335600
637,335700
637,335800
637,335900
637,336000
620,336100
639,336200
639,336300
639,336400
639,336500
639,336600
624,336700
641,336800
641,336900
641,337000
641,337100
641,337200
624,337300
642,337400
642,337500
642,337600
642,337700
642,337800
627,337900
644,338000
644,338100
644,338200
644,338300
644,338400
628,338500
646,338600
646,338700
646,338800
646,338900
646,339000
631,339100
647,339200
647,339300
647,339400
647,339500
647,339600
631,339700
648,339800
648,339900
648,340000
648,340100
648,340200
633,340300
650,340400
650,340500
650,340600
650,340700
650,340800
635,340900
651,341000
651,341100
651,341200
651,341300
651,341400
636,341500
653,341600
653,341700
653,341800
653,341900
653,342000
636,342100
653,342200
653,342300
653,342400
653,342500
653,342600
644,342700
655,342800
655,342900
655,343000
655,343100
655,343200
641,343300
658,343400
658,343500
658,343600
658,343700
658,343800
650,343900
660,344000
660,344100
660,344200
660,344300
660,344400
644,344500
661,344600
661,344700
661,344800
661,344900
661,345000
644,345100
660,345200
660,345300
660,345400
660,345500
660,345600
652,345700
663,345800
663,345900
663,346000
663,346100
663,346200
653,346300
665,346400
665,346500
665,346600
665,346700
665,346800
655,346900
666,347000
666,347100
666,347200
666,347300
666,347400
657,347500
668,347600
668,347700
668,347800
668,347900
668,348000
658,348100
669,348200
669,348300
669,348400
669,348500
669,348600
660,348700
670,348800
670,348900
670,349000
670,349100
670,349200
659,349300
671,349400
671,349500
671,349600
671,349700
671,349800
662,349900
673,350000
673,350100
673,350200
673,350300
673,350400
663,350500
673,350600
673,350700
673,350800
673,350900
673,351000
668,351100
673,351200
673,351300
673,351400
673,351500
673,351600
664,351700
674,351800
674,351900
674,352000
674,352100
674,352200
666,352300
677,352400
677,352500
677,352600
677,352700
677,352800
672,352900
678,353000
678,353100
678,353200
678,353300
678,353400
668,353500
678,353600
678,353700
678,353800
678,353900
678,354000
674,354100
680,354200
680,354300
680,354400
680,354500
680,354600
671,354700
682,354800
682,354900
682,355000
682,355100
682,355200
676,355300
681,355400
681,355500
681,355600
681,355700
681,355800
673,355900
683,356000
683,356100
683,356200
683,356300
683,356400
678,356500
683,356600
683,356700
683,356800
683,356900
683,357000
675,357100
685,357200
685,357300
685,357400
685,357500
685,357600
681,357700
685,357800
685,357900
685,358000
685,358100
685,358200
682,358300
687,358400
687,358500
687,358600
687,358700
687,358800
683,358900
687,359000
687,359100
687,359200
687,359300
687,359400
684,359500
689,359600
689,359700
689,359800
689,359900
689,360000
685,360100
689,360200
689,360300
689,360400
689,360500
689,360600
686,360700
690,360800
690,360900
690,361000
690,361100
690,361200
686,361300
691,361400
691,361500
691,361600
691,361700
691,361800
689,361900
693,362000
693,362100
693,362200
693,362300
693,362400
689,362500
694,362600
694,362700
694,362800
694,362900
694,363000
690,363100
695,363200
695,363300
695,363400
695,363500
695,363600
691,363700
696,363800
696,363900
696,364000
696,364100
696,364200
691,364300
696,364400
696,364500
696,364600
696,364700
696,364800
691,364900
696,365000
696,365100
696,365200
696,365300
696,365400
691,365500
697,365600
697,365700
697,365800
697,365900
697,366000
692,366100
697,366200
697,366300
697,366400
697,366500
697,366600
692,366700
698,366800
698,366900
698,367000
698,367100
698,367200
696,367300
701,367400
701,367500
701,367600
701,367700
701,367800
695,367900
700,368000
700,368100
700,368200
700,368300
700,368400
701,368500
701,368600
701,368700
701,368800
701,368900
701,369000
697,369100
701,369200
701,369300
701,369400
701,369500
701,369600
703,369700
703,369800
703,369900
703,370000
703,370100
703,370200
698,370300
702,370400
702,370500
702,370600
702,370700
702,370800
703,370900
703,371000
703,371100
703,371200
703,371300
703,371400
699,371500
705,371600
705,371700
705,371800
705,371900
705,372000
707,372100
707,372200
707,372300
707,372400
707,372500
707,372600
701,372700
706,372800
706,372900
706,373000
706,373100
706,373200
703,373300
707,373400
707,373500
707,373600
707,373700
707,373800
701,373900
706,374000
706,374100
706,374200
706,374300
706,374400
703,374500
707,374600
707,374700
707,374800
707,374900
707,375000
703,375100
707,375200
707,375300
707,375400
707,375500
707,375600
703,375700
708,375800
708,375900
708,376000
708,376100
708,376200
703,376300
709,376400
709,376500
709,376600
709,376700
709,376800
706,376900
710,377000
710,377100
710,377200
710,377300
710,377400
705,377500
711,377600
711,377700
711,377800
711,377900
711,378000
707,378100
711,378200
711,378300
711,378400
711,378500
711,378600
707,378700
712,378800
712,378900
712,379000
712,379100
712,379200
707,379300
712,379400
712,379500
712,379600
712,379700
712,379800
708,379900
712,380000
712,380100
712,380200
712,380300
712,380400
708,380500
713,380600
713,380700
713,380800
713,380900
713,381000
707,381100
712,381200
712,381300
712,381400
712,381500
712,381600
709,381700
715,381800
715,381900
715,382000
715,382100
715,382200
709,382300
713,382400
713,382500
713,382600
713,382700
713,382800
710,382900
715,383000
715,383100
715,383200
715,383300
715,383400
711,383500
715,383600
715,383700
715,383800
715,383900
715,384000
710,384100
715,384200
715,384300
715,384400
715,384500
715,384600
710,384700
716,384800
716,384900
716,385000
716,385100
716,385200
711,385300
715,385400
715,385500
715,385600
715,385700
715,385800
713,385900
718,386000
718,386100
718,386200
718,386300
718,386400
709,386500
719,386600
719,386700
719,386800
719,386900
719,387000
712,387100
716,387200
716,387300
716,387400
716,387500
716,387600
709,387700
719,387800
719,387900
719,388000
719,388100
719,388200
715,388300
720,388400
720,388500
720,388600
720,388700
720,388800
710,388900
721,389000
721,389100
721,389200
721,389300
721,389400
715,389500
719,389600
719,389700
719,389800
719,389900
719,390000
711,390100
721,390200
721,390300
721,390400
721,390500
721,390600
716,390700
720,390800
720,390900
720,391000
720,391100
720,391200
712,391300
721,391400
721,391500
721,391600
721,391700
721,391800
717,391900
721,392000
721,392100
721,392200
721,392300
721,392400
712,392500
722,392600
722,392700
722,392800
722,392900
722,393000
717,393100
722,393200
722,393300
722,393400
722,393500
722,393600
713,393700
723,393800
723,393900
723,394000
723,394100
723,394200
719,394300
723,394400
723,394500
723,394600
723,394700
723,394800
714,394900
724,395000
724,395100
724,395200
724,395300
724,395400
722,395500
726,395600
726,395700
726,395800
726,395900
726,396000
718,396100
727,396200
727,396300
727,396400
727,396500
727,396600
718,396700
727,396800
727,396900
727,397000
727,397100
727,397200
719,397300
728,397400
728,397500
728,397600
728,397700
728,397800
719,397900
728,398000
728,398100
728,398200
728,398300
728,398400
719,398500
728,398600
728,398700
728,398800
728,398900
728,399000
720,399100
730,399200
730,399300
730,399400
730,399500
730,399600
721,399700
731,399800
731,399900
731,400000
731,400100
731,400200
723,400300
732,400400
732,400500
732,400600
732,400700
732,400800
722,400900
730,401000
730,401100
730,401200
730,401300
730,401400
722,401500
731,401600
731,401700
731,401800
731,401900
731,402000
723,402100
733,402200
733,402300
733,402400
733,402500
733,402600
724,402700
733,402800
733,402900
733,403000
733,403100
733,403200
725,403300
734,403400
734,403500
734,403600
734,403700
734,403800
725,403900
735,404000
735,404100
735,404200
735,404300
735,404400
726,404500
735,404600
735,404700
735,404800
735,404900
735,405000
727,405100
735,405200
735,405300
735,405400
735,405500
735,405600
726,405700
735,405800
735,405900
735,406000
735,406100
735,406200
729,406300
734,406400
734,406500
734,406600
734,406700
734,406800
727,406900
736,407000
736,407100
736,407200
736,407300
736,407400
732,407500
737,407600
737,407700
737,407800
737,407900
737,408000
729,408100
738,408200
738,408300
738,408400
738,408500
738,408600
732,408700
737,408800
737,408900
737,409000
737,409100
737,409200
729,409300
738,409400
738,409500
738,409600
738,409700
738,409800
734,409900
739,410000
739,410100
739,410200
739,410300
739,410400
728,410500
738,410600
738,410700
738,410800
738,410900
738,411000
729,411100
739,411200
739,411300
739,411400
739,411500
739,411600
732,411700
740,411800
740,411900
740,412000
740,412100
740,412200
731,412300
740,412400
740,412500
740,412600
740,412700
740,412800
730,412900
738,413000
738,413100
738,413200
738,413300
738,413400
731,413500
740,413600
740,413700
740,413800
740,413900
740,414000
732,414100
740,414200
740,414300
740,414400
740,414500
740,414600
732,414700
741,414800
741,414900
741,415000
741,415100
741,415200
732,415300
740,415400
740,415500
740,415600
740,415700
740,415800
732,415900
741,416000
741,416100
741,416200
741,416300
741,416400
733,416500
742,416600
742,416700
742,416800
742,416900
742,417000
728,417100
741,417200
741,417300
741,417400
741,417500
741,417600
732,417700
740,417800
740,417900
740,418000
740,418100
740,418200
726,418300
741,418400
741,418500
741,418600
741,418700
741,418800
732,418900
741,419000
741,419100
741,419200
741,419300
741,419400
729,419500
743,419600
743,419700
743,419800
743,419900
743,420000
733,420100
741,420200
741,420300
741,420400
741,420500
741,420600
728,420700
742,420800
742,420900
742,421000
742,421100
742,421200
734,421300
743,421400
743,421500
743,421600
743,421700
743,421800
729,421900
744,422000
744,422100
744,422200
744,422300
744,422400
734,422500
742,422600
742,422700
742,422800
742,422900
742,423000
729,423100
743,423200
743,423300
743,423400
743,423500
743,423600
735,423700
743,423800
743,423900
743,424000
743,424100
743,424200
730,424300
744,424400
744,424500
744,424600
744,424700
744,424800
735,424900
744,425000
744,425100
744,425200
744,425300
744,425400
731,425500
746,425600
746,425700
746,425800
746,425900
746,426000
736,426100
744,426200
744,426300
744,426400
744,426500
744,426600
731,426700
745,426800
745,426900
745,427000
745,427100
745,427200
737,427300
745,427400
745,427500
745,427600
745,427700
745,427800
732,427900
746,428000
746,428100
746,428200
746,428300
746,428400
737,428500
746,428600
746,428700
746,428800
746,428900
746,429000
733,429100
747,429200
747,429300
747,429400
747,429500
747,429600
738,429700
747,429800
747,429900
747,430000
747,430100
747,430200
739,430300
748,430400
748,430500
748,430600
748,430700
748,430800
738,430900
746,431000
746,431100
746,431200
746,431300
746,431400
738,431500
747,431600
747,431700
747,431800
747,431900
747,432000
739,432100
748,432200
748,432300
748,432400
748,432500
748,432600
738,432700
747,432800
747,432900
747,433000
747,433100
747,433200
740,433300
749,433400
749,433500
749,433600
749,433700
749,433800
739,433900
748,434000
748,434100
748,434200
748,434300
748,434400
739,434500
748,434600
748,434700
748,434800
748,434900
748,435000
741,435100
750,435200
750,435300
750,435400
750,435500
750,435600
740,435700
749,435800
749,435900
749,436000
749,436100
749,436200
741,436300
750,436400
750,436500
750,436600
750,436700
750,436800
742,436900
750,437000
750,437100
750,437200
750,437300
750,437400
741,437500
749,437600
749,437700
749,437800
749,437900
749,438000
742,438100
750,438200
750,438300
750,438400
750,438500
750,438600
741,438700
750,438800
750,438900
750,439000
750,439100
750,439200
742,439300
751,439400
751,439500
751,439600
751,439700
751,439800
742,439900
750,440000
750,440100
750,440200
750,440300
750,440400
744,440500
752,440600
752,440700
752,440800
752,440900
752,441000
745,441100
754,441200
754,441300
754,441400
754,441500
754,441600
750,441700
754,441800
754,441900
754,442000
754,442100
754,442200
744,442300
751,442400
751,442500
751,442600
751,442700
751,442800
748,442900
752,443000
752,443100
752,443200
752,443300
752,443400
742,443500
751,443600
751,443700
751,443800
751,443900
751,444000
746,444100
751,444200
751,444300
751,444400
751,444500
751,444600
745,444700
754,444800
754,444900
754,445000
754,445100
754,445200
743,445300
752,445400
752,445500
752,445600
752,445700
752,445800
746,445900
755,446000
755,446100
755,446200
755,446300
755,446400
744,446500
753,446600
753,446700
753,446800
753,446900
753,447000
745,447100
754,447200
754,447300
754,447400
754,447500
754,447600
745,447700
754,447800
754,447900
754,448000
754,448100
754,448200
748,448300
753,448400
753,448500
753,448600
753,448700
753,448800
745,448900
754,449000
754,449100
754,449200
754,449300
754,449400
749,449500
754,449600
754,449700
754,449800
754,449900
754,450000
745,450100
755,450200
755,450300
755,450400
755,450500
755,450600
751,450700
755,450800
755,450900
755,451000
755,451100
755,451200
745,451300
755,451400
755,451500
755,451600
755,451700
755,451800
751,451900
755,452000
755,452100
755,452200
755,452300
755,452400
747,452500
755,452600
755,452700
755,452800
755,452900
755,453000
750,453100
755,453200
755,453300
755,453400
755,453500
755,453600
747,453700
755,453800
755,453900
755,454000
755,454100
755,454200
752,454300
757,454400
757,454500
757,454600
757,454700
757,454800
748,454900
757,455000
757,455100
757,455200
757,455300
757,455400
751,455500
755,455600
755,455700
755,455800
755,455900
755,456000
748,456100
757,456200
757,456300
757,456400
757,456500
757,456600
752,456700
756,456800
756,456900
756,457000
756,457100
756,457200
746,457300
755,457400
755,457500
755,457600
755,457700
755,457800
752,457900
756,458000
756,458100
756,458200
756,458300
756,458400
749,458500
758,458600
758,458700
758,458800
758,458900
758,459000
753,459100
757,459200
757,459300
757,459400
757,459500
757,459600
750,459700
758,459800
758,459900
758,460000
758,460100
758,460200
754,460300
759,460400
759,460500
759,460600
759,460700
759,460800
754,460900
758,461000
758,461100
758,461200
758,461300
758,461400
753,461500
757,461600
757,461700
757,461800
757,461900
757,462000
752,462100
757,462200
757,462300
757,462400
757,462500
757,462600
752,462700
756,462800
756,462900
756,463000
756,463100
756,463200
755,463300
759,463400
759,463500
759,463600
759,463700
759,463800
756,463900
760,464000
760,464100
760,464200
760,464300
760,464400
754,464500
759,464600
759,464700
759,464800
759,464900
759,465000
755,465100
760,465200
760,465300
760,465400
760,465500
760,465600
754,465700
760,465800
760,465900
760,466000
760,466100
760,466200
755,466300
758,466400
758,466500
758,466600
758,466700
758,466800
753,466900
758,467000
758,467100
758,467200
758,467300
758,467400
755,467500
759,467600
759,467700
759,467800
759,467900
759,468000
756,468100
760,468200
760,468300
760,468400
760,468500
760,468600
755,468700
759,468800
759,468900
759,469000
759,469100
759,469200
754,469300
759,469400
759,469500
759,469600
759,469700
759,469800
756,469900
760,470000
760,470100
760,470200
760,470300
760,470400
755,470500
759,470600
759,470700
759,470800
759,470900
759,471000
755,471100
759,471200
759,471300
759,471400
759,471500
759,471600
753,471700
758,471800
758,471900
758,472000
758,472100
758,472200
756,472300
761,472400
761,472500
761,472600
761,472700
761,472800
757,472900
761,473000
761,473100
761,473200
761,473300
761,473400
757,473500
761,473600
761,473700
761,473800
761,473900
761,474000
754,474100
759,474200
759,474300
759,474400
759,474500
759,474600
754,474700
758,474800
758,474900
758,475000
758,475100
758,475200
756,475300
761,475400
761,475500
761,475600
761,475700
761,475800
756,475900
761,476000
761,476100
761,476200
761,476300
761,476400
756,476500
761,476600
761,476700
761,476800
761,476900
761,477000
759,477100
763,477200
763,477300
763,477400
763,477500
763,477600
757,477700
762,477800
762,477900
762,478000
762,478100
762,478200
757,478300
762,478400
762,478500
762,478600
762,478700
762,478800
758,478900
762,479000
762,479100
762,479200
762,479300
762,479400
751,479500
760,479600
760,479700
760,479800
760,479900
760,480000
755,480100
760,480200
760,480300
760,480400
760,480500
760,480600
751,480700
759,480800
759,480900
759,481000
759,481100
759,481200
756,481300
760,481400
760,481500
760,481600
760,481700
760,481800
750,481900
760,482000
760,482100
760,482200
760,482300
760,482400
757,482500
762,482600
762,482700
762,482800
762,482900
762,483000
754,483100
762,483200
762,483300
762,483400
762,483500
762,483600
756,483700
761,483800
761,483900
761,484000
761,484100
761,484200
756,484300
764,484400
764,484500
764,484600
764,484700
764,484800
758,484900
761,485000
761,485100
761,485200
761,485300
761,485400
753,485500
762,485600
762,485700
762,485800
762,485900
762,486000
758,486100
762,486200
762,486300
762,486400
762,486500
762,486600
758,486700
762,486800
762,486900
762,487000
762,487100
762,487200
759,487300
764,487400
764,487500
764,487600
764,487700
764,487800
757,487900
762,488000
762,488100
762,488200
762,488300
762,488400
760,488500
764,488600
764,488700
764,488800
764,488900
764,489000
759,489100
764,489200
764,489300
764,489400
764,489500
764,489600
761,489700
766,489800
766,489900
766,490000
766,490100
766,490200
761,490300
766,490400
766,490500
766,490600
766,490700
766,490800
760,490900
764,491000
764,491100
764,491200
764,491300
764,491400
761,491500
767,491600
767,491700
767,491800
767,491900
767,492000
763,492100
767,492200
767,492300
767,492400
767,492500
767,492600
763,492700
768,492800
768,492900
768,493000
768,493100
768,493200
762,493300
766,493400
766,493500
766,493600
766,493700
766,493800
762,493900
766,494000
766,494100
766,494200
766,494300
766,494400
761,494500
765,494600
765,494700
765,494800
765,494900
765,495000
761,495100
765,495200
765,495300
765,495400
765,495500
765,495600
760,495700
765,495800
765,495900
765,496000
765,496100
765,496200
764,496300
768,496400
768,496500
768,496600
768,496700
768,496800
762,496900
765,497000
765,497100
765,497200
765,497300
765,497400
762,497500
765,497600
765,497700
765,497800
765,497900
765,498000
762,498100
766,498200
766,498300
766,498400
766,498500
766,498600
761,498700
765,498800
765,498900
765,499000
765,499100
765,499200
768,499300
768,499400
768,499500
768,499600
768,499700
768,499800
761,499900
765,500000
765,500100
765,500200
765,500300
765,500400
766,500500
766,500600
766,500700
766,500800
766,500900
766,501000
763,501100
767,501200
767,501300
767,501400
767,501500
767,501600
768,501700
768,501800
768,501900
768,502000
768,502100
768,502200
763,502300
768,502400
768,502500
768,502600
768,502700
768,502800
766,502900
766,503000
766,503100
766,503200
766,503300
766,503400
762,503500
766,503600
766,503700
766,503800
766,503900
766,504000
765,504100
765,504200
765,504300
765,504400
765,504500
765,504600
766,504700
766,504800
766,504900
766,505000
766,505100
766,505200
767,505300
767,505400
767,505500
767,505600
767,505700
767,505800
767,505900
767,506000
767,506100
767,506200
767,506300
767,506400
768,506500
768,506600
768,506700
768,506800
768,506900
768,507000
767,507100
767,507200
767,507300
767,507400
767,507500
767,507600
768,507700
768,507800
768,507900
768,508000
768,508100
768,508200
767,508300
767,508400
767,508500
767,508600
767,508700
767,508800
765,508900
765,509000
765,509100
765,509200
765,509300
765,509400
767,509500
767,509600
767,509700
767,509800
767,509900
767,510000
766,510100
766,510200
766,510300
766,510400
766,510500
766,510600
766,510700
766,510800
766,510900
766,511000
766,511100
766,511200
768,511300
768,511400
768,511500
768,511600
768,511700
768,511800
767,511900
767,512000
767,512100
767,512200
767,512300
767,512400
769,512500
769,512600
769,512700
769,512800
769,512900
769,513000
768,513100
768,513200
768,513300
768,513400
768,513500
768,513600
767,513700
767,513800
767,513900
767,514000
767,514100
767,514200
768,514300
768,514400
768,514500
768,514600
768,514700
768,514800
767,514900
767,515000
767,515100
767,515200
767,515300
767,515400
767,515500
767,515600
767,515700
767,515800
767,515900
767,516000
768,516100
768,516200
768,516300
768,516400
768,516500
768,516600
768,516700
768,516800
768,516900
768,517000
768,517100
768,517200
767,517300
767,517400
767,517500
767,517600
767,517700
767,517800
766,517900
766,518000
766,518100
766,518200
766,518300
766,518400
767,518500
767,518600
767,518700
767,518800
767,518900
767,519000
766,519100
766,519200
766,519300
766,519400
766,519500
766,519600
769,519700
769,519800
769,519900
769,520000
769,520100
769,520200
770,520300
770,520400
770,520500
770,520600
770,520700
770,520800
770,520900
770,521000
770,521100
770,521200
770,521300
770,521400
769,521500
769,521600
769,521700
769,521800
769,521900
769,522000
767,522100
767,522200
767,522300
767,522400
767,522500
767,522600
769,522700
769,522800
769,522900
769,523000
769,523100
769,523200
767,523300
767,523400
767,523500
767,523600
767,523700
767,523800
767,523900
767,524000
767,524100
767,524200
767,524300
767,524400
768,524500
768,524600
768,524700
768,524800
768,524900
768,525000
769,525100
769,525200
769,525300
769,525400
769,525500
769,525600
768,525700
768,525800
768,525900
768,526000
768,526100
768,526200
769,526300
769,526400
769,526500
769,526600
769,526700
769,526800
768,526900
768,527000
768,527100
768,527200
768,527300
768,527400
769,527500
769,527600
769,527700
769,527800
769,527900
769,528000
768,528100
768,528200
768,528300
768,528400
768,528500
768,528600
770,528700
770,528800
770,528900
770,529000
770,529100
770,529200
769,529300
769,529400
769,529500
769,529600
769,529700
769,529800
770,529900
770,530000
770,530100
770,530200
770,530300
770,530400
769,530500
769,530600
769,530700
769,530800
769,530900
769,531000
769,531100
769,531200
769,531300
769,531400
769,531500
769,531600
769,531700
769,531800
769,531900
769,532000
769,532100
769,532200
769,532300
769,532400
769,532500
769,532600
769,532700
769,532800
770,532900
770,533000
770,533100
770,533200
770,533300
770,533400
771,533500
771,533600
771,533700
771,533800
771,533900
771,534000
770,534100
770,534200
770,534300
770,534400
770,534500
770,534600
771,534700
771,534800
771,534900
771,535000
771,535100
751,535200
771,535300
771,535400
771,535500
771,535600
771,535700
771,535800
769,535900
769,536000
769,536100
769,536200
769,536300
751,536400
770,536500
770,536600
770,536700
770,536800
770,536900
770,537000
769,537100
769,537200
769,537300
769,537400
769,537500
753,537600
772,537700
772,537800
772,537900
772,538000
772,538100
772,538200
772,538300
772,538400
772,538500
772,538600
772,538700
754,538800
773,538900
773,539000
773,539100
773,539200
773,539300
773,539400
771,539500
771,539600
771,539700
771,539800
771,539900
751,540000
770,540100
770,540200
770,540300
770,540400
770,540500
770,540600
771,540700
771,540800
771,540900
771,541000
771,541100
753,541200
772,541300
772,541400
772,541500
772,541600
772,541700
772,541800
774,541900
774,542000
774,542100
774,542200
774,542300
752,542400
771,542500
771,542600
771,542700
771,542800
771,542900
771,543000
772,543100
772,543200
772,543300
772,543400
772,543500
754,543600
774,543700
774,543800
774,543900
774,544000
774,544100
755,544200
774,544300
774,544400
774,544500
774,544600
774,544700
754,544800
773,544900
773,545000
773,545100
773,545200
773,545300
755,545400
774,545500
774,545600
774,545700
774,545800
774,545900
757,546000
775,546100
775,546200
775,546300
775,546400
775,546500
755,546600
776,546700
776,546800
776,546900
776,547000
776,547100
756,547200
776,547300
776,547400
776,547500
776,547600
776,547700
754,547800
773,547900
773,548000
773,548100
773,548200
773,548300
753,548400
771,548500
771,548600
771,548700
771,548800
771,548900
755,549000
774,549100
774,549200
774,549300
774,549400
774,549500
756,549600
774,549700
774,549800
774,549900
774,550000
774,550100
753,550200
772,550300
772,550400
772,550500
772,550600
772,550700
755,550800
774,550900
774,551000
774,551100
774,551200
774,551300
756,551400
775,551500
775,551600
775,551700
775,551800
775,551900
775,552000
774,552100
774,552200
774,552300
774,552400
774,552500
756,552600
776,552700
776,552800
776,552900
776,553000
776,553100
757,553200
776,553300
776,553400
776,553500
776,553600
776,553700
757,553800
775,553900
775,554000
775,554100
775,554200
775,554300
775,554400
775,554500
775,554600
775,554700
775,554800
775,554900
756,555000
774,555100
774,555200
774,555300
774,555400
774,555500
774,555600
772,555700
772,555800
772,555900
772,556000
772,556100
756,556200
775,556300
775,556400
775,556500
775,556600
775,556700
775,556800
773,556900
773,557000
773,557100
773,557200
773,557300
755,557400
774,557500
774,557600
774,557700
774,557800
774,557900
774,558000
772,558100
772,558200
772,558300
772,558400
772,558500
755,558600
775,558700
775,558800
775,558900
775,559000
775,559100
775,559200
773,559300
773,559400
773,559500
773,559600
773,559700
754,559800
773,559900
773,560000
773,560100
773,560200
773,560300
773,560400
773,560500
773,560600
773,560700
773,560800
773,560900
754,561000
773,561100
773,561200
773,561300
773,561400
773,561500
773,561600
775,561700
775,561800
775,561900
775,562000
775,562100
754,562200
773,562300
773,562400
773,562500
773,562600
773,562700
773,562800
774,562900
774,563000
774,563100
774,563200
774,563300
757,563400
776,563500
776,563600
776,563700
776,563800
776,563900
776,564000
775,564100
775,564200
775,564300
775,564400
775,564500
756,564600
776,564700
776,564800
776,564900
776,565000
776,565100
776,565200
772,565300
772,565400
772,565500
772,565600
772,565700
753,565800
773,565900
773,566000
773,566100
773,566200
773,566300
754,566400
773,566500
773,566600
773,566700
773,566800
773,566900
754,567000
773,567100
773,567200
773,567300
773,567400
773,567500
754,567600
773,567700
773,567800
773,567900
773,568000
773,568100
755,568200
774,568300
774,568400
774,568500
774,568600
774,568700
755,568800
774,568900
774,569000
774,569100
774,569200
774,569300
755,569400
775,569500
775,569600
775,569700
775,569800
775,569900
754,570000
774,570100
774,570200
774,570300
774,570400
774,570500
753,570600
773,570700
773,570800
773,570900
773,571000
773,571100
755,571200
774,571300
774,571400
774,571500
774,571600
774,571700
756,571800
775,571900
775,572000
775,572100
775,572200
775,572300
756,572400
776,572500
776,572600
776,572700
776,572800
776,572900
756,573000
775,573100
775,573200
775,573300
775,573400
775,573500
757,573600
776,573700
776,573800
776,573900
776,574000
776,574100
755,574200
773,574300
773,574400
773,574500
773,574600
773,574700
755,574800
775,574900
775,575000
775,575100
775,575200
775,575300
755,575400
773,575500
773,575600
773,575700
773,575800
773,575900
757,576000
776,576100
776,576200
776,576300
776,576400
776,576500
755,576600
774,576700
774,576800
774,576900
774,577000
774,577100
755,577200
774,577300
774,577400
774,577500
774,577600
774,577700
756,577800
774,577900
774,578000
774,578100
774,578200
774,578300
758,578400
777,578500
777,578600
777,578700
777,578800
777,578900
757,579000
776,579100
776,579200
776,579300
776,579400
776,579500
758,579600
775,579700
775,579800
775,579900
775,580000
775,580100
756,580200
775,580300
775,580400
775,580500
775,580600
775,580700
757,580800
775,580900
775,581000
775,581100
775,581200
775,581300
758,581400
776,581500
776,581600
776,581700
776,581800
776,581900
758,582000
776,582100
776,582200
776,582300
776,582400
776,582500
757,582600
775,582700
775,582800
775,582900
775,583000
775,583100
756,583200
774,583300
774,583400
774,583500
774,583600
774,583700
758,583800
776,583900
776,584000
776,584100
776,584200
776,584300
758,584400
776,584500
776,584600
776,584700
776,584800
776,584900
757,585000
775,585100
775,585200
775,585300
775,585400
775,585500
759,585600
777,585700
777,585800
777,585900
777,586000
777,586100
757,586200
775,586300
775,586400
775,586500
775,586600
775,586700
758,586800
777,586900
777,587000
777,587100
777,587200
777,587300
758,587400
776,587500
776,587600
776,587700
776,587800
776,587900
759,588000
777,588100
777,588200
777,588300
777,588400
777,588500
758,588600
776,588700
776,588800
776,588900
776,589000
776,589100
758,589200
775,589300
775,589400
775,589500
775,589600
775,589700
759,589800
775,589900
775,590000
775,590100
775,590200
775,590300
759,590400
777,590500
777,590600
777,590700
777,590800
777,590900
759,591000
777,591100
777,591200
777,591300
777,591400
777,591500
761,591600
778,591700
778,591800
778,591900
778,592000
778,592100
760,592200
778,592300
778,592400
778,592500
778,592600
778,592700
760,592800
778,592900
778,593000
778,593100
778,593200
778,593300
761,593400
778,593500
778,593600
778,593700
778,593800
778,593900
760,594000
777,594100
777,594200
777,594300
777,594400
777,594500
762,594600
779,594700
779,594800
779,594900
779,595000
779,595100
762,595200
779,595300
779,595400
779,595500
779,595600
779,595700
762,595800
779,595900
779,596000
779,596100
779,596200
779,596300
761,596400
777,596500
777,596600
777,596700
777,596800
777,596900
761,597000
778,597100
778,597200
778,597300
778,597400
778,597500
760,597600
778,597700
778,597800
778,597900
778,598000
778,598100
761,598200
779,598300
779,598400
779,598500
779,598600
779,598700
761,598800
777,598900
777,599000
777,599100
777,599200
777,599300
763,599400
780,599500
780,599600
780,599700
780,599800
780,599900
762,600000
779,600100
779,600200
779,600300
779,600400
779,600500
763,600600
780,600700
780,600800
780,600900
780,601000
780,601100
762,601200
780,601300
780,601400
780,601500
780,601600
780,601700
762,601800
780,601900
780,602000
780,602100
780,602200
780,602300
762,602400
779,602500
779,602600
779,602700
779,602800
779,602900
762,603000
779,603100
779,603200
779,603300
779,603400
779,603500
763,603600
780,603700
780,603800
780,603900
780,604000
780,604100
761,604200
778,604300
778,604400
778,604500
778,604600
778,604700
762,604800
779,604900
779,605000
779,605100
779,605200
779,605300
762,605400
780,605500
780,605600
780,605700
780,605800
780,605900
762,606000
779,606100
779,606200
779,606300
779,606400
779,606500
761,606600
778,606700
778,606800
778,606900
778,607000
778,607100
761,607200
778,607300
778,607400
778,607500
778,607600
778,607700
764,607800
780,607900
780,608000
780,608100
780,608200
780,608300
761,608400
778,608500
778,608600
778,608700
778,608800
778,608900
759,609000
776,609100
776,609200
776,609300
776,609400
776,609500
762,609600
779,609700
779,609800
779,609900
779,610000
779,610100
762,610200
779,610300
779,610400
779,610500
779,610600
779,610700
762,610800
778,610900
778,611000
778,611100
778,611200
778,611300
762,611400
778,611500
778,611600
778,611700
778,611800
778,611900
764,612000
781,612100
781,612200
781,612300
781,612400
781,612500
763,612600
780,612700
780,612800
780,612900
780,613000
780,613100
762,613200
779,613300
779,613400
779,613500
779,613600
779,613700
763,613800
779,613900
779,614000
779,614100
779,614200
779,614300
761,614400
779,614500
779,614600
779,614700
779,614800
779,614900
760,615000
777,615100
777,615200
777,615300
777,615400
777,615500
762,615600
778,615700
778,615800
778,615900
778,616000
778,616100
763,616200
781,616300
781,616400
781,616500
781,616600
781,616700
763,616800
780,616900
780,617000
780,617100
780,617200
780,617300
761,617400
778,617500
778,617600
778,617700
778,617800
778,617900
761,618000
778,618100
778,618200
778,618300
778,618400
778,618500
762,618600
778,618700
778,618800
778,618900
778,619000
778,619100
763,619200
780,619300
780,619400
780,619500
780,619600
780,619700
764,619800
781,619900
781,620000
781,620100
781,620200
781,620300
761,620400
778,620500
778,620600
778,620700
778,620800
778,620900
763,621000
780,621100
780,621200
780,621300
780,621400
780,621500
764,621600
780,621700
780,621800
780,621900
780,622000
780,622100
764,622200
780,622300
780,622400
780,622500
780,622600
780,622700
761,622800
777,622900
777,623000
777,623100
777,623200
777,623300
764,623400
781,623500
781,623600
781,623700
781,623800
781,623900
764,624000
780,624100
780,624200
780,624300
780,624400
780,624500
763,624600
781,624700
781,624800
781,624900
781,625000
781,625100
763,625200
779,625300
779,625400
779,625500
779,625600
779,625700
761,625800
779,625900
779,626000
779,626100
779,626200
779,626300
761,626400
779,626500
779,626600
779,626700
779,626800
779,626900
764,627000
780,627100
780,627200
780,627300
780,627400
780,627500
765,627600
781,627700
781,627800
781,627900
781,628000
781,628100
762,628200
779,628300
779,628400
779,628500
779,628600
779,628700
764,628800
780,628900
780,629000
780,629100
780,629200
780,629300
763,629400
779,629500
779,629600
779,629700
779,629800
779,629900
764,630000
780,630100
780,630200
780,630300
780,630400
780,630500
766,630600
782,630700
782,630800
782,630900
782,631000
782,631100
766,631200
782,631300
782,631400
782,631500
782,631600
782,631700
764,631800
781,631900
781,632000
781,632100
781,632200
781,632300
761,632400
778,632500
778,632600
778,632700
778,632800
778,632900
763,633000
779,633100
779,633200
779,633300
779,633400
779,633500
762,633600
778,633700
778,633800
778,633900
778,634000
778,634100
764,634200
780,634300
780,634400
780,634500
780,634600
780,634700
761,634800
779,634900
779,635000
779,635100
779,635200
779,635300
763,635400
779,635500
779,635600
779,635700
779,635800
779,635900
763,636000
779,636100
779,636200
779,636300
779,636400
779,636500
762,636600
778,636700
778,636800
778,636900
778,637000
778,637100
765,637200
781,637300
781,637400
781,637500
781,637600
781,637700
763,637800
779,637900
779,638000
779,638100
779,638200
779,638300
765,638400
780,638500
780,638600
780,638700
780,638800
780,638900
764,639000
780,639100
780,639200
780,639300
780,639400
780,639500
764,639600
781,639700
781,639800
781,639900
781,640000
781,640100
766,640200
782,640300
782,640400
782,640500
782,640600
782,640700
765,640800
782,640900
782,641000
782,641100
782,641200
782,641300
763,641400
780,641500
780,641600
780,641700
780,641800
780,641900
764,642000
781,642100
781,642200
781,642300
781,642400
781,642500
765,642600
781,642700
781,642800
781,642900
781,643000
781,643100
765,643200
781,643300
781,643400
781,643500
781,643600
781,643700
767,643800
783,643900
783,644000
783,644100
783,644200
783,644300
767,644400
782,644500
782,644600
782,644700
782,644800
782,644900
765,645000
782,645100
782,645200
782,645300
782,645400
782,645500
766,645600
782,645700
782,645800
782,645900
782,646000
782,646100
765,646200
781,646300
781,646400
781,646500
781,646600
781,646700
766,646800
781,646900
781,647000
781,647100
781,647200
781,647300
767,647400
782,647500
782,647600
782,647700
782,647800
782,647900
764,648000
781,648100
781,648200
781,648300
781,648400
781,648500
766,648600
781,648700
781,648800
781,648900
781,649000
781,649100
766,649200
781,649300
781,649400
781,649500
781,649600
781,649700
767,649800
782,649900
782,650000
782,650100
782,650200
782,650300
768,650400
784,650500
784,650600
784,650700
784,650800
784,650900
767,651000
783,651100
783,651200
783,651300
783,651400
783,651500
766,651600
782,651700
782,651800
782,651900
782,652000
782,652100
767,652200
784,652300
784,652400
784,652500
784,652600
784,652700
769,652800
785,652900
785,653000
785,653100
785,653200
785,653300
767,653400
783,653500
783,653600
783,653700
783,653800
783,653900
768,654000
784,654100
784,654200
784,654300
784,654400
784,654500
767,654600
782,654700
782,654800
782,654900
782,655000
782,655100
768,655200
783,655300
783,655400
783,655500
783,655600
783,655700
769,655800
785,655900
785,656000
785,656100
785,656200
785,656300
768,656400
783,656500
783,656600
783,656700
783,656800
783,656900
767,657000
783,657100
783,657200
783,657300
783,657400
783,657500
767,657600
784,657700
784,657800
784,657900
784,658000
784,658100
767,658200
784,658300
784,658400
784,658500
784,658600
784,658700
768,658800
784,658900
784,659000
784,659100
784,659200
784,659300
767,659400
783,659500
783,659600
783,659700
783,659800
783,659900
767,660000
781,660100
781,660200
781,660300
781,660400
781,660500
767,660600
781,660700
781,660800
781,660900
781,661000
781,661100
768,661200
784,661300
784,661400
784,661500
784,661600
784,661700
768,661800
783,661900
783,662000
783,662100
783,662200
783,662300
769,662400
784,662500
784,662600
784,662700
784,662800
784,662900
767,663000
783,663100
783,663200
783,663300
783,663400
783,663500
767,663600
783,663700
783,663800
783,663900
783,664000
783,664100
768,664200
783,664300
783,664400
783,664500
783,664600
783,664700
768,664800
783,664900
783,665000
783,665100
783,665200
783,665300
768,665400
783,665500
783,665600
783,665700
783,665800
783,665900
767,666000
782,666100
782,666200
782,666300
782,666400
782,666500
768,666600
783,666700
783,666800
783,666900
783,667000
783,667100
769,667200
785,667300
785,667400
785,667500
785,667600
785,667700
768,667800
783,667900
783,668000
783,668100
783,668200
783,668300
769,668400
784,668500
784,668600
784,668700
784,668800
784,668900
768,669000
784,669100
784,669200
784,669300
784,669400
784,669500
768,669600
784,669700
784,669800
784,669900
784,670000
784,670100
766,670200
782,670300
782,670400
782,670500
782,670600
782,670700
766,670800
782,670900
782,671000
782,671100
782,671200
782,671300
768,671400
784,671500
784,671600
784,671700
784,671800
784,671900
769,672000
783,672100
783,672200
783,672300
783,672400
783,672500
769,672600
784,672700
784,672800
784,672900
784,673000
784,673100
768,673200
782,673300
782,673400
782,673500
782,673600
782,673700
768,673800
782,673900
782,674000
782,674100
782,674200
782,674300
768,674400
783,674500
783,674600
783,674700
783,674800
783,674900
768,675000
784,675100
784,675200
784,675300
784,675400
768,675500
783,675600
783,675700
783,675800
783,675900
783,676000
769,676100
785,676200
785,676300
785,676400
785,676500
785,676600
770,676700
785,676800
785,676900
785,677000
785,677100
785,677200
771,677300
784,677400
784,677500
784,677600
784,677700
784,677800
770,677900
786,678000
786,678100
786,678200
786,678300
786,678400
769,678500
783,678600
783,678700
783,678800
783,678900
783,679000
768,679100
784,679200
784,679300
784,679400
784,679500
784,679600
768,679700
784,679800
784,679900
784,680000
784,680100
784,680200
768,680300
782,680400
782,680500
782,680600
782,680700
782,680800
768,680900
784,681000
784,681100
784,681200
784,681300
784,681400
770,681500
783,681600
783,681700
783,681800
783,681900
783,682000
768,682100
783,682200
783,682300
783,682400
783,682500
783,682600
770,682700
784,682800
784,682900
784,683000
784,683100
784,683200
768,683300
784,683400
784,683500
784,683600
784,683700
784,683800
770,683900
784,684000
784,684100
784,684200
784,684300
784,684400
770,684500
784,684600
784,684700
784,684800
784,684900
784,685000
767,685100
783,685200
783,685300
783,685400
783,685500
783,685600
768,685700
783,685800
783,685900
783,686000
783,686100
783,686200
770,686300
784,686400
784,686500
784,686600
784,686700
784,686800
771,686900
785,687000
785,687100
785,687200
785,687300
785,687400
768,687500
783,687600
783,687700
783,687800
783,687900
783,688000
769,688100
784,688200
784,688300
784,688400
784,688500
784,688600
770,688700
785,688800
785,688900
785,689000
785,689100
785,689200
769,689300
784,689400
784,689500
784,689600
784,689700
784,689800
769,689900
784,690000
784,690100
784,690200
784,690300
784,690400
770,690500
784,690600
784,690700
784,690800
784,690900
784,691000
770,691100
784,691200
784,691300
784,691400
784,691500
784,691600
769,691700
783,691800
783,691900
783,692000
783,692100
783,692200
773,692300
788,692400
788,692500
788,692600
788,692700
788,692800
772,692900
786,693000
786,693100
786,693200
786,693300
786,693400
769,693500
783,693600
783,693700
783,693800
783,693900
783,694000
769,694100
784,694200
784,694300
784,694400
784,694500
784,694600
772,694700
786,694800
786,694900
786,695000
786,695100
786,695200
772,695300
788,695400
788,695500
788,695600
788,695700
788,695800
772,695900
786,696000
786,696100
786,696200
786,696300
786,696400
771,696500
785,696600
785,696700
785,696800
785,696900
785,697000
772,697100
786,697200
786,697300
786,697400
786,697500
786,697600
771,697700
786,697800
786,697900
786,698000
786,698100
786,698200
770,698300
784,698400
784,698500
784,698600
784,698700
784,698800
771,698900
786,699000
786,699100
786,699200
786,699300
786,699400
771,699500
786,699600
786,699700
786,699800
786,699900
786,700000
771,700100
785,700200
785,700300
785,700400
785,700500
785,700600
773,700700
787,700800
787,700900
787,701000
787,701100
787,701200
773,701300
787,701400
787,701500
787,701600
787,701700
787,701800
773,701900
787,702000
787,702100
787,702200
787,702300
787,702400
771,702500
786,702600
786,702700
786,702800
786,702900
786,703000
772,703100
787,703200
787,703300
787,703400
787,703500
787,703600
774,703700
788,703800
788,703900
788,704000
788,704100
788,704200
777,704300
791,704400
791,704500
791,704600
791,704700
791,704800
771,704900
787,705000
787,705100
787,705200
787,705300
787,705400
773,705500
787,705600
787,705700
787,705800
787,705900
787,706000
772,706100
787,706200
787,706300
787,706400
787,706500
787,706600
772,706700
786,706800
786,706900
786,707000
786,707100
786,707200
775,707300
789,707400
789,707500
789,707600
789,707700
789,707800
775,707900
788,708000
788,708100
788,708200
788,708300
788,708400
773,708500
787,708600
787,708700
787,708800
787,708900
787,709000
776,709100
789,709200
789,709300
789,709400
789,709500
789,709600
776,709700
790,709800
790,709900
790,710000
790,710100
790,710200
775,710300
788,710400
788,710500
788,710600
788,710700
788,710800
773,710900
788,711000
788,711100
788,711200
788,711300
788,711400
775,711500
789,711600
789,711700
789,711800
789,711900
789,712000
773,712100
788,712200
788,712300
788,712400
788,712500
788,712600
772,712700
786,712800
786,712900
786,713000
786,713100
786,713200
771,713300
785,713400
785,713500
785,713600
785,713700
785,713800
774,713900
788,714000
788,714100
788,714200
788,714300
788,714400
774,714500
788,714600
788,714700
788,714800
788,714900
788,715000
773,715100
787,715200
787,715300
787,715400
787,715500
787,715600
775,715700
789,715800
789,715900
789,716000
789,716100
789,716200
775,716300
789,716400
789,716500
789,716600
789,716700
789,716800
775,716900
789,717000
789,717100
789,717200
789,717300
789,717400
772,717500
787,717600
787,717700
787,717800
787,717900
787,718000
774,718100
788,718200
788,718300
788,718400
788,718500
788,718600
772,718700
786,718800
786,718900
786,719000
786,719100
786,719200
771,719300
786,719400
786,719500
786,719600
786,719700
786,719800
772,719900
786,720000
786,720100
786,720200
786,720300
786,720400
770,720500
785,720600
785,720700
785,720800
785,720900
785,721000
772,721100
786,721200
786,721300
786,721400
786,721500
786,721600
771,721700
785,721800
785,721900
785,722000
785,722100
785,722200
772,722300
786,722400
786,722500
786,722600
786,722700
786,722800
772,722900
785,723000
785,723100
785,723200
785,723300
785,723400
772,723500
786,723600
786,723700
786,723800
786,723900
786,724000
773,724100
787,724200
787,724300
787,724400
787,724500
787,724600
772,724700
786,724800
786,724900
786,725000
786,725100
786,725200
773,725300
787,725400
787,725500
787,725600
787,725700
787,725800
773,725900
787,726000
787,726100
787,726200
787,726300
787,726400
772,726500
787,726600
787,726700
787,726800
787,726900
787,727000
773,727100
787,727200
787,727300
787,727400
787,727500
787,727600
774,727700
788,727800
788,727900
788,728000
788,728100
788,728200
772,728300
787,728400
787,728500
787,728600
787,728700
787,728800
772,728900
786,729000
786,729100
786,729200
786,729300
786,729400
771,729500
785,729600
785,729700
785,729800
785,729900
785,730000
772,730100
786,730200
786,730300
786,730400
786,730500
786,730600
774,730700
788,730800
788,730900
788,731000
788,731100
788,731200
771,731300
785,731400
785,731500
785,731600
785,731700
785,731800
773,731900
786,732000
786,732100
786,732200
786,732300
786,732400
773,732500
787,732600
787,732700
787,732800
787,732900
787,733000
774,733100
786,733200
786,733300
786,733400
786,733500
786,733600
771,733700
786,733800
786,733900
786,734000
786,734100
786,734200
774,734300
787,734400
787,734500
787,734600
787,734700
787,734800
776,734900
789,735000
789,735100
789,735200
789,735300
789,735400
774,735500
789,735600
789,735700
789,735800
789,735900
789,736000
776,736100
788,736200
788,736300
788,736400
788,736500
788,736600
773,736700
787,736800
787,736900
787,737000
787,737100
787,737200
777,737300
789,737400
789,737500
789,737600
789,737700
789,737800
777,737900
790,738000
790,738100
790,738200
790,738300
790,738400
777,738500
790,738600
790,738700
790,738800
790,738900
790,739000
776,739100
789,739200
789,739300
789,739400
789,739500
789,739600
777,739700
789,739800
789,739900
789,740000
789,740100
789,740200
776,740300
788,740400
788,740500
788,740600
788,740700
788,740800
777,740900
789,741000
789,741100
789,741200
789,741300
789,741400
776,741500
788,741600
788,741700
788,741800
788,741900
788,742000
780,742100
788,742200
788,742300
788,742400
788,742500
788,742600
776,742700
788,742800
788,742900
788,743000
788,743100
788,743200
780,743300
788,743400
788,743500
788,743600
788,743700
788,743800
776,743900
789,744000
789,744100
789,744200
789,744300
789,744400
780,744500
788,744600
788,744700
788,744800
788,744900
788,745000
776,745100
788,745200
788,745300
788,745400
788,745500
788,745600
782,745700
789,745800
789,745900
789,746000
789,746100
789,746200
778,746300
790,746400
790,746500
790,746600
790,746700
790,746800
780,746900
788,747000
788,747100
788,747200
788,747300
788,747400
783,747500
791,747600
791,747700
791,747800
791,747900
791,748000
782,748100
790,748200
790,748300
790,748400
790,748500
790,748600
783,748700
791,748800
791,748900
791,749000
791,749100
791,749200
782,749300
791,749400
791,749500
791,749600
791,749700
791,749800
782,749900
790,750000
790,750100
790,750200
790,750300
790,750400
780,750500
788,750600
788,750700
788,750800
788,750900
788,751000
781,751100
790,751200
790,751300
790,751400
790,751500
790,751600
786,751700
790,751800
790,751900
790,752000
790,752100
790,752200
781,752300
790,752400
790,752500
790,752600
790,752700
790,752800
786,752900
789,753000
789,753100
789,753200
789,753300
789,753400
784,753500
791,753600
791,753700
791,753800
791,753900
791,754000
788,754100
791,754200
791,754300
791,754400
791,754500
791,754600
786,754700
790,754800
790,754900
790,755000
790,755100
790,755200
785,755300
789,755400
789,755500
789,755600
789,755700
789,755800
787,755900
790,756000
790,756100
790,756200
790,756300
790,756400
784,756500
789,756600
789,756700
789,756800
789,756900
789,757000
786,757100
790,757200
790,757300
790,757400
790,757500
790,757600
785,757700
788,757800
788,757900
788,758000
788,758100
788,758200
789,758300
793,758400
793,758500
793,758600
793,758700
793,758800
791,758900
791,759000
791,759100
791,759200
791,759300
791,759400
786,759500
791,759600
791,759700
791,759800
791,759900
791,760000
794,760100
794,760200
794,760300
794,760400
794,760500
794,760600
786,760700
790,760800
790,760900
790,761000
790,761100
790,761200
789,761300
789,761400
789,761500
789,761600
789,761700
789,761800
789,761900
789,762000
789,762100
789,762200
789,762300
789,762400
789,762500
789,762600
789,762700
789,762800
789,762900
789,763000
790,763100
790,763200
790,763300
790,763400
790,763500
790,763600
791,763700
791,763800
791,763900
791,764000
791,764100
791,764200
790,764300
790,764400
790,764500
790,764600
790,764700
790,764800
791,764900
791,765000
791,765100
791,765200
791,765300
791,765400
791,765500
791,765600
791,765700
791,765800
791,765900
791,766000
791,766100
791,766200
791,766300
791,766400
791,766500
791,766600
791,766700
791,766800
791,766900
791,767000
791,767100
791,767200
789,767300
789,767400
789,767500
789,767600
789,767700
789,767800
792,767900
792,768000
792,768100
792,768200
792,768300
792,768400
791,768500
791,768600
791,768700
791,768800
791,768900
791,769000
793,769100
793,769200
793,769300
793,769400
793,769500
793,769600
792,769700
792,769800
792,769900
792,770000
792,770100
792,770200
789,770300
789,770400
789,770500
789,770600
789,770700
789,770800
791,770900
791,771000
791,771100
791,771200
791,771300
791,771400
791,771500
791,771600
791,771700
791,771800
791,771900
791,772000
790,772100
790,772200
790,772300
790,772400
790,772500
790,772600
792,772700
792,772800
792,772900
792,773000
792,773100
792,773200
791,773300
791,773400
791,773500
791,773600
791,773700
791,773800
793,773900
793,774000
793,774100
793,774200
793,774300
793,774400
789,774500
789,774600
789,774700
789,774800
789,774900
789,775000
789,775100
789,775200
789,775300
789,775400
789,775500
789,775600
790,775700
790,775800
790,775900
790,776000
790,776100
790,776200
791,776300
791,776400
791,776500
791,776600
791,776700
791,776800
789,776900
789,777000
789,777100
789,777200
789,777300
789,777400
791,777500
791,777600
791,777700
791,777800
791,777900
791,778000
788,778100
788,778200
788,778300
788,778400
788,778500
788,778600
791,778700
791,778800
791,778900
791,779000
791,779100
791,779200
791,779300
791,779400
791,779500
791,779600
791,779700
791,779800
790,779900
790,780000
790,780100
790,780200
790,780300
790,780400
791,780500
791,780600
791,780700
791,780800
791,780900
791,781000
789,781100
789,781200
789,781300
789,781400
789,781500
789,781600
788,781700
788,781800
788,781900
788,782000
788,782100
788,782200
790,782300
790,782400
790,782500
790,782600
790,782700
790,782800
789,782900
789,783000
789,783100
789,783200
789,783300
789,783400
791,783500
791,783600
791,783700
791,783800
791,783900
791,784000
792,784100
792,784200
792,784300
792,784400
792,784500
792,784600
791,784700
791,784800
791,784900
791,785000
791,785100
791,785200
790,785300
790,785400
790,785500
790,785600
790,785700
790,785800
790,785900
790,786000
790,786100
790,786200
790,786300
771,786400
790,786500
790,786600
790,786700
790,786800
790,786900
790,787000
790,787100
790,787200
790,787300
790,787400
790,787500
770,787600
789,787700
789,787800
789,787900
789,788000
789,788100
789,788200
793,788300
793,788400
793,788500
793,788600
793,788700
773,788800
791,788900
791,789000
791,789100
791,789200
791,789300
791,789400
791,789500
791,789600
791,789700
791,789800
791,789900
771,790000
790,790100
790,790200
790,790300
790,790400
790,790500
790,790600
788,790700
788,790800
788,790900
788,791000
788,791100
772,791200
790,791300
790,791400
790,791500
790,791600
790,791700
790,791800
792,791900
792,792000
792,792100
792,792200
792,792300
772,792400
791,792500
791,792600
791,792700
791,792800
791,792900
772,793000
790,793100
790,793200
790,793300
790,793400
790,793500
772,793600
791,793700
791,793800
791,793900
791,794000
791,794100
773,794200
792,794300
792,794400
792,794500
792,794600
792,794700
773,794800
792,794900
792,795000
792,795100
792,795200
792,795300
771,795400
790,795500
790,795600
790,795700
790,795800
790,795900
774,796000
792,796100
792,796200
792,796300
792,796400
792,796500
771,796600
789,796700
789,796800
789,796900
789,797000
789,797100
773,797200
792,797300
792,797400
792,797500
792,797600
792,797700
774,797800
793,797900
793,798000
793,798100
793,798200
793,798300
773,798400
793,798500
793,798600
793,798700
793,798800
793,798900
773,799000
792,799100
792,799200
792,799300
792,799400
792,799500
774,799600
791,799700
791,799800
791,799900
791,800000
791,800100
773,800200
792,800300
792,800400
792,800500
792,800600
792,800700
775,800800
794,800900
794,801000
794,801100
794,801200
794,801300
776,801400
794,801500
794,801600
794,801700
794,801800
794,801900
776,802000
793,802100
793,802200
793,802300
793,802400
793,802500
774,802600
792,802700
792,802800
792,802900
792,803000
792,803100
775,803200
792,803300
792,803400
792,803500
792,803600
792,803700
774,803800
793,803900
793,804000
793,804100
793,804200
793,804300
774,804400
791,804500
791,804600
791,804700
791,804800
791,804900
774,805000
791,805100
791,805200
791,805300
791,805400
791,805500
775,805600
793,805700
793,805800
793,805900
793,806000
793,806100
775,806200
793,806300
793,806400
793,806500
793,806600
793,806700
778,806800
795,806900
795,807000
795,807100
795,807200
795,807300
775,807400
793,807500
793,807600
793,807700
793,807800
793,807900
795,808000
795,808100
795,808200
795,808300
795,808400
780,808500
795,808600
795,808700
795,808800
795,808900
795,809000
778,809100
794,809200
794,809300
794,809400
794,809500
794,809600
778,809700
795,809800
795,809900
795,810000
795,810100
795,810200
779,810300
795,810400
795,810500
795,810600
795,810700
795,810800
779,810900
795,811000
795,811100
795,811200
795,811300
795,811400
778,811500
794,811600
794,811700
794,811800
794,811900
794,812000
780,812100
797,812200
797,812300
797,812400
797,812500
797,812600
780,812700
796,812800
796,812900
796,813000
796,813100
796,813200
778,813300
794,813400
794,813500
794,813600
794,813700
794,813800
777,813900
793,814000
793,814100
793,814200
793,814300
793,814400
777,814500
794,814600
794,814700
794,814800
794,814900
794,815000
778,815100
793,815200
793,815300
793,815400
793,815500
793,815600
780,815700
795,815800
795,815900
795,816000
795,816100
795,816200
779,816300
795,816400
795,816500
795,816600
795,816700
795,816800
780,816900
795,817000
795,817100
795,817200
795,817300
795,817400
776,817500
792,817600
792,817700
792,817800
792,817900
792,818000
778,818100
795,818200
795,818300
795,818400
795,818500
795,818600
778,818700
795,818800
795,818900
795,819000
795,819100
795,819200
780,819300
796,819400
796,819500
796,819600
796,819700
796,819800
777,819900
794,820000
794,820100
794,820200
794,820300
794,820400
777,820500
794,820600
794,820700
794,820800
794,820900
794,821000
777,821100
792,821200
792,821300
792,821400
792,821500
792,821600
779,821700
794,821800
794,821900
794,822000
794,822100
794,822200
779,822300
795,822400
795,822500
795,822600
795,822700
795,822800
778,822900
794,823000
794,823100
794,823200
794,823300
794,823400
781,823500
796,823600
796,823700
796,823800
796,823900
796,824000
778,824100
794,824200
794,824300
794,824400
794,824500
794,824600
778,824700
794,824800
794,824900
794,825000
794,825100
794,825200
780,825300
796,825400
796,825500
796,825600
796,825700
796,825800
779,825900
795,826000
795,826100
795,826200
795,826300
795,826400
777,826500
793,826600
793,826700
793,826800
793,826900
793,827000
779,827100
794,827200
794,827300
794,827400
794,827500
794,827600
776,827700
792,827800
792,827900
792,828000
792,828100
792,828200
777,828300
793,828400
793,828500
793,828600
793,828700
793,828800
776,828900
792,829000
792,829100
792,829200
792,829300
792,829400
777,829500
794,829600
794,829700
794,829800
794,829900
794,830000
778,830100
793,830200
793,830300
793,830400
793,830500
793,830600
779,830700
795,830800
795,830900
795,831000
795,831100
795,831200
777,831300
793,831400
793,831500
793,831600
793,831700
793,831800
779,831900
795,832000
795,832100
795,832200
795,832300
795,832400
778,832500
794,832600
794,832700
794,832800
794,832900
794,833000
777,833100
793,833200
793,833300
793,833400
793,833500
793,833600
776,833700
793,833800
793,833900
793,834000
793,834100
793,834200
776,834300
791,834400
791,834500
791,834600
791,834700
791,834800
776,834900
792,835000
792,835100
792,835200
792,835300
792,835400
777,835500
794,835600
794,835700
794,835800
794,835900
794,836000
778,836100
794,836200
794,836300
794,836400
794,836500
794,836600
777,836700
792,836800
792,836900
792,837000
792,837100
792,837200
778,837300
793,837400
793,837500
793,837600
793,837700
793,837800
777,837900
793,838000
793,838100
793,838200
793,838300
793,838400
776,838500
792,838600
792,838700
792,838800
792,838900
792,839000
776,839100
792,839200
792,839300
792,839400
792,839500
792,839600
779,839700
793,839800
793,839900
793,840000
793,840100
793,840200
778,840300
794,840400
794,840500
794,840600
794,840700
794,840800
780,840900
796,841000
796,841100
796,841200
796,841300
796,841400
781,841500
795,841600
795,841700
795,841800
795,841900
795,842000
779,842100
794,842200
794,842300
794,842400
794,842500
794,842600
778,842700
794,842800
794,842900
794,843000
794,843100
794,843200
779,843300
794,843400
794,843500
794,843600
794,843700
794,843800
781,843900
796,844000
796,844100
796,844200
796,844300
796,844400
778,844500
794,844600
794,844700
794,844800
794,844900
794,845000
779,845100
795,845200
795,845300
795,845400
795,845500
795,845600
778,845700
794,845800
794,845900
794,846000
794,846100
794,846200
778,846300
793,846400
793,846500
793,846600
793,846700
793,846800
779,846900
795,847000
795,847100
795,847200
795,847300
795,847400
781,847500
797,847600
797,847700
797,847800
797,847900
797,848000
779,848100
794,848200
794,848300
794,848400
794,848500
794,848600
780,848700
796,848800
796,848900
796,849000
796,849100
796,849200
781,849300
795,849400
795,849500
795,849600
795,849700
795,849800
781,849900
796,850000
796,850100
796,850200
796,850300
796,850400
780,850500
795,850600
795,850700
795,850800
795,850900
795,851000
780,851100
795,851200
795,851300
795,851400
795,851500
795,851600
782,851700
795,851800
795,851900
795,852000
795,852100
795,852200
780,852300
796,852400
796,852500
796,852600
796,852700
796,852800
780,852900
795,853000
795,853100
795,853200
795,853300
795,853400
781,853500
796,853600
796,853700
796,853800
796,853900
796,854000
782,854100
797,854200
797,854300
797,854400
797,854500
797,854600
780,854700
795,854800
795,854900
795,855000
795,855100
795,855200
781,855300
796,855400
796,855500
796,855600
796,855700
796,855800
782,855900
797,856000
797,856100
797,856200
797,856300
797,856400
781,856500
797,856600
797,856700
797,856800
797,856900
797,857000
781,857100
797,857200
797,857300
797,857400
797,857500
797,857600
782,857700
796,857800
796,857900
796,858000
796,858100
796,858200
780,858300
795,858400
795,858500
795,858600
795,858700
795,858800
782,858900
798,859000
798,859100
798,859200
798,859300
798,859400
780,859500
795,859600
795,859700
795,859800
795,859900
795,860000
781,860100
795,860200
795,860300
795,860400
795,860500
795,860600
783,860700
797,860800
797,860900
797,861000
797,861100
797,861200
781,861300
796,861400
796,861500
796,861600
796,861700
796,861800
782,861900
797,862000
797,862100
797,862200
797,862300
797,862400
781,862500
796,862600
796,862700
796,862800
796,862900
796,863000
780,863100
796,863200
796,863300
796,863400
796,863500
796,863600
782,863700
796,863800
796,863900
796,864000
796,864100
796,864200
783,864300
796,864400
796,864500
796,864600
796,864700
796,864800
784,864900
798,865000
798,865100
798,865200
798,865300
798,865400
783,865500
798,865600
798,865700
798,865800
798,865900
798,866000
781,866100
795,866200
795,866300
795,866400
795,866500
795,866600
783,866700
797,866800
797,866900
797,867000
797,867100
797,867200
782,867300
796,867400
796,867500
796,867600
796,867700
796,867800
785,867900
798,868000
798,868100
798,868200
798,868300
798,868400
782,868500
797,868600
797,868700
797,868800
797,868900
797,869000
782,869100
797,869200
797,869300
797,869400
797,869500
797,869600
781,869700
795,869800
795,869900
795,870000
795,870100
795,870200
783,870300
797,870400
797,870500
797,870600
797,870700
797,870800
784,870900
799,871000
799,871100
799,871200
799,871300
799,871400
784,871500
797,871600
797,871700
797,871800
797,871900
797,872000
782,872100
797,872200
797,872300
797,872400
797,872500
797,872600
781,872700
796,872800
796,872900
796,873000
796,873100
796,873200
779,873300
795,873400
795,873500
795,873600
795,873700
795,873800
783,873900
798,874000
798,874100
798,874200
798,874300
798,874400
783,874500
797,874600
797,874700
797,874800
797,874900
797,875000
784,875100
798,875200
798,875300
798,875400
798,875500
798,875600
785,875700
797,875800
797,875900
797,876000
797,876100
797,876200
784,876300
797,876400
797,876500
797,876600
797,876700
797,876800
783,876900
797,877000
797,877100
797,877200
797,877300
797,877400
785,877500
798,877600
798,877700
798,877800
798,877900
798,878000
785,878100
799,878200
799,878300
799,878400
799,878500
799,878600
785,878700
798,878800
798,878900
798,879000
798,879100
798,879200
784,879300
798,879400
798,879500
798,879600
798,879700
798,879800
784,879900
797,880000
797,880100
797,880200
797,880300
797,880400
783,880500
797,880600
797,880700
797,880800
797,880900
797,881000
784,881100
798,881200
798,881300
798,881400
798,881500
798,881600
783,881700
796,881800
796,881900
796,882000
796,882100
796,882200
784,882300
798,882400
798,882500
798,882600
798,882700
798,882800
784,882900
798,883000
798,883100
798,883200
798,883300
798,883400
784,883500
798,883600
798,883700
798,883800
798,883900
798,884000
783,884100
797,884200
797,884300
797,884400
797,884500
797,884600
783,884700
797,884800
797,884900
797,885000
797,885100
797,885200
783,885300
797,885400
797,885500
797,885600
797,885700
797,885800
786,885900
799,886000
799,886100
799,886200
799,886300
799,886400
785,886500
798,886600
798,886700
798,886800
798,886900
798,887000
786,887100
799,887200
799,887300
799,887400
799,887500
799,887600
785,887700
799,887800
799,887900
799,888000
799,888100
799,888200
785,888300
798,888400
798,888500
798,888600
798,888700
798,888800
781,888900
796,889000
796,889100
796,889200
796,889300
796,889400
785,889500
797,889600
797,889700
797,889800
797,889900
797,890000
784,890100
797,890200
797,890300
797,890400
780,890500
796,890600
796,890700
796,890800
796,890900
796,891000
781,891100
796,891200
796,891300
796,891400
796,891500
796,891600
781,891700
797,891800
797,891900
797,892000
797,892100
797,892200
783,892300
799,892400
799,892500
799,892600
799,892700
799,892800
781,892900
797,893000
797,893100
797,893200
797,893300
797,893400
781,893500
797,893600
797,893700
797,893800
797,893900
