1,100
1,200
1,300
1,400
1,500
1,600
1,700
1,800
1,900
0,1000
0,1100
0,1200
0,1300
0,1400
1,1500
0,1600
0,1700
0,1800
0,1900
0,2000
1,2100
1,2200
1,2300
1,2400
1,2500
1,2600
171,2700
170,2800
170,2900
170,3000
170,3100
170,3200
328,3300
324,3400
324,3500
324,3600
324,3700
324,3800
342,3900
337,4000
337,4100
337,4200
337,4300
337,4400
330,4500
325,4600
325,4700
325,4800
325,4900
325,5000
320,5100
314,5200
314,5300
314,5400
314,5500
314,5600
309,5700
305,5800
305,5900
305,6000
305,6100
305,6200
303,6300
298,6400
298,6500
298,6600
298,6700
298,6800
297,6900
292,7000
292,7100
292,7200
292,7300
292,7400
293,7500
287,7600
287,7700
287,7800
287,7900
287,8000
287,8100
282,8200
282,8300
282,8400
282,8500
282,8600
285,8700
278,8800
278,8900
278,9000
278,9100
278,9200
281,9300
275,9400
275,9500
275,9600
275,9700
275,9800
278,9900
272,10000
272,10100
272,10200
272,10300
272,10400
275,10500
269,10600
269,10700
269,10800
269,10900
269,11000
274,11100
266,11200
266,11300
266,11400
266,11500
266,11600
270,11700
264,11800
264,11900
264,12000
264,12100
264,12200
270,12300
262,12400
262,12500
262,12600
262,12700
262,12800
267,12900
260,13000
260,13100
260,13200
260,13300
260,13400
267,13500
259,13600
259,13700
259,13800
259,13900
259,14000
264,14100
257,14200
257,14300
257,14400
257,14500
257,14600
264,14700
256,14800
256,14900
256,15000
256,15100
256,15200
262,15300
254,15400
254,15500
254,15600
254,15700
254,15800
262,15900
253,16000
253,16100
253,16200
253,16300
253,16400
258,16500
251,16600
251,16700
251,16800
251,16900
251,17000
259,17100
250,17200
250,17300
250,17400
250,17500
250,17600
257,17700
249,17800
249,17900
249,18000
249,18100
249,18200
257,18300
248,18400
248,18500
248,18600
248,18700
248,18800
256,18900
249,19000
249,19100
249,19200
249,19300
249,19400
256,19500
247,19600
247,19700
247,19800
247,19900
247,20000
254,20100
246,20200
246,20300
246,20400
246,20500
246,20600
254,20700
245,20800
245,20900
245,21000
245,21100
245,21200
252,21300
244,21400
244,21500
244,21600
244,21700
244,21800
250,21900
243,22000
243,22100
243,22200
243,22300
243,22400
250,22500
242,22600
242,22700
242,22800
242,22900
242,23000
248,23100
241,23200
241,23300
241,23400
241,23500
241,23600
249,23700
241,23800
241,23900
241,24000
241,24100
241,24200
247,24300
240,24400
240,24500
240,24600
240,24700
240,24800
247,24900
239,25000
239,25100
239,25200
239,25300
239,25400
246,25500
239,25600
239,25700
239,25800
239,25900
239,26000
245,26100
238,26200
238,26300
238,26400
238,26500
238,26600
245,26700
237,26800
237,26900
237,27000
237,27100
237,27200
242,27300
237,27400
237,27500
237,27600
237,27700
237,27800
243,27900
236,28000
236,28100
236,28200
236,28300
236,28400
240,28500
236,28600
236,28700
236,28800
236,28900
236,29000
243,29100
235,29200
235,29300
235,29400
235,29500
235,29600
240,29700
235,29800
235,29900
235,30000
235,30100
235,30200
242,30300
234,30400
234,30500
234,30600
234,30700
234,30800
239,30900
233,31000
233,31100
233,31200
233,31300
233,31400
241,31500
233,31600
233,31700
233,31800
233,31900
233,32000
238,32100
232,32200
232,32300
232,32400
232,32500
232,32600
240,32700
232,32800
232,32900
232,33000
232,33100
232,33200
239,33300
231,33400
231,33500
231,33600
231,33700
231,33800
239,33900
231,34000
231,34100
231,34200
231,34300
231,34400
237,34500
231,34600
231,34700
231,34800
231,34900
231,35000
238,35100
230,35200
230,35300
230,35400
230,35500
230,35600
235,35700
230,35800
230,35900
230,36000
230,36100
230,36200
237,36300
229,36400
229,36500
229,36600
229,36700
229,36800
235,36900
229,37000
229,37100
229,37200
229,37300
229,37400
237,37500
230,37600
230,37700
230,37800
230,37900
230,38000
236,38100
228,38200
228,38300
228,38400
228,38500
228,38600
236,38700
229,38800
229,38900
229,39000
229,39100
229,39200
233,39300
228,39400
228,39500
228,39600
228,39700
228,39800
235,39900
228,40000
228,40100
228,40200
228,40300
228,40400
235,40500
227,40600
227,40700
227,40800
227,40900
227,41000
232,41100
227,41200
227,41300
227,41400
227,41500
227,41600
234,41700
226,41800
226,41900
226,42000
226,42100
226,42200
231,42300
226,42400
226,42500
226,42600
226,42700
226,42800
231,42900
226,43000
226,43100
226,43200
226,43300
226,43400
230,43500
225,43600
225,43700
225,43800
225,43900
225,44000
233,44100
225,44200
225,44300
225,44400
225,44500
225,44600
230,44700
225,44800
225,44900
225,45000
225,45100
225,45200
232,45300
224,45400
224,45500
224,45600
224,45700
224,45800
230,45900
224,46000
224,46100
224,46200
224,46300
224,46400
232,46500
224,46600
224,46700
224,46800
224,46900
224,47000
229,47100
224,47200
224,47300
224,47400
224,47500
224,47600
231,47700
223,47800
223,47900
223,48000
223,48100
223,48200
228,48300
223,48400
223,48500
223,48600
223,48700
223,48800
231,48900
223,49000
223,49100
223,49200
223,49300
223,49400
228,49500
223,49600
223,49700
223,49800
223,49900
223,50000
230,50100
223,50200
223,50300
223,50400
223,50500
223,50600
228,50700
223,50800
223,50900
223,51000
223,51100
223,51200
230,51300
223,51400
223,51500
223,51600
223,51700
223,51800
228,51900
223,52000
223,52100
223,52200
223,52300
223,52400
229,52500
222,52600
222,52700
222,52800
222,52900
222,53000
227,53100
222,53200
222,53300
222,53400
222,53500
222,53600
229,53700
222,53800
222,53900
222,54000
222,54100
222,54200
226,54300
221,54400
221,54500
221,54600
221,54700
221,54800
227,54900
220,55000
220,55100
220,55200
220,55300
220,55400
226,55500
221,55600
221,55700
221,55800
221,55900
221,56000
229,56100
221,56200
221,56300
221,56400
221,56500
221,56600
225,56700
221,56800
221,56900
221,57000
221,57100
221,57200
227,57300
220,57400
220,57500
220,57600
220,57700
220,57800
225,57900
220,58000
220,58100
220,58200
220,58300
220,58400
227,58500
220,58600
220,58700
220,58800
220,58900
220,59000
225,59100
220,59200
220,59300
220,59400
220,59500
220,59600
227,59700
220,59800
220,59900
220,60000
220,60100
220,60200
225,60300
220,60400
220,60500
220,60600
220,60700
220,60800
227,60900
220,61000
220,61100
220,61200
220,61300
220,61400
224,61500
220,61600
220,61700
220,61800
220,61900
220,62000
226,62100
219,62200
219,62300
219,62400
219,62500
219,62600
226,62700
219,62800
219,62900
219,63000
219,63100
219,63200
226,63300
219,63400
219,63500
219,63600
219,63700
219,63800
224,63900
219,64000
219,64100
219,64200
219,64300
219,64400
226,64500
218,64600
218,64700
218,64800
218,64900
218,65000
223,65100
218,65200
218,65300
218,65400
218,65500
218,65600
226,65700
219,65800
219,65900
219,66000
219,66100
219,66200
226,66300
219,66400
219,66500
219,66600
219,66700
219,66800
225,66900
218,67000
218,67100
218,67200
218,67300
218,67400
222,67500
218,67600
218,67700
218,67800
218,67900
218,68000
226,68100
218,68200
218,68300
218,68400
218,68500
218,68600
225,68700
218,68800
218,68900
218,69000
218,69100
218,69200
225,69300
218,69400
218,69500
218,69600
218,69700
218,69800
225,69900
217,70000
217,70100
217,70200
217,70300
217,70400
225,70500
218,70600
218,70700
218,70800
218,70900
218,71000
225,71100
218,71200
218,71300
218,71400
218,71500
218,71600
224,71700
218,71800
218,71900
218,72000
218,72100
218,72200
225,72300
218,72400
218,72500
218,72600
218,72700
218,72800
224,72900
218,73000
218,73100
218,73200
218,73300
218,73400
224,73500
217,73600
217,73700
217,73800
217,73900
217,74000
224,74100
217,74200
217,74300
217,74400
217,74500
217,74600
224,74700
217,74800
217,74900
217,75000
217,75100
217,75200
224,75300
217,75400
217,75500
217,75600
217,75700
217,75800
224,75900
218,76000
218,76100
218,76200
218,76300
218,76400
224,76500
217,76600
217,76700
217,76800
217,76900
217,77000
224,77100
217,77200
217,77300
217,77400
217,77500
217,77600
224,77700
217,77800
217,77900
217,78000
217,78100
217,78200
224,78300
217,78400
217,78500
217,78600
217,78700
217,78800
224,78900
217,79000
217,79100
217,79200
217,79300
217,79400
224,79500
216,79600
216,79700
216,79800
216,79900
216,80000
224,80100
216,80200
216,80300
216,80400
216,80500
216,80600
224,80700
217,80800
217,80900
217,81000
217,81100
217,81200
223,81300
216,81400
216,81500
216,81600
216,81700
216,81800
223,81900
216,82000
216,82100
216,82200
216,82300
216,82400
223,82500
216,82600
216,82700
216,82800
216,82900
216,83000
224,83100
217,83200
217,83300
217,83400
217,83500
217,83600
224,83700
217,83800
217,83900
217,84000
217,84100
217,84200
224,84300
216,84400
216,84500
216,84600
216,84700
216,84800
224,84900
216,85000
216,85100
216,85200
216,85300
216,85400
216,85500
216,85600
216,85700
216,85800
216,85900
216,86000
216,86100
216,86200
216,86300
216,86400
216,86500
219,86600
217,86700
217,86800
217,86900
217,87000
217,87100
217,87200
217,87300
217,87400
217,87500
217,87600
217,87700
219,87800
216,87900
216,88000
216,88100
216,88200
216,88300
216,88400
216,88500
216,88600
216,88700
216,88800
216,88900
218,89000
216,89100
216,89200
216,89300
216,89400
216,89500
216,89600
216,89700
216,89800
216,89900
216,90000
228,90100
218,90200
216,90300
216,90400
216,90500
216,90600
216,90700
216,90800
216,90900
216,91000
216,91100
216,91200
228,91300
216,91400
216,91500
216,91600
216,91700
216,91800
216,91900
216,92000
216,92100
216,92200
216,92300
216,92400
229,92500
217,92600
217,92700
217,92800
217,92900
217,93000
217,93100
216,93200
216,93300
216,93400
216,93500
216,93600
229,93700
216,93800
216,93900
216,94000
216,94100
216,94200
228,94300
216,94400
216,94500
216,94600
216,94700
216,94800
228,94900
217,95000
217,95100
217,95200
217,95300
217,95400
229,95500
217,95600
217,95700
217,95800
217,95900
217,96000
229,96100
216,96200
216,96300
216,96400
216,96500
216,96600
229,96700
216,96800
216,96900
216,97000
216,97100
216,97200
229,97300
217,97400
217,97500
217,97600
217,97700
217,97800
228,97900
217,98000
217,98100
217,98200
217,98300
217,98400
228,98500
216,98600
216,98700
216,98800
216,98900
216,99000
229,99100
217,99200
217,99300
217,99400
217,99500
217,99600
229,99700
217,99800
217,99900
217,100000
217,100100
217,100200
229,100300
217,100400
217,100500
217,100600
217,100700
217,100800
230,100900
217,101000
217,101100
217,101200
217,101300
217,101400
229,101500
217,101600
217,101700
217,101800
217,101900
217,102000
230,102100
217,102200
217,102300
217,102400
217,102500
217,102600
229,102700
218,102800
218,102900
218,103000
218,103100
218,103200
229,103300
217,103400
217,103500
217,103600
217,103700
217,103800
230,103900
218,104000
218,104100
218,104200
218,104300
218,104400
229,104500
217,104600
217,104700
217,104800
217,104900
217,105000
230,105100
218,105200
218,105300
218,105400
218,105500
218,105600
230,105700
218,105800
218,105900
218,106000
218,106100
218,106200
229,106300
217,106400
217,106500
217,106600
217,106700
217,106800
230,106900
218,107000
218,107100
218,107200
218,107300
218,107400
231,107500
219,107600
219,107700
219,107800
219,107900
219,108000
230,108100
218,108200
218,108300
218,108400
218,108500
218,108600
231,108700
219,108800
219,108900
219,109000
219,109100
219,109200
230,109300
218,109400
218,109500
218,109600
218,109700
218,109800
231,109900
219,110000
219,110100
219,110200
219,110300
219,110400
231,110500
219,110600
219,110700
219,110800
219,110900
219,111000
230,111100
218,111200
218,111300
218,111400
218,111500
218,111600
231,111700
219,111800
219,111900
219,112000
219,112100
219,112200
230,112300
219,112400
219,112500
219,112600
219,112700
219,112800
231,112900
220,113000
220,113100
220,113200
220,113300
220,113400
232,113500
220,113600
220,113700
220,113800
220,113900
220,114000
232,114100
220,114200
220,114300
220,114400
220,114500
220,114600
232,114700
220,114800
220,114900
220,115000
220,115100
220,115200
232,115300
220,115400
220,115500
220,115600
220,115700
220,115800
232,115900
220,116000
220,116100
220,116200
220,116300
220,116400
232,116500
221,116600
221,116700
221,116800
221,116900
221,117000
233,117100
221,117200
221,117300
221,117400
221,117500
221,117600
232,117700
221,117800
221,117900
221,118000
221,118100
221,118200
232,118300
221,118400
221,118500
221,118600
221,118700
221,118800
232,118900
221,119000
221,119100
221,119200
221,119300
221,119400
233,119500
221,119600
221,119700
221,119800
221,119900
221,120000
234,120100
222,120200
222,120300
222,120400
222,120500
222,120600
234,120700
222,120800
222,120900
222,121000
222,121100
222,121200
233,121300
222,121400
222,121500
222,121600
222,121700
222,121800
234,121900
223,122000
223,122100
223,122200
223,122300
223,122400
234,122500
222,122600
222,122700
222,122800
222,122900
222,123000
233,123100
222,123200
222,123300
222,123400
222,123500
222,123600
234,123700
223,123800
223,123900
223,124000
223,124100
223,124200
234,124300
222,124400
222,124500
222,124600
222,124700
222,124800
234,124900
223,125000
223,125100
223,125200
223,125300
223,125400
235,125500
223,125600
223,125700
223,125800
223,125900
223,126000
234,126100
223,126200
223,126300
223,126400
223,126500
223,126600
235,126700
224,126800
224,126900
224,127000
224,127100
224,127200
235,127300
224,127400
224,127500
224,127600
224,127700
224,127800
234,127900
224,128000
224,128100
224,128200
224,128300
224,128400
235,128500
225,128600
225,128700
225,128800
225,128900
225,129000
236,129100
225,129200
225,129300
225,129400
225,129500
225,129600
236,129700
225,129800
225,129900
225,130000
225,130100
225,130200
237,130300
226,130400
226,130500
226,130600
226,130700
226,130800
236,130900
226,131000
226,131100
226,131200
226,131300
226,131400
236,131500
226,131600
226,131700
226,131800
226,131900
226,132000
237,132100
227,132200
227,132300
227,132400
227,132500
227,132600
237,132700
226,132800
226,132900
226,133000
226,133100
226,133200
238,133300
227,133400
227,133500
227,133600
227,133700
227,133800
238,133900
226,134000
226,134100
226,134200
226,134300
226,134400
238,134500
227,134600
227,134700
227,134800
227,134900
227,135000
237,135100
228,135200
228,135300
228,135400
228,135500
228,135600
238,135700
227,135800
227,135900
227,136000
227,136100
227,136200
238,136300
228,136400
228,136500
228,136600
228,136700
228,136800
238,136900
227,137000
227,137100
227,137200
227,137300
227,137400
238,137500
228,137600
228,137700
228,137800
228,137900
228,138000
239,138100
229,138200
229,138300
229,138400
229,138500
229,138600
239,138700
229,138800
229,138900
229,139000
229,139100
229,139200
239,139300
229,139400
229,139500
229,139600
229,139700
229,139800
239,139900
230,140000
230,140100
230,140200
230,140300
230,140400
240,140500
229,140600
229,140700
229,140800
229,140900
229,141000
241,141100
231,141200
231,141300
231,141400
231,141500
231,141600
241,141700
231,141800
231,141900
231,142000
231,142100
231,142200
241,142300
231,142400
231,142500
231,142600
231,142700
231,142800
241,142900
231,143000
231,143100
231,143200
231,143300
231,143400
242,143500
232,143600
232,143700
232,143800
232,143900
232,144000
242,144100
232,144200
232,144300
232,144400
232,144500
232,144600
242,144700
233,144800
233,144900
233,145000
233,145100
233,145200
242,145300
233,145400
233,145500
233,145600
233,145700
233,145800
243,145900
233,146000
233,146100
233,146200
233,146300
233,146400
242,146500
234,146600
234,146700
234,146800
234,146900
234,147000
243,147100
234,147200
234,147300
234,147400
234,147500
234,147600
243,147700
235,147800
235,147900
235,148000
235,148100
235,148200
243,148300
234,148400
234,148500
234,148600
234,148700
234,148800
244,148900
235,149000
235,149100
235,149200
235,149300
235,149400
244,149500
236,149600
236,149700
236,149800
236,149900
236,150000
244,150100
236,150200
236,150300
236,150400
236,150500
236,150600
244,150700
236,150800
236,150900
236,151000
236,151100
236,151200
245,151300
237,151400
237,151500
237,151600
237,151700
237,151800
245,151900
237,152000
237,152100
237,152200
237,152300
237,152400
246,152500
237,152600
237,152700
237,152800
237,152900
237,153000
246,153100
238,153200
238,153300
238,153400
238,153500
238,153600
246,153700
239,153800
239,153900
239,154000
239,154100
239,154200
247,154300
238,154400
238,154500
238,154600
238,154700
238,154800
247,154900
239,155000
239,155100
239,155200
239,155300
239,155400
247,155500
239,155600
239,155700
239,155800
239,155900
239,156000
248,156100
240,156200
240,156300
240,156400
240,156500
240,156600
248,156700
240,156800
240,156900
240,157000
240,157100
240,157200
248,157300
240,157400
240,157500
240,157600
240,157700
240,157800
248,157900
240,158000
240,158100
240,158200
240,158300
240,158400
249,158500
240,158600
240,158700
240,158800
240,158900
240,159000
248,159100
241,159200
241,159300
241,159400
241,159500
241,159600
250,159700
242,159800
242,159900
242,160000
242,160100
242,160200
250,160300
242,160400
242,160500
242,160600
242,160700
242,160800
251,160900
244,161000
244,161100
244,161200
244,161300
244,161400
251,161500
243,161600
243,161700
243,161800
243,161900
243,162000
251,162100
245,162200
245,162300
245,162400
245,162500
245,162600
251,162700
244,162800
244,162900
244,163000
244,163100
244,163200
252,163300
244,163400
244,163500
244,163600
244,163700
244,163800
252,163900
246,164000
246,164100
246,164200
246,164300
246,164400
252,164500
245,164600
245,164700
245,164800
245,164900
245,165000
253,165100
246,165200
246,165300
246,165400
246,165500
246,165600
253,165700
246,165800
246,165900
246,166000
246,166100
246,166200
253,166300
245,166400
245,166500
245,166600
245,166700
245,166800
254,166900
247,167000
247,167100
247,167200
247,167300
247,167400
254,167500
248,167600
248,167700
248,167800
248,167900
248,168000
254,168100
248,168200
248,168300
248,168400
248,168500
248,168600
255,168700
248,168800
248,168900
248,169000
248,169100
248,169200
255,169300
249,169400
249,169500
249,169600
249,169700
249,169800
255,169900
249,170000
249,170100
249,170200
249,170300
249,170400
256,170500
250,170600
250,170700
250,170800
250,170900
250,171000
256,171100
250,171200
250,171300
250,171400
250,171500
250,171600
257,171700
251,171800
251,171900
251,172000
251,172100
251,172200
258,172300
251,172400
251,172500
251,172600
251,172700
251,172800
257,172900
252,173000
252,173100
252,173200
252,173300
252,173400
259,173500
253,173600
253,173700
253,173800
253,173900
253,174000
258,174100
253,174200
253,174300
253,174400
253,174500
253,174600
258,174700
253,174800
253,174900
253,175000
253,175100
253,175200
259,175300
253,175400
253,175500
253,175600
253,175700
253,175800
259,175900
253,176000
253,176100
253,176200
253,176300
253,176400
260,176500
254,176600
254,176700
254,176800
254,176900
254,177000
260,177100
254,177200
254,177300
254,177400
254,177500
254,177600
260,177700
255,177800
255,177900
255,178000
255,178100
255,178200
261,178300
256,178400
256,178500
256,178600
256,178700
256,178800
261,178900
256,179000
256,179100
256,179200
256,179300
256,179400
261,179500
256,179600
256,179700
256,179800
256,179900
256,180000
262,180100
256,180200
256,180300
256,180400
256,180500
256,180600
263,180700
257,180800
257,180900
257,181000
257,181100
257,181200
263,181300
258,181400
258,181500
258,181600
258,181700
258,181800
264,181900
258,182000
258,182100
258,182200
258,182300
258,182400
264,182500
259,182600
259,182700
259,182800
259,182900
259,183000
264,183100
259,183200
259,183300
259,183400
259,183500
259,183600
265,183700
260,183800
260,183900
260,184000
260,184100
260,184200
265,184300
260,184400
260,184500
260,184600
260,184700
260,184800
266,184900
261,185000
261,185100
261,185200
261,185300
261,185400
266,185500
261,185600
261,185700
261,185800
261,185900
261,186000
266,186100
262,186200
262,186300
262,186400
262,186500
262,186600
268,186700
262,186800
262,186900
262,187000
262,187100
262,187200
268,187300
263,187400
263,187500
263,187600
263,187700
263,187800
269,187900
263,188000
263,188100
263,188200
263,188300
263,188400
268,188500
263,188600
263,188700
263,188800
263,188900
263,189000
269,189100
264,189200
264,189300
264,189400
264,189500
264,189600
269,189700
265,189800
265,189900
265,190000
265,190100
265,190200
270,190300
265,190400
265,190500
265,190600
265,190700
265,190800
270,190900
265,191000
265,191100
265,191200
265,191300
265,191400
270,191500
265,191600
265,191700
265,191800
265,191900
265,192000
271,192100
266,192200
266,192300
266,192400
266,192500
266,192600
272,192700
267,192800
267,192900
267,193000
267,193100
267,193200
272,193300
268,193400
268,193500
268,193600
268,193700
268,193800
273,193900
269,194000
269,194100
269,194200
269,194300
269,194400
273,194500
269,194600
269,194700
269,194800
269,194900
269,195000
274,195100
270,195200
270,195300
270,195400
270,195500
270,195600
274,195700
269,195800
269,195900
269,196000
269,196100
269,196200
275,196300
270,196400
270,196500
270,196600
270,196700
270,196800
276,196900
271,197000
271,197100
271,197200
271,197300
271,197400
276,197500
271,197600
271,197700
271,197800
271,197900
271,198000
277,198100
272,198200
272,198300
272,198400
272,198500
272,198600
277,198700
272,198800
272,198900
272,199000
272,199100
272,199200
278,199300
273,199400
273,199500
273,199600
273,199700
273,199800
278,199900
274,200000
274,200100
274,200200
274,200300
274,200400
278,200500
274,200600
274,200700
274,200800
274,200900
274,201000
279,201100
275,201200
275,201300
275,201400
275,201500
275,201600
280,201700
275,201800
275,201900
275,202000
275,202100
275,202200
281,202300
277,202400
277,202500
277,202600
277,202700
277,202800
281,202900
277,203000
277,203100
277,203200
277,203300
277,203400
281,203500
277,203600
277,203700
277,203800
277,203900
277,204000
282,204100
278,204200
278,204300
278,204400
278,204500
278,204600
284,204700
279,204800
279,204900
279,205000
279,205100
279,205200
283,205300
279,205400
279,205500
279,205600
279,205700
279,205800
284,205900
279,206000
279,206100
279,206200
279,206300
279,206400
284,206500
280,206600
280,206700
280,206800
280,206900
280,207000
285,207100
280,207200
280,207300
280,207400
280,207500
280,207600
285,207700
281,207800
281,207900
281,208000
281,208100
281,208200
286,208300
282,208400
282,208500
282,208600
282,208700
282,208800
288,208900
283,209000
283,209100
283,209200
283,209300
283,209400
288,209500
283,209600
283,209700
283,209800
283,209900
283,210000
288,210100
284,210200
284,210300
284,210400
284,210500
284,210600
289,210700
285,210800
285,210900
285,211000
285,211100
285,211200
290,211300
285,211400
285,211500
285,211600
285,211700
285,211800
289,211900
285,212000
285,212100
285,212200
285,212300
285,212400
290,212500
286,212600
286,212700
286,212800
286,212900
286,213000
290,213100
286,213200
286,213300
286,213400
286,213500
286,213600
291,213700
287,213800
287,213900
287,214000
287,214100
287,214200
292,214300
288,214400
288,214500
288,214600
288,214700
288,214800
292,214900
288,215000
288,215100
288,215200
288,215300
288,215400
294,215500
289,215600
289,215700
289,215800
289,215900
289,216000
293,216100
289,216200
289,216300
289,216400
289,216500
289,216600
294,216700
290,216800
290,216900
290,217000
290,217100
290,217200
295,217300
291,217400
291,217500
291,217600
291,217700
291,217800
296,217900
291,218000
291,218100
291,218200
291,218300
291,218400
297,218500
293,218600
293,218700
293,218800
293,218900
293,219000
297,219100
292,219200
292,219300
292,219400
292,219500
292,219600
298,219700
293,219800
293,219900
293,220000
293,220100
293,220200
297,220300
293,220400
293,220500
293,220600
293,220700
293,220800
299,220900
294,221000
294,221100
294,221200
294,221300
294,221400
299,221500
295,221600
295,221700
295,221800
295,221900
295,222000
300,222100
295,222200
295,222300
295,222400
295,222500
295,222600
300,222700
296,222800
296,222900
296,223000
296,223100
296,223200
301,223300
296,223400
296,223500
296,223600
296,223700
296,223800
301,223900
297,224000
297,224100
297,224200
297,224300
297,224400
302,224500
298,224600
298,224700
298,224800
298,224900
298,225000
303,225100
298,225200
298,225300
298,225400
298,225500
298,225600
303,225700
299,225800
299,225900
299,226000
299,226100
299,226200
304,226300
300,226400
300,226500
300,226600
300,226700
300,226800
304,226900
300,227000
300,227100
300,227200
300,227300
300,227400
306,227500
301,227600
301,227700
301,227800
301,227900
301,228000
305,228100
301,228200
301,228300
301,228400
301,228500
301,228600
306,228700
302,228800
302,228900
302,229000
302,229100
302,229200
307,229300
303,229400
303,229500
303,229600
303,229700
303,229800
308,229900
303,230000
303,230100
303,230200
303,230300
303,230400
309,230500
304,230600
304,230700
304,230800
304,230900
304,231000
309,231100
305,231200
305,231300
305,231400
305,231500
305,231600
309,231700
305,231800
305,231900
305,232000
305,232100
305,232200
309,232300
306,232400
306,232500
306,232600
306,232700
306,232800
310,232900
306,233000
306,233100
306,233200
306,233300
306,233400
311,233500
307,233600
307,233700
307,233800
307,233900
307,234000
312,234100
308,234200
308,234300
308,234400
308,234500
308,234600
312,234700
308,234800
308,234900
308,235000
308,235100
308,235200
312,235300
309,235400
309,235500
309,235600
309,235700
309,235800
313,235900
309,236000
309,236100
309,236200
309,236300
309,236400
314,236500
310,236600
310,236700
310,236800
310,236900
310,237000
315,237100
311,237200
311,237300
311,237400
311,237500
311,237600
316,237700
312,237800
312,237900
312,238000
312,238100
312,238200
316,238300
312,238400
312,238500
312,238600
312,238700
312,238800
317,238900
313,239000
313,239100
313,239200
313,239300
313,239400
317,239500
313,239600
313,239700
313,239800
313,239900
313,240000
318,240100
313,240200
313,240300
313,240400
313,240500
313,240600
318,240700
314,240800
314,240900
314,241000
314,241100
314,241200
319,241300
315,241400
315,241500
315,241600
315,241700
315,241800
320,241900
315,242000
315,242100
315,242200
315,242300
315,242400
320,242500
316,242600
316,242700
316,242800
316,242900
316,243000
321,243100
317,243200
317,243300
317,243400
317,243500
317,243600
321,243700
317,243800
317,243900
317,244000
317,244100
317,244200
321,244300
317,244400
317,244500
317,244600
317,244700
317,244800
322,244900
318,245000
318,245100
318,245200
318,245300
318,245400
322,245500
318,245600
318,245700
318,245800
318,245900
318,246000
323,246100
319,246200
319,246300
319,246400
319,246500
319,246600
323,246700
319,246800
319,246900
319,247000
319,247100
319,247200
324,247300
321,247400
321,247500
321,247600
321,247700
321,247800
325,247900
321,248000
321,248100
321,248200
321,248300
321,248400
326,248500
322,248600
322,248700
322,248800
322,248900
322,249000
326,249100
322,249200
322,249300
322,249400
322,249500
322,249600
326,249700
322,249800
322,249900
322,250000
322,250100
322,250200
327,250300
323,250400
323,250500
323,250600
323,250700
323,250800
327,250900
323,251000
323,251100
323,251200
323,251300
323,251400
328,251500
324,251600
324,251700
324,251800
324,251900
324,252000
328,252100
324,252200
324,252300
324,252400
324,252500
324,252600
329,252700
325,252800
325,252900
325,253000
325,253100
325,253200
330,253300
325,253400
325,253500
325,253600
325,253700
325,253800
329,253900
325,254000
325,254100
325,254200
325,254300
325,254400
331,254500
327,254600
327,254700
327,254800
327,254900
327,255000
331,255100
327,255200
327,255300
327,255400
327,255500
327,255600
332,255700
327,255800
327,255900
327,256000
327,256100
327,256200
332,256300
328,256400
328,256500
328,256600
328,256700
328,256800
333,256900
328,257000
328,257100
328,257200
328,257300
328,257400
333,257500
329,257600
329,257700
329,257800
329,257900
329,258000
333,258100
329,258200
329,258300
329,258400
329,258500
329,258600
334,258700
330,258800
330,258900
330,259000
330,259100
330,259200
334,259300
331,259400
331,259500
331,259600
331,259700
331,259800
335,259900
331,260000
331,260100
331,260200
331,260300
331,260400
335,260500
332,260600
332,260700
332,260800
332,260900
332,261000
336,261100
332,261200
332,261300
332,261400
332,261500
332,261600
336,261700
333,261800
333,261900
333,262000
333,262100
333,262200
336,262300
332,262400
332,262500
332,262600
332,262700
332,262800
337,262900
333,263000
333,263100
333,263200
333,263300
333,263400
338,263500
333,263600
333,263700
333,263800
333,263900
333,264000
338,264100
334,264200
334,264300
334,264400
334,264500
334,264600
338,264700
334,264800
334,264900
334,265000
334,265100
334,265200
339,265300
335,265400
335,265500
335,265600
335,265700
335,265800
340,265900
336,266000
336,266100
336,266200
336,266300
336,266400
340,266500
336,266600
336,266700
336,266800
336,266900
336,267000
341,267100
337,267200
337,267300
337,267400
337,267500
337,267600
341,267700
336,267800
336,267900
336,268000
336,268100
336,268200
341,268300
337,268400
337,268500
337,268600
337,268700
337,268800
342,268900
338,269000
338,269100
338,269200
338,269300
338,269400
343,269500
339,269600
339,269700
339,269800
339,269900
339,270000
343,270100
339,270200
339,270300
339,270400
339,270500
339,270600
344,270700
340,270800
340,270900
340,271000
340,271100
340,271200
344,271300
340,271400
340,271500
340,271600
340,271700
340,271800
344,271900
340,272000
340,272100
340,272200
340,272300
340,272400
345,272500
341,272600
341,272700
341,272800
341,272900
341,273000
346,273100
341,273200
341,273300
341,273400
341,273500
341,273600
345,273700
342,273800
342,273900
342,274000
342,274100
342,274200
346,274300
342,274400
342,274500
342,274600
342,274700
342,274800
346,274900
342,275000
342,275100
342,275200
342,275300
342,275400
347,275500
343,275600
343,275700
343,275800
343,275900
343,276000
347,276100
343,276200
343,276300
343,276400
343,276500
343,276600
348,276700
344,276800
344,276900
344,277000
344,277100
344,277200
349,277300
344,277400
344,277500
344,277600
344,277700
344,277800
349,277900
345,278000
345,278100
345,278200
345,278300
345,278400
350,278500
345,278600
345,278700
345,278800
345,278900
345,279000
350,279100
345,279200
345,279300
345,279400
345,279500
345,279600
350,279700
346,279800
346,279900
346,280000
346,280100
346,280200
350,280300
346,280400
346,280500
346,280600
346,280700
346,280800
351,280900
347,281000
347,281100
347,281200
347,281300
347,281400
351,281500
347,281600
347,281700
347,281800
347,281900
347,282000
352,282100
347,282200
347,282300
347,282400
347,282500
347,282600
352,282700
348,282800
348,282900
348,283000
348,283100
348,283200
352,283300
348,283400
348,283500
348,283600
348,283700
348,283800
353,283900
349,284000
349,284100
349,284200
349,284300
349,284400
353,284500
349,284600
349,284700
349,284800
349,284900
349,285000
354,285100
350,285200
350,285300
350,285400
350,285500
350,285600
354,285700
350,285800
350,285900
350,286000
350,286100
350,286200
355,286300
351,286400
351,286500
351,286600
351,286700
351,286800
355,286900
350,287000
350,287100
350,287200
350,287300
350,287400
355,287500
351,287600
351,287700
351,287800
351,287900
351,288000
356,288100
352,288200
352,288300
352,288400
352,288500
352,288600
356,288700
351,288800
351,288900
351,289000
351,289100
351,289200
357,289300
352,289400
352,289500
352,289600
352,289700
352,289800
357,289900
352,290000
352,290100
352,290200
352,290300
352,290400
358,290500
353,290600
353,290700
353,290800
353,290900
353,291000
358,291100
354,291200
354,291300
354,291400
354,291500
354,291600
358,291700
353,291800
353,291900
353,292000
353,292100
353,292200
358,292300
354,292400
354,292500
354,292600
354,292700
354,292800
359,292900
354,293000
354,293100
354,293200
354,293300
354,293400
359,293500
354,293600
354,293700
354,293800
354,293900
354,294000
360,294100
355,294200
355,294300
355,294400
355,294500
355,294600
360,294700
356,294800
356,294900
356,295000
356,295100
356,295200
361,295300
356,295400
356,295500
356,295600
356,295700
356,295800
361,295900
357,296000
357,296100
357,296200
357,296300
357,296400
360,296500
356,296600
356,296700
356,296800
356,296900
356,297000
361,297100
356,297200
356,297300
356,297400
356,297500
356,297600
361,297700
357,297800
357,297900
357,298000
357,298100
357,298200
363,298300
358,298400
358,298500
358,298600
358,298700
358,298800
363,298900
358,299000
358,299100
358,299200
358,299300
358,299400
363,299500
358,299600
358,299700
358,299800
358,299900
358,300000
363,300100
358,300200
358,300300
358,300400
358,300500
358,300600
363,300700
359,300800
359,300900
359,301000
359,301100
359,301200
364,301300
359,301400
359,301500
359,301600
359,301700
359,301800
364,301900
359,302000
359,302100
359,302200
359,302300
359,302400
365,302500
360,302600
360,302700
360,302800
360,302900
360,303000
365,303100
360,303200
360,303300
360,303400
360,303500
360,303600
365,303700
361,303800
361,303900
361,304000
361,304100
361,304200
366,304300
361,304400
361,304500
361,304600
361,304700
361,304800
366,304900
361,305000
361,305100
361,305200
361,305300
361,305400
366,305500
361,305600
361,305700
361,305800
361,305900
361,306000
366,306100
362,306200
362,306300
362,306400
362,306500
362,306600
366,306700
362,306800
362,306900
362,307000
362,307100
362,307200
367,307300
362,307400
362,307500
362,307600
362,307700
362,307800
367,307900
363,308000
363,308100
363,308200
363,308300
363,308400
367,308500
363,308600
363,308700
363,308800
363,308900
363,309000
368,309100
363,309200
363,309300
363,309400
363,309500
363,309600
368,309700
363,309800
363,309900
363,310000
363,310100
363,310200
368,310300
364,310400
364,310500
364,310600
364,310700
364,310800
368,310900
364,311000
364,311100
364,311200
364,311300
364,311400
368,311500
364,311600
364,311700
364,311800
364,311900
364,312000
368,312100
365,312200
365,312300
365,312400
365,312500
365,312600
369,312700
365,312800
365,312900
365,313000
365,313100
365,313200
369,313300
365,313400
365,313500
365,313600
365,313700
365,313800
369,313900
365,314000
365,314100
365,314200
365,314300
365,314400
369,314500
365,314600
365,314700
365,314800
365,314900
365,315000
369,315100
365,315200
365,315300
365,315400
365,315500
365,315600
370,315700
366,315800
366,315900
366,316000
366,316100
366,316200
369,316300
366,316400
366,316500
366,316600
366,316700
366,316800
370,316900
367,317000
367,317100
367,317200
367,317300
367,317400
370,317500
367,317600
367,317700
367,317800
367,317900
367,318000
370,318100
367,318200
367,318300
367,318400
367,318500
367,318600
370,318700
367,318800
367,318900
367,319000
367,319100
367,319200
370,319300
368,319400
368,319500
368,319600
368,319700
368,319800
371,319900
368,320000
368,320100
368,320200
368,320300
368,320400
370,320500
368,320600
368,320700
368,320800
368,320900
368,321000
371,321100
368,321200
368,321300
368,321400
368,321500
368,321600
371,321700
368,321800
368,321900
368,322000
368,322100
368,322200
371,322300
369,322400
369,322500
369,322600
369,322700
369,322800
372,322900
369,323000
369,323100
369,323200
369,323300
369,323400
371,323500
370,323600
370,323700
370,323800
370,323900
370,324000
372,324100
370,324200
370,324300
370,324400
370,324500
370,324600
372,324700
370,324800
370,324900
370,325000
370,325100
370,325200
372,325300
370,325400
370,325500
370,325600
370,325700
370,325800
372,325900
370,326000
370,326100
370,326200
370,326300
370,326400
372,326500
370,326600
370,326700
370,326800
370,326900
370,327000
373,327100
371,327200
371,327300
371,327400
371,327500
371,327600
374,327700
372,327800
372,327900
372,328000
372,328100
372,328200
373,328300
372,328400
372,328500
372,328600
372,328700
372,328800
374,328900
372,329000
372,329100
372,329200
372,329300
372,329400
373,329500
372,329600
372,329700
372,329800
372,329900
372,330000
373,330100
372,330200
372,330300
372,330400
372,330500
372,330600
373,330700
373,330800
373,330900
373,331000
373,331100
373,331200
374,331300
373,331400
373,331500
373,331600
373,331700
373,331800
375,331900
373,332000
373,332100
373,332200
373,332300
373,332400
374,332500
374,332600
374,332700
374,332800
374,332900
379,333000
373,333100
373,333200
373,333300
373,333400
373,333500
373,333600
375,333700
374,333800
374,333900
374,334000
374,334100
374,334200
374,334300
374,334400
374,334500
374,334600
374,334700
379,334800
374,334900
374,335000
374,335100
374,335200
374,335300
374,335400
375,335500
375,335600
375,335700
375,335800
375,335900
380,336000
375,336100
375,336200
375,336300
375,336400
375,336500
380,336600
375,336700
375,336800
375,336900
375,337000
375,337100
380,337200
375,337300
375,337400
375,337500
375,337600
375,337700
381,337800
375,337900
375,338000
375,338100
375,338200
375,338300
381,338400
375,338500
375,338600
375,338700
375,338800
375,338900
381,339000
376,339100
376,339200
376,339300
376,339400
376,339500
381,339600
376,339700
376,339800
376,339900
376,340000
376,340100
382,340200
376,340300
376,340400
376,340500
376,340600
376,340700
382,340800
376,340900
376,341000
376,341100
376,341200
376,341300
381,341400
376,341500
376,341600
376,341700
376,341800
376,341900
382,342000
376,342100
376,342200
376,342300
376,342400
376,342500
382,342600
377,342700
377,342800
377,342900
377,343000
377,343100
382,343200
377,343300
377,343400
377,343500
377,343600
377,343700
382,343800
377,343900
377,344000
377,344100
377,344200
377,344300
383,344400
377,344500
377,344600
377,344700
377,344800
377,344900
383,345000
377,345100
377,345200
377,345300
377,345400
377,345500
384,345600
378,345700
378,345800
378,345900
378,346000
378,346100
383,346200
377,346300
377,346400
377,346500
377,346600
377,346700
383,346800
378,346900
378,347000
378,347100
378,347200
378,347300
384,347400
378,347500
378,347600
378,347700
378,347800
378,347900
384,348000
378,348100
378,348200
378,348300
378,348400
378,348500
384,348600
378,348700
378,348800
378,348900
378,349000
378,349100
384,349200
379,349300
379,349400
379,349500
379,349600
379,349700
385,349800
379,349900
379,350000
379,350100
379,350200
379,350300
384,350400
379,350500
379,350600
379,350700
379,350800
379,350900
385,351000
379,351100
379,351200
379,351300
379,351400
379,351500
385,351600
380,351700
380,351800
380,351900
380,352000
380,352100
385,352200
380,352300
380,352400
380,352500
380,352600
380,352700
385,352800
380,352900
380,353000
380,353100
380,353200
380,353300
386,353400
380,353500
380,353600
380,353700
380,353800
380,353900
386,354000
381,354100
381,354200
381,354300
381,354400
381,354500
386,354600
381,354700
381,354800
381,354900
381,355000
381,355100
386,355200
380,355300
380,355400
380,355500
380,355600
380,355700
386,355800
381,355900
381,356000
381,356100
381,356200
381,356300
386,356400
381,356500
381,356600
381,356700
381,356800
381,356900
386,357000
381,357100
381,357200
381,357300
381,357400
381,357500
387,357600
381,357700
381,357800
381,357900
381,358000
381,358100
387,358200
382,358300
382,358400
382,358500
382,358600
382,358700
387,358800
382,358900
382,359000
382,359100
382,359200
382,359300
387,359400
382,359500
382,359600
382,359700
382,359800
382,359900
388,360000
382,360100
382,360200
382,360300
382,360400
382,360500
388,360600
382,360700
382,360800
382,360900
382,361000
382,361100
387,361200
382,361300
382,361400
382,361500
382,361600
382,361700
388,361800
382,361900
382,362000
382,362100
382,362200
382,362300
389,362400
382,362500
382,362600
382,362700
382,362800
382,362900
388,363000
382,363100
382,363200
382,363300
382,363400
382,363500
389,363600
383,363700
383,363800
383,363900
383,364000
383,364100
388,364200
383,364300
383,364400
383,364500
383,364600
383,364700
389,364800
384,364900
384,365000
384,365100
384,365200
384,365300
389,365400
383,365500
383,365600
383,365700
383,365800
383,365900
389,366000
383,366100
383,366200
383,366300
383,366400
383,366500
390,366600
384,366700
384,366800
384,366900
384,367000
384,367100
390,367200
384,367300
384,367400
384,367500
384,367600
384,367700
390,367800
384,367900
384,368000
384,368100
384,368200
384,368300
390,368400
384,368500
384,368600
384,368700
384,368800
384,368900
390,369000
384,369100
384,369200
384,369300
384,369400
384,369500
391,369600
385,369700
385,369800
385,369900
385,370000
385,370100
390,370200
384,370300
384,370400
384,370500
384,370600
384,370700
390,370800
385,370900
385,371000
385,371100
385,371200
385,371300
391,371400
385,371500
385,371600
385,371700
385,371800
385,371900
391,372000
385,372100
385,372200
385,372300
385,372400
385,372500
391,372600
385,372700
385,372800
385,372900
385,373000
385,373100
391,373200
385,373300
385,373400
385,373500
385,373600
385,373700
391,373800
385,373900
385,374000
385,374100
385,374200
385,374300
391,374400
386,374500
386,374600
386,374700
386,374800
386,374900
391,375000
386,375100
386,375200
386,375300
386,375400
386,375500
392,375600
386,375700
386,375800
386,375900
386,376000
386,376100
392,376200
386,376300
386,376400
386,376500
386,376600
386,376700
392,376800
387,376900
387,377000
387,377100
387,377200
387,377300
392,377400
386,377500
386,377600
386,377700
386,377800
386,377900
392,378000
386,378100
386,378200
386,378300
386,378400
386,378500
393,378600
387,378700
387,378800
387,378900
387,379000
387,379100
393,379200
387,379300
387,379400
387,379500
387,379600
387,379700
393,379800
387,379900
387,380000
387,380100
387,380200
387,380300
393,380400
388,380500
388,380600
388,380700
388,380800
388,380900
393,381000
388,381100
388,381200
388,381300
388,381400
388,381500
393,381600
387,381700
387,381800
387,381900
387,382000
387,382100
393,382200
388,382300
388,382400
388,382500
388,382600
388,382700
393,382800
388,382900
388,383000
388,383100
388,383200
388,383300
393,383400
387,383500
387,383600
387,383700
387,383800
387,383900
394,384000
388,384100
388,384200
388,384300
388,384400
388,384500
393,384600
388,384700
388,384800
388,384900
388,385000
388,385100
394,385200
388,385300
388,385400
388,385500
388,385600
388,385700
395,385800
389,385900
389,386000
389,386100
389,386200
389,386300
395,386400
389,386500
389,386600
389,386700
389,386800
389,386900
395,387000
389,387100
389,387200
389,387300
389,387400
389,387500
395,387600
389,387700
389,387800
389,387900
389,388000
389,388100
395,388200
389,388300
389,388400
389,388500
389,388600
389,388700
395,388800
389,388900
389,389000
389,389100
389,389200
389,389300
395,389400
389,389500
389,389600
389,389700
389,389800
389,389900
395,390000
389,390100
389,390200
389,390300
389,390400
389,390500
395,390600
389,390700
389,390800
389,390900
389,391000
389,391100
395,391200
390,391300
390,391400
390,391500
390,391600
390,391700
396,391800
390,391900
390,392000
390,392100
390,392200
390,392300
395,392400
389,392500
389,392600
389,392700
389,392800
389,392900
396,393000
390,393100
390,393200
390,393300
390,393400
390,393500
396,393600
390,393700
390,393800
390,393900
390,394000
390,394100
396,394200
390,394300
390,394400
390,394500
390,394600
390,394700
396,394800
390,394900
390,395000
390,395100
390,395200
390,395300
396,395400
390,395500
390,395600
390,395700
390,395800
390,395900
397,396000
391,396100
391,396200
391,396300
391,396400
391,396500
397,396600
391,396700
391,396800
391,396900
391,397000
391,397100
397,397200
391,397300
391,397400
391,397500
391,397600
391,397700
397,397800
391,397900
391,398000
391,398100
391,398200
391,398300
397,398400
391,398500
391,398600
391,398700
391,398800
391,398900
397,399000
391,399100
391,399200
391,399300
391,399400
391,399500
397,399600
391,399700
391,399800
391,399900
391,400000
391,400100
397,400200
392,400300
392,400400
392,400500
392,400600
392,400700
398,400800
392,400900
392,401000
392,401100
392,401200
392,401300
398,401400
392,401500
392,401600
392,401700
392,401800
392,401900
399,402000
392,402100
392,402200
392,402300
392,402400
392,402500
398,402600
391,402700
391,402800
391,402900
391,403000
391,403100
398,403200
392,403300
392,403400
392,403500
392,403600
392,403700
399,403800
393,403900
393,404000
393,404100
393,404200
393,404300
398,404400
392,404500
392,404600
392,404700
392,404800
392,404900
399,405000
393,405100
393,405200
393,405300
393,405400
393,405500
398,405600
392,405700
392,405800
392,405900
392,406000
392,406100
398,406200
393,406300
393,406400
393,406500
393,406600
393,406700
399,406800
393,406900
393,407000
393,407100
393,407200
393,407300
399,407400
393,407500
393,407600
393,407700
393,407800
393,407900
399,408000
393,408100
393,408200
393,408300
393,408400
393,408500
399,408600
393,408700
393,408800
393,408900
393,409000
393,409100
400,409200
394,409300
394,409400
394,409500
394,409600
394,409700
400,409800
394,409900
394,410000
394,410100
394,410200
394,410300
400,410400
394,410500
394,410600
394,410700
394,410800
394,410900
401,411000
395,411100
395,411200
395,411300
395,411400
395,411500
401,411600
394,411700
394,411800
394,411900
394,412000
394,412100
400,412200
394,412300
394,412400
394,412500
394,412600
394,412700
401,412800
394,412900
394,413000
394,413100
394,413200
394,413300
400,413400
395,413500
395,413600
395,413700
395,413800
395,413900
401,414000
395,414100
395,414200
395,414300
395,414400
395,414500
400,414600
394,414700
394,414800
394,414900
394,415000
394,415100
400,415200
395,415300
395,415400
395,415500
395,415600
395,415700
400,415800
395,415900
395,416000
395,416100
395,416200
395,416300
401,416400
395,416500
395,416600
395,416700
395,416800
395,416900
401,417000
396,417100
396,417200
396,417300
396,417400
396,417500
401,417600
395,417700
395,417800
395,417900
395,418000
395,418100
402,418200
396,418300
396,418400
396,418500
396,418600
396,418700
402,418800
395,418900
395,419000
395,419100
395,419200
395,419300
402,419400
396,419500
396,419600
396,419700
396,419800
396,419900
402,420000
396,420100
396,420200
396,420300
396,420400
396,420500
401,420600
396,420700
396,420800
396,420900
396,421000
396,421100
402,421200
396,421300
396,421400
396,421500
396,421600
396,421700
402,421800
396,421900
396,422000
396,422100
396,422200
396,422300
402,422400
396,422500
396,422600
396,422700
396,422800
396,422900
403,423000
397,423100
397,423200
397,423300
397,423400
397,423500
402,423600
396,423700
396,423800
396,423900
396,424000
396,424100
403,424200
397,424300
397,424400
397,424500
397,424600
397,424700
403,424800
396,424900
396,425000
396,425100
396,425200
396,425300
403,425400
396,425500
396,425600
396,425700
396,425800
396,425900
403,426000
398,426100
398,426200
398,426300
398,426400
398,426500
403,426600
397,426700
397,426800
397,426900
397,427000
397,427100
403,427200
397,427300
397,427400
397,427500
397,427600
397,427700
403,427800
397,427900
397,428000
397,428100
397,428200
397,428300
403,428400
397,428500
397,428600
397,428700
397,428800
397,428900
404,429000
398,429100
398,429200
398,429300
398,429400
398,429500
403,429600
398,429700
398,429800
398,429900
398,430000
398,430100
404,430200
397,430300
397,430400
397,430500
397,430600
397,430700
403,430800
397,430900
397,431000
397,431100
397,431200
397,431300
404,431400
398,431500
398,431600
398,431700
398,431800
398,431900
403,432000
397,432100
397,432200
397,432300
397,432400
397,432500
403,432600
397,432700
397,432800
397,432900
397,433000
397,433100
403,433200
398,433300
398,433400
398,433500
398,433600
398,433700
403,433800
398,433900
398,434000
398,434100
398,434200
398,434300
404,434400
398,434500
398,434600
398,434700
398,434800
398,434900
404,435000
399,435100
399,435200
399,435300
399,435400
399,435500
404,435600
398,435700
398,435800
398,435900
398,436000
398,436100
404,436200
398,436300
398,436400
398,436500
398,436600
398,436700
404,436800
398,436900
398,437000
398,437100
398,437200
398,437300
404,437400
398,437500
398,437600
398,437700
398,437800
398,437900
405,438000
399,438100
399,438200
399,438300
399,438400
399,438500
404,438600
398,438700
398,438800
398,438900
398,439000
398,439100
405,439200
399,439300
399,439400
399,439500
399,439600
399,439700
404,439800
399,439900
399,440000
399,440100
399,440200
399,440300
405,440400
399,440500
399,440600
399,440700
399,440800
399,440900
405,441000
399,441100
399,441200
399,441300
399,441400
399,441500
405,441600
400,441700
400,441800
400,441900
400,442000
400,442100
405,442200
400,442300
400,442400
400,442500
400,442600
400,442700
405,442800
400,442900
400,443000
400,443100
400,443200
400,443300
406,443400
400,443500
400,443600
400,443700
400,443800
400,443900
405,444000
400,444100
400,444200
400,444300
400,444400
400,444500
406,444600
400,444700
400,444800
400,444900
400,445000
400,445100
406,445200
400,445300
400,445400
400,445500
400,445600
400,445700
406,445800
400,445900
400,446000
400,446100
400,446200
400,446300
406,446400
400,446500
400,446600
400,446700
400,446800
400,446900
406,447000
400,447100
400,447200
400,447300
400,447400
400,447500
406,447600
400,447700
400,447800
400,447900
400,448000
400,448100
406,448200
400,448300
400,448400
400,448500
400,448600
400,448700
407,448800
401,448900
401,449000
401,449100
401,449200
401,449300
407,449400
401,449500
401,449600
401,449700
401,449800
401,449900
406,450000
400,450100
400,450200
400,450300
400,450400
400,450500
406,450600
400,450700
400,450800
400,450900
400,451000
400,451100
406,451200
401,451300
401,451400
401,451500
401,451600
401,451700
406,451800
401,451900
401,452000
401,452100
401,452200
401,452300
407,452400
401,452500
401,452600
401,452700
401,452800
401,452900
406,453000
401,453100
401,453200
401,453300
401,453400
401,453500
407,453600
401,453700
401,453800
401,453900
401,454000
401,454100
407,454200
401,454300
401,454400
401,454500
401,454600
401,454700
407,454800
402,454900
402,455000
402,455100
402,455200
402,455300
406,455400
402,455500
402,455600
402,455700
402,455800
402,455900
407,456000
401,456100
401,456200
401,456300
401,456400
401,456500
408,456600
402,456700
402,456800
402,456900
402,457000
402,457100
406,457200
401,457300
401,457400
401,457500
401,457600
401,457700
408,457800
402,457900
402,458000
402,458100
402,458200
402,458300
406,458400
402,458500
402,458600
402,458700
402,458800
402,458900
408,459000
402,459100
402,459200
402,459300
402,459400
402,459500
407,459600
402,459700
402,459800
402,459900
402,460000
402,460100
407,460200
402,460300
402,460400
402,460500
402,460600
402,460700
408,460800
403,460900
403,461000
403,461100
403,461200
403,461300
407,461400
403,461500
403,461600
403,461700
403,461800
403,461900
407,462000
402,462100
402,462200
402,462300
402,462400
402,462500
408,462600
403,462700
403,462800
403,462900
403,463000
403,463100
407,463200
402,463300
402,463400
402,463500
402,463600
402,463700
408,463800
403,463900
403,464000
403,464100
403,464200
403,464300
408,464400
403,464500
403,464600
403,464700
403,464800
403,464900
408,465000
403,465100
403,465200
403,465300
403,465400
403,465500
407,465600
403,465700
403,465800
403,465900
403,466000
403,466100
407,466200
403,466300
403,466400
403,466500
403,466600
403,466700
408,466800
402,466900
402,467000
402,467100
402,467200
402,467300
408,467400
403,467500
403,467600
403,467700
403,467800
403,467900
408,468000
404,468100
404,468200
404,468300
404,468400
404,468500
408,468600
403,468700
403,468800
403,468900
403,469000
403,469100
408,469200
403,469300
403,469400
403,469500
403,469600
403,469700
408,469800
403,469900
403,470000
403,470100
403,470200
403,470300
408,470400
403,470500
403,470600
403,470700
403,470800
403,470900
409,471000
404,471100
404,471200
404,471300
404,471400
404,471500
409,471600
404,471700
404,471800
404,471900
404,472000
404,472100
409,472200
404,472300
404,472400
404,472500
404,472600
404,472700
407,472800
404,472900
404,473000
404,473100
404,473200
404,473300
409,473400
404,473500
404,473600
404,473700
404,473800
404,473900
408,474000
404,474100
404,474200
404,474300
404,474400
404,474500
407,474600
405,474700
405,474800
405,474900
405,475000
405,475100
407,475200
404,475300
404,475400
404,475500
404,475600
404,475700
408,475800
405,475900
405,476000
405,476100
405,476200
405,476300
407,476400
404,476500
404,476600
404,476700
404,476800
404,476900
407,477000
404,477100
404,477200
404,477300
404,477400
404,477500
408,477600
404,477700
404,477800
404,477900
404,478000
404,478100
408,478200
404,478300
404,478400
404,478500
404,478600
404,478700
408,478800
404,478900
404,479000
404,479100
404,479200
404,479300
408,479400
405,479500
405,479600
405,479700
405,479800
405,479900
408,480000
405,480100
405,480200
405,480300
405,480400
405,480500
407,480600
405,480700
405,480800
405,480900
405,481000
405,481100
408,481200
405,481300
405,481400
405,481500
405,481600
405,481700
407,481800
404,481900
404,482000
404,482100
404,482200
404,482300
408,482400
405,482500
405,482600
405,482700
405,482800
405,482900
407,483000
405,483100
405,483200
405,483300
405,483400
405,483500
407,483600
405,483700
405,483800
405,483900
405,484000
405,484100
408,484200
405,484300
405,484400
405,484500
405,484600
405,484700
409,484800
406,484900
406,485000
406,485100
406,485200
406,485300
407,485400
406,485500
406,485600
406,485700
406,485800
406,485900
407,486000
406,486100
406,486200
406,486300
406,486400
406,486500
408,486600
406,486700
406,486800
406,486900
406,487000
406,487100
408,487200
406,487300
406,487400
406,487500
406,487600
406,487700
407,487800
406,487900
406,488000
406,488100
406,488200
406,488300
408,488400
406,488500
406,488600
406,488700
406,488800
406,488900
407,489000
406,489100
406,489200
406,489300
406,489400
406,489500
409,489600
406,489700
406,489800
406,489900
406,490000
406,490100
407,490200
406,490300
406,490400
406,490500
406,490600
406,490700
407,490800
406,490900
406,491000
406,491100
406,491200
406,491300
407,491400
406,491500
406,491600
406,491700
406,491800
406,491900
407,492000
406,492100
406,492200
406,492300
406,492400
406,492500
407,492600
406,492700
406,492800
406,492900
406,493000
406,493100
408,493200
407,493300
407,493400
407,493500
407,493600
407,493700
406,493800
406,493900
406,494000
406,494100
406,494200
406,494300
408,494400
407,494500
407,494600
407,494700
407,494800
407,494900
406,495000
406,495100
406,495200
406,495300
406,495400
413,495500
408,495600
407,495700
407,495800
407,495900
407,496000
407,496100
407,496200
407,496300
407,496400
407,496500
407,496600
414,496700
407,496800
407,496900
407,497000
407,497100
407,497200
407,497300
407,497400
407,497500
407,497600
407,497700
407,497800
414,497900
407,498000
407,498100
407,498200
407,498300
407,498400
414,498500
407,498600
407,498700
407,498800
407,498900
407,499000
407,499100
407,499200
407,499300
407,499400
407,499500
407,499600
414,499700
408,499800
408,499900
408,500000
408,500100
408,500200
414,500300
407,500400
407,500500
407,500600
407,500700
407,500800
414,500900
408,501000
408,501100
408,501200
408,501300
408,501400
414,501500
407,501600
407,501700
407,501800
407,501900
407,502000
414,502100
408,502200
408,502300
408,502400
408,502500
408,502600
414,502700
408,502800
408,502900
408,503000
408,503100
408,503200
414,503300
408,503400
408,503500
408,503600
408,503700
408,503800
415,503900
408,504000
408,504100
408,504200
408,504300
408,504400
414,504500
407,504600
407,504700
407,504800
407,504900
407,505000
414,505100
407,505200
407,505300
407,505400
407,505500
407,505600
415,505700
409,505800
409,505900
409,506000
409,506100
409,506200
415,506300
408,506400
408,506500
408,506600
408,506700
408,506800
415,506900
408,507000
408,507100
408,507200
408,507300
408,507400
415,507500
408,507600
408,507700
408,507800
408,507900
408,508000
415,508100
408,508200
408,508300
408,508400
408,508500
408,508600
415,508700
408,508800
408,508900
408,509000
408,509100
408,509200
415,509300
409,509400
409,509500
409,509600
409,509700
409,509800
415,509900
408,510000
408,510100
408,510200
408,510300
408,510400
416,510500
409,510600
409,510700
409,510800
409,510900
409,511000
416,511100
408,511200
408,511300
408,511400
408,511500
408,511600
415,511700
408,511800
408,511900
408,512000
408,512100
408,512200
416,512300
409,512400
409,512500
409,512600
409,512700
409,512800
416,512900
409,513000
409,513100
409,513200
409,513300
409,513400
415,513500
408,513600
408,513700
408,513800
408,513900
408,514000
416,514100
409,514200
409,514300
409,514400
409,514500
409,514600
416,514700
409,514800
409,514900
409,515000
409,515100
409,515200
416,515300
409,515400
409,515500
409,515600
409,515700
409,515800
416,515900
409,516000
409,516100
409,516200
409,516300
409,516400
416,516500
409,516600
409,516700
409,516800
409,516900
409,517000
416,517100
409,517200
409,517300
409,517400
409,517500
409,517600
416,517700
408,517800
408,517900
408,518000
408,518100
408,518200
416,518300
409,518400
409,518500
409,518600
409,518700
409,518800
416,518900
409,519000
409,519100
409,519200
409,519300
409,519400
416,519500
409,519600
409,519700
409,519800
409,519900
409,520000
416,520100
409,520200
409,520300
409,520400
409,520500
409,520600
416,520700
409,520800
409,520900
409,521000
409,521100
409,521200
416,521300
409,521400
409,521500
409,521600
409,521700
409,521800
416,521900
410,522000
410,522100
410,522200
410,522300
410,522400
417,522500
410,522600
410,522700
410,522800
410,522900
410,523000
416,523100
410,523200
410,523300
410,523400
410,523500
410,523600
416,523700
410,523800
410,523900
410,524000
410,524100
410,524200
416,524300
410,524400
410,524500
410,524600
410,524700
410,524800
417,524900
410,525000
410,525100
410,525200
410,525300
410,525400
417,525500
410,525600
410,525700
410,525800
410,525900
410,526000
416,526100
410,526200
410,526300
410,526400
410,526500
410,526600
417,526700
410,526800
410,526900
410,527000
410,527100
410,527200
417,527300
410,527400
410,527500
410,527600
410,527700
410,527800
417,527900
410,528000
410,528100
410,528200
410,528300
410,528400
417,528500
410,528600
410,528700
410,528800
410,528900
410,529000
417,529100
410,529200
410,529300
410,529400
410,529500
410,529600
417,529700
411,529800
411,529900
411,530000
411,530100
411,530200
417,530300
410,530400
410,530500
410,530600
410,530700
410,530800
417,530900
410,531000
410,531100
410,531200
410,531300
410,531400
417,531500
410,531600
410,531700
410,531800
410,531900
410,532000
417,532100
410,532200
410,532300
410,532400
410,532500
410,532600
417,532700
410,532800
410,532900
410,533000
410,533100
410,533200
417,533300
410,533400
410,533500
410,533600
410,533700
410,533800
418,533900
411,534000
411,534100
411,534200
411,534300
411,534400
418,534500
411,534600
411,534700
411,534800
411,534900
411,535000
417,535100
410,535200
410,535300
410,535400
410,535500
410,535600
417,535700
411,535800
411,535900
411,536000
411,536100
411,536200
418,536300
411,536400
411,536500
411,536600
411,536700
411,536800
418,536900
411,537000
411,537100
411,537200
411,537300
411,537400
418,537500
411,537600
411,537700
411,537800
411,537900
411,538000
418,538100
411,538200
411,538300
411,538400
411,538500
411,538600
417,538700
411,538800
411,538900
411,539000
411,539100
411,539200
418,539300
411,539400
411,539500
411,539600
411,539700
411,539800
418,539900
411,540000
411,540100
411,540200
411,540300
411,540400
418,540500
411,540600
411,540700
411,540800
411,540900
411,541000
418,541100
411,541200
411,541300
411,541400
411,541500
411,541600
418,541700
412,541800
412,541900
412,542000
412,542100
412,542200
418,542300
411,542400
411,542500
411,542600
411,542700
411,542800
417,542900
411,543000
411,543100
411,543200
411,543300
411,543400
418,543500
412,543600
412,543700
412,543800
412,543900
412,544000
419,544100
412,544200
412,544300
412,544400
412,544500
412,544600
419,544700
412,544800
412,544900
412,545000
412,545100
412,545200
418,545300
411,545400
411,545500
411,545600
411,545700
411,545800
418,545900
412,546000
412,546100
412,546200
412,546300
412,546400
418,546500
412,546600
412,546700
412,546800
412,546900
412,547000
418,547100
411,547200
411,547300
411,547400
411,547500
411,547600
419,547700
412,547800
412,547900
412,548000
412,548100
412,548200
419,548300
412,548400
412,548500
412,548600
412,548700
412,548800
419,548900
412,549000
412,549100
412,549200
412,549300
412,549400
419,549500
412,549600
412,549700
412,549800
412,549900
412,550000
419,550100
412,550200
412,550300
412,550400
412,550500
412,550600
419,550700
412,550800
412,550900
412,551000
412,551100
412,551200
419,551300
412,551400
412,551500
412,551600
412,551700
412,551800
419,551900
413,552000
413,552100
413,552200
413,552300
413,552400
419,552500
412,552600
412,552700
412,552800
412,552900
412,553000
419,553100
412,553200
412,553300
412,553400
412,553500
412,553600
419,553700
412,553800
412,553900
412,554000
412,554100
412,554200
419,554300
412,554400
412,554500
412,554600
412,554700
412,554800
419,554900
412,555000
412,555100
412,555200
412,555300
412,555400
419,555500
412,555600
412,555700
412,555800
412,555900
412,556000
418,556100
412,556200
412,556300
412,556400
412,556500
412,556600
419,556700
412,556800
412,556900
412,557000
412,557100
412,557200
419,557300
413,557400
413,557500
413,557600
413,557700
413,557800
420,557900
413,558000
413,558100
413,558200
413,558300
413,558400
420,558500
412,558600
412,558700
412,558800
412,558900
412,559000
420,559100
413,559200
413,559300
413,559400
413,559500
413,559600
419,559700
412,559800
412,559900
412,560000
412,560100
412,560200
419,560300
413,560400
413,560500
413,560600
413,560700
413,560800
420,560900
413,561000
413,561100
413,561200
413,561300
413,561400
420,561500
413,561600
413,561700
413,561800
413,561900
413,562000
420,562100
413,562200
413,562300
413,562400
413,562500
413,562600
420,562700
413,562800
413,562900
413,563000
413,563100
413,563200
420,563300
413,563400
413,563500
413,563600
413,563700
413,563800
420,563900
413,564000
413,564100
413,564200
413,564300
413,564400
420,564500
413,564600
413,564700
413,564800
413,564900
413,565000
420,565100
413,565200
413,565300
413,565400
413,565500
413,565600
420,565700
414,565800
414,565900
414,566000
414,566100
414,566200
420,566300
413,566400
413,566500
413,566600
413,566700
413,566800
420,566900
413,567000
413,567100
413,567200
413,567300
413,567400
420,567500
413,567600
413,567700
413,567800
413,567900
413,568000
421,568100
414,568200
414,568300
414,568400
414,568500
414,568600
420,568700
413,568800
413,568900
413,569000
413,569100
413,569200
420,569300
413,569400
413,569500
413,569600
413,569700
413,569800
421,569900
414,570000
414,570100
414,570200
414,570300
414,570400
421,570500
414,570600
414,570700
414,570800
414,570900
414,571000
421,571100
413,571200
413,571300
413,571400
413,571500
413,571600
420,571700
413,571800
413,571900
413,572000
413,572100
413,572200
421,572300
414,572400
414,572500
414,572600
414,572700
414,572800
421,572900
414,573000
414,573100
414,573200
414,573300
414,573400
421,573500
414,573600
414,573700
414,573800
414,573900
414,574000
421,574100
414,574200
414,574300
414,574400
414,574500
414,574600
421,574700
414,574800
414,574900
414,575000
414,575100
414,575200
422,575300
415,575400
415,575500
415,575600
415,575700
415,575800
421,575900
414,576000
414,576100
414,576200
414,576300
414,576400
422,576500
415,576600
415,576700
415,576800
415,576900
415,577000
422,577100
415,577200
415,577300
415,577400
415,577500
415,577600
421,577700
415,577800
415,577900
415,578000
415,578100
415,578200
421,578300
414,578400
414,578500
414,578600
414,578700
414,578800
421,578900
414,579000
414,579100
414,579200
414,579300
414,579400
421,579500
414,579600
414,579700
414,579800
414,579900
414,580000
421,580100
415,580200
415,580300
415,580400
415,580500
415,580600
421,580700
415,580800
415,580900
415,581000
415,581100
415,581200
421,581300
415,581400
415,581500
415,581600
415,581700
415,581800
422,581900
415,582000
415,582100
415,582200
415,582300
415,582400
422,582500
415,582600
415,582700
415,582800
415,582900
415,583000
421,583100
415,583200
415,583300
415,583400
415,583500
415,583600
421,583700
415,583800
415,583900
415,584000
415,584100
415,584200
422,584300
415,584400
415,584500
415,584600
415,584700
415,584800
422,584900
415,585000
415,585100
415,585200
415,585300
415,585400
422,585500
415,585600
415,585700
415,585800
