3,100
3,200
3,300
4,400
4,500
4,600
4,700
4,800
4,900
4,1000
4,1100
4,1200
4,1300
4,1400
4,1500
3,1600
4,1700
4,1800
4,1900
4,2000
4,2100
21,2200
20,2300
20,2400
20,2500
20,2600
20,2700
85,2800
82,2900
82,3000
82,3100
82,3200
82,3300
85,3400
81,3500
81,3600
81,3700
81,3800
81,3900
71,4000
69,4100
69,4200
69,4300
69,4400
69,4500
61,4600
60,4700
60,4800
60,4900
60,5000
60,5100
54,5200
53,5300
53,5400
53,5500
53,5600
53,5700
48,5800
47,5900
47,6000
47,6100
47,6200
47,6300
44,6400
42,6500
42,6600
42,6700
42,6800
42,6900
39,7000
38,7100
38,7200
38,7300
38,7400
38,7500
35,7600
34,7700
34,7800
34,7900
34,8000
34,8100
32,8200
31,8300
31,8400
31,8500
31,8600
31,8700
29,8800
29,8900
29,9000
29,9100
29,9200
29,9300
27,9400
26,9500
26,9600
26,9700
26,9800
26,9900
25,10000
24,10100
24,10200
24,10300
24,10400
24,10500
23,10600
23,10700
23,10800
23,10900
23,11000
23,11100
21,11200
21,11300
21,11400
21,11500
21,11600
21,11700
20,11800
19,11900
19,12000
19,12100
19,12200
19,12300
19,12400
19,12500
19,12600
19,12700
19,12800
19,12900
18,13000
17,13100
17,13200
17,13300
17,13400
17,13500
17,13600
17,13700
17,13800
17,13900
17,14000
17,14100
16,14200
16,14300
16,14400
16,14500
16,14600
16,14700
16,14800
15,14900
15,15000
15,15100
15,15200
15,15300
15,15400
14,15500
14,15600
14,15700
14,15800
14,15900
14,16000
14,16100
14,16200
14,16300
14,16400
14,16500
13,16600
13,16700
13,16800
13,16900
13,17000
13,17100
14,17200
13,17300
13,17400
13,17500
13,17600
13,17700
13,17800
13,17900
13,18000
13,18100
13,18200
13,18300
13,18400
12,18500
12,18600
12,18700
12,18800
12,18900
12,19000
12,19100
12,19200
12,19300
12,19400
12,19500
12,19600
12,19700
12,19800
12,19900
12,20000
12,20100
11,20200
11,20300
11,20400
11,20500
11,20600
11,20700
11,20800
11,20900
11,21000
11,21100
11,21200
11,21300
11,21400
11,21500
11,21600
11,21700
11,21800
11,21900
10,22000
10,22100
10,22200
10,22300
10,22400
10,22500
10,22600
10,22700
10,22800
10,22900
10,23000
10,23100
9,23200
10,23300
10,23400
10,23500
10,23600
10,23700
11,23800
10,23900
10,24000
10,24100
10,24200
10,24300
10,24400
9,24500
9,24600
9,24700
9,24800
9,24900
10,25000
10,25100
10,25200
10,25300
10,25400
10,25500
10,25600
9,25700
9,25800
9,25900
9,26000
9,26100
10,26200
9,26300
9,26400
9,26500
9,26600
9,26700
8,26800
9,26900
9,27000
9,27100
9,27200
9,27300
9,27400
9,27500
9,27600
9,27700
9,27800
9,27900
10,28000
9,28100
9,28200
9,28300
9,28400
9,28500
8,28600
9,28700
9,28800
9,28900
9,29000
9,29100
8,29200
9,29300
9,29400
9,29500
9,29600
9,29700
9,29800
8,29900
8,30000
8,30100
8,30200
8,30300
8,30400
8,30500
8,30600
8,30700
8,30800
8,30900
8,31000
8,31100
8,31200
8,31300
8,31400
8,31500
8,31600
8,31700
8,31800
8,31900
8,32000
8,32100
9,32200
8,32300
8,32400
8,32500
8,32600
8,32700
8,32800
9,32900
9,33000
9,33100
9,33200
9,33300
8,33400
9,33500
9,33600
9,33700
9,33800
9,33900
8,34000
8,34100
8,34200
8,34300
8,34400
8,34500
8,34600
8,34700
8,34800
8,34900
8,35000
8,35100
8,35200
8,35300
8,35400
8,35500
8,35600
8,35700
8,35800
8,35900
8,36000
8,36100
8,36200
8,36300
7,36400
7,36500
7,36600
7,36700
7,36800
7,36900
7,37000
7,37100
7,37200
7,37300
7,37400
7,37500
7,37600
7,37700
7,37800
7,37900
7,38000
7,38100
7,38200
7,38300
7,38400
7,38500
7,38600
7,38700
7,38800
7,38900
7,39000
7,39100
7,39200
7,39300
8,39400
7,39500
7,39600
7,39700
7,39800
7,39900
7,40000
7,40100
7,40200
7,40300
7,40400
7,40500
8,40600
7,40700
7,40800
7,40900
7,41000
7,41100
8,41200
7,41300
7,41400
7,41500
7,41600
7,41700
7,41800
7,41900
7,42000
7,42100
7,42200
7,42300
7,42400
7,42500
7,42600
7,42700
7,42800
7,42900
7,43000
7,43100
7,43200
7,43300
7,43400
7,43500
7,43600
7,43700
7,43800
7,43900
7,44000
7,44100
7,44200
7,44300
7,44400
7,44500
7,44600
7,44700
7,44800
7,44900
7,45000
7,45100
7,45200
7,45300
7,45400
7,45500
7,45600
7,45700
7,45800
7,45900
7,46000
7,46100
7,46200
7,46300
7,46400
7,46500
6,46600
7,46700
7,46800
7,46900
7,47000
7,47100
7,47200
7,47300
7,47400
7,47500
7,47600
7,47700
6,47800
7,47900
7,48000
7,48100
7,48200
7,48300
7,48400
7,48500
7,48600
7,48700
7,48800
7,48900
7,49000
7,49100
7,49200
7,49300
7,49400
7,49500
7,49600
7,49700
7,49800
7,49900
7,50000
7,50100
7,50200
6,50300
6,50400
6,50500
6,50600
6,50700
7,50800
7,50900
7,51000
7,51100
7,51200
7,51300
6,51400
6,51500
6,51600
6,51700
6,51800
6,51900
7,52000
6,52100
6,52200
6,52300
6,52400
6,52500
7,52600
6,52700
6,52800
6,52900
6,53000
6,53100
7,53200
6,53300
6,53400
6,53500
6,53600
6,53700
7,53800
7,53900
7,54000
7,54100
7,54200
7,54300
7,54400
6,54500
6,54600
6,54700
6,54800
6,54900
7,55000
7,55100
7,55200
7,55300
7,55400
7,55500
7,55600
7,55700
7,55800
7,55900
7,56000
7,56100
7,56200
7,56300
7,56400
7,56500
7,56600
7,56700
6,56800
7,56900
7,57000
7,57100
7,57200
7,57300
6,57400
6,57500
6,57600
6,57700
6,57800
6,57900
6,58000
7,58100
7,58200
7,58300
7,58400
7,58500
5,58600
7,58700
7,58800
7,58900
7,59000
7,59100
7,59200
7,59300
7,59400
7,59500
7,59600
7,59700
6,59800
6,59900
6,60000
6,60100
6,60200
6,60300
6,60400
7,60500
7,60600
7,60700
7,60800
7,60900
6,61000
6,61100
6,61200
6,61300
6,61400
6,61500
6,61600
6,61700
6,61800
6,61900
6,62000
6,62100
6,62200
7,62300
7,62400
7,62500
7,62600
7,62700
7,62800
6,62900
6,63000
6,63100
6,63200
6,63300
6,63400
6,63500
6,63600
6,63700
6,63800
6,63900
6,64000
6,64100
6,64200
6,64300
6,64400
6,64500
7,64600
6,64700
6,64800
6,64900
6,65000
6,65100
6,65200
6,65300
6,65400
6,65500
6,65600
6,65700
6,65800
7,65900
7,66000
7,66100
7,66200
7,66300
7,66400
6,66500
6,66600
6,66700
6,66800
6,66900
6,67000
6,67100
6,67200
6,67300
6,67400
6,67500
6,67600
6,67700
6,67800
6,67900
6,68000
6,68100
6,68200
6,68300
6,68400
6,68500
6,68600
6,68700
6,68800
6,68900
6,69000
6,69100
6,69200
6,69300
5,69400
6,69500
6,69600
6,69700
6,69800
6,69900
6,70000
7,70100
7,70200
7,70300
7,70400
7,70500
6,70600
6,70700
6,70800
6,70900
6,71000
6,71100
6,71200
6,71300
6,71400
6,71500
6,71600
6,71700
7,71800
7,71900
7,72000
7,72100
7,72200
7,72300
7,72400
6,72500
6,72600
6,72700
6,72800
6,72900
6,73000
7,73100
7,73200
7,73300
7,73400
7,73500
7,73600
7,73700
7,73800
7,73900
7,74000
7,74100
7,74200
6,74300
6,74400
6,74500
6,74600
6,74700
6,74800
6,74900
6,75000
6,75100
6,75200
6,75300
6,75400
6,75500
6,75600
6,75700
6,75800
6,75900
6,76000
6,76100
6,76200
6,76300
6,76400
6,76500
6,76600
5,76700
5,76800
5,76900
5,77000
5,77100
6,77200
6,77300
6,77400
6,77500
6,77600
6,77700
5,77800
5,77900
5,78000
5,78100
5,78200
5,78300
5,78400
6,78500
6,78600
6,78700
6,78800
6,78900
5,79000
5,79100
5,79200
5,79300
5,79400
5,79500
6,79600
5,79700
5,79800
5,79900
5,80000
5,80100
5,80200
6,80300
6,80400
6,80500
6,80600
6,80700
5,80800
5,80900
5,81000
5,81100
5,81200
5,81300
6,81400
6,81500
6,81600
6,81700
6,81800
6,81900
6,82000
6,82100
6,82200
6,82300
6,82400
6,82500
6,82600
6,82700
6,82800
6,82900
6,83000
6,83100
6,83200
6,83300
6,83400
6,83500
6,83600
6,83700
6,83800
6,83900
6,84000
6,84100
6,84200
6,84300
6,84400
6,84500
6,84600
6,84700
6,84800
6,84900
6,85000
5,85100
5,85200
5,85300
5,85400
5,85500
5,85600
5,85700
5,85800
5,85900
5,86000
5,86100
5,86200
5,86300
5,86400
5,86500
5,86600
5,86700
6,86800
6,86900
6,87000
6,87100
6,87200
6,87300
5,87400
5,87500
5,87600
5,87700
5,87800
5,87900
6,88000
6,88100
6,88200
6,88300
6,88400
6,88500
6,88600
5,88700
5,88800
5,88900
5,89000
5,89100
5,89200
6,89300
6,89400
6,89500
6,89600
6,89700
6,89800
5,89900
5,90000
5,90100
5,90200
5,90300
6,90400
6,90500
6,90600
6,90700
6,90800
6,90900
5,91000
5,91100
5,91200
5,91300
5,91400
5,91500
5,91600
5,91700
5,91800
5,91900
5,92000
5,92100
5,92200
5,92300
5,92400
5,92500
5,92600
5,92700
5,92800
5,92900
5,93000
5,93100
5,93200
5,93300
5,93400
6,93500
6,93600
6,93700
6,93800
6,93900
5,94000
5,94100
5,94200
5,94300
5,94400
5,94500
5,94600
5,94700
5,94800
5,94900
5,95000
5,95100
5,95200
5,95300
5,95400
5,95500
5,95600
5,95700
5,95800
5,95900
5,96000
5,96100
5,96200
5,96300
5,96400
5,96500
5,96600
5,96700
5,96800
5,96900
5,97000
6,97100
6,97200
6,97300
6,97400
6,97500
5,97600
5,97700
5,97800
5,97900
5,98000
5,98100
6,98200
6,98300
6,98400
6,98500
6,98600
6,98700
6,98800
6,98900
6,99000
6,99100
6,99200
6,99300
6,99400
6,99500
6,99600
6,99700
6,99800
6,99900
5,100000
6,100100
6,100200
6,100300
6,100400
6,100500
6,100600
6,100700
6,100800
6,100900
6,101000
6,101100
6,101200
6,101300
6,101400
6,101500
6,101600
6,101700
6,101800
5,101900
5,102000
5,102100
5,102200
5,102300
5,102400
5,102500
5,102600
5,102700
5,102800
5,102900
5,103000
5,103100
5,103200
5,103300
5,103400
5,103500
5,103600
6,103700
6,103800
6,103900
6,104000
6,104100
6,104200
5,104300
5,104400
5,104500
5,104600
5,104700
5,104800
6,104900
6,105000
6,105100
6,105200
6,105300
6,105400
5,105500
5,105600
5,105700
5,105800
5,105900
5,106000
5,106100
5,106200
5,106300
5,106400
5,106500
5,106600
6,106700
6,106800
6,106900
6,107000
6,107100
5,107200
6,107300
6,107400
6,107500
6,107600
6,107700
6,107800
5,107900
5,108000
5,108100
5,108200
5,108300
6,108400
5,108500
5,108600
5,108700
5,108800
5,108900
5,109000
6,109100
6,109200
6,109300
6,109400
6,109500
5,109600
6,109700
6,109800
6,109900
6,110000
6,110100
6,110200
5,110300
5,110400
5,110500
5,110600
5,110700
5,110800
5,110900
5,111000
5,111100
5,111200
5,111300
5,111400
5,111500
5,111600
5,111700
5,111800
5,111900
5,112000
5,112100
5,112200
5,112300
5,112400
5,112500
5,112600
5,112700
5,112800
5,112900
5,113000
5,113100
5,113200
6,113300
6,113400
6,113500
6,113600
6,113700
6,113800
6,113900
6,114000
6,114100
6,114200
6,114300
6,114400
6,114500
6,114600
6,114700
6,114800
6,114900
6,115000
5,115100
5,115200
5,115300
5,115400
5,115500
6,115600
6,115700
6,115800
6,115900
6,116000
6,116100
6,116200
5,116300
5,116400
5,116500
5,116600
5,116700
5,116800
5,116900
5,117000
5,117100
5,117200
5,117300
5,117400
5,117500
5,117600
5,117700
5,117800
5,117900
5,118000
6,118100
6,118200
6,118300
6,118400
6,118500
6,118600
6,118700
6,118800
6,118900
6,119000
6,119100
5,119200
6,119300
6,119400
6,119500
6,119600
6,119700
6,119800
5,119900
5,120000
5,120100
5,120200
5,120300
5,120400
5,120500
5,120600
5,120700
5,120800
5,120900
5,121000
5,121100
5,121200
5,121300
5,121400
5,121500
5,121600
6,121700
6,121800
6,121900
6,122000
6,122100
6,122200
5,122300
5,122400
5,122500
5,122600
5,122700
5,122800
5,122900
5,123000
5,123100
5,123200
5,123300
5,123400
5,123500
5,123600
5,123700
5,123800
5,123900
5,124000
6,124100
6,124200
6,124300
6,124400
6,124500
6,124600
5,124700
5,124800
5,124900
5,125000
5,125100
5,125200
5,125300
5,125400
5,125500
5,125600
5,125700
5,125800
5,125900
5,126000
5,126100
5,126200
5,126300
5,126400
5,126500
5,126600
5,126700
5,126800
5,126900
5,127000
6,127100
6,127200
6,127300
6,127400
6,127500
6,127600
5,127700
5,127800
5,127900
5,128000
5,128100
5,128200
5,128300
5,128400
5,128500
5,128600
5,128700
5,128800
5,128900
5,129000
5,129100
5,129200
5,129300
5,129400
5,129500
5,129600
5,129700
5,129800
5,129900
5,130000
5,130100
5,130200
5,130300
5,130400
5,130500
5,130600
5,130700
5,130800
5,130900
5,131000
5,131100
5,131200
6,131300
6,131400
6,131500
6,131600
6,131700
6,131800
5,131900
5,132000
5,132100
5,132200
5,132300
5,132400
5,132500
5,132600
5,132700
5,132800
5,132900
5,133000
5,133100
5,133200
5,133300
5,133400
5,133500
5,133600
5,133700
5,133800
5,133900
5,134000
5,134100
5,134200
5,134300
5,134400
5,134500
5,134600
5,134700
5,134800
4,134900
4,135000
4,135100
4,135200
4,135300
4,135400
5,135500
5,135600
5,135700
5,135800
5,135900
5,136000
5,136100
5,136200
5,136300
5,136400
5,136500
5,136600
5,136700
5,136800
5,136900
5,137000
5,137100
5,137200
5,137300
5,137400
5,137500
5,137600
5,137700
5,137800
5,137900
5,138000
5,138100
5,138200
5,138300
5,138400
6,138500
6,138600
6,138700
6,138800
6,138900
6,139000
5,139100
5,139200
5,139300
5,139400
5,139500
5,139600
5,139700
5,139800
5,139900
5,140000
5,140100
5,140200
5,140300
5,140400
5,140500
5,140600
5,140700
5,140800
5,140900
5,141000
5,141100
5,141200
5,141300
5,141400
5,141500
5,141600
5,141700
5,141800
5,141900
5,142000
6,142100
6,142200
6,142300
6,142400
6,142500
6,142600
6,142700
6,142800
6,142900
6,143000
6,143100
6,143200
6,143300
6,143400
6,143500
6,143600
6,143700
6,143800
6,143900
6,144000
6,144100
6,144200
6,144300
6,144400
6,144500
6,144600
6,144700
6,144800
6,144900
6,145000
4,145100
4,145200
4,145300
4,145400
4,145500
4,145600
5,145700
5,145800
5,145900
5,146000
5,146100
5,146200
5,146300
5,146400
5,146500
5,146600
5,146700
5,146800
5,146900
5,147000
5,147100
5,147200
5,147300
5,147400
5,147500
5,147600
5,147700
5,147800
5,147900
5,148000
5,148100
5,148200
5,148300
5,148400
5,148500
5,148600
5,148700
5,148800
5,148900
5,149000
5,149100
5,149200
6,149300
6,149400
6,149500
6,149600
6,149700
6,149800
5,149900
5,150000
5,150100
5,150200
5,150300
5,150400
6,150500
6,150600
6,150700
6,150800
6,150900
6,151000
5,151100
5,151200
5,151300
5,151400
5,151500
5,151600
5,151700
5,151800
5,151900
5,152000
5,152100
5,152200
5,152300
5,152400
5,152500
5,152600
5,152700
5,152800
5,152900
6,153000
6,153100
6,153200
6,153300
6,153400
5,153500
5,153600
5,153700
5,153800
5,153900
5,154000
6,154100
5,154200
5,154300
5,154400
5,154500
5,154600
5,154700
5,154800
5,154900
5,155000
5,155100
5,155200
6,155300
6,155400
6,155500
6,155600
6,155700
6,155800
5,155900
5,156000
5,156100
5,156200
5,156300
5,156400
6,156500
6,156600
6,156700
6,156800
6,156900
6,157000
6,157100
6,157200
6,157300
6,157400
6,157500
6,157600
6,157700
6,157800
6,157900
6,158000
6,158100
6,158200
6,158300
5,158400
5,158500
5,158600
5,158700
5,158800
6,158900
5,159000
5,159100
5,159200
5,159300
5,159400
5,159500
5,159600
5,159700
5,159800
5,159900
5,160000
6,160100
5,160200
5,160300
5,160400
5,160500
5,160600
6,160700
5,160800
5,160900
5,161000
5,161100
5,161200
6,161300
5,161400
5,161500
5,161600
5,161700
5,161800
5,161900
6,162000
6,162100
6,162200
6,162300
6,162400
5,162500
5,162600
5,162700
5,162800
5,162900
5,163000
5,163100
5,163200
5,163300
5,163400
5,163500
5,163600
5,163700
6,163800
6,163900
6,164000
6,164100
6,164200
5,164300
5,164400
5,164500
5,164600
5,164700
5,164800
5,164900
5,165000
5,165100
5,165200
5,165300
5,165400
5,165500
5,165600
5,165700
5,165800
5,165900
5,166000
5,166100
5,166200
5,166300
5,166400
5,166500
5,166600
6,166700
5,166800
5,166900
5,167000
5,167100
5,167200
5,167300
5,167400
5,167500
5,167600
5,167700
5,167800
5,167900
5,168000
5,168100
5,168200
5,168300
5,168400
5,168500
6,168600
6,168700
6,168800
6,168900
6,169000
5,169100
5,169200
5,169300
5,169400
5,169500
5,169600
5,169700
5,169800
5,169900
5,170000
5,170100
5,170200
6,170300
5,170400
5,170500
5,170600
5,170700
5,170800
6,170900
5,171000
5,171100
5,171200
5,171300
5,171400
6,171500
6,171600
6,171700
6,171800
6,171900
6,172000
5,172100
6,172200
6,172300
6,172400
6,172500
6,172600
5,172700
6,172800
6,172900
6,173000
6,173100
6,173200
6,173300
5,173400
5,173500
5,173600
5,173700
5,173800
5,173900
5,174000
5,174100
5,174200
5,174300
5,174400
5,174500
5,174600
5,174700
5,174800
5,174900
5,175000
5,175100
6,175200
6,175300
6,175400
6,175500
6,175600
6,175700
5,175800
5,175900
5,176000
5,176100
5,176200
5,176300
6,176400
6,176500
6,176600
6,176700
6,176800
5,176900
4,177000
4,177100
4,177200
4,177300
4,177400
5,177500
5,177600
5,177700
5,177800
5,177900
5,178000
5,178100
5,178200
5,178300
5,178400
5,178500
5,178600
5,178700
5,178800
5,178900
5,179000
5,179100
5,179200
5,179300
5,179400
5,179500
5,179600
5,179700
5,179800
5,179900
5,180000
5,180100
5,180200
5,180300
5,180400
5,180500
5,180600
5,180700
5,180800
5,180900
5,181000
5,181100
5,181200
5,181300
5,181400
5,181500
5,181600
5,181700
5,181800
5,181900
5,182000
5,182100
5,182200
5,182300
5,182400
5,182500
5,182600
5,182700
5,182800
5,182900
5,183000
5,183100
5,183200
5,183300
5,183400
5,183500
5,183600
5,183700
5,183800
5,183900
5,184000
5,184100
5,184200
5,184300
5,184400
5,184500
5,184600
5,184700
5,184800
5,184900
5,185000
5,185100
5,185200
5,185300
5,185400
5,185500
5,185600
5,185700
5,185800
5,185900
5,186000
5,186100
5,186200
5,186300
5,186400
5,186500
5,186600
5,186700
5,186800
5,186900
5,187000
5,187100
5,187200
5,187300
5,187400
5,187500
5,187600
5,187700
6,187800
6,187900
6,188000
6,188100
6,188200
5,188300
5,188400
5,188500
5,188600
5,188700
5,188800
5,188900
5,189000
5,189100
5,189200
5,189300
5,189400
5,189500
5,189600
5,189700
5,189800
5,189900
5,190000
5,190100
5,190200
5,190300
5,190400
5,190500
5,190600
5,190700
5,190800
5,190900
5,191000
5,191100
5,191200
5,191300
5,191400
5,191500
5,191600
5,191700
5,191800
6,191900
4,192000
4,192100
4,192200
4,192300
4,192400
5,192500
5,192600
5,192700
5,192800
5,192900
5,193000
5,193100
5,193200
5,193300
5,193400
5,193500
5,193600
5,193700
5,193800
5,193900
5,194000
5,194100
5,194200
5,194300
5,194400
5,194500
5,194600
5,194700
5,194800
5,194900
5,195000
5,195100
5,195200
5,195300
5,195400
5,195500
6,195600
6,195700
6,195800
6,195900
6,196000
4,196100
4,196200
4,196300
4,196400
4,196500
4,196600
5,196700
5,196800
5,196900
5,197000
5,197100
5,197200
5,197300
5,197400
5,197500
5,197600
5,197700
5,197800
4,197900
4,198000
4,198100
4,198200
4,198300
4,198400
5,198500
5,198600
5,198700
5,198800
5,198900
5,199000
5,199100
5,199200
5,199300
5,199400
5,199500
5,199600
5,199700
5,199800
5,199900
5,200000
5,200100
5,200200
5,200300
5,200400
5,200500
5,200600
5,200700
5,200800
5,200900
5,201000
5,201100
5,201200
5,201300
5,201400
5,201500
5,201600
5,201700
5,201800
5,201900
5,202000
6,202100
5,202200
5,202300
5,202400
5,202500
5,202600
5,202700
5,202800
5,202900
5,203000
5,203100
5,203200
5,203300
5,203400
5,203500
5,203600
5,203700
5,203800
5,203900
5,204000
5,204100
5,204200
5,204300
5,204400
5,204500
5,204600
5,204700
5,204800
5,204900
5,205000
6,205100
4,205200
4,205300
4,205400
4,205500
4,205600
4,205700
5,205800
5,205900
5,206000
5,206100
5,206200
5,206300
5,206400
5,206500
5,206600
5,206700
5,206800
5,206900
5,207000
5,207100
5,207200
5,207300
5,207400
5,207500
6,207600
6,207700
6,207800
6,207900
6,208000
5,208100
5,208200
5,208300
5,208400
5,208500
5,208600
5,208700
4,208800
4,208900
4,209000
4,209100
4,209200
5,209300
6,209400
6,209500
6,209600
6,209700
6,209800
6,209900
5,210000
5,210100
5,210200
5,210300
5,210400
5,210500
5,210600
5,210700
5,210800
5,210900
5,211000
5,211100
5,211200
5,211300
5,211400
5,211500
5,211600
5,211700
5,211800
5,211900
5,212000
5,212100
5,212200
5,212300
5,212400
5,212500
5,212600
5,212700
5,212800
6,212900
5,213000
5,213100
5,213200
5,213300
5,213400
5,213500
5,213600
5,213700
5,213800
5,213900
5,214000
5,214100
5,214200
5,214300
5,214400
5,214500
5,214600
5,214700
5,214800
5,214900
5,215000
5,215100
5,215200
4,215300
5,215400
5,215500
5,215600
5,215700
5,215800
4,215900
5,216000
5,216100
5,216200
5,216300
5,216400
6,216500
5,216600
5,216700
5,216800
5,216900
5,217000
5,217100
5,217200
5,217300
5,217400
5,217500
5,217600
5,217700
5,217800
5,217900
5,218000
5,218100
5,218200
5,218300
5,218400
5,218500
5,218600
5,218700
5,218800
5,218900
5,219000
5,219100
5,219200
5,219300
5,219400
5,219500
5,219600
5,219700
5,219800
5,219900
5,220000
5,220100
5,220200
5,220300
5,220400
5,220500
5,220600
5,220700
5,220800
5,220900
5,221000
5,221100
5,221200
6,221300
5,221400
5,221500
5,221600
5,221700
5,221800
5,221900
5,222000
5,222100
5,222200
5,222300
5,222400
5,222500
5,222600
5,222700
5,222800
5,222900
5,223000
5,223100
5,223200
5,223300
5,223400
5,223500
5,223600
5,223700
5,223800
5,223900
5,224000
5,224100
5,224200
5,224300
5,224400
5,224500
5,224600
5,224700
5,224800
5,224900
4,225000
4,225100
4,225200
4,225300
4,225400
5,225500
5,225600
5,225700
5,225800
5,225900
5,226000
5,226100
5,226200
5,226300
5,226400
5,226500
5,226600
5,226700
5,226800
5,226900
5,227000
5,227100
5,227200
5,227300
4,227400
4,227500
4,227600
4,227700
4,227800
5,227900
5,228000
5,228100
5,228200
5,228300
5,228400
5,228500
5,228600
5,228700
5,228800
5,228900
5,229000
5,229100
5,229200
5,229300
5,229400
5,229500
5,229600
5,229700
5,229800
5,229900
5,230000
5,230100
5,230200
5,230300
5,230400
5,230500
5,230600
5,230700
5,230800
5,230900
5,231000
5,231100
5,231200
5,231300
5,231400
5,231500
5,231600
5,231700
5,231800
5,231900
5,232000
5,232100
5,232200
5,232300
5,232400
5,232500
5,232600
5,232700
5,232800
5,232900
5,233000
5,233100
5,233200
5,233300
5,233400
5,233500
5,233600
5,233700
5,233800
5,233900
6,234000
6,234100
6,234200
6,234300
6,234400
5,234500
5,234600
5,234700
5,234800
5,234900
5,235000
6,235100
5,235200
5,235300
5,235400
5,235500
5,235600
5,235700
5,235800
5,235900
5,236000
5,236100
5,236200
6,236300
5,236400
5,236500
5,236600
5,236700
5,236800
5,236900
5,237000
5,237100
5,237200
5,237300
5,237400
5,237500
5,237600
5,237700
5,237800
5,237900
5,238000
5,238100
4,238200
4,238300
4,238400
4,238500
4,238600
5,238700
5,238800
5,238900
5,239000
5,239100
5,239200
5,239300
5,239400
5,239500
5,239600
5,239700
5,239800
5,239900
5,240000
5,240100
5,240200
5,240300
5,240400
5,240500
5,240600
5,240700
5,240800
5,240900
5,241000
5,241100
5,241200
5,241300
5,241400
5,241500
5,241600
5,241700
5,241800
5,241900
5,242000
5,242100
5,242200
6,242300
6,242400
6,242500
6,242600
6,242700
6,242800
6,242900
5,243000
5,243100
5,243200
5,243300
5,243400
6,243500
5,243600
5,243700
5,243800
5,243900
5,244000
6,244100
5,244200
5,244300
5,244400
5,244500
5,244600
6,244700
5,244800
5,244900
5,245000
5,245100
5,245200
5,245300
5,245400
5,245500
5,245600
5,245700
5,245800
5,245900
5,246000
5,246100
5,246200
5,246300
5,246400
5,246500
5,246600
5,246700
5,246800
5,246900
5,247000
5,247100
6,247200
6,247300
6,247400
6,247500
6,247600
6,247700
5,247800
5,247900
5,248000
5,248100
5,248200
6,248300
5,248400
5,248500
5,248600
5,248700
5,248800
6,248900
6,249000
6,249100
6,249200
6,249300
6,249400
6,249500
5,249600
5,249700
5,249800
5,249900
5,250000
6,250100
6,250200
6,250300
6,250400
6,250500
6,250600
6,250700
7,250800
7,250900
7,251000
7,251100
7,251200
6,251300
6,251400
6,251500
6,251600
6,251700
6,251800
6,251900
6,252000
6,252100
6,252200
6,252300
6,252400
6,252500
6,252600
6,252700
6,252800
6,252900
6,253000
6,253100
7,253200
7,253300
7,253400
7,253500
7,253600
6,253700
6,253800
6,253900
6,254000
6,254100
6,254200
6,254300
6,254400
6,254500
6,254600
6,254700
6,254800
6,254900
6,255000
6,255100
6,255200
6,255300
6,255400
6,255500
6,255600
6,255700
6,255800
6,255900
6,256000
6,256100
6,256200
6,256300
6,256400
6,256500
6,256600
7,256700
7,256800
7,256900
7,257000
7,257100
7,257200
6,257300
6,257400
6,257500
6,257600
6,257700
6,257800
6,257900
6,258000
6,258100
6,258200
6,258300
6,258400
7,258500
6,258600
6,258700
6,258800
6,258900
6,259000
7,259100
7,259200
7,259300
7,259400
7,259500
7,259600
7,259700
7,259800
7,259900
7,260000
7,260100
7,260200
7,260300
5,260400
5,260500
5,260600
5,260700
5,260800
7,260900
7,261000
7,261100
7,261200
7,261300
7,261400
7,261500
7,261600
7,261700
7,261800
7,261900
7,262000
8,262100
7,262200
7,262300
7,262400
7,262500
7,262600
8,262700
8,262800
8,262900
8,263000
8,263100
8,263200
8,263300
8,263400
8,263500
8,263600
8,263700
8,263800
8,263900
8,264000
8,264100
8,264200
8,264300
8,264400
8,264500
7,264600
7,264700
7,264800
7,264900
7,265000
9,265100
8,265200
8,265300
8,265400
8,265500
8,265600
9,265700
8,265800
8,265900
8,266000
8,266100
8,266200
8,266300
8,266400
8,266500
8,266600
8,266700
8,266800
9,266900
9,267000
9,267100
9,267200
9,267300
9,267400
9,267500
9,267600
9,267700
9,267800
9,267900
9,268000
9,268100
10,268200
10,268300
10,268400
10,268500
10,268600
10,268700
10,268800
10,268900
10,269000
10,269100
10,269200
10,269300
11,269400
11,269500
11,269600
11,269700
11,269800
11,269900
10,270000
10,270100
10,270200
10,270300
10,270400
11,270500
11,270600
11,270700
11,270800
11,270900
11,271000
11,271100
11,271200
11,271300
11,271400
11,271500
11,271600
12,271700
12,271800
12,271900
12,272000
12,272100
12,272200
13,272300
12,272400
12,272500
12,272600
12,272700
12,272800
13,272900
14,273000
14,273100
14,273200
14,273300
14,273400
13,273500
13,273600
13,273700
13,273800
13,273900
13,274000
14,274100
14,274200
14,274300
14,274400
14,274500
14,274600
15,274700
15,274800
15,274900
15,275000
15,275100
15,275200
16,275300
15,275400
15,275500
15,275600
15,275700
15,275800
15,275900
15,276000
15,276100
15,276200
15,276300
15,276400
16,276500
17,276600
17,276700
17,276800
17,276900
17,277000
17,277100
17,277200
17,277300
17,277400
17,277500
17,277600
18,277700
18,277800
18,277900
18,278000
18,278100
18,278200
19,278300
19,278400
19,278500
19,278600
19,278700
19,278800
20,278900
20,279000
20,279100
20,279200
20,279300
20,279400
20,279500
20,279600
20,279700
20,279800
20,279900
20,280000
22,280100
21,280200
21,280300
21,280400
21,280500
21,280600
22,280700
23,280800
23,280900
23,281000
23,281100
23,281200
24,281300
24,281400
24,281500
24,281600
24,281700
24,281800
26,281900
25,282000
25,282100
25,282200
25,282300
25,282400
26,282500
26,282600
26,282700
26,282800
26,282900
26,283000
28,283100
27,283200
27,283300
27,283400
27,283500
27,283600
29,283700
28,283800
28,283900
28,284000
28,284100
28,284200
31,284300
31,284400
31,284500
31,284600
31,284700
31,284800
33,284900
32,285000
32,285100
32,285200
32,285300
32,285400
34,285500
33,285600
33,285700
33,285800
33,285900
33,286000
36,286100
35,286200
35,286300
35,286400
35,286500
35,286600
38,286700
36,286800
36,286900
36,287000
36,287100
36,287200
39,287300
39,287400
39,287500
39,287600
39,287700
39,287800
42,287900
40,288000
40,288100
40,288200
40,288300
40,288400
45,288500
44,288600
44,288700
44,288800
44,288900
44,289000
46,289100
45,289200
45,289300
45,289400
45,289500
45,289600
49,289700
48,289800
48,289900
48,290000
48,290100
48,290200
50,290300
49,290400
49,290500
49,290600
49,290700
49,290800
53,290900
51,291000
51,291100
51,291200
51,291300
51,291400
55,291500
54,291600
54,291700
54,291800
54,291900
54,292000
58,292100
57,292200
57,292300
57,292400
57,292500
57,292600
61,292700
59,292800
59,292900
59,293000
59,293100
59,293200
64,293300
62,293400
62,293500
62,293600
62,293700
62,293800
66,293900
66,294000
66,294100
66,294200
66,294300
66,294400
70,294500
68,294600
68,294700
68,294800
68,294900
68,295000
73,295100
71,295200
71,295300
71,295400
71,295500
71,295600
76,295700
75,295800
75,295900
75,296000
75,296100
75,296200
80,296300
79,296400
79,296500
79,296600
79,296700
79,296800
82,296900
82,297000
82,297100
82,297200
82,297300
82,297400
87,297500
86,297600
86,297700
86,297800
86,297900
86,298000
90,298100
89,298200
89,298300
89,298400
89,298500
89,298600
94,298700
93,298800
93,298900
93,299000
93,299100
93,299200
99,299300
97,299400
97,299500
97,299600
97,299700
97,299800
103,299900
102,300000
102,300100
102,300200
102,300300
102,300400
107,300500
106,300600
106,300700
106,300800
106,300900
106,301000
113,301100
112,301200
112,301300
112,301400
112,301500
112,301600
116,301700
115,301800
115,301900
115,302000
115,302100
115,302200
121,302300
121,302400
121,302500
121,302600
121,302700
121,302800
126,302900
125,303000
125,303100
125,303200
125,303300
125,303400
130,303500
129,303600
129,303700
129,303800
129,303900
129,304000
136,304100
135,304200
135,304300
135,304400
135,304500
135,304600
140,304700
139,304800
139,304900
139,305000
139,305100
139,305200
146,305300
145,305400
145,305500
145,305600
145,305700
145,305800
151,305900
151,306000
151,306100
151,306200
151,306300
151,306400
156,306500
156,306600
156,306700
156,306800
156,306900
156,307000
162,307100
161,307200
161,307300
161,307400
161,307500
161,307600
168,307700
167,307800
167,307900
167,308000
167,308100
167,308200
173,308300
172,308400
172,308500
172,308600
172,308700
172,308800
179,308900
178,309000
178,309100
178,309200
178,309300
178,309400
185,309500
184,309600
184,309700
184,309800
184,309900
184,310000
191,310100
190,310200
190,310300
190,310400
190,310500
190,310600
197,310700
196,310800
196,310900
196,311000
196,311100
196,311200
203,311300
201,311400
201,311500
201,311600
201,311700
201,311800
209,311900
208,312000
208,312100
208,312200
208,312300
208,312400
214,312500
213,312600
213,312700
213,312800
213,312900
213,313000
220,313100
220,313200
220,313300
220,313400
220,313500
220,313600
226,313700
226,313800
226,313900
226,314000
226,314100
226,314200
232,314300
232,314400
232,314500
232,314600
232,314700
232,314800
238,314900
238,315000
238,315100
238,315200
238,315300
238,315400
246,315500
244,315600
244,315700
244,315800
244,315900
244,316000
250,316100
250,316200
250,316300
250,316400
250,316500
250,316600
258,316700
258,316800
258,316900
258,317000
258,317100
258,317200
263,317300
263,317400
263,317500
263,317600
263,317700
263,317800
269,317900
268,318000
268,318100
268,318200
268,318300
268,318400
275,318500
275,318600
275,318700
275,318800
275,318900
275,319000
281,319100
281,319200
281,319300
281,319400
281,319500
281,319600
288,319700
287,319800
287,319900
287,320000
287,320100
287,320200
294,320300
294,320400
294,320500
294,320600
294,320700
294,320800
300,320900
299,321000
299,321100
299,321200
299,321300
299,321400
305,321500
306,321600
306,321700
306,321800
306,321900
306,322000
311,322100
311,322200
311,322300
311,322400
311,322500
311,322600
317,322700
318,322800
318,322900
318,323000
318,323100
318,323200
323,323300
324,323400
324,323500
324,323600
324,323700
324,323800
328,323900
329,324000
329,324100
329,324200
329,324300
329,324400
334,324500
336,324600
336,324700
336,324800
336,324900
336,325000
339,325100
341,325200
341,325300
341,325400
341,325500
341,325600
344,325700
347,325800
347,325900
347,326000
347,326100
347,326200
350,326300
352,326400
352,326500
352,326600
352,326700
352,326800
355,326900
358,327000
358,327100
358,327200
358,327300
358,327400
359,327500
363,327600
363,327700
363,327800
363,327900
363,328000
365,328100
368,328200
368,328300
368,328400
368,328500
368,328600
369,328700
373,328800
373,328900
373,329000
373,329100
373,329200
374,329300
379,329400
379,329500
379,329600
379,329700
379,329800
378,329900
384,330000
384,330100
384,330200
384,330300
384,330400
382,330500
388,330600
388,330700
388,330800
388,330900
388,331000
387,331100
393,331200
393,331300
393,331400
393,331500
393,331600
390,331700
399,331800
399,331900
399,332000
399,332100
399,332200
393,332300
403,332400
403,332500
403,332600
403,332700
403,332800
398,332900
407,333000
407,333100
407,333200
407,333300
407,333400
400,333500
411,333600
411,333700
411,333800
411,333900
411,334000
404,334100
416,334200
416,334300
416,334400
416,334500
416,334600
407,334700
421,334800
421,334900
421,335000
421,335100
421,335200
411,335300
425,335400
425,335500
425,335600
425,335700
425,335800
412,335900
428,336000
428,336100
428,336200
428,336300
428,336400
416,336500
433,336600
433,336700
433,336800
433,336900
433,337000
418,337100
436,337200
436,337300
436,337400
436,337500
436,337600
422,337700
440,337800
440,337900
440,338000
440,338100
440,338200
424,338300
443,338400
443,338500
443,338600
443,338700
443,338800
427,338900
446,339000
446,339100
446,339200
446,339300
446,339400
430,339500
450,339600
450,339700
450,339800
450,339900
450,340000
432,340100
453,340200
453,340300
453,340400
453,340500
453,340600
435,340700
455,340800
455,340900
455,341000
455,341100
455,341200
436,341300
458,341400
458,341500
458,341600
458,341700
458,341800
439,341900
461,342000
461,342100
461,342200
461,342300
461,342400
441,342500
464,342600
464,342700
464,342800
464,342900
464,343000
443,343100
467,343200
467,343300
467,343400
467,343500
467,343600
445,343700
469,343800
469,343900
469,344000
469,344100
469,344200
447,344300
471,344400
471,344500
471,344600
471,344700
471,344800
449,344900
473,345000
473,345100
473,345200
473,345300
473,345400
452,345500
476,345600
476,345700
476,345800
476,345900
476,346000
451,346100
476,346200
476,346300
476,346400
476,346500
476,346600
454,346700
480,346800
480,346900
480,347000
480,347100
480,347200
456,347300
482,347400
482,347500
482,347600
482,347700
482,347800
457,347900
483,348000
483,348100
483,348200
483,348300
483,348400
458,348500
485,348600
485,348700
485,348800
485,348900
485,349000
460,349100
486,349200
486,349300
486,349400
486,349500
486,349600
463,349700
489,349800
489,349900
489,350000
489,350100
489,350200
463,350300
489,350400
489,350500
489,350600
489,350700
489,350800
464,350900
491,351000
491,351100
491,351200
491,351300
491,351400
467,351500
494,351600
494,351700
494,351800
494,351900
494,352000
469,352100
494,352200
494,352300
494,352400
494,352500
494,352600
468,352700
494,352800
494,352900
494,353000
494,353100
494,353200
470,353300
496,353400
496,353500
496,353600
496,353700
496,353800
472,353900
498,354000
498,354100
498,354200
498,354300
498,354400
472,354500
499,354600
499,354700
499,354800
499,354900
499,355000
474,355100
500,355200
500,355300
500,355400
500,355500
500,355600
475,355700
501,355800
501,355900
501,356000
501,356100
501,356200
475,356300
502,356400
502,356500
502,356600
502,356700
502,356800
476,356900
503,357000
503,357100
503,357200
503,357300
503,357400
476,357500
504,357600
504,357700
504,357800
504,357900
504,358000
478,358100
505,358200
505,358300
505,358400
505,358500
505,358600
478,358700
504,358800
504,358900
504,359000
504,359100
504,359200
480,359300
506,359400
506,359500
506,359600
506,359700
506,359800
481,359900
507,360000
507,360100
507,360200
507,360300
507,360400
481,360500
507,360600
507,360700
507,360800
507,360900
507,361000
483,361100
509,361200
509,361300
509,361400
509,361500
509,361600
483,361700
510,361800
510,361900
510,362000
510,362100
510,362200
484,362300
510,362400
510,362500
510,362600
510,362700
510,362800
484,362900
511,363000
511,363100
511,363200
511,363300
511,363400
486,363500
511,363600
511,363700
511,363800
511,363900
511,364000
485,364100
512,364200
512,364300
512,364400
512,364500
512,364600
487,364700
513,364800
513,364900
513,365000
513,365100
513,365200
486,365300
513,365400
513,365500
513,365600
513,365700
513,365800
488,365900
514,366000
514,366100
514,366200
514,366300
514,366400
488,366500
515,366600
515,366700
515,366800
515,366900
515,367000
490,367100
516,367200
516,367300
516,367400
516,367500
516,367600
490,367700
516,367800
516,367900
516,368000
516,368100
516,368200
491,368300
516,368400
516,368500
516,368600
516,368700
516,368800
490,368900
516,369000
516,369100
516,369200
516,369300
516,369400
492,369500
518,369600
518,369700
518,369800
518,369900
518,370000
492,370100
519,370200
519,370300
519,370400
519,370500
519,370600
492,370700
519,370800
519,370900
519,371000
519,371100
519,371200
494,371300
520,371400
520,371500
520,371600
520,371700
520,371800
494,371900
520,372000
520,372100
520,372200
520,372300
520,372400
494,372500
521,372600
521,372700
521,372800
521,372900
521,373000
495,373100
522,373200
522,373300
522,373400
522,373500
522,373600
496,373700
523,373800
523,373900
523,374000
523,374100
523,374200
496,374300
523,374400
523,374500
523,374600
523,374700
523,374800
497,374900
524,375000
524,375100
524,375200
524,375300
524,375400
498,375500
524,375600
524,375700
524,375800
524,375900
524,376000
499,376100
524,376200
524,376300
524,376400
524,376500
524,376600
498,376700
525,376800
525,376900
525,377000
525,377100
525,377200
499,377300
526,377400
526,377500
526,377600
526,377700
526,377800
499,377900
526,378000
526,378100
526,378200
526,378300
526,378400
500,378500
526,378600
526,378700
526,378800
526,378900
526,379000
500,379100
526,379200
526,379300
526,379400
526,379500
526,379600
500,379700
527,379800
527,379900
527,380000
527,380100
527,380200
501,380300
527,380400
527,380500
527,380600
527,380700
527,380800
500,380900
527,381000
527,381100
527,381200
527,381300
527,381400
502,381500
528,381600
528,381700
528,381800
528,381900
528,382000
501,382100
528,382200
528,382300
528,382400
528,382500
528,382600
502,382700
528,382800
528,382900
528,383000
528,383100
528,383200
502,383300
529,383400
529,383500
529,383600
529,383700
529,383800
503,383900
529,384000
529,384100
529,384200
529,384300
529,384400
503,384500
530,384600
530,384700
530,384800
530,384900
530,385000
502,385100
529,385200
529,385300
529,385400
529,385500
529,385600
502,385700
529,385800
529,385900
529,386000
529,386100
529,386200
504,386300
530,386400
530,386500
530,386600
530,386700
530,386800
503,386900
530,387000
530,387100
530,387200
530,387300
530,387400
504,387500
530,387600
530,387700
530,387800
530,387900
530,388000
504,388100
531,388200
531,388300
531,388400
531,388500
531,388600
503,388700
530,388800
530,388900
530,389000
530,389100
530,389200
504,389300
531,389400
531,389500
531,389600
531,389700
531,389800
504,389900
531,390000
531,390100
531,390200
531,390300
531,390400
505,390500
532,390600
532,390700
532,390800
532,390900
532,391000
505,391100
531,391200
531,391300
531,391400
531,391500
531,391600
505,391700
532,391800
532,391900
532,392000
532,392100
532,392200
506,392300
532,392400
532,392500
532,392600
532,392700
532,392800
506,392900
532,393000
532,393100
532,393200
532,393300
532,393400
505,393500
532,393600
532,393700
532,393800
532,393900
532,394000
505,394100
532,394200
532,394300
532,394400
532,394500
532,394600
505,394700
532,394800
532,394900
532,395000
532,395100
532,395200
506,395300
533,395400
533,395500
533,395600
533,395700
533,395800
506,395900
534,396000
534,396100
534,396200
534,396300
534,396400
506,396500
532,396600
532,396700
532,396800
532,396900
532,397000
507,397100
533,397200
533,397300
533,397400
533,397500
533,397600
506,397700
533,397800
533,397900
533,398000
533,398100
533,398200
507,398300
534,398400
534,398500
534,398600
534,398700
534,398800
507,398900
534,399000
534,399100
534,399200
534,399300
534,399400
507,399500
534,399600
534,399700
534,399800
534,399900
534,400000
507,400100
535,400200
535,400300
535,400400
535,400500
535,400600
507,400700
534,400800
534,400900
534,401000
534,401100
534,401200
507,401300
534,401400
534,401500
534,401600
534,401700
534,401800
507,401900
535,402000
535,402100
535,402200
535,402300
535,402400
508,402500
535,402600
535,402700
535,402800
535,402900
535,403000
508,403100
535,403200
535,403300
535,403400
535,403500
535,403600
509,403700
535,403800
535,403900
535,404000
535,404100
535,404200
508,404300
535,404400
535,404500
535,404600
535,404700
535,404800
507,404900
534,405000
534,405100
534,405200
534,405300
534,405400
509,405500
535,405600
535,405700
535,405800
535,405900
535,406000
509,406100
535,406200
535,406300
535,406400
535,406500
535,406600
509,406700
535,406800
535,406900
535,407000
535,407100
535,407200
509,407300
536,407400
536,407500
536,407600
536,407700
536,407800
509,407900
536,408000
536,408100
536,408200
536,408300
536,408400
508,408500
535,408600
535,408700
535,408800
535,408900
535,409000
509,409100
536,409200
536,409300
536,409400
536,409500
536,409600
510,409700
537,409800
537,409900
537,410000
537,410100
537,410200
510,410300
536,410400
536,410500
536,410600
536,410700
536,410800
510,410900
536,411000
536,411100
536,411200
536,411300
536,411400
510,411500
537,411600
537,411700
537,411800
537,411900
537,412000
509,412100
536,412200
536,412300
536,412400
536,412500
536,412600
510,412700
537,412800
537,412900
537,413000
537,413100
537,413200
511,413300
537,413400
537,413500
537,413600
537,413700
537,413800
510,413900
537,414000
537,414100
537,414200
537,414300
537,414400
510,414500
538,414600
538,414700
538,414800
538,414900
538,415000
511,415100
538,415200
538,415300
538,415400
538,415500
538,415600
511,415700
537,415800
537,415900
537,416000
537,416100
537,416200
511,416300
537,416400
537,416500
537,416600
537,416700
537,416800
512,416900
538,417000
538,417100
538,417200
538,417300
538,417400
510,417500
538,417600
538,417700
538,417800
538,417900
538,418000
511,418100
538,418200
538,418300
538,418400
538,418500
538,418600
512,418700
538,418800
538,418900
538,419000
538,419100
538,419200
512,419300
539,419400
539,419500
539,419600
539,419700
539,419800
512,419900
539,420000
539,420100
539,420200
539,420300
539,420400
512,420500
539,420600
539,420700
539,420800
539,420900
539,421000
512,421100
538,421200
538,421300
538,421400
538,421500
538,421600
513,421700
540,421800
540,421900
540,422000
540,422100
540,422200
512,422300
539,422400
539,422500
539,422600
539,422700
539,422800
513,422900
539,423000
539,423100
539,423200
539,423300
539,423400
513,423500
540,423600
540,423700
540,423800
540,423900
540,424000
513,424100
539,424200
539,424300
539,424400
539,424500
539,424600
513,424700
539,424800
539,424900
539,425000
539,425100
539,425200
514,425300
541,425400
541,425500
541,425600
541,425700
541,425800
512,425900
540,426000
540,426100
540,426200
540,426300
540,426400
513,426500
541,426600
541,426700
541,426800
541,426900
541,427000
513,427100
540,427200
540,427300
540,427400
540,427500
540,427600
513,427700
540,427800
540,427900
540,428000
540,428100
540,428200
514,428300
541,428400
541,428500
541,428600
541,428700
541,428800
514,428900
541,429000
541,429100
541,429200
541,429300
541,429400
513,429500
540,429600
540,429700
540,429800
540,429900
540,430000
513,430100
540,430200
540,430300
540,430400
540,430500
540,430600
514,430700
541,430800
541,430900
541,431000
541,431100
541,431200
513,431300
540,431400
540,431500
540,431600
540,431700
540,431800
514,431900
541,432000
541,432100
541,432200
541,432300
541,432400
514,432500
541,432600
541,432700
541,432800
541,432900
541,433000
513,433100
541,433200
541,433300
541,433400
541,433500
541,433600
514,433700
541,433800
541,433900
541,434000
541,434100
541,434200
514,434300
541,434400
541,434500
541,434600
541,434700
541,434800
513,434900
541,435000
541,435100
541,435200
541,435300
541,435400
515,435500
541,435600
541,435700
541,435800
541,435900
541,436000
513,436100
540,436200
540,436300
540,436400
540,436500
540,436600
514,436700
541,436800
541,436900
541,437000
541,437100
541,437200
514,437300
541,437400
541,437500
541,437600
541,437700
541,437800
514,437900
540,438000
540,438100
540,438200
540,438300
540,438400
514,438500
540,438600
540,438700
540,438800
540,438900
540,439000
514,439100
540,439200
540,439300
540,439400
540,439500
540,439600
514,439700
541,439800
541,439900
541,440000
541,440100
541,440200
514,440300
542,440400
542,440500
542,440600
542,440700
542,440800
514,440900
541,441000
541,441100
541,441200
541,441300
541,441400
514,441500
541,441600
541,441700
541,441800
541,441900
541,442000
514,442100
541,442200
541,442300
541,442400
541,442500
541,442600
515,442700
541,442800
541,442900
541,443000
541,443100
541,443200
513,443300
541,443400
541,443500
541,443600
541,443700
541,443800
514,443900
540,444000
540,444100
540,444200
540,444300
540,444400
514,444500
541,444600
541,444700
541,444800
541,444900
541,445000
513,445100
540,445200
540,445300
540,445400
540,445500
540,445600
514,445700
541,445800
541,445900
541,446000
541,446100
541,446200
514,446300
541,446400
541,446500
541,446600
541,446700
541,446800
514,446900
541,447000
541,447100
541,447200
541,447300
541,447400
514,447500
541,447600
541,447700
541,447800
541,447900
541,448000
514,448100
541,448200
541,448300
541,448400
541,448500
541,448600
514,448700
542,448800
542,448900
542,449000
542,449100
542,449200
514,449300
541,449400
541,449500
541,449600
541,449700
541,449800
515,449900
542,450000
542,450100
542,450200
542,450300
542,450400
514,450500
542,450600
542,450700
542,450800
542,450900
542,451000
515,451100
542,451200
542,451300
542,451400
542,451500
542,451600
515,451700
542,451800
542,451900
542,452000
542,452100
542,452200
515,452300
543,452400
543,452500
543,452600
543,452700
543,452800
515,452900
542,453000
542,453100
542,453200
542,453300
542,453400
515,453500
542,453600
542,453700
542,453800
542,453900
542,454000
515,454100
543,454200
543,454300
543,454400
543,454500
543,454600
515,454700
542,454800
542,454900
542,455000
542,455100
542,455200
515,455300
543,455400
543,455500
543,455600
543,455700
543,455800
515,455900
543,456000
543,456100
543,456200
543,456300
543,456400
516,456500
543,456600
543,456700
543,456800
543,456900
543,457000
516,457100
544,457200
544,457300
544,457400
544,457500
544,457600
517,457700
544,457800
544,457900
544,458000
544,458100
544,458200
515,458300
543,458400
543,458500
543,458600
543,458700
543,458800
516,458900
543,459000
543,459100
543,459200
543,459300
543,459400
516,459500
544,459600
544,459700
544,459800
544,459900
544,460000
516,460100
544,460200
544,460300
544,460400
544,460500
544,460600
516,460700
545,460800
545,460900
545,461000
545,461100
545,461200
516,461300
543,461400
543,461500
543,461600
543,461700
543,461800
516,461900
545,462000
545,462100
545,462200
545,462300
545,462400
516,462500
544,462600
544,462700
544,462800
544,462900
544,463000
517,463100
545,463200
545,463300
545,463400
545,463500
545,463600
516,463700
544,463800
544,463900
544,464000
544,464100
544,464200
517,464300
545,464400
545,464500
545,464600
545,464700
545,464800
516,464900
544,465000
544,465100
544,465200
544,465300
544,465400
516,465500
545,465600
545,465700
545,465800
545,465900
545,466000
517,466100
545,466200
545,466300
545,466400
545,466500
545,466600
517,466700
545,466800
545,466900
545,467000
545,467100
545,467200
516,467300
544,467400
544,467500
544,467600
544,467700
544,467800
515,467900
544,468000
544,468100
544,468200
544,468300
544,468400
517,468500
545,468600
545,468700
545,468800
545,468900
545,469000
516,469100
545,469200
545,469300
545,469400
545,469500
545,469600
517,469700
545,469800
545,469900
545,470000
545,470100
545,470200
515,470300
544,470400
544,470500
544,470600
544,470700
544,470800
516,470900
544,471000
544,471100
544,471200
544,471300
544,471400
516,471500
545,471600
545,471700
545,471800
545,471900
545,472000
516,472100
544,472200
544,472300
544,472400
544,472500
544,472600
516,472700
544,472800
544,472900
544,473000
544,473100
544,473200
515,473300
544,473400
544,473500
544,473600
544,473700
544,473800
515,473900
544,474000
544,474100
544,474200
544,474300
544,474400
515,474500
544,474600
544,474700
544,474800
544,474900
544,475000
516,475100
545,475200
545,475300
545,475400
545,475500
545,475600
515,475700
545,475800
545,475900
545,476000
545,476100
545,476200
515,476300
544,476400
544,476500
544,476600
544,476700
544,476800
515,476900
544,477000
544,477100
544,477200
544,477300
544,477400
515,477500
544,477600
544,477700
544,477800
544,477900
544,478000
515,478100
545,478200
545,478300
545,478400
545,478500
545,478600
515,478700
544,478800
544,478900
544,479000
544,479100
544,479200
517,479300
544,479400
544,479500
544,479600
544,479700
544,479800
544,479900
545,480000
545,480100
545,480200
545,480300
545,480400
515,480500
544,480600
544,480700
544,480800
544,480900
544,481000
544,481100
544,481200
544,481300
544,481400
544,481500
544,481600
544,481700
545,481800
545,481900
545,482000
545,482100
545,482200
545,482300
545,482400
545,482500
545,482600
545,482700
545,482800
515,482900
545,483000
545,483100
545,483200
545,483300
545,483400
545,483500
545,483600
545,483700
545,483800
545,483900
545,484000
516,484100
545,484200
545,484300
545,484400
545,484500
545,484600
545,484700
545,484800
545,484900
545,485000
545,485100
545,485200
516,485300
545,485400
545,485500
545,485600
545,485700
545,485800
545,485900
545,486000
545,486100
545,486200
545,486300
545,486400
545,486500
546,486600
546,486700
546,486800
546,486900
546,487000
546,487100
546,487200
546,487300
546,487400
546,487500
546,487600
546,487700
545,487800
545,487900
545,488000
545,488100
545,488200
545,488300
545,488400
545,488500
545,488600
545,488700
545,488800
545,488900
546,489000
546,489100
546,489200
546,489300
546,489400
546,489500
546,489600
546,489700
546,489800
546,489900
546,490000
546,490100
546,490200
546,490300
546,490400
546,490500
546,490600
546,490700
547,490800
547,490900
547,491000
547,491100
547,491200
547,491300
546,491400
546,491500
546,491600
546,491700
546,491800
546,491900
546,492000
546,492100
546,492200
546,492300
546,492400
546,492500
546,492600
546,492700
546,492800
546,492900
546,493000
546,493100
547,493200
547,493300
547,493400
547,493500
547,493600
547,493700
546,493800
546,493900
546,494000
546,494100
546,494200
546,494300
546,494400
546,494500
546,494600
546,494700
546,494800
546,494900
546,495000
546,495100
546,495200
546,495300
546,495400
546,495500
546,495600
546,495700
546,495800
546,495900
546,496000
546,496100
547,496200
547,496300
547,496400
547,496500
547,496600
547,496700
546,496800
546,496900
546,497000
546,497100
546,497200
546,497300
548,497400
548,497500
548,497600
548,497700
548,497800
518,497900
546,498000
546,498100
546,498200
546,498300
546,498400
546,498500
547,498600
547,498700
547,498800
547,498900
547,499000
519,499100
547,499200
547,499300
547,499400
547,499500
547,499600
547,499700
547,499800
547,499900
547,500000
547,500100
547,500200
518,500300
547,500400
547,500500
547,500600
547,500700
547,500800
547,500900
547,501000
547,501100
547,501200
547,501300
547,501400
518,501500
547,501600
547,501700
547,501800
547,501900
547,502000
547,502100
547,502200
547,502300
547,502400
547,502500
547,502600
518,502700
547,502800
547,502900
547,503000
547,503100
547,503200
520,503300
547,503400
547,503500
547,503600
547,503700
547,503800
519,503900
548,504000
548,504100
548,504200
548,504300
548,504400
548,504500
547,504600
547,504700
547,504800
547,504900
547,505000
518,505100
547,505200
547,505300
547,505400
547,505500
547,505600
547,505700
547,505800
547,505900
547,506000
547,506100
547,506200
519,506300
547,506400
547,506500
547,506600
547,506700
547,506800
518,506900
547,507000
547,507100
547,507200
547,507300
547,507400
519,507500
548,507600
548,507700
548,507800
548,507900
548,508000
519,508100
548,508200
548,508300
548,508400
548,508500
548,508600
519,508700
547,508800
547,508900
547,509000
547,509100
547,509200
519,509300
547,509400
547,509500
547,509600
547,509700
547,509800
518,509900
547,510000
547,510100
547,510200
547,510300
547,510400
520,510500
548,510600
548,510700
548,510800
548,510900
548,511000
520,511100
548,511200
548,511300
548,511400
548,511500
548,511600
520,511700
549,511800
549,511900
549,512000
549,512100
549,512200
519,512300
548,512400
548,512500
548,512600
548,512700
548,512800
548,512900
548,513000
548,513100
548,513200
548,513300
548,513400
548,513500
548,513600
548,513700
548,513800
548,513900
548,514000
548,514100
549,514200
549,514300
549,514400
549,514500
549,514600
519,514700
548,514800
548,514900
548,515000
548,515100
548,515200
548,515300
548,515400
548,515500
548,515600
548,515700
548,515800
548,515900
548,516000
548,516100
548,516200
548,516300
548,516400
548,516500
548,516600
548,516700
548,516800
548,516900
548,517000
519,517100
547,517200
547,517300
547,517400
547,517500
547,517600
547,517700
548,517800
548,517900
548,518000
548,518100
548,518200
519,518300
548,518400
548,518500
548,518600
548,518700
548,518800
548,518900
548,519000
548,519100
548,519200
548,519300
548,519400
520,519500
548,519600
548,519700
548,519800
548,519900
548,520000
548,520100
548,520200
548,520300
548,520400
548,520500
548,520600
519,520700
548,520800
548,520900
548,521000
548,521100
548,521200
548,521300
548,521400
548,521500
548,521600
548,521700
548,521800
519,521900
548,522000
548,522100
548,522200
548,522300
548,522400
548,522500
548,522600
548,522700
548,522800
548,522900
548,523000
548,523100
548,523200
548,523300
548,523400
548,523500
548,523600
548,523700
548,523800
548,523900
548,524000
548,524100
548,524200
548,524300
548,524400
548,524500
548,524600
548,524700
548,524800
548,524900
548,525000
548,525100
548,525200
548,525300
548,525400
548,525500
548,525600
548,525700
548,525800
548,525900
548,526000
548,526100
548,526200
548,526300
548,526400
548,526500
548,526600
548,526700
548,526800
548,526900
548,527000
548,527100
548,527200
548,527300
547,527400
547,527500
547,527600
547,527700
547,527800
547,527900
548,528000
548,528100
548,528200
548,528300
548,528400
548,528500
548,528600
548,528700
548,528800
548,528900
548,529000
548,529100
548,529200
548,529300
548,529400
548,529500
548,529600
548,529700
548,529800
548,529900
548,530000
548,530100
548,530200
548,530300
549,530400
549,530500
549,530600
549,530700
549,530800
549,530900
548,531000
548,531100
548,531200
548,531300
548,531400
548,531500
548,531600
548,531700
548,531800
548,531900
548,532000
548,532100
548,532200
548,532300
548,532400
548,532500
548,532600
548,532700
548,532800
548,532900
548,533000
548,533100
548,533200
548,533300
549,533400
549,533500
549,533600
549,533700
549,533800
549,533900
548,534000
548,534100
548,534200
548,534300
548,534400
548,534500
549,534600
549,534700
549,534800
549,534900
549,535000
549,535100
549,535200
549,535300
549,535400
549,535500
549,535600
549,535700
549,535800
549,535900
549,536000
549,536100
549,536200
549,536300
549,536400
549,536500
549,536600
549,536700
549,536800
549,536900
542,537000
549,537100
549,537200
549,537300
549,537400
549,537500
549,537600
549,537700
549,537800
549,537900
549,538000
549,538100
542,538200
549,538300
549,538400
549,538500
549,538600
549,538700
543,538800
550,538900
550,539000
550,539100
550,539200
550,539300
543,539400
549,539500
549,539600
549,539700
549,539800
549,539900
543,540000
550,540100
550,540200
550,540300
550,540400
550,540500
543,540600
550,540700
550,540800
550,540900
550,541000
550,541100
536,541200
549,541300
549,541400
549,541500
549,541600
549,541700
537,541800
551,541900
551,542000
551,542100
551,542200
551,542300
537,542400
549,542500
549,542600
549,542700
549,542800
549,542900
536,543000
550,543100
550,543200
550,543300
550,543400
550,543500
537,543600
551,543700
551,543800
551,543900
551,544000
551,544100
536,544200
550,544300
550,544400
550,544500
550,544600
550,544700
537,544800
550,544900
550,545000
550,545100
550,545200
550,545300
537,545400
550,545500
550,545600
550,545700
550,545800
550,545900
538,546000
550,546100
550,546200
550,546300
550,546400
550,546500
536,546600
550,546700
550,546800
550,546900
550,547000
550,547100
537,547200
550,547300
550,547400
550,547500
550,547600
550,547700
530,547800
551,547900
551,548000
551,548100
551,548200
551,548300
537,548400
550,548500
550,548600
550,548700
550,548800
550,548900
530,549000
551,549100
551,549200
551,549300
551,549400
551,549500
530,549600
550,549700
550,549800
550,549900
550,550000
550,550100
530,550200
549,550300
549,550400
549,550500
549,550600
549,550700
530,550800
550,550900
550,551000
550,551100
550,551200
550,551300
529,551400
550,551500
550,551600
550,551700
550,551800
550,551900
529,552000
549,552100
549,552200
549,552300
549,552400
549,552500
528,552600
549,552700
549,552800
549,552900
549,553000
549,553100
528,553200
550,553300
550,553400
550,553500
550,553600
550,553700
527,553800
550,553900
550,554000
550,554100
550,554200
550,554300
527,554400
550,554500
550,554600
550,554700
550,554800
550,554900
527,555000
550,555100
550,555200
550,555300
550,555400
550,555500
527,555600
550,555700
550,555800
550,555900
550,556000
550,556100
526,556200
549,556300
549,556400
549,556500
549,556600
549,556700
527,556800
549,556900
549,557000
549,557100
549,557200
549,557300
527,557400
549,557500
549,557600
549,557700
549,557800
549,557900
527,558000
550,558100
550,558200
550,558300
550,558400
550,558500
527,558600
549,558700
549,558800
549,558900
549,559000
549,559100
526,559200
550,559300
550,559400
550,559500
550,559600
550,559700
527,559800
550,559900
550,560000
550,560100
550,560200
550,560300
528,560400
550,560500
550,560600
550,560700
550,560800
550,560900
527,561000
550,561100
550,561200
550,561300
550,561400
550,561500
527,561600
550,561700
550,561800
550,561900
550,562000
550,562100
527,562200
550,562300
550,562400
550,562500
550,562600
550,562700
527,562800
550,562900
550,563000
550,563100
550,563200
550,563300
528,563400
550,563500
550,563600
550,563700
550,563800
550,563900
527,564000
550,564100
550,564200
550,564300
550,564400
550,564500
527,564600
551,564700
551,564800
551,564900
551,565000
551,565100
527,565200
551,565300
551,565400
551,565500
551,565600
551,565700
528,565800
551,565900
551,566000
551,566100
551,566200
551,566300
527,566400
550,566500
550,566600
550,566700
550,566800
550,566900
528,567000
551,567100
551,567200
551,567300
551,567400
551,567500
527,567600
552,567700
552,567800
552,567900
552,568000
552,568100
529,568200
551,568300
551,568400
551,568500
551,568600
551,568700
527,568800
551,568900
551,569000
551,569100
551,569200
551,569300
528,569400
551,569500
551,569600
551,569700
551,569800
551,569900
528,570000
552,570100
552,570200
552,570300
552,570400
552,570500
528,570600
551,570700
551,570800
551,570900
551,571000
551,571100
528,571200
551,571300
551,571400
551,571500
551,571600
551,571700
528,571800
552,571900
552,572000
552,572100
552,572200
552,572300
528,572400
551,572500
551,572600
551,572700
551,572800
551,572900
528,573000
552,573100
552,573200
552,573300
552,573400
552,573500
528,573600
552,573700
552,573800
552,573900
552,574000
552,574100
528,574200
552,574300
552,574400
552,574500
552,574600
552,574700
529,574800
551,574900
551,575000
551,575100
551,575200
551,575300
530,575400
552,575500
552,575600
552,575700
552,575800
552,575900
528,576000
553,576100
553,576200
553,576300
553,576400
553,576500
528,576600
552,576700
552,576800
552,576900
552,577000
552,577100
528,577200
552,577300
552,577400
552,577500
552,577600
552,577700
529,577800
553,577900
553,578000
553,578100
553,578200
553,578300
528,578400
552,578500
552,578600
552,578700
552,578800
552,578900
528,579000
552,579100
552,579200
552,579300
552,579400
552,579500
528,579600
552,579700
552,579800
552,579900
552,580000
552,580100
528,580200
552,580300
552,580400
552,580500
552,580600
552,580700
527,580800
551,580900
551,581000
551,581100
551,581200
551,581300
528,581400
551,581500
551,581600
551,581700
551,581800
551,581900
527,582000
551,582100
551,582200
551,582300
551,582400
551,582500
528,582600
551,582700
551,582800
551,582900
551,583000
551,583100
527,583200
552,583300
552,583400
552,583500
552,583600
552,583700
528,583800
551,583900
551,584000
551,584100
551,584200
551,584300
528,584400
551,584500
551,584600
551,584700
551,584800
551,584900
528,585000
551,585100
551,585200
551,585300
551,585400
551,585500
527,585600
551,585700
551,585800
551,585900
551,586000
551,586100
527,586200
552,586300
552,586400
552,586500
552,586600
552,586700
527,586800
552,586900
552,587000
552,587100
552,587200
552,587300
527,587400
551,587500
551,587600
551,587700
551,587800
551,587900
527,588000
552,588100
552,588200
552,588300
552,588400
552,588500
526,588600
551,588700
551,588800
551,588900
551,589000
551,589100
527,589200
551,589300
551,589400
551,589500
551,589600
551,589700
528,589800
552,589900
552,590000
552,590100
552,590200
552,590300
527,590400
552,590500
552,590600
552,590700
552,590800
552,590900
527,591000
552,591100
552,591200
552,591300
552,591400
552,591500
527,591600
552,591700
552,591800
552,591900
552,592000
552,592100
528,592200
552,592300
552,592400
552,592500
552,592600
552,592700
527,592800
552,592900
552,593000
552,593100
552,593200
552,593300
527,593400
551,593500
551,593600
551,593700
551,593800
551,593900
528,594000
552,594100
552,594200
552,594300
552,594400
552,594500
527,594600
552,594700
552,594800
552,594900
552,595000
552,595100
528,595200
552,595300
552,595400
552,595500
552,595600
552,595700
528,595800
553,595900
553,596000
553,596100
553,596200
553,596300
527,596400
552,596500
552,596600
552,596700
552,596800
552,596900
527,597000
552,597100
552,597200
552,597300
552,597400
552,597500
529,597600
552,597700
552,597800
552,597900
552,598000
552,598100
528,598200
553,598300
553,598400
553,598500
553,598600
553,598700
527,598800
552,598900
552,599000
552,599100
552,599200
552,599300
528,599400
552,599500
552,599600
552,599700
552,599800
552,599900
528,600000
552,600100
552,600200
552,600300
552,600400
552,600500
527,600600
552,600700
552,600800
552,600900
552,601000
552,601100
528,601200
552,601300
552,601400
552,601500
552,601600
552,601700
527,601800
552,601900
552,602000
552,602100
552,602200
552,602300
528,602400
552,602500
552,602600
552,602700
552,602800
552,602900
529,603000
553,603100
553,603200
553,603300
553,603400
553,603500
528,603600
552,603700
552,603800
552,603900
552,604000
552,604100
529,604200
552,604300
552,604400
552,604500
552,604600
552,604700
528,604800
553,604900
553,605000
553,605100
553,605200
553,605300
528,605400
553,605500
553,605600
553,605700
553,605800
553,605900
528,606000
553,606100
553,606200
553,606300
553,606400
553,606500
528,606600
553,606700
553,606800
553,606900
553,607000
553,607100
528,607200
553,607300
553,607400
553,607500
553,607600
553,607700
528,607800
553,607900
553,608000
553,608100
553,608200
553,608300
528,608400
554,608500
554,608600
554,608700
554,608800
554,608900
528,609000
553,609100
553,609200
553,609300
553,609400
553,609500
529,609600
553,609700
553,609800
553,609900
553,610000
553,610100
528,610200
553,610300
553,610400
553,610500
553,610600
553,610700
529,610800
553,610900
553,611000
553,611100
553,611200
553,611300
528,611400
553,611500
553,611600
553,611700
553,611800
553,611900
528,612000
553,612100
553,612200
553,612300
553,612400
553,612500
529,612600
554,612700
554,612800
554,612900
554,613000
554,613100
529,613200
554,613300
554,613400
554,613500
554,613600
554,613700
529,613800
553,613900
553,614000
553,614100
553,614200
553,614300
528,614400
553,614500
553,614600
553,614700
553,614800
553,614900
528,615000
553,615100
553,615200
553,615300
553,615400
553,615500
529,615600
553,615700
553,615800
553,615900
553,616000
553,616100
529,616200
554,616300
554,616400
554,616500
554,616600
554,616700
529,616800
554,616900
554,617000
554,617100
554,617200
554,617300
529,617400
553,617500
553,617600
553,617700
553,617800
553,617900
529,618000
554,618100
554,618200
554,618300
554,618400
554,618500
528,618600
553,618700
553,618800
553,618900
553,619000
553,619100
529,619200
554,619300
554,619400
554,619500
554,619600
554,619700
529,619800
554,619900
554,620000
554,620100
554,620200
554,620300
528,620400
554,620500
554,620600
554,620700
554,620800
554,620900
530,621000
554,621100
554,621200
554,621300
554,621400
554,621500
528,621600
553,621700
553,621800
553,621900
553,622000
553,622100
529,622200
554,622300
554,622400
554,622500
554,622600
554,622700
529,622800
553,622900
553,623000
553,623100
553,623200
553,623300
529,623400
553,623500
553,623600
553,623700
553,623800
553,623900
528,624000
554,624100
554,624200
554,624300
554,624400
554,624500
528,624600
554,624700
554,624800
554,624900
554,625000
554,625100
528,625200
554,625300
554,625400
554,625500
554,625600
554,625700
529,625800
553,625900
553,626000
553,626100
553,626200
553,626300
528,626400
553,626500
553,626600
553,626700
553,626800
553,626900
529,627000
553,627100
553,627200
553,627300
553,627400
553,627500
528,627600
554,627700
554,627800
554,627900
554,628000
554,628100
529,628200
553,628300
553,628400
553,628500
553,628600
553,628700
528,628800
554,628900
554,629000
554,629100
554,629200
554,629300
528,629400
554,629500
554,629600
554,629700
554,629800
554,629900
528,630000
554,630100
554,630200
554,630300
554,630400
554,630500
528,630600
553,630700
553,630800
553,630900
553,631000
553,631100
528,631200
553,631300
553,631400
553,631500
553,631600
553,631700
528,631800
553,631900
553,632000
553,632100
553,632200
553,632300
528,632400
553,632500
553,632600
553,632700
553,632800
553,632900
528,633000
553,633100
553,633200
553,633300
553,633400
553,633500
528,633600
554,633700
554,633800
554,633900
554,634000
554,634100
528,634200
553,634300
553,634400
553,634500
553,634600
553,634700
528,634800
553,634900
553,635000
553,635100
553,635200
553,635300
528,635400
553,635500
553,635600
553,635700
553,635800
553,635900
527,636000
553,636100
553,636200
553,636300
553,636400
553,636500
529,636600
553,636700
553,636800
553,636900
553,637000
553,637100
528,637200
554,637300
554,637400
554,637500
554,637600
554,637700
528,637800
553,637900
553,638000
553,638100
553,638200
553,638300
528,638400
553,638500
553,638600
553,638700
553,638800
553,638900
528,639000
554,639100
554,639200
554,639300
554,639400
554,639500
528,639600
553,639700
553,639800
553,639900
553,640000
553,640100
528,640200
553,640300
553,640400
553,640500
553,640600
553,640700
528,640800
554,640900
554,641000
554,641100
554,641200
554,641300
528,641400
553,641500
553,641600
553,641700
553,641800
553,641900
528,642000
554,642100
554,642200
554,642300
554,642400
554,642500
529,642600
554,642700
554,642800
554,642900
554,643000
554,643100
528,643200
554,643300
554,643400
554,643500
554,643600
554,643700
528,643800
554,643900
554,644000
554,644100
554,644200
554,644300
528,644400
554,644500
554,644600
554,644700
554,644800
554,644900
529,645000
555,645100
555,645200
555,645300
555,645400
555,645500
529,645600
555,645700
555,645800
555,645900
555,646000
555,646100
529,646200
554,646300
554,646400
554,646500
554,646600
554,646700
528,646800
554,646900
554,647000
554,647100
554,647200
554,647300
528,647400
555,647500
555,647600
555,647700
555,647800
555,647900
528,648000
554,648100
554,648200
554,648300
554,648400
554,648500
529,648600
555,648700
555,648800
555,648900
555,649000
555,649100
529,649200
555,649300
555,649400
555,649500
555,649600
555,649700
529,649800
555,649900
555,650000
555,650100
555,650200
555,650300
529,650400
555,650500
555,650600
555,650700
555,650800
555,650900
529,651000
555,651100
555,651200
555,651300
555,651400
555,651500
528,651600
555,651700
555,651800
555,651900
555,652000
555,652100
529,652200
555,652300
555,652400
555,652500
555,652600
555,652700
530,652800
557,652900
557,653000
557,653100
557,653200
557,653300
528,653400
555,653500
555,653600
555,653700
555,653800
555,653900
528,654000
555,654100
555,654200
555,654300
555,654400
555,654500
529,654600
555,654700
555,654800
555,654900
555,655000
555,655100
529,655200
555,655300
555,655400
555,655500
555,655600
555,655700
529,655800
556,655900
556,656000
556,656100
556,656200
556,656300
529,656400
555,656500
555,656600
555,656700
555,656800
555,656900
529,657000
555,657100
555,657200
555,657300
555,657400
555,657500
528,657600
555,657700
555,657800
555,657900
555,658000
555,658100
529,658200
555,658300
555,658400
555,658500
555,658600
555,658700
529,658800
555,658900
555,659000
555,659100
555,659200
555,659300
528,659400
555,659500
555,659600
555,659700
555,659800
555,659900
528,660000
555,660100
555,660200
555,660300
555,660400
555,660500
528,660600
555,660700
555,660800
555,660900
555,661000
555,661100
528,661200
555,661300
555,661400
555,661500
555,661600
555,661700
529,661800
554,661900
554,662000
554,662100
554,662200
554,662300
528,662400
554,662500
554,662600
554,662700
554,662800
554,662900
528,663000
554,663100
554,663200
554,663300
554,663400
554,663500
528,663600
555,663700
555,663800
555,663900
555,664000
555,664100
528,664200
555,664300
555,664400
555,664500
555,664600
555,664700
528,664800
555,664900
555,665000
555,665100
555,665200
555,665300
527,665400
554,665500
554,665600
554,665700
554,665800
554,665900
527,666000
554,666100
554,666200
554,666300
554,666400
554,666500
527,666600
554,666700
554,666800
554,666900
554,667000
554,667100
528,667200
554,667300
554,667400
554,667500
554,667600
554,667700
528,667800
555,667900
555,668000
555,668100
555,668200
555,668300
529,668400
555,668500
555,668600
555,668700
555,668800
555,668900
529,669000
555,669100
555,669200
555,669300
555,669400
555,669500
528,669600
554,669700
554,669800
554,669900
554,670000
554,670100
528,670200
554,670300
554,670400
554,670500
554,670600
554,670700
528,670800
555,670900
555,671000
555,671100
555,671200
555,671300
529,671400
554,671500
554,671600
554,671700
554,671800
554,671900
528,672000
555,672100
555,672200
555,672300
555,672400
555,672500
529,672600
554,672700
554,672800
554,672900
554,673000
554,673100
528,673200
555,673300
555,673400
555,673500
555,673600
555,673700
528,673800
554,673900
554,674000
554,674100
554,674200
554,674300
528,674400
554,674500
554,674600
554,674700
554,674800
554,674900
529,675000
555,675100
555,675200
555,675300
555,675400
555,675500
529,675600
556,675700
556,675800
556,675900
556,676000
556,676100
528,676200
555,676300
555,676400
555,676500
555,676600
555,676700
528,676800
554,676900
554,677000
554,677100
554,677200
554,677300
529,677400
555,677500
555,677600
555,677700
555,677800
555,677900
529,678000
555,678100
555,678200
555,678300
555,678400
555,678500
529,678600
555,678700
555,678800
555,678900
555,679000
555,679100
529,679200
555,679300
555,679400
555,679500
555,679600
555,679700
529,679800
555,679900
555,680000
555,680100
555,680200
555,680300
528,680400
555,680500
555,680600
555,680700
555,680800
555,680900
528,681000
555,681100
555,681200
555,681300
555,681400
555,681500
529,681600
555,681700
555,681800
555,681900
555,682000
555,682100
528,682200
556,682300
556,682400
556,682500
556,682600
556,682700
530,682800
555,682900
555,683000
555,683100
555,683200
555,683300
530,683400
556,683500
556,683600
556,683700
556,683800
556,683900
530,684000
555,684100
555,684200
555,684300
555,684400
555,684500
529,684600
555,684700
555,684800
555,684900
555,685000
555,685100
529,685200
556,685300
556,685400
556,685500
556,685600
556,685700
530,685800
556,685900
556,686000
556,686100
556,686200
556,686300
530,686400
556,686500
556,686600
556,686700
556,686800
556,686900
529,687000
556,687100
556,687200
556,687300
556,687400
556,687500
