5,100
4,200
4,300
4,400
4,500
4,600
4,700
4,800
4,900
4,1000
4,1100
4,1200
4,1300
134,1400
134,1500
134,1600
134,1700
134,1800
134,1900
215,2000
215,2100
215,2200
215,2300
215,2400
215,2500
236,2600
236,2700
236,2800
236,2900
236,3000
236,3100
223,3200
223,3300
223,3400
223,3500
223,3600
216,3700
208,3800
208,3900
208,4000
208,4100
208,4200
208,4300
196,4400
196,4500
196,4600
196,4700
196,4800
196,4900
188,5000
188,5100
188,5200
188,5300
188,5400
188,5500
182,5600
182,5700
182,5800
182,5900
182,6000
187,6100
181,6200
181,6300
181,6400
181,6500
181,6600
181,6700
165,6800
165,6900
165,7000
165,7100
165,7200
182,7300
176,7400
176,7500
176,7600
176,7700
176,7800
177,7900
170,8000
170,8100
170,8200
170,8300
170,8400
170,8500
168,8600
168,8700
168,8800
168,8900
168,9000
172,9100
166,9200
166,9300
166,9400
166,9500
166,9600
166,9700
167,9800
167,9900
167,10000
167,10100
167,10200
170,10300
164,10400
164,10500
164,10600
164,10700
164,10800
164,10900
164,11000
164,11100
164,11200
164,11300
164,11400
168,11500
162,11600
162,11700
162,11800
162,11900
162,12000
162,12100
141,12200
141,12300
141,12400
141,12500
141,12600
141,12700
161,12800
161,12900
161,13000
161,13100
161,13200
166,13300
160,13400
160,13500
160,13600
160,13700
160,13800
160,13900
157,14000
157,14100
157,14200
157,14300
157,14400
157,14500
158,14600
158,14700
158,14800
158,14900
158,15000
158,15100
156,15200
156,15300
156,15400
156,15500
156,15600
160,15700
154,15800
154,15900
154,16000
154,16100
154,16200
154,16300
153,16400
153,16500
153,16600
153,16700
153,16800
153,16900
152,17000
152,17100
152,17200
152,17300
152,17400
152,17500
150,17600
150,17700
150,17800
150,17900
150,18000
150,18100
152,18200
152,18300
152,18400
152,18500
152,18600
156,18700
150,18800
150,18900
150,19000
150,19100
150,19200
150,19300
149,19400
149,19500
149,19600
149,19700
149,19800
153,19900
148,20000
148,20100
148,20200
148,20300
148,20400
148,20500
146,20600
146,20700
146,20800
146,20900
146,21000
146,21100
140,21200
140,21300
140,21400
140,21500
140,21600
145,21700
140,21800
140,21900
140,22000
140,22100
140,22200
144,22300
139,22400
139,22500
139,22600
139,22700
139,22800
139,22900
139,23000
139,23100
139,23200
139,23300
139,23400
138,23500
133,23600
133,23700
133,23800
133,23900
133,24000
137,24100
132,24200
132,24300
132,24400
132,24500
132,24600
138,24700
132,24800
132,24900
132,25000
132,25100
132,25200
137,25300
132,25400
132,25500
132,25600
132,25700
132,25800
136,25900
131,26000
131,26100
131,26200
131,26300
131,26400
137,26500
132,26600
132,26700
132,26800
132,26900
132,27000
135,27100
130,27200
130,27300
130,27400
130,27500
130,27600
132,27700
128,27800
128,27900
128,28000
128,28100
128,28200
132,28300
126,28400
126,28500
126,28600
126,28700
126,28800
131,28900
127,29000
127,29100
127,29200
127,29300
127,29400
131,29500
126,29600
126,29700
126,29800
126,29900
126,30000
130,30100
125,30200
125,30300
125,30400
125,30500
125,30600
130,30700
124,30800
124,30900
124,31000
124,31100
124,31200
129,31300
124,31400
124,31500
124,31600
124,31700
124,31800
128,31900
124,32000
124,32100
124,32200
124,32300
124,32400
128,32500
124,32600
124,32700
124,32800
124,32900
124,33000
128,33100
124,33200
124,33300
124,33400
124,33500
124,33600
127,33700
122,33800
122,33900
122,34000
122,34100
122,34200
127,34300
123,34400
123,34500
123,34600
123,34700
123,34800
127,34900
122,35000
122,35100
122,35200
122,35300
122,35400
127,35500
122,35600
122,35700
122,35800
122,35900
122,36000
126,36100
121,36200
121,36300
121,36400
122,36500
121,36600
121,36700
121,36800
121,36900
121,37000
123,37100
121,37200
121,37300
121,37400
121,37500
120,37600
120,37700
120,37800
120,37900
120,38000
120,38100
120,38200
120,38300
120,38400
120,38500
120,38600
120,38700
120,38800
120,38900
120,39000
120,39100
120,39200
105,39300
101,39400
101,39500
101,39600
101,39700
101,39800
101,39900
119,40000
119,40100
119,40200
119,40300
119,40400
124,40500
119,40600
119,40700
119,40800
119,40900
119,41000
119,41100
119,41200
119,41300
119,41400
119,41500
119,41600
128,41700
123,41800
123,41900
123,42000
123,42100
123,42200
128,42300
124,42400
124,42500
124,42600
124,42700
124,42800
127,42900
122,43000
122,43100
122,43200
122,43300
122,43400
127,43500
123,43600
123,43700
123,43800
123,43900
123,44000
127,44100
122,44200
122,44300
122,44400
122,44500
122,44600
122,44700
117,44800
117,44900
117,45000
117,45100
117,45200
122,45300
117,45400
117,45500
117,45600
117,45700
117,45800
121,45900
117,46000
117,46100
117,46200
117,46300
117,46400
121,46500
117,46600
117,46700
117,46800
117,46900
117,47000
121,47100
116,47200
116,47300
116,47400
116,47500
116,47600
120,47700
116,47800
116,47900
116,48000
116,48100
116,48200
121,48300
117,48400
117,48500
117,48600
117,48700
117,48800
121,48900
116,49000
116,49100
116,49200
116,49300
116,49400
120,49500
116,49600
116,49700
116,49800
116,49900
116,50000
120,50100
115,50200
115,50300
115,50400
115,50500
115,50600
125,50700
121,50800
121,50900
121,51000
121,51100
121,51200
125,51300
121,51400
121,51500
121,51600
121,51700
121,51800
125,51900
121,52000
121,52100
121,52200
121,52300
121,52400
124,52500
119,52600
119,52700
119,52800
119,52900
119,53000
118,53100
114,53200
114,53300
114,53400
114,53500
114,53600
119,53700
115,53800
115,53900
115,54000
115,54100
115,54200
119,54300
115,54400
115,54500
115,54600
115,54700
115,54800
118,54900
114,55000
114,55100
114,55200
114,55300
114,55400
119,55500
114,55600
114,55700
114,55800
114,55900
114,56000
118,56100
113,56200
113,56300
113,56400
113,56500
113,56600
120,56700
115,56800
115,56900
115,57000
115,57100
115,57200
118,57300
113,57400
113,57500
113,57600
113,57700
113,57800
115,57900
115,58000
115,58100
115,58200
115,58300
116,58400
113,58500
113,58600
113,58700
113,58800
113,58900
117,59000
113,59100
113,59200
113,59300
113,59400
113,59500
117,59600
113,59700
113,59800
113,59900
113,60000
113,60100
116,60200
112,60300
112,60400
112,60500
112,60600
112,60700
122,60800
116,60900
116,61000
116,61100
116,61200
116,61300
122,61400
118,61500
118,61600
118,61700
118,61800
118,61900
121,62000
117,62100
117,62200
117,62300
117,62400
117,62500
120,62600
116,62700
116,62800
116,62900
116,63000
116,63100
121,63200
116,63300
116,63400
116,63500
116,63600
116,63700
117,63800
112,63900
112,64000
112,64100
112,64200
112,64300
116,64400
112,64500
112,64600
112,64700
112,64800
112,64900
115,65000
111,65100
111,65200
111,65300
111,65400
111,65500
116,65600
111,65700
111,65800
111,65900
111,66000
111,66100
115,66200
111,66300
111,66400
111,66500
111,66600
111,66700
115,66800
110,66900
110,67000
110,67100
110,67200
110,67300
114,67400
110,67500
110,67600
110,67700
110,67800
110,67900
114,68000
111,68100
111,68200
111,68300
111,68400
111,68500
114,68600
110,68700
110,68800
110,68900
110,69000
110,69100
116,69200
112,69300
112,69400
112,69500
112,69600
112,69700
117,69800
112,69900
112,70000
112,70100
112,70200
112,70300
116,70400
112,70500
112,70600
112,70700
112,70800
112,70900
117,71000
112,71100
112,71200
112,71300
112,71400
112,71500
116,71600
112,71700
112,71800
112,71900
112,72000
112,72100
90,72200
87,72300
87,72400
87,72500
87,72600
87,72700
113,72800
109,72900
109,73000
109,73100
109,73200
109,73300
113,73400
109,73500
109,73600
109,73700
109,73800
109,73900
114,74000
109,74100
109,74200
109,74300
109,74400
109,74500
113,74600
109,74700
109,74800
109,74900
109,75000
109,75100
112,75200
109,75300
109,75400
109,75500
109,75600
109,75700
113,75800
109,75900
109,76000
109,76100
109,76200
109,76300
113,76400
109,76500
109,76600
109,76700
109,76800
109,76900
113,77000
109,77100
109,77200
109,77300
109,77400
109,77500
112,77600
109,77700
109,77800
109,77900
109,78000
109,78100
113,78200
108,78300
108,78400
108,78500
108,78600
108,78700
113,78800
109,78900
109,79000
109,79100
109,79200
109,79300
113,79400
109,79500
109,79600
109,79700
109,79800
109,79900
112,80000
109,80100
109,80200
109,80300
109,80400
109,80500
111,80600
108,80700
108,80800
108,80900
108,81000
108,81100
111,81200
108,81300
108,81400
108,81500
108,81600
108,81700
112,81800
109,81900
109,82000
109,82100
109,82200
109,82300
111,82400
107,82500
107,82600
107,82700
107,82800
107,82900
111,83000
107,83100
107,83200
107,83300
107,83400
107,83500
111,83600
108,83700
108,83800
108,83900
108,84000
108,84100
111,84200
107,84300
107,84400
107,84500
107,84600
107,84700
111,84800
107,84900
107,85000
107,85100
107,85200
107,85300
111,85400
107,85500
107,85600
107,85700
107,85800
107,85900
110,86000
107,86100
107,86200
107,86300
107,86400
107,86500
111,86600
107,86700
107,86800
107,86900
107,87000
107,87100
110,87200
107,87300
107,87400
107,87500
107,87600
107,87700
111,87800
107,87900
107,88000
107,88100
107,88200
107,88300
110,88400
108,88500
108,88600
108,88700
108,88800
108,88900
110,89000
107,89100
107,89200
107,89300
107,89400
107,89500
110,89600
106,89700
106,89800
106,89900
106,90000
106,90100
110,90200
106,90300
106,90400
106,90500
106,90600
106,90700
109,90800
106,90900
106,91000
106,91100
106,91200
106,91300
110,91400
105,91500
105,91600
105,91700
105,91800
105,91900
110,92000
106,92100
106,92200
106,92300
106,92400
106,92500
107,92600
104,92700
104,92800
104,92900
104,93000
104,93100
110,93200
106,93300
106,93400
106,93500
106,93600
106,93700
109,93800
106,93900
106,94000
106,94100
106,94200
106,94300
109,94400
105,94500
105,94600
105,94700
105,94800
105,94900
110,95000
106,95100
106,95200
106,95300
106,95400
106,95500
108,95600
105,95700
105,95800
105,95900
105,96000
105,96100
113,96200
109,96300
109,96400
109,96500
109,96600
109,96700
113,96800
110,96900
110,97000
110,97100
110,97200
110,97300
112,97400
109,97500
109,97600
109,97700
109,97800
109,97900
107,98000
104,98100
104,98200
104,98300
104,98400
104,98500
109,98600
105,98700
105,98800
105,98900
105,99000
105,99100
109,99200
105,99300
105,99400
105,99500
105,99600
105,99700
104,99800
101,99900
101,100000
101,100100
101,100200
101,100300
108,100400
104,100500
104,100600
104,100700
104,100800
104,100900
108,101000
104,101100
104,101200
104,101300
104,101400
104,101500
108,101600
105,101700
105,101800
105,101900
105,102000
105,102100
108,102200
104,102300
104,102400
104,102500
104,102600
104,102700
107,102800
104,102900
104,103000
104,103100
104,103200
104,103300
108,103400
105,103500
105,103600
105,103700
105,103800
105,103900
107,104000
104,104100
104,104200
104,104300
104,104400
104,104500
108,104600
104,104700
104,104800
104,104900
104,105000
104,105100
97,105200
94,105300
94,105400
94,105500
94,105600
94,105700
107,105800
104,105900
104,106000
104,106100
104,106200
104,106300
107,106400
104,106500
104,106600
104,106700
104,106800
104,106900
108,107000
104,107100
104,107200
104,107300
104,107400
104,107500
107,107600
104,107700
104,107800
104,107900
104,108000
104,108100
107,108200
104,108300
104,108400
104,108500
104,108600
104,108700
107,108800
103,108900
103,109000
103,109100
103,109200
103,109300
108,109400
104,109500
104,109600
104,109700
104,109800
104,109900
108,110000
104,110100
104,110200
104,110300
104,110400
104,110500
107,110600
103,110700
103,110800
103,110900
103,111000
103,111100
107,111200
104,111300
104,111400
104,111500
104,111600
104,111700
106,111800
103,111900
103,112000
103,112100
103,112200
103,112300
107,112400
104,112500
104,112600
104,112700
104,112800
104,112900
112,113000
109,113100
109,113200
109,113300
109,113400
109,113500
111,113600
108,113700
108,113800
108,113900
108,114000
108,114100
106,114200
103,114300
103,114400
103,114500
103,114600
103,114700
108,114800
106,114900
106,115000
106,115100
106,115200
106,115300
106,115400
103,115500
103,115600
103,115700
103,115800
103,115900
105,116000
103,116100
103,116200
103,116300
103,116400
103,116500
107,116600
104,116700
104,116800
104,116900
104,117000
104,117100
104,117200
101,117300
101,117400
101,117500
101,117600
101,117700
103,117800
101,117900
101,118000
101,118100
101,118200
101,118300
103,118400
102,118500
102,118600
102,118700
102,118800
102,118900
103,119000
102,119100
102,119200
102,119300
102,119400
102,119500
103,119600
101,119700
101,119800
101,119900
101,120000
101,120100
103,120200
101,120300
101,120400
101,120500
101,120600
101,120700
103,120800
101,120900
101,121000
101,121100
101,121200
101,121300
108,121400
105,121500
105,121600
105,121700
105,121800
105,121900
105,122000
102,122100
102,122200
102,122300
102,122400
102,122500
107,122600
105,122700
105,122800
105,122900
105,123000
105,123100
103,123200
103,123300
103,123400
103,123500
103,123600
103,123700
106,123800
104,123900
104,124000
104,124100
104,124200
104,124300
102,124400
101,124500
101,124600
101,124700
101,124800
101,124900
101,125000
100,125100
100,125200
100,125300
100,125400
100,125500
102,125600
101,125700
101,125800
101,125900
101,126000
101,126100
102,126200
101,126300
101,126400
101,126500
101,126600
101,126700
104,126800
103,126900
103,127000
103,127100
103,127200
103,127300
102,127400
102,127500
102,127600
102,127700
102,127800
102,127900
103,128000
102,128100
102,128200
102,128300
102,128400
102,128500
102,128600
102,128700
102,128800
102,128900
102,129000
102,129100
102,129200
101,129300
101,129400
101,129500
101,129600
101,129700
102,129800
102,129900
102,130000
102,130100
102,130200
102,130300
102,130400
102,130500
102,130600
102,130700
102,130800
102,130900
102,131000
102,131100
102,131200
102,131300
102,131400
102,131500
100,131600
100,131700
100,131800
100,131900
100,132000
100,132100
100,132200
100,132300
100,132400
100,132500
100,132600
100,132700
88,132800
88,132900
88,133000
88,133100
88,133200
88,133300
103,133400
103,133500
103,133600
103,133700
103,133800
103,133900
103,134000
103,134100
103,134200
103,134300
103,134400
103,134500
101,134600
101,134700
101,134800
101,134900
101,135000
101,135100
101,135200
101,135300
101,135400
101,135500
101,135600
101,135700
100,135800
100,135900
100,136000
100,136100
100,136200
100,136300
101,136400
101,136500
101,136600
101,136700
101,136800
101,136900
100,137000
100,137100
100,137200
100,137300
100,137400
100,137500
101,137600
101,137700
101,137800
101,137900
101,138000
101,138100
99,138200
99,138300
99,138400
99,138500
99,138600
99,138700
102,138800
102,138900
102,139000
102,139100
102,139200
102,139300
102,139400
102,139500
102,139600
102,139700
102,139800
102,139900
101,140000
101,140100
101,140200
101,140300
101,140400
101,140500
101,140600
101,140700
101,140800
101,140900
101,141000
101,141100
101,141200
101,141300
101,141400
101,141500
101,141600
105,141700
102,141800
102,141900
102,142000
102,142100
102,142200
102,142300
100,142400
100,142500
100,142600
100,142700
100,142800
105,142900
101,143000
101,143100
101,143200
101,143300
101,143400
101,143500
100,143600
100,143700
100,143800
100,143900
100,144000
105,144100
101,144200
101,144300
101,144400
101,144500
101,144600
101,144700
101,144800
101,144900
101,145000
101,145100
101,145200
105,145300
102,145400
102,145500
102,145600
102,145700
102,145800
105,145900
101,146000
101,146100
101,146200
101,146300
101,146400
109,146500
105,146600
105,146700
105,146800
105,146900
105,147000
106,147100
102,147200
102,147300
102,147400
102,147500
102,147600
108,147700
104,147800
104,147900
104,148000
104,148100
104,148200
104,148300
100,148400
100,148500
100,148600
100,148700
100,148800
104,148900
101,149000
101,149100
101,149200
101,149300
101,149400
105,149500
101,149600
101,149700
101,149800
101,149900
101,150000
103,150100
99,150200
99,150300
99,150400
99,150500
99,150600
104,150700
100,150800
100,150900
100,151000
100,151100
100,151200
104,151300
100,151400
100,151500
100,151600
100,151700
100,151800
104,151900
100,152000
100,152100
100,152200
100,152300
100,152400
103,152500
99,152600
99,152700
99,152800
99,152900
99,153000
103,153100
99,153200
99,153300
99,153400
99,153500
99,153600
104,153700
100,153800
100,153900
100,154000
100,154100
100,154200
102,154300
98,154400
98,154500
98,154600
98,154700
98,154800
104,154900
100,155000
100,155100
100,155200
100,155300
100,155400
102,155500
99,155600
99,155700
99,155800
99,155900
99,156000
102,156100
98,156200
98,156300
98,156400
98,156500
98,156600
103,156700
99,156800
99,156900
99,157000
99,157100
99,157200
104,157300
101,157400
101,157500
101,157600
101,157700
101,157800
103,157900
99,158000
99,158100
99,158200
99,158300
99,158400
104,158500
100,158600
100,158700
100,158800
100,158900
100,159000
102,159100
99,159200
99,159300
99,159400
99,159500
99,159600
102,159700
98,159800
98,159900
98,160000
98,160100
98,160200
104,160300
99,160400
99,160500
99,160600
99,160700
99,160800
103,160900
99,161000
99,161100
99,161200
99,161300
99,161400
104,161500
100,161600
100,161700
100,161800
100,161900
100,162000
103,162100
99,162200
99,162300
99,162400
99,162500
99,162600
108,162700
104,162800
104,162900
104,163000
104,163100
104,163200
103,163300
100,163400
100,163500
100,163600
100,163700
100,163800
102,163900
99,164000
99,164100
99,164200
99,164300
99,164400
103,164500
99,164600
99,164700
99,164800
99,164900
99,165000
103,165100
99,165200
99,165300
99,165400
99,165500
99,165600
90,165700
87,165800
87,165900
87,166000
87,166100
87,166200
103,166300
99,166400
99,166500
99,166600
99,166700
99,166800
104,166900
100,167000
100,167100
100,167200
100,167300
100,167400
103,167500
99,167600
99,167700
99,167800
99,167900
99,168000
103,168100
100,168200
100,168300
100,168400
100,168500
100,168600
103,168700
99,168800
99,168900
99,169000
99,169100
99,169200
106,169300
102,169400
102,169500
102,169600
102,169700
102,169800
103,169900
99,170000
99,170100
99,170200
99,170300
99,170400
104,170500
100,170600
100,170700
100,170800
100,170900
100,171000
101,171100
97,171200
97,171300
97,171400
97,171500
97,171600
103,171700
99,171800
99,171900
99,172000
99,172100
99,172200
103,172300
99,172400
99,172500
99,172600
99,172700
99,172800
103,172900
100,173000
100,173100
100,173200
100,173300
100,173400
102,173500
99,173600
99,173700
99,173800
99,173900
99,174000
103,174100
99,174200
99,174300
99,174400
99,174500
99,174600
104,174700
100,174800
100,174900
100,175000
100,175100
100,175200
103,175300
100,175400
100,175500
100,175600
100,175700
100,175800
103,175900
100,176000
100,176100
100,176200
100,176300
100,176400
104,176500
99,176600
99,176700
99,176800
99,176900
99,177000
103,177100
100,177200
100,177300
100,177400
100,177500
100,177600
103,177700
99,177800
99,177900
99,178000
99,178100
99,178200
104,178300
100,178400
100,178500
100,178600
100,178700
100,178800
103,178900
100,179000
100,179100
100,179200
100,179300
100,179400
103,179500
100,179600
100,179700
100,179800
100,179900
100,180000
103,180100
99,180200
99,180300
99,180400
99,180500
99,180600
103,180700
99,180800
99,180900
99,181000
99,181100
99,181200
102,181300
98,181400
98,181500
98,181600
98,181700
98,181800
103,181900
99,182000
99,182100
99,182200
99,182300
99,182400
103,182500
100,182600
100,182700
100,182800
100,182900
100,183000
103,183100
99,183200
99,183300
99,183400
99,183500
99,183600
102,183700
98,183800
98,183900
98,184000
98,184100
98,184200
102,184300
98,184400
98,184500
98,184600
98,184700
98,184800
102,184900
98,185000
98,185100
98,185200
98,185300
98,185400
101,185500
98,185600
98,185700
98,185800
98,185900
98,186000
103,186100
99,186200
99,186300
99,186400
99,186500
99,186600
101,186700
97,186800
97,186900
97,187000
97,187100
97,187200
100,187300
96,187400
96,187500
96,187600
96,187700
96,187800
102,187900
98,188000
98,188100
98,188200
98,188300
98,188400
102,188500
99,188600
99,188700
99,188800
99,188900
99,189000
103,189100
98,189200
98,189300
98,189400
98,189500
98,189600
102,189700
98,189800
98,189900
98,190000
98,190100
98,190200
102,190300
98,190400
98,190500
98,190600
98,190700
98,190800
103,190900
99,191000
99,191100
99,191200
99,191300
99,191400
104,191500
101,191600
101,191700
101,191800
101,191900
101,192000
103,192100
99,192200
99,192300
99,192400
99,192500
99,192600
102,192700
99,192800
99,192900
99,193000
99,193100
99,193200
102,193300
98,193400
98,193500
98,193600
98,193700
98,193800
104,193900
100,194000
100,194100
100,194200
100,194300
100,194400
102,194500
99,194600
99,194700
99,194800
99,194900
99,195000
103,195100
98,195200
98,195300
98,195400
98,195500
98,195600
103,195700
99,195800
99,195900
99,196000
99,196100
99,196200
103,196300
99,196400
99,196500
99,196600
99,196700
99,196800
102,196900
98,197000
98,197100
98,197200
98,197300
98,197400
103,197500
99,197600
99,197700
99,197800
99,197900
99,198000
103,198100
100,198200
100,198300
100,198400
100,198500
100,198600
95,198700
92,198800
92,198900
92,199000
92,199100
92,199200
103,199300
99,199400
99,199500
99,199600
99,199700
99,199800
103,199900
100,200000
100,200100
100,200200
100,200300
100,200400
103,200500
100,200600
100,200700
100,200800
100,200900
100,201000
103,201100
100,201200
100,201300
100,201400
100,201500
100,201600
103,201700
100,201800
100,201900
100,202000
100,202100
100,202200
102,202300
98,202400
98,202500
98,202600
98,202700
98,202800
103,202900
99,203000
99,203100
99,203200
99,203300
99,203400
103,203500
99,203600
99,203700
99,203800
99,203900
99,204000
91,204100
88,204200
88,204300
88,204400
88,204500
88,204600
105,204700
102,204800
102,204900
102,205000
102,205100
102,205200
103,205300
99,205400
99,205500
99,205600
99,205700
99,205800
104,205900
100,206000
100,206100
100,206200
100,206300
100,206400
103,206500
100,206600
100,206700
100,206800
100,206900
100,207000
104,207100
100,207200
100,207300
100,207400
100,207500
100,207600
104,207700
100,207800
100,207900
100,208000
100,208100
100,208200
102,208300
98,208400
98,208500
98,208600
98,208700
98,208800
103,208900
99,209000
99,209100
99,209200
99,209300
99,209400
102,209500
98,209600
98,209700
98,209800
98,209900
98,210000
102,210100
98,210200
98,210300
98,210400
98,210500
98,210600
102,210700
99,210800
99,210900
99,211000
99,211100
99,211200
102,211300
98,211400
98,211500
98,211600
98,211700
98,211800
101,211900
98,212000
98,212100
98,212200
98,212300
98,212400
102,212500
98,212600
98,212700
98,212800
98,212900
98,213000
101,213100
98,213200
98,213300
98,213400
98,213500
98,213600
102,213700
98,213800
98,213900
98,214000
98,214100
98,214200
102,214300
98,214400
98,214500
98,214600
98,214700
98,214800
102,214900
98,215000
98,215100
98,215200
98,215300
98,215400
102,215500
98,215600
98,215700
98,215800
98,215900
98,216000
102,216100
98,216200
98,216300
98,216400
98,216500
98,216600
103,216700
99,216800
99,216900
99,217000
99,217100
99,217200
102,217300
98,217400
98,217500
98,217600
98,217700
98,217800
104,217900
100,218000
100,218100
100,218200
100,218300
100,218400
102,218500
99,218600
99,218700
99,218800
99,218900
99,219000
103,219100
99,219200
99,219300
99,219400
99,219500
99,219600
102,219700
99,219800
99,219900
99,220000
99,220100
99,220200
102,220300
98,220400
98,220500
98,220600
98,220700
98,220800
104,220900
100,221000
100,221100
100,221200
100,221300
100,221400
104,221500
100,221600
100,221700
100,221800
100,221900
100,222000
104,222100
100,222200
100,222300
100,222400
100,222500
100,222600
104,222700
100,222800
100,222900
100,223000
100,223100
100,223200
104,223300
100,223400
100,223500
100,223600
100,223700
100,223800
104,223900
99,224000
99,224100
99,224200
99,224300
99,224400
104,224500
100,224600
100,224700
100,224800
100,224900
100,225000
104,225100
100,225200
100,225300
100,225400
100,225500
100,225600
104,225700
100,225800
100,225900
100,226000
100,226100
100,226200
105,226300
100,226400
100,226500
100,226600
100,226700
100,226800
104,226900
101,227000
101,227100
101,227200
101,227300
101,227400
106,227500
102,227600
102,227700
102,227800
102,227900
102,228000
105,228100
101,228200
101,228300
101,228400
101,228500
101,228600
104,228700
101,228800
101,228900
101,229000
101,229100
101,229200
105,229300
101,229400
101,229500
101,229600
101,229700
101,229800
105,229900
102,230000
102,230100
102,230200
102,230300
102,230400
105,230500
101,230600
101,230700
101,230800
101,230900
101,231000
107,231100
102,231200
102,231300
102,231400
102,231500
102,231600
103,231700
99,231800
99,231900
99,232000
99,232100
99,232200
105,232300
101,232400
101,232500
101,232600
101,232700
101,232800
105,232900
101,233000
101,233100
101,233200
101,233300
101,233400
106,233500
102,233600
102,233700
102,233800
102,233900
102,234000
106,234100
102,234200
102,234300
102,234400
102,234500
102,234600
106,234700
102,234800
102,234900
102,235000
102,235100
102,235200
104,235300
100,235400
100,235500
100,235600
100,235700
100,235800
104,235900
101,236000
101,236100
101,236200
101,236300
101,236400
104,236500
100,236600
100,236700
100,236800
100,236900
100,237000
81,237100
79,237200
79,237300
79,237400
79,237500
79,237600
104,237700
101,237800
101,237900
101,238000
101,238100
101,238200
105,238300
101,238400
101,238500
101,238600
101,238700
101,238800
106,238900
102,239000
102,239100
102,239200
102,239300
102,239400
105,239500
101,239600
101,239700
101,239800
101,239900
101,240000
104,240100
101,240200
101,240300
101,240400
101,240500
101,240600
102,240700
99,240800
99,240900
99,241000
99,241100
99,241200
103,241300
99,241400
99,241500
99,241600
99,241700
99,241800
106,241900
102,242000
102,242100
102,242200
102,242300
102,242400
106,242500
102,242600
102,242700
102,242800
102,242900
102,243000
105,243100
102,243200
102,243300
102,243400
102,243500
102,243600
106,243700
101,243800
101,243900
101,244000
101,244100
101,244200
106,244300
102,244400
102,244500
102,244600
102,244700
102,244800
106,244900
102,245000
102,245100
102,245200
102,245300
102,245400
106,245500
102,245600
102,245700
102,245800
102,245900
102,246000
106,246100
103,246200
103,246300
103,246400
103,246500
103,246600
105,246700
101,246800
101,246900
101,247000
101,247100
101,247200
105,247300
101,247400
101,247500
101,247600
101,247700
101,247800
108,247900
104,248000
104,248100
104,248200
104,248300
104,248400
108,248500
104,248600
104,248700
104,248800
104,248900
104,249000
108,249100
104,249200
104,249300
104,249400
104,249500
104,249600
108,249700
104,249800
104,249900
104,250000
104,250100
104,250200
107,250300
104,250400
104,250500
104,250600
104,250700
104,250800
108,250900
105,251000
105,251100
105,251200
105,251300
105,251400
108,251500
104,251600
104,251700
104,251800
104,251900
104,252000
108,252100
104,252200
104,252300
104,252400
104,252500
104,252600
108,252700
105,252800
105,252900
105,253000
105,253100
105,253200
108,253300
105,253400
105,253500
105,253600
105,253700
105,253800
109,253900
105,254000
105,254100
105,254200
105,254300
105,254400
109,254500
105,254600
105,254700
105,254800
105,254900
105,255000
110,255100
105,255200
105,255300
105,255400
105,255500
105,255600
110,255700
106,255800
106,255900
106,256000
106,256100
106,256200
110,256300
106,256400
106,256500
106,256600
106,256700
106,256800
110,256900
106,257000
106,257100
106,257200
106,257300
106,257400
110,257500
107,257600
107,257700
107,257800
107,257900
107,258000
111,258100
107,258200
107,258300
107,258400
107,258500
107,258600
111,258700
106,258800
106,258900
106,259000
106,259100
106,259200
112,259300
108,259400
108,259500
108,259600
108,259700
108,259800
111,259900
108,260000
108,260100
108,260200
108,260300
108,260400
112,260500
109,260600
109,260700
109,260800
109,260900
109,261000
113,261100
109,261200
109,261300
109,261400
109,261500
109,261600
111,261700
108,261800
108,261900
108,262000
108,262100
108,262200
112,262300
108,262400
108,262500
108,262600
108,262700
108,262800
113,262900
109,263000
109,263100
109,263200
109,263300
109,263400
113,263500
109,263600
109,263700
109,263800
109,263900
109,264000
113,264100
109,264200
109,264300
109,264400
109,264500
109,264600
113,264700
109,264800
109,264900
109,265000
109,265100
109,265200
110,265300
107,265400
107,265500
107,265600
107,265700
107,265800
111,265900
108,266000
108,266100
108,266200
108,266300
108,266400
114,266500
110,266600
110,266700
110,266800
110,266900
110,267000
112,267100
108,267200
108,267300
108,267400
108,267500
108,267600
112,267700
109,267800
109,267900
109,268000
109,268100
109,268200
113,268300
110,268400
110,268500
110,268600
110,268700
110,268800
112,268900
109,269000
109,269100
109,269200
109,269300
109,269400
114,269500
110,269600
110,269700
110,269800
110,269900
110,270000
96,270100
93,270200
93,270300
93,270400
93,270500
93,270600
114,270700
111,270800
111,270900
111,271000
111,271100
111,271200
114,271300
111,271400
111,271500
111,271600
111,271700
111,271800
115,271900
111,272000
111,272100
111,272200
111,272300
111,272400
115,272500
112,272600
112,272700
112,272800
112,272900
112,273000
116,273100
112,273200
112,273300
112,273400
112,273500
112,273600
116,273700
112,273800
112,273900
112,274000
112,274100
112,274200
116,274300
112,274400
112,274500
112,274600
112,274700
112,274800
117,274900
113,275000
113,275100
113,275200
113,275300
113,275400
114,275500
111,275600
111,275700
111,275800
111,275900
111,276000
118,276100
114,276200
114,276300
114,276400
114,276500
114,276600
117,276700
113,276800
113,276900
113,277000
113,277100
113,277200
118,277300
114,277400
114,277500
114,277600
114,277700
114,277800
120,277900
115,278000
115,278100
115,278200
115,278300
115,278400
120,278500
116,278600
116,278700
116,278800
116,278900
116,279000
121,279100
116,279200
116,279300
116,279400
116,279500
116,279600
120,279700
116,279800
116,279900
116,280000
116,280100
116,280200
120,280300
116,280400
116,280500
116,280600
116,280700
116,280800
122,280900
118,281000
118,281100
118,281200
118,281300
118,281400
121,281500
117,281600
117,281700
117,281800
117,281900
117,282000
122,282100
118,282200
118,282300
118,282400
118,282500
118,282600
124,282700
120,282800
120,282900
120,283000
120,283100
120,283200
124,283300
119,283400
119,283500
119,283600
119,283700
119,283800
124,283900
120,284000
120,284100
120,284200
120,284300
120,284400
125,284500
121,284600
121,284700
121,284800
121,284900
121,285000
125,285100
121,285200
121,285300
121,285400
121,285500
121,285600
126,285700
122,285800
122,285900
122,286000
122,286100
122,286200
127,286300
122,286400
122,286500
122,286600
122,286700
122,286800
127,286900
123,287000
123,287100
123,287200
123,287300
123,287400
127,287500
123,287600
123,287700
123,287800
123,287900
123,288000
128,288100
124,288200
124,288300
124,288400
124,288500
124,288600
129,288700
125,288800
125,288900
125,289000
125,289100
125,289200
130,289300
125,289400
125,289500
125,289600
125,289700
125,289800
131,289900
127,290000
127,290100
127,290200
127,290300
127,290400
131,290500
127,290600
127,290700
127,290800
127,290900
127,291000
132,291100
127,291200
127,291300
127,291400
127,291500
127,291600
130,291700
126,291800
126,291900
126,292000
126,292100
126,292200
132,292300
128,292400
128,292500
128,292600
128,292700
128,292800
133,292900
128,293000
128,293100
128,293200
128,293300
128,293400
134,293500
129,293600
129,293700
129,293800
129,293900
129,294000
134,294100
131,294200
131,294300
131,294400
131,294500
131,294600
135,294700
131,294800
131,294900
131,295000
131,295100
131,295200
136,295300
132,295400
132,295500
132,295600
132,295700
132,295800
138,295900
132,296000
132,296100
132,296200
132,296300
132,296400
136,296500
132,296600
132,296700
132,296800
132,296900
132,297000
137,297100
133,297200
133,297300
133,297400
133,297500
133,297600
139,297700
134,297800
134,297900
134,298000
134,298100
134,298200
140,298300
135,298400
135,298500
135,298600
135,298700
135,298800
141,298900
137,299000
137,299100
137,299200
137,299300
137,299400
142,299500
137,299600
137,299700
137,299800
137,299900
137,300000
142,300100
138,300200
138,300300
138,300400
138,300500
138,300600
144,300700
139,300800
139,300900
139,301000
139,301100
139,301200
147,301300
142,301400
142,301500
142,301600
142,301700
142,301800
148,301900
143,302000
143,302100
143,302200
143,302300
143,302400
149,302500
145,302600
145,302700
145,302800
145,302900
145,303000
139,303100
135,303200
135,303300
135,303400
135,303500
135,303600
149,303700
144,303800
144,303900
144,304000
144,304100
144,304200
153,304300
147,304400
147,304500
147,304600
147,304700
147,304800
154,304900
149,305000
149,305100
149,305200
149,305300
149,305400
156,305500
151,305600
151,305700
151,305800
151,305900
151,306000
156,306100
151,306200
151,306300
151,306400
151,306500
151,306600
159,306700
154,306800
154,306900
154,307000
154,307100
154,307200
160,307300
154,307400
154,307500
154,307600
154,307700
154,307800
161,307900
155,308000
155,308100
155,308200
155,308300
155,308400
131,308500
126,308600
126,308700
126,308800
126,308900
126,309000
164,309100
158,309200
158,309300
158,309400
158,309500
158,309600
166,309700
161,309800
161,309900
161,310000
161,310100
161,310200
167,310300
162,310400
162,310500
162,310600
162,310700
162,310800
169,310900
163,311000
163,311100
163,311200
163,311300
163,311400
171,311500
165,311600
165,311700
165,311800
165,311900
165,312000
172,312100
166,312200
166,312300
166,312400
166,312500
166,312600
174,312700
169,312800
169,312900
169,313000
169,313100
169,313200
176,313300
170,313400
170,313500
170,313600
170,313700
170,313800
177,313900
172,314000
172,314100
172,314200
172,314300
172,314400
179,314500
174,314600
174,314700
174,314800
174,314900
174,315000
181,315100
175,315200
175,315300
175,315400
175,315500
175,315600
183,315700
177,315800
177,315900
177,316000
177,316100
177,316200
185,316300
179,316400
179,316500
179,316600
179,316700
179,316800
185,316900
178,317000
178,317100
178,317200
178,317300
178,317400
186,317500
180,317600
180,317700
180,317800
180,317900
180,318000
192,318100
185,318200
185,318300
185,318400
185,318500
185,318600
191,318700
185,318800
185,318900
185,319000
185,319100
185,319200
193,319300
187,319400
187,319500
187,319600
187,319700
187,319800
195,319900
188,320000
188,320100
188,320200
188,320300
188,320400
197,320500
190,320600
190,320700
190,320800
190,320900
190,321000
200,321100
193,321200
193,321300
193,321400
193,321500
193,321600
201,321700
195,321800
195,321900
195,322000
195,322100
195,322200
204,322300
197,322400
197,322500
197,322600
197,322700
197,322800
206,322900
200,323000
200,323100
200,323200
200,323300
200,323400
211,323500
205,323600
205,323700
205,323800
205,323900
205,324000
215,324100
207,324200
207,324300
207,324400
207,324500
207,324600
216,324700
208,324800
208,324900
208,325000
208,325100
208,325200
220,325300
213,325400
213,325500
213,325600
213,325700
213,325800
223,325900
215,326000
215,326100
215,326200
215,326300
215,326400
225,326500
219,326600
219,326700
219,326800
219,326900
219,327000
228,327100
221,327200
221,327300
221,327400
221,327500
221,327600
232,327700
224,327800
224,327900
224,328000
224,328100
224,328200
236,328300
229,328400
229,328500
229,328600
229,328700
229,328800
239,328900
232,329000
232,329100
232,329200
232,329300
232,329400
242,329500
234,329600
234,329700
234,329800
234,329900
234,330000
245,330100
237,330200
237,330300
237,330400
237,330500
237,330600
247,330700
239,330800
239,330900
239,331000
239,331100
239,331200
250,331300
243,331400
243,331500
243,331600
243,331700
243,331800
252,331900
244,332000
244,332100
244,332200
244,332300
244,332400
257,332500
248,332600
248,332700
248,332800
248,332900
248,333000
260,333100
252,333200
252,333300
252,333400
252,333500
252,333600
263,333700
254,333800
254,333900
254,334000
254,334100
254,334200
266,334300
258,334400
258,334500
258,334600
258,334700
258,334800
270,334900
261,335000
261,335100
261,335200
261,335300
261,335400
272,335500
264,335600
264,335700
264,335800
264,335900
264,336000
258,336100
250,336200
250,336300
250,336400
250,336500
250,336600
277,336700
268,336800
268,336900
268,337000
268,337100
268,337200
281,337300
271,337400
271,337500
271,337600
271,337700
271,337800
284,337900
274,338000
274,338100
274,338200
274,338300
274,338400
287,338500
277,338600
277,338700
277,338800
277,338900
277,339000
290,339100
280,339200
280,339300
280,339400
280,339500
280,339600
293,339700
283,339800
283,339900
283,340000
283,340100
283,340200
295,340300
286,340400
286,340500
286,340600
286,340700
286,340800
297,340900
287,341000
287,341100
287,341200
287,341300
287,341400
264,341500
256,341600
256,341700
256,341800
256,341900
256,342000
298,342100
289,342200
289,342300
289,342400
289,342500
289,342600
302,342700
292,342800
292,342900
292,343000
292,343100
292,343200
305,343300
295,343400
295,343500
295,343600
295,343700
295,343800
309,343900
299,344000
299,344100
299,344200
299,344300
299,344400
312,344500
302,344600
302,344700
302,344800
302,344900
302,345000
316,345100
306,345200
306,345300
306,345400
306,345500
306,345600
320,345700
309,345800
309,345900
309,346000
309,346100
309,346200
322,346300
312,346400
312,346500
312,346600
312,346700
312,346800
311,346900
301,347000
301,347100
301,347200
301,347300
301,347400
328,347500
317,347600
317,347700
317,347800
317,347900
317,348000
331,348100
320,348200
320,348300
320,348400
320,348500
320,348600
332,348700
321,348800
321,348900
321,349000
321,349100
321,349200
334,349300
324,349400
324,349500
324,349600
324,349700
324,349800
336,349900
325,350000
325,350100
325,350200
325,350300
325,350400
338,350500
328,350600
328,350700
328,350800
328,350900
328,351000
341,351100
330,351200
330,351300
330,351400
330,351500
330,351600
342,351700
331,351800
331,351900
331,352000
331,352100
331,352200
346,352300
335,352400
335,352500
335,352600
335,352700
335,352800
347,352900
336,353000
336,353100
336,353200
336,353300
336,353400
350,353500
339,353600
339,353700
339,353800
339,353900
339,354000
351,354100
341,354200
341,354300
341,354400
341,354500
341,354600
355,354700
344,354800
344,354900
344,355000
344,355100
344,355200
356,355300
345,355400
345,355500
345,355600
345,355700
345,355800
359,355900
348,356000
348,356100
348,356200
348,356300
348,356400
362,356500
350,356600
350,356700
350,356800
350,356900
350,357000
364,357100
352,357200
352,357300
352,357400
352,357500
352,357600
368,357700
356,357800
356,357900
356,358000
356,358100
356,358200
370,358300
358,358400
358,358500
358,358600
358,358700
358,358800
371,358900
360,359000
360,359100
360,359200
360,359300
360,359400
372,359500
360,359600
360,359700
360,359800
360,359900
360,360000
373,360100
361,360200
361,360300
361,360400
361,360500
361,360600
375,360700
363,360800
363,360900
363,361000
363,361100
363,361200
379,361300
366,361400
366,361500
366,361600
366,361700
366,361800
378,361900
366,362000
366,362100
366,362200
366,362300
366,362400
381,362500
369,362600
369,362700
369,362800
369,362900
369,363000
382,363100
368,363200
368,363300
368,363400
368,363500
368,363600
382,363700
369,363800
369,363900
369,364000
369,364100
369,364200
384,364300
372,364400
372,364500
372,364600
372,364700
372,364800
385,364900
373,365000
373,365100
373,365200
373,365300
373,365400
388,365500
375,365600
375,365700
375,365800
375,365900
375,366000
387,366100
375,366200
375,366300
375,366400
375,366500
375,366600
389,366700
376,366800
376,366900
376,367000
376,367100
376,367200
390,367300
377,367400
377,367500
377,367600
377,367700
377,367800
393,367900
381,368000
381,368100
381,368200
381,368300
381,368400
394,368500
381,368600
381,368700
381,368800
381,368900
381,369000
389,369100
376,369200
376,369300
376,369400
376,369500
376,369600
394,369700
381,369800
381,369900
381,370000
381,370100
381,370200
396,370300
384,370400
384,370500
384,370600
384,370700
384,370800
398,370900
385,371000
385,371100
385,371200
385,371300
385,371400
399,371500
387,371600
387,371700
387,371800
387,371900
387,372000
398,372100
384,372200
384,372300
384,372400
384,372500
384,372600
400,372700
387,372800
387,372900
387,373000
387,373100
387,373200
402,373300
389,373400
389,373500
389,373600
389,373700
389,373800
404,373900
390,374000
390,374100
390,374200
390,374300
390,374400
400,374500
386,374600
386,374700
386,374800
386,374900
386,375000
408,375100
394,375200
394,375300
394,375400
394,375500
394,375600
410,375700
397,375800
397,375900
397,376000
397,376100
397,376200
412,376300
399,376400
399,376500
399,376600
399,376700
399,376800
414,376900
400,377000
400,377100
400,377200
400,377300
400,377400
415,377500
402,377600
402,377700
402,377800
402,377900
402,378000
417,378100
403,378200
403,378300
403,378400
403,378500
403,378600
417,378700
403,378800
403,378900
403,379000
403,379100
403,379200
420,379300
406,379400
406,379500
406,379600
406,379700
406,379800
391,379900
379,380000
379,380100
379,380200
379,380300
379,380400
420,380500
406,380600
406,380700
406,380800
406,380900
406,381000
423,381100
410,381200
410,381300
410,381400
410,381500
410,381600
426,381700
412,381800
412,381900
412,382000
412,382100
412,382200
426,382300
412,382400
412,382500
412,382600
412,382700
412,382800
426,382900
412,383000
412,383100
412,383200
412,383300
412,383400
427,383500
413,383600
413,383700
413,383800
413,383900
413,384000
425,384100
411,384200
411,384300
411,384400
411,384500
411,384600
426,384700
412,384800
412,384900
412,385000
412,385100
412,385200
426,385300
412,385400
412,385500
412,385600
412,385700
412,385800
428,385900
414,386000
414,386100
414,386200
414,386300
414,386400
429,386500
415,386600
415,386700
415,386800
415,386900
415,387000
430,387100
416,387200
416,387300
416,387400
416,387500
416,387600
430,387700
417,387800
417,387900
417,388000
417,388100
417,388200
432,388300
417,388400
417,388500
417,388600
417,388700
417,388800
431,388900
417,389000
417,389100
417,389200
417,389300
417,389400
432,389500
418,389600
418,389700
418,389800
418,389900
418,390000
434,390100
420,390200
420,390300
420,390400
420,390500
420,390600
434,390700
420,390800
420,390900
420,391000
420,391100
420,391200
437,391300
423,391400
423,391500
423,391600
423,391700
423,391800
437,391900
423,392000
423,392100
423,392200
423,392300
423,392400
439,392500
424,392600
424,392700
424,392800
424,392900
424,393000
439,393100
425,393200
425,393300
425,393400
425,393500
425,393600
439,393700
425,393800
425,393900
425,394000
425,394100
425,394200
440,394300
427,394400
427,394500
427,394600
427,394700
427,394800
440,394900
427,395000
427,395100
427,395200
427,395300
427,395400
440,395500
426,395600
426,395700
426,395800
426,395900
426,396000
438,396100
424,396200
424,396300
424,396400
424,396500
424,396600
441,396700
427,396800
427,396900
427,397000
427,397100
427,397200
442,397300
428,397400
428,397500
428,397600
428,397700
428,397800
443,397900
429,398000
429,398100
429,398200
429,398300
429,398400
443,398500
428,398600
428,398700
428,398800
428,398900
428,399000
443,399100
429,399200
429,399300
429,399400
429,399500
429,399600
444,399700
430,399800
430,399900
430,400000
430,400100
430,400200
443,400300
429,400400
429,400500
429,400600
429,400700
429,400800
443,400900
429,401000
429,401100
429,401200
429,401300
429,401400
444,401500
430,401600
430,401700
430,401800
430,401900
430,402000
442,402100
428,402200
428,402300
428,402400
428,402500
428,402600
445,402700
430,402800
430,402900
430,403000
430,403100
430,403200
446,403300
432,403400
432,403500
432,403600
432,403700
432,403800
446,403900
432,404000
432,404100
432,404200
432,404300
432,404400
446,404500
432,404600
432,404700
432,404800
432,404900
432,405000
448,405100
433,405200
433,405300
433,405400
433,405500
433,405600
446,405700
432,405800
432,405900
432,406000
432,406100
432,406200
447,406300
433,406400
433,406500
433,406600
433,406700
433,406800
450,406900
436,407000
436,407100
436,407200
436,407300
436,407400
438,407500
425,407600
425,407700
425,407800
425,407900
425,408000
449,408100
435,408200
435,408300
435,408400
435,408500
435,408600
448,408700
434,408800
434,408900
434,409000
434,409100
434,409200
448,409300
435,409400
435,409500
435,409600
435,409700
435,409800
450,409900
436,410000
436,410100
436,410200
436,410300
436,410400
453,410500
439,410600
439,410700
439,410800
439,410900
439,411000
451,411100
438,411200
438,411300
438,411400
438,411500
438,411600
450,411700
436,411800
436,411900
436,412000
436,412100
436,412200
448,412300
436,412400
436,412500
436,412600
436,412700
436,412800
430,412900
417,413000
417,413100
417,413200
417,413300
417,413400
448,413500
434,413600
434,413700
434,413800
434,413900
434,414000
449,414100
435,414200
435,414300
435,414400
435,414500
435,414600
449,414700
436,414800
436,414900
436,415000
436,415100
436,415200
449,415300
436,415400
436,415500
436,415600
436,415700
436,415800
449,415900
436,416000
436,416100
436,416200
436,416300
436,416400
450,416500
438,416600
438,416700
438,416800
438,416900
438,417000
453,417100
440,417200
440,417300
440,417400
440,417500
440,417600
451,417700
438,417800
438,417900
438,418000
438,418100
438,418200
450,418300
441,418400
441,418500
441,418600
441,418700
441,418800
456,418900
443,419000
443,419100
443,419200
443,419300
443,419400
453,419500
444,419600
444,419700
444,419800
444,419900
444,420000
457,420100
445,420200
445,420300
445,420400
445,420500
445,420600
449,420700
440,420800
440,420900
440,421000
440,421100
440,421200
450,421300
441,421400
441,421500
441,421600
441,421700
441,421800
453,421900
445,422000
445,422100
445,422200
445,422300
445,422400
453,422500
444,422600
444,422700
444,422800
444,422900
444,423000
454,423100
445,423200
445,423300
445,423400
445,423500
445,423600
454,423700
445,423800
445,423900
445,424000
445,424100
445,424200
454,424300
445,424400
445,424500
445,424600
445,424700
445,424800
454,424900
445,425000
445,425100
445,425200
445,425300
445,425400
455,425500
446,425600
446,425700
446,425800
446,425900
446,426000
455,426100
447,426200
447,426300
447,426400
447,426500
447,426600
455,426700
447,426800
447,426900
447,427000
447,427100
447,427200
456,427300
447,427400
447,427500
447,427600
447,427700
447,427800
456,427900
447,428000
447,428100
447,428200
447,428300
447,428400
456,428500
447,428600
447,428700
447,428800
447,428900
447,429000
458,429100
447,429200
447,429300
447,429400
447,429500
447,429600
459,429700
450,429800
450,429900
450,430000
450,430100
450,430200
460,430300
450,430400
450,430500
450,430600
450,430700
450,430800
465,430900
452,431000
452,431100
452,431200
452,431300
452,431400
459,431500
450,431600
450,431700
450,431800
450,431900
450,432000
460,432100
451,432200
451,432300
451,432400
451,432500
451,432600
461,432700
452,432800
452,432900
452,433000
452,433100
452,433200
466,433300
457,433400
457,433500
457,433600
457,433700
457,433800
464,433900
455,434000
455,434100
455,434200
455,434300
455,434400
466,434500
456,434600
456,434700
456,434800
456,434900
456,435000
461,435100
457,435200
457,435300
457,435400
457,435500
457,435600
466,435700
458,435800
458,435900
458,436000
458,436100
458,436200
461,436300
456,436400
456,436500
456,436600
456,436700
456,436800
464,436900
455,437000
455,437100
455,437200
455,437300
455,437400
462,437500
458,437600
458,437700
458,437800
458,437900
458,438000
468,438100
460,438200
460,438300
460,438400
460,438500
460,438600
469,438700
460,438800
460,438900
460,439000
460,439100
460,439200
469,439300
460,439400
460,439500
460,439600
460,439700
460,439800
468,439900
459,440000
459,440100
459,440200
459,440300
459,440400
455,440500
446,440600
446,440700
446,440800
446,440900
446,441000
464,441100
455,441200
455,441300
455,441400
455,441500
455,441600
459,441700
455,441800
455,441900
455,442000
455,442100
455,442200
465,442300
456,442400
456,442500
456,442600
456,442700
456,442800
461,442900
456,443000
456,443100
456,443200
456,443300
456,443400
467,443500
459,443600
459,443700
459,443800
459,443900
459,444000
461,444100
456,444200
456,444300
456,444400
456,444500
456,444600
469,444700
460,444800
460,444900
460,445000
460,445100
460,445200
463,445300
458,445400
458,445500
458,445600
458,445700
458,445800
465,445900
460,446000
460,446100
460,446200
460,446300
460,446400
467,446500
463,446600
463,446700
463,446800
463,446900
463,447000
469,447100
464,447200
464,447300
464,447400
464,447500
464,447600
468,447700
464,447800
464,447900
464,448000
464,448100
464,448200
468,448300
464,448400
464,448500
464,448600
464,448700
464,448800
464,448900
464,449000
464,449100
464,449200
464,449300
464,449400
470,449500
465,449600
465,449700
465,449800
465,449900
465,450000
467,450100
467,450200
467,450300
467,450400
467,450500
467,450600
471,450700
466,450800
466,450900
466,451000
466,451100
466,451200
445,451300
445,451400
445,451500
445,451600
445,451700
445,451800
466,451900
462,452000
462,452100
462,452200
462,452300
462,452400
467,452500
467,452600
467,452700
467,452800
467,452900
467,453000
471,453100
466,453200
466,453300
466,453400
466,453500
466,453600
467,453700
467,453800
467,453900
467,454000
467,454100
467,454200
472,454300
467,454400
467,454500
467,454600
467,454700
467,454800
469,454900
469,455000
469,455100
469,455200
469,455300
469,455400
468,455500
468,455600
468,455700
468,455800
468,455900
468,456000
468,456100
468,456200
468,456300
468,456400
468,456500
468,456600
469,456700
469,456800
469,456900
469,457000
469,457100
469,457200
468,457300
468,457400
468,457500
468,457600
468,457700
468,457800
469,457900
469,458000
469,458100
469,458200
469,458300
469,458400
471,458500
471,458600
471,458700
471,458800
471,458900
471,459000
469,459100
469,459200
469,459300
469,459400
469,459500
469,459600
469,459700
469,459800
469,459900
469,460000
469,460100
469,460200
471,460300
471,460400
471,460500
471,460600
471,460700
471,460800
470,460900
470,461000
470,461100
470,461200
470,461300
470,461400
469,461500
469,461600
469,461700
469,461800
469,461900
469,462000
468,462100
468,462200
468,462300
468,462400
468,462500
468,462600
470,462700
470,462800
470,462900
470,463000
470,463100
470,463200
469,463300
469,463400
469,463500
469,463600
469,463700
469,463800
471,463900
471,464000
471,464100
471,464200
471,464300
471,464400
472,464500
472,464600
472,464700
472,464800
472,464900
472,465000
470,465100
470,465200
470,465300
470,465400
470,465500
490,465600
472,465700
472,465800
472,465900
472,466000
472,466100
472,466200
472,466300
472,466400
472,466500
472,466600
472,466700
491,466800
473,466900
473,467000
473,467100
473,467200
473,467300
489,467400
470,467500
470,467600
470,467700
470,467800
470,467900
490,468000
472,468100
472,468200
472,468300
472,468400
472,468500
491,468600
473,468700
473,468800
473,468900
473,469000
473,469100
490,469200
472,469300
472,469400
472,469500
472,469600
472,469700
491,469800
473,469900
473,470000
473,470100
473,470200
473,470300
491,470400
473,470500
473,470600
473,470700
473,470800
473,470900
491,471000
472,471100
472,471200
472,471300
472,471400
472,471500
491,471600
473,471700
473,471800
473,471900
473,472000
473,472100
492,472200
474,472300
474,472400
474,472500
474,472600
474,472700
491,472800
472,472900
472,473000
472,473100
472,473200
472,473300
477,473400
459,473500
459,473600
459,473700
459,473800
459,473900
488,474000
470,474100
470,474200
470,474300
470,474400
470,474500
488,474600
470,474700
470,474800
470,474900
470,475000
470,475100
489,475200
470,475300
470,475400
470,475500
470,475600
470,475700
490,475800
472,475900
472,476000
472,476100
472,476200
472,476300
489,476400
471,476500
471,476600
471,476700
471,476800
471,476900
489,477000
471,477100
471,477200
471,477300
471,477400
471,477500
490,477600
471,477700
471,477800
471,477900
471,478000
471,478100
490,478200
472,478300
472,478400
472,478500
472,478600
472,478700
490,478800
471,478900
471,479000
471,479100
471,479200
471,479300
490,479400
472,479500
472,479600
472,479700
472,479800
472,479900
490,480000
472,480100
472,480200
472,480300
472,480400
472,480500
492,480600
474,480700
474,480800
474,480900
474,481000
474,481100
492,481200
474,481300
474,481400
474,481500
474,481600
474,481700
495,481800
477,481900
477,482000
477,482100
477,482200
477,482300
494,482400
475,482500
475,482600
475,482700
475,482800
475,482900
492,483000
474,483100
474,483200
474,483300
474,483400
474,483500
492,483600
474,483700
474,483800
474,483900
474,484000
474,484100
471,484200
454,484300
454,484400
454,484500
454,484600
454,484700
491,484800
473,484900
473,485000
473,485100
473,485200
473,485300
495,485400
476,485500
476,485600
476,485700
476,485800
476,485900
493,486000
475,486100
475,486200
475,486300
475,486400
475,486500
495,486600
477,486700
477,486800
477,486900
477,487000
477,487100
498,487200
480,487300
480,487400
480,487500
480,487600
480,487700
501,487800
482,487900
482,488000
482,488100
482,488200
482,488300
498,488400
480,488500
480,488600
480,488700
480,488800
480,488900
495,489000
477,489100
477,489200
477,489300
477,489400
477,489500
498,489600
480,489700
480,489800
480,489900
480,490000
480,490100
494,490200
476,490300
476,490400
476,490500
476,490600
476,490700
497,490800
479,490900
479,491000
479,491100
479,491200
479,491300
498,491400
480,491500
480,491600
480,491700
480,491800
480,491900
499,492000
481,492100
481,492200
481,492300
481,492400
481,492500
499,492600
481,492700
481,492800
481,492900
481,493000
481,493100
495,493200
477,493300
477,493400
477,493500
477,493600
477,493700
496,493800
478,493900
478,494000
478,494100
478,494200
478,494300
498,494400
481,494500
481,494600
481,494700
481,494800
481,494900
495,495000
477,495100
477,495200
477,495300
477,495400
477,495500
498,495600
480,495700
480,495800
480,495900
480,496000
480,496100
497,496200
479,496300
479,496400
479,496500
479,496600
479,496700
499,496800
481,496900
481,497000
481,497100
481,497200
481,497300
498,497400
481,497500
481,497600
481,497700
481,497800
481,497900
499,498000
481,498100
481,498200
481,498300
481,498400
481,498500
498,498600
481,498700
481,498800
481,498900
481,499000
481,499100
497,499200
479,499300
479,499400
479,499500
479,499600
479,499700
497,499800
479,499900
479,500000
479,500100
479,500200
479,500300
495,500400
477,500500
477,500600
477,500700
477,500800
477,500900
495,501000
477,501100
477,501200
477,501300
477,501400
477,501500
496,501600
477,501700
477,501800
477,501900
477,502000
477,502100
495,502200
478,502300
478,502400
478,502500
478,502600
478,502700
498,502800
480,502900
480,503000
480,503100
480,503200
480,503300
495,503400
478,503500
478,503600
478,503700
478,503800
478,503900
497,504000
480,504100
480,504200
480,504300
480,504400
480,504500
497,504600
480,504700
480,504800
480,504900
480,505000
480,505100
498,505200
480,505300
480,505400
480,505500
480,505600
480,505700
497,505800
480,505900
480,506000
480,506100
480,506200
480,506300
480,506400
463,506500
463,506600
463,506700
463,506800
463,506900
495,507000
478,507100
478,507200
478,507300
478,507400
478,507500
498,507600
480,507700
480,507800
480,507900
480,508000
480,508100
496,508200
478,508300
478,508400
478,508500
478,508600
478,508700
498,508800
480,508900
480,509000
480,509100
480,509200
480,509300
499,509400
481,509500
481,509600
481,509700
481,509800
481,509900
498,510000
481,510100
481,510200
481,510300
481,510400
481,510500
496,510600
479,510700
479,510800
479,510900
479,511000
479,511100
496,511200
478,511300
478,511400
478,511500
478,511600
478,511700
496,511800
478,511900
478,512000
478,512100
478,512200
478,512300
493,512400
476,512500
476,512600
476,512700
476,512800
476,512900
495,513000
478,513100
478,513200
478,513300
478,513400
478,513500
497,513600
479,513700
479,513800
479,513900
479,514000
479,514100
497,514200
480,514300
480,514400
480,514500
480,514600
480,514700
499,514800
481,514900
481,515000
481,515100
481,515200
481,515300
498,515400
481,515500
481,515600
481,515700
481,515800
481,515900
497,516000
479,516100
479,516200
479,516300
479,516400
479,516500
497,516600
479,516700
479,516800
479,516900
479,517000
479,517100
479,517200
462,517300
462,517400
462,517500
462,517600
462,517700
494,517800
477,517900
477,518000
477,518100
477,518200
477,518300
498,518400
480,518500
480,518600
480,518700
480,518800
480,518900
499,519000
481,519100
481,519200
481,519300
481,519400
481,519500
497,519600
480,519700
480,519800
480,519900
480,520000
480,520100
500,520200
482,520300
482,520400
482,520500
482,520600
482,520700
500,520800
482,520900
482,521000
482,521100
482,521200
482,521300
501,521400
483,521500
483,521600
483,521700
483,521800
483,521900
498,522000
480,522100
480,522200
480,522300
480,522400
480,522500
500,522600
483,522700
483,522800
483,522900
483,523000
483,523100
499,523200
482,523300
482,523400
482,523500
482,523600
482,523700
500,523800
482,523900
482,524000
482,524100
482,524200
482,524300
501,524400
483,524500
483,524600
483,524700
483,524800
483,524900
502,525000
484,525100
484,525200
484,525300
484,525400
484,525500
499,525600
482,525700
482,525800
482,525900
482,526000
482,526100
499,526200
482,526300
482,526400
482,526500
482,526600
482,526700
498,526800
481,526900
481,527000
481,527100
481,527200
481,527300
499,527400
482,527500
482,527600
482,527700
482,527800
482,527900
496,528000
481,528100
481,528200
481,528300
481,528400
481,528500
500,528600
482,528700
482,528800
482,528900
482,529000
482,529100
501,529200
483,529300
483,529400
483,529500
483,529600
483,529700
501,529800
483,529900
483,530000
483,530100
483,530200
483,530300
501,530400
483,530500
483,530600
483,530700
483,530800
483,530900
502,531000
485,531100
485,531200
485,531300
485,531400
485,531500
503,531600
485,531700
485,531800
485,531900
485,532000
485,532100
502,532200
485,532300
485,532400
485,532500
485,532600
485,532700
502,532800
485,532900
485,533000
485,533100
485,533200
485,533300
501,533400
484,533500
484,533600
484,533700
484,533800
484,533900
501,534000
483,534100
483,534200
483,534300
483,534400
483,534500
500,534600
483,534700
483,534800
483,534900
483,535000
483,535100
502,535200
484,535300
484,535400
484,535500
484,535600
484,535700
501,535800
483,535900
483,536000
483,536100
483,536200
483,536300
502,536400
484,536500
484,536600
484,536700
484,536800
484,536900
500,537000
483,537100
483,537200
483,537300
483,537400
483,537500
502,537600
484,537700
484,537800
484,537900
484,538000
484,538100
502,538200
485,538300
485,538400
485,538500
485,538600
485,538700
502,538800
485,538900
485,539000
485,539100
485,539200
485,539300
488,539400
470,539500
470,539600
470,539700
470,539800
470,539900
497,540000
480,540100
480,540200
480,540300
480,540400
480,540500
499,540600
482,540700
482,540800
482,540900
482,541000
482,541100
500,541200
483,541300
483,541400
483,541500
483,541600
483,541700
501,541800
484,541900
484,542000
484,542100
484,542200
484,542300
500,542400
483,542500
483,542600
483,542700
483,542800
483,542900
501,543000
484,543100
484,543200
484,543300
484,543400
484,543500
502,543600
485,543700
485,543800
485,543900
485,544000
485,544100
500,544200
484,544300
484,544400
484,544500
484,544600
484,544700
498,544800
481,544900
481,545000
481,545100
481,545200
481,545300
500,545400
483,545500
483,545600
483,545700
483,545800
483,545900
500,546000
484,546100
484,546200
484,546300
484,546400
484,546500
502,546600
485,546700
485,546800
485,546900
485,547000
485,547100
501,547200
485,547300
485,547400
485,547500
485,547600
485,547700
501,547800
485,547900
485,548000
485,548100
485,548200
485,548300
501,548400
485,548500
485,548600
485,548700
485,548800
485,548900
501,549000
485,549100
485,549200
485,549300
485,549400
485,549500
502,549600
486,549700
486,549800
486,549900
486,550000
486,550100
483,550200
468,550300
468,550400
468,550500
468,550600
468,550700
495,550800
478,550900
478,551000
478,551100
478,551200
478,551300
500,551400
484,551500
484,551600
484,551700
484,551800
484,551900
499,552000
482,552100
482,552200
482,552300
482,552400
482,552500
500,552600
483,552700
483,552800
483,552900
483,553000
483,553100
500,553200
484,553300
484,553400
484,553500
484,553600
484,553700
500,553800
483,553900
483,554000
483,554100
483,554200
483,554300
502,554400
485,554500
485,554600
485,554700
485,554800
485,554900
503,555000
486,555100
486,555200
486,555300
486,555400
486,555500
502,555600
487,555700
487,555800
487,555900
487,556000
487,556100
501,556200
485,556300
485,556400
485,556500
485,556600
485,556700
501,556800
485,556900
485,557000
485,557100
485,557200
485,557300
501,557400
485,557500
485,557600
485,557700
485,557800
485,557900
500,558000
483,558100
483,558200
483,558300
483,558400
483,558500
501,558600
484,558700
484,558800
484,558900
484,559000
484,559100
500,559200
484,559300
484,559400
484,559500
484,559600
484,559700
499,559800
482,559900
482,560000
482,560100
482,560200
482,560300
499,560400
483,560500
483,560600
483,560700
483,560800
483,560900
498,561000
484,561100
484,561200
484,561300
484,561400
484,561500
501,561600
485,561700
485,561800
485,561900
485,562000
485,562100
500,562200
485,562300
485,562400
485,562500
485,562600
485,562700
501,562800
484,562900
484,563000
484,563100
484,563200
484,563300
499,563400
483,563500
483,563600
483,563700
483,563800
483,563900
500,564000
484,564100
484,564200
484,564300
484,564400
484,564500
501,564600
485,564700
485,564800
485,564900
485,565000
485,565100
502,565200
486,565300
486,565400
486,565500
486,565600
486,565700
502,565800
486,565900
486,566000
486,566100
486,566200
486,566300
502,566400
486,566500
486,566600
486,566700
486,566800
486,566900
503,567000
487,567100
487,567200
487,567300
487,567400
487,567500
502,567600
488,567700
488,567800
488,567900
488,568000
488,568100
500,568200
484,568300
484,568400
484,568500
484,568600
484,568700
499,568800
485,568900
485,569000
485,569100
485,569200
485,569300
502,569400
486,569500
486,569600
486,569700
486,569800
486,569900
500,570000
485,570100
485,570200
485,570300
485,570400
485,570500
501,570600
485,570700
485,570800
485,570900
485,571000
485,571100
500,571200
486,571300
486,571400
486,571500
486,571600
486,571700
501,571800
486,571900
486,572000
486,572100
486,572200
486,572300
484,572400
470,572500
470,572600
470,572700
470,572800
470,572900
496,573000
482,573100
482,573200
482,573300
482,573400
482,573500
500,573600
486,573700
486,573800
486,573900
486,574000
486,574100
496,574200
486,574300
486,574400
486,574500
486,574600
486,574700
496,574800
486,574900
486,575000
486,575100
486,575200
486,575300
496,575400
486,575500
486,575600
486,575700
486,575800
486,575900
494,576000
484,576100
484,576200
484,576300
484,576400
484,576500
493,576600
484,576700
484,576800
484,576900
484,577000
484,577100
493,577200
484,577300
484,577400
484,577500
484,577600
484,577700
494,577800
484,577900
484,578000
484,578100
484,578200
484,578300
494,578400
484,578500
484,578600
484,578700
484,578800
484,578900
494,579000
484,579100
484,579200
484,579300
484,579400
484,579500
494,579600
485,579700
485,579800
485,579900
485,580000
485,580100
495,580200
486,580300
486,580400
486,580500
486,580600
486,580700
491,580800
486,580900
486,581000
486,581100
486,581200
486,581300
495,581400
485,581500
485,581600
485,581700
485,581800
485,581900
490,582000
485,582100
485,582200
485,582300
485,582400
485,582500
491,582600
486,582700
486,582800
486,582900
486,583000
486,583100
481,583200
476,583300
476,583400
476,583500
476,583600
476,583700
487,583800
482,583900
482,584000
482,584100
482,584200
482,584300
491,584400
486,584500
486,584600
486,584700
486,584800
486,584900
491,585000
486,585100
486,585200
486,585300
486,585400
486,585500
486,585600
486,585700
486,585800
486,585900
486,586000
486,586100
492,586200
487,586300
487,586400
487,586500
487,586600
487,586700
484,586800
484,586900
484,587000
484,587100
484,587200
484,587300
489,587400
484,587500
484,587600
484,587700
484,587800
484,587900
484,588000
484,588100
484,588200
484,588300
484,588400
484,588500
489,588600
484,588700
484,588800
484,588900
484,589000
484,589100
484,589200
484,589300
484,589400
484,589500
484,589600
484,589700
484,589800
484,589900
484,590000
484,590100
484,590200
484,590300
484,590400
484,590500
484,590600
484,590700
484,590800
484,590900
485,591000
485,591100
485,591200
485,591300
485,591400
485,591500
486,591600
486,591700
486,591800
486,591900
486,592000
486,592100
485,592200
485,592300
485,592400
485,592500
485,592600
485,592700
486,592800
486,592900
486,593000
486,593100
486,593200
486,593300
484,593400
484,593500
484,593600
484,593700
484,593800
484,593900
482,594000
482,594100
482,594200
482,594300
482,594400
482,594500
485,594600
485,594700
485,594800
485,594900
485,595000
485,595100
485,595200
485,595300
485,595400
485,595500
485,595600
485,595700
484,595800
484,595900
484,596000
484,596100
484,596200
484,596300
485,596400
485,596500
485,596600
485,596700
485,596800
485,596900
485,597000
485,597100
485,597200
485,597300
485,597400
485,597500
485,597600
485,597700
485,597800
485,597900
485,598000
485,598100
486,598200
486,598300
486,598400
486,598500
486,598600
486,598700
485,598800
485,598900
485,599000
485,599100
485,599200
485,599300
486,599400
486,599500
486,599600
486,599700
486,599800
486,599900
486,600000
486,600100
486,600200
486,600300
486,600400
486,600500
486,600600
486,600700
486,600800
486,600900
486,601000
486,601100
487,601200
487,601300
487,601400
487,601500
487,601600
487,601700
487,601800
487,601900
487,602000
487,602100
487,602200
487,602300
488,602400
488,602500
488,602600
488,602700
488,602800
506,602900
487,603000
487,603100
487,603200
487,603300
487,603400
487,603500
486,603600
486,603700
486,603800
486,603900
486,604000
506,604100
487,604200
487,604300
487,604400
487,604500
487,604600
487,604700
486,604800
486,604900
486,605000
486,605100
486,605200
489,605300
471,605400
471,605500
471,605600
471,605700
471,605800
471,605900
484,606000
484,606100
484,606200
484,606300
484,606400
506,606500
487,606600
487,606700
487,606800
487,606900
487,607000
487,607100
487,607200
487,607300
487,607400
487,607500
487,607600
507,607700
488,607800
488,607900
488,608000
488,608100
488,608200
507,608300
488,608400
488,608500
488,608600
488,608700
488,608800
505,608900
487,609000
487,609100
487,609200
487,609300
487,609400
505,609500
486,609600
486,609700
486,609800
486,609900
486,610000
486,610100
486,610200
486,610300
486,610400
486,610500
486,610600
503,610700
485,610800
485,610900
485,611000
485,611100
485,611200
504,611300
485,611400
485,611500
485,611600
485,611700
485,611800
505,611900
486,612000
486,612100
486,612200
486,612300
486,612400
486,612500
487,612600
487,612700
487,612800
487,612900
487,613000
504,613100
486,613200
486,613300
486,613400
486,613500
486,613600
505,613700
487,613800
487,613900
487,614000
487,614100
487,614200
506,614300
488,614400
488,614500
488,614600
488,614700
488,614800
507,614900
489,615000
489,615100
489,615200
489,615300
489,615400
507,615500
488,615600
488,615700
488,615800
488,615900
488,616000
494,616100
476,616200
476,616300
476,616400
476,616500
476,616600
503,616700
483,616800
483,616900
483,617000
483,617100
483,617200
507,617300
488,617400
488,617500
488,617600
488,617700
488,617800
504,617900
485,618000
485,618100
485,618200
485,618300
485,618400
504,618500
485,618600
485,618700
485,618800
485,618900
485,619000
505,619100
486,619200
486,619300
486,619400
486,619500
486,619600
505,619700
486,619800
486,619900
486,620000
486,620100
486,620200
504,620300
485,620400
485,620500
485,620600
485,620700
485,620800
505,620900
486,621000
486,621100
486,621200
486,621300
486,621400
505,621500
487,621600
487,621700
487,621800
487,621900
487,622000
506,622100
487,622200
487,622300
487,622400
487,622500
487,622600
506,622700
488,622800
488,622900
488,623000
488,623100
488,623200
506,623300
487,623400
487,623500
487,623600
487,623700
487,623800
505,623900
486,624000
486,624100
486,624200
486,624300
486,624400
506,624500
487,624600
487,624700
487,624800
487,624900
487,625000
505,625100
487,625200
487,625300
487,625400
487,625500
487,625600
506,625700
487,625800
487,625900
487,626000
487,626100
487,626200
507,626300
487,626400
487,626500
487,626600
487,626700
487,626800
507,626900
489,627000
489,627100
489,627200
489,627300
489,627400
508,627500
489,627600
489,627700
489,627800
489,627900
489,628000
506,628100
487,628200
487,628300
487,628400
487,628500
487,628600
506,628700
488,628800
488,628900
488,629000
488,629100
488,629200
509,629300
489,629400
489,629500
489,629600
489,629700
489,629800
508,629900
489,630000
489,630100
489,630200
489,630300
489,630400
508,630500
489,630600
489,630700
489,630800
489,630900
489,631000
506,631100
487,631200
487,631300
487,631400
487,631500
487,631600
506,631700
487,631800
487,631900
487,632000
487,632100
487,632200
505,632300
486,632400
486,632500
486,632600
486,632700
486,632800
505,632900
486,633000
486,633100
486,633200
486,633300
486,633400
507,633500
488,633600
488,633700
488,633800
488,633900
488,634000
506,634100
487,634200
487,634300
487,634400
487,634500
487,634600
505,634700
486,634800
486,634900
486,635000
486,635100
486,635200
505,635300
487,635400
487,635500
487,635600
487,635700
487,635800
506,635900
487,636000
487,636100
487,636200
487,636300
487,636400
504,636500
486,636600
486,636700
486,636800
486,636900
486,637000
504,637100
486,637200
486,637300
486,637400
486,637500
486,637600
505,637700
485,637800
485,637900
485,638000
485,638100
485,638200
492,638300
474,638400
474,638500
474,638600
474,638700
474,638800
504,638900
486,639000
486,639100
486,639200
486,639300
486,639400
503,639500
485,639600
485,639700
485,639800
485,639900
485,640000
504,640100
486,640200
486,640300
486,640400
486,640500
486,640600
504,640700
486,640800
486,640900
486,641000
486,641100
486,641200
505,641300
486,641400
486,641500
486,641600
486,641700
486,641800
505,641900
486,642000
486,642100
486,642200
486,642300
486,642400
503,642500
485,642600
485,642700
485,642800
485,642900
485,643000
506,643100
487,643200
487,643300
487,643400
487,643500
487,643600
505,643700
486,643800
486,643900
486,644000
486,644100
486,644200
504,644300
487,644400
487,644500
487,644600
487,644700
487,644800
505,644900
487,645000
487,645100
487,645200
487,645300
487,645400
504,645500
486,645600
486,645700
486,645800
486,645900
486,646000
504,646100
485,646200
485,646300
485,646400
485,646500
485,646600
505,646700
487,646800
487,646900
487,647000
487,647100
487,647200
505,647300
487,647400
487,647500
487,647600
487,647700
487,647800
506,647900
488,648000
488,648100
488,648200
488,648300
488,648400
506,648500
487,648600
487,648700
487,648800
487,648900
487,649000
493,649100
475,649200
475,649300
475,649400
475,649500
475,649600
501,649700
483,649800
483,649900
483,650000
483,650100
483,650200
506,650300
488,650400
488,650500
488,650600
488,650700
488,650800
507,650900
488,651000
488,651100
488,651200
488,651300
488,651400
507,651500
489,651600
489,651700
489,651800
489,651900
489,652000
506,652100
488,652200
488,652300
488,652400
488,652500
488,652600
506,652700
488,652800
488,652900
488,653000
488,653100
488,653200
504,653300
486,653400
486,653500
486,653600
486,653700
486,653800
504,653900
486,654000
486,654100
486,654200
486,654300
486,654400
505,654500
487,654600
487,654700
487,654800
487,654900
487,655000
506,655100
488,655200
488,655300
488,655400
488,655500
488,655600
505,655700
488,655800
488,655900
488,656000
488,656100
488,656200
505,656300
488,656400
488,656500
488,656600
488,656700
488,656800
506,656900
488,657000
488,657100
488,657200
488,657300
488,657400
504,657500
486,657600
486,657700
486,657800
486,657900
486,658000
506,658100
488,658200
488,658300
488,658400
488,658500
488,658600
506,658700
489,658800
489,658900
489,659000
489,659100
489,659200
506,659300
489,659400
489,659500
489,659600
489,659700
489,659800
504,659900
482,660000
482,660100
482,660200
482,660300
482,660400
503,660500
487,660600
487,660700
487,660800
487,660900
487,661000
504,661100
486,661200
486,661300
486,661400
486,661500
486,661600
506,661700
488,661800
488,661900
488,662000
488,662100
488,662200
507,662300
489,662400
489,662500
489,662600
489,662700
489,662800
508,662900
490,663000
490,663100
490,663200
490,663300
490,663400
507,663500
489,663600
489,663700
489,663800
489,663900
489,664000
506,664100
489,664200
489,664300
489,664400
489,664500
489,664600
508,664700
490,664800
490,664900
490,665000
490,665100
490,665200
507,665300
489,665400
489,665500
489,665600
489,665700
489,665800
506,665900
489,666000
489,666100
489,666200
489,666300
489,666400
506,666500
488,666600
488,666700
488,666800
488,666900
488,667000
505,667100
489,667200
489,667300
489,667400
489,667500
489,667600
506,667700
489,667800
489,667900
489,668000
489,668100
489,668200
506,668300
489,668400
489,668500
489,668600
489,668700
489,668800
506,668900
489,669000
489,669100
489,669200
489,669300
489,669400
505,669500
488,669600
488,669700
488,669800
488,669900
488,670000
507,670100
489,670200
489,670300
489,670400
489,670500
489,670600
505,670700
488,670800
488,670900
488,671000
488,671100
488,671200
491,671300
474,671400
474,671500
474,671600
474,671700
474,671800
502,671900
485,672000
485,672100
485,672200
485,672300
485,672400
505,672500
487,672600
487,672700
487,672800
487,672900
487,673000
507,673100
490,673200
490,673300
490,673400
490,673500
490,673600
505,673700
489,673800
489,673900
489,674000
489,674100
489,674200
506,674300
489,674400
489,674500
489,674600
489,674700
489,674800
504,674900
487,675000
487,675100
487,675200
487,675300
487,675400
503,675500
486,675600
486,675700
486,675800
486,675900
486,676000
502,676100
486,676200
486,676300
486,676400
486,676500
486,676600
502,676700
486,676800
486,676900
486,677000
486,677100
486,677200
503,677300
487,677400
487,677500
487,677600
487,677700
487,677800
505,677900
488,678000
488,678100
488,678200
488,678300
488,678400
505,678500
488,678600
488,678700
488,678800
488,678900
488,679000
506,679100
489,679200
489,679300
489,679400
489,679500
489,679600
507,679700
490,679800
490,679900
490,680000
490,680100
490,680200
506,680300
490,680400
490,680500
490,680600
490,680700
490,680800
505,680900
489,681000
489,681100
489,681200
489,681300
489,681400
506,681500
489,681600
489,681700
489,681800
489,681900
489,682000
497,682100
480,682200
480,682300
480,682400
480,682500
480,682600
502,682700
486,682800
486,682900
486,683000
486,683100
486,683200
504,683300
487,683400
487,683500
487,683600
487,683700
487,683800
504,683900
488,684000
488,684100
488,684200
488,684300
488,684400
506,684500
489,684600
489,684700
489,684800
489,684900
489,685000
506,685100
489,685200
489,685300
489,685400
489,685500
489,685600
505,685700
488,685800
488,685900
488,686000
488,686100
488,686200
506,686300
489,686400
489,686500
489,686600
489,686700
489,686800
506,686900
490,687000
490,687100
490,687200
490,687300
490,687400
504,687500
487,687600
487,687700
487,687800
487,687900
487,688000
505,688100
488,688200
488,688300
488,688400
488,688500
488,688600
503,688700
486,688800
486,688900
486,689000
486,689100
486,689200
502,689300
486,689400
486,689500
486,689600
486,689700
486,689800
502,689900
486,690000
486,690100
486,690200
486,690300
486,690400
505,690500
489,690600
489,690700
489,690800
489,690900
489,691000
504,691100
488,691200
488,691300
488,691400
488,691500
488,691600
506,691700
490,691800
490,691900
490,692000
490,692100
490,692200
504,692300
488,692400
488,692500
488,692600
488,692700
488,692800
502,692900
486,693000
486,693100
486,693200
486,693300
486,693400
506,693500
489,693600
489,693700
489,693800
489,693900
489,694000
505,694100
489,694200
489,694300
489,694400
489,694500
489,694600
504,694700
488,694800
488,694900
488,695000
488,695100
488,695200
504,695300
488,695400
488,695500
488,695600
488,695700
488,695800
504,695900
488,696000
488,696100
488,696200
488,696300
488,696400
504,696500
488,696600
488,696700
488,696800
488,696900
488,697000
501,697100
486,697200
486,697300
486,697400
486,697500
486,697600
503,697700
487,697800
487,697900
487,698000
487,698100
487,698200
501,698300
486,698400
486,698500
486,698600
486,698700
486,698800
504,698900
488,699000
488,699100
488,699200
488,699300
488,699400
504,699500
489,699600
489,699700
489,699800
489,699900
489,700000
506,700100
490,700200
490,700300
490,700400
490,700500
490,700600
505,700700
489,700800
489,700900
489,701000
489,701100
489,701200
505,701300
490,701400
490,701500
490,701600
490,701700
490,701800
504,701900
489,702000
489,702100
489,702200
489,702300
489,702400
506,702500
490,702600
490,702700
490,702800
490,702900
490,703000
504,703100
489,703200
489,703300
489,703400
489,703500
489,703600
503,703700
487,703800
487,703900
487,704000
487,704100
487,704200
488,704300
473,704400
473,704500
473,704600
473,704700
473,704800
500,704900
484,705000
484,705100
484,705200
484,705300
484,705400
500,705500
485,705600
485,705700
485,705800
485,705900
485,706000
503,706100
487,706200
487,706300
487,706400
487,706500
487,706600
506,706700
490,706800
490,706900
490,707000
490,707100
490,707200
504,707300
489,707400
489,707500
489,707600
489,707700
489,707800
505,707900
490,708000
490,708100
490,708200
490,708300
490,708400
504,708500
488,708600
488,708700
488,708800
488,708900
488,709000
505,709100
490,709200
490,709300
490,709400
490,709500
490,709600
502,709700
486,709800
486,709900
486,710000
486,710100
486,710200
503,710300
488,710400
488,710500
488,710600
488,710700
488,710800
507,710900
491,711000
491,711100
491,711200
491,711300
491,711400
504,711500
490,711600
490,711700
490,711800
490,711900
490,712000
507,712100
491,712200
491,712300
491,712400
491,712500
491,712600
502,712700
488,712800
488,712900
488,713000
488,713100
488,713200
506,713300
490,713400
490,713500
490,713600
490,713700
490,713800
505,713900
490,714000
490,714100
490,714200
490,714300
490,714400
505,714500
490,714600
490,714700
490,714800
490,714900
490,715000
492,715100
478,715200
478,715300
478,715400
478,715500
478,715600
501,715700
486,715800
486,715900
486,716000
486,716100
486,716200
502,716300
488,716400
488,716500
488,716600
488,716700
488,716800
504,716900
489,717000
489,717100
489,717200
489,717300
489,717400
504,717500
490,717600
490,717700
490,717800
490,717900
490,718000
505,718100
490,718200
490,718300
490,718400
490,718500
490,718600
504,718700
489,718800
489,718900
489,719000
489,719100
489,719200
503,719300
489,719400
489,719500
489,719600
489,719700
489,719800
498,719900
489,720000
489,720100
489,720200
489,720300
489,720400
503,720500
489,720600
489,720700
489,720800
489,720900
489,721000
497,721100
488,721200
488,721300
488,721400
488,721500
488,721600
697,721700
712,721800
712,721900
712,722000
712,722100
712,722200
561,722300
551,722400
551,722500
551,722600
551,722700
551,722800
514,722900
503,723000
503,723100
503,723200
503,723300
503,723400
501,723500
491,723600
491,723700
491,723800
491,723900
491,724000
498,724100
489,724200
489,724300
489,724400
489,724500
489,724600
499,724700
489,724800
489,724900
489,725000
489,725100
489,725200
498,725300
488,725400
488,725500
488,725600
488,725700
488,725800
498,725900
487,726000
487,726100
487,726200
487,726300
487,726400
493,726500
488,726600
488,726700
488,726800
488,726900
488,727000
501,727100
491,727200
491,727300
491,727400
491,727500
491,727600
496,727700
491,727800
491,727900
491,728000
491,728100
491,728200
499,728300
490,728400
490,728500
490,728600
490,728700
490,728800
496,728900
491,729000
491,729100
491,729200
491,729300
491,729400
600,729500
613,729600
613,729700
613,729800
613,729900
613,730000
745,730100
750,730200
750,730300
750,730400
750,730500
750,730600
765,730700
769,730800
769,730900
769,731000
769,731100
769,731200
766,731300
770,731400
770,731500
770,731600
770,731700
770,731800
767,731900
771,732000
771,732100
771,732200
771,732300
771,732400
767,732500
771,732600
771,732700
771,732800
771,732900
771,733000
767,733100
772,733200
772,733300
772,733400
772,733500
772,733600
772,733700
772,733800
772,733900
772,734000
772,734100
772,734200
768,734300
772,734400
772,734500
772,734600
772,734700
772,734800
772,734900
772,735000
772,735100
772,735200
772,735300
772,735400
771,735500
771,735600
771,735700
771,735800
771,735900
771,736000
771,736100
771,736200
771,736300
771,736400
771,736500
771,736600
773,736700
773,736800
773,736900
773,737000
773,737100
773,737200
773,737300
773,737400
773,737500
773,737600
773,737700
773,737800
773,737900
773,738000
773,738100
773,738200
773,738300
773,738400
772,738500
772,738600
772,738700
772,738800
772,738900
772,739000
771,739100
771,739200
771,739300
771,739400
771,739500
771,739600
773,739700
773,739800
773,739900
773,740000
773,740100
773,740200
771,740300
771,740400
771,740500
771,740600
771,740700
771,740800
770,740900
770,741000
770,741100
770,741200
770,741300
770,741400
772,741500
772,741600
772,741700
772,741800
772,741900
772,742000
771,742100
771,742200
771,742300
771,742400
771,742500
771,742600
771,742700
771,742800
771,742900
771,743000
771,743100
771,743200
771,743300
771,743400
771,743500
771,743600
771,743700
771,743800
771,743900
771,744000
771,744100
771,744200
771,744300
771,744400
773,744500
773,744600
773,744700
773,744800
773,744900
773,745000
772,745100
772,745200
772,745300
772,745400
772,745500
772,745600
771,745700
771,745800
771,745900
771,746000
771,746100
771,746200
772,746300
772,746400
772,746500
772,746600
772,746700
772,746800
771,746900
771,747000
771,747100
771,747200
771,747300
753,747400
771,747500
771,747600
771,747700
771,747800
771,747900
752,748000
771,748100
771,748200
771,748300
771,748400
771,748500
753,748600
773,748700
773,748800
773,748900
773,749000
773,749100
752,749200
771,749300
771,749400
771,749500
771,749600
771,749700
753,749800
772,749900
772,750000
772,750100
772,750200
772,750300
751,750400
770,750500
770,750600
770,750700
770,750800
770,750900
754,751000
772,751100
772,751200
772,751300
772,751400
772,751500
753,751600
772,751700
772,751800
772,751900
772,752000
772,752100
752,752200
771,752300
771,752400
771,752500
771,752600
771,752700
753,752800
771,752900
771,753000
771,753100
771,753200
771,753300
753,753400
771,753500
771,753600
771,753700
771,753800
771,753900
753,754000
771,754100
771,754200
771,754300
771,754400
771,754500
755,754600
773,754700
773,754800
773,754900
773,755000
773,755100
752,755200
770,755300
770,755400
770,755500
770,755600
770,755700
752,755800
770,755900
770,756000
770,756100
770,756200
770,756300
752,756400
770,756500
770,756600
770,756700
770,756800
770,756900
753,757000
771,757100
771,757200
771,757300
771,757400
771,757500
752,757600
770,757700
770,757800
770,757900
770,758000
770,758100
753,758200
770,758300
770,758400
770,758500
770,758600
770,758700
753,758800
771,758900
771,759000
771,759100
771,759200
771,759300
753,759400
771,759500
771,759600
771,759700
771,759800
771,759900
753,760000
771,760100
771,760200
771,760300
771,760400
771,760500
753,760600
771,760700
771,760800
771,760900
771,761000
771,761100
752,761200
770,761300
770,761400
770,761500
770,761600
770,761700
754,761800
772,761900
772,762000
772,762100
772,762200
772,762300
754,762400
772,762500
772,762600
772,762700
772,762800
772,762900
584,763000
562,763100
562,763200
562,763300
562,763400
562,763500
525,763600
506,763700
506,763800
506,763900
506,764000
506,764100
499,764200
480,764300
480,764400
480,764500
480,764600
480,764700
507,764800
488,764900
488,765000
488,765100
488,765200
488,765300
508,765400
489,765500
489,765600
489,765700
489,765800
489,765900
507,766000
489,766100
489,766200
489,766300
489,766400
489,766500
507,766600
488,766700
488,766800
488,766900
488,767000
488,767100
506,767200
487,767300
487,767400
487,767500
487,767600
487,767700
506,767800
487,767900
487,768000
487,768100
487,768200
487,768300
508,768400
490,768500
490,768600
490,768700
490,768800
490,768900
508,769000
489,769100
489,769200
489,769300
489,769400
489,769500
507,769600
489,769700
489,769800
489,769900
489,770000
489,770100
507,770200
488,770300
488,770400
488,770500
488,770600
488,770700
505,770800
487,770900
487,771000
487,771100
487,771200
487,771300
506,771400
487,771500
487,771600
487,771700
487,771800
487,771900
507,772000
488,772100
488,772200
488,772300
488,772400
488,772500
506,772600
488,772700
488,772800
488,772900
488,773000
488,773100
506,773200
487,773300
487,773400
487,773500
487,773600
487,773700
506,773800
487,773900
487,774000
487,774100
487,774200
487,774300
507,774400
487,774500
487,774600
487,774700
487,774800
487,774900
505,775000
486,775100
486,775200
486,775300
486,775400
486,775500
506,775600
488,775700
488,775800
488,775900
488,776000
488,776100
508,776200
490,776300
490,776400
490,776500
490,776600
490,776700
507,776800
489,776900
489,777000
489,777100
489,777200
489,777300
507,777400
489,777500
489,777600
489,777700
489,777800
489,777900
509,778000
490,778100
490,778200
490,778300
490,778400
490,778500
509,778600
490,778700
490,778800
490,778900
490,779000
490,779100
508,779200
490,779300
490,779400
490,779500
490,779600
490,779700
509,779800
490,779900
490,780000
490,780100
490,780200
490,780300
508,780400
490,780500
490,780600
490,780700
490,780800
490,780900
508,781000
490,781100
490,781200
490,781300
490,781400
490,781500
508,781600
490,781700
490,781800
490,781900
490,782000
490,782100
507,782200
489,782300
489,782400
489,782500
489,782600
489,782700
507,782800
489,782900
489,783000
489,783100
489,783200
489,783300
508,783400
490,783500
490,783600
490,783700
490,783800
490,783900
509,784000
490,784100
490,784200
490,784300
490,784400
490,784500
508,784600
489,784700
489,784800
489,784900
489,785000
489,785100
508,785200
490,785300
490,785400
490,785500
490,785600
490,785700
508,785800
490,785900
490,786000
490,786100
490,786200
490,786300
506,786400
489,786500
489,786600
489,786700
489,786800
489,786900
508,787000
490,787100
490,787200
490,787300
490,787400
490,787500
507,787600
490,787700
490,787800
490,787900
490,788000
490,788100
507,788200
489,788300
489,788400
489,788500
489,788600
489,788700
508,788800
489,788900
489,789000
489,789100
489,789200
489,789300
506,789400
488,789500
488,789600
488,789700
488,789800
488,789900
508,790000
490,790100
490,790200
490,790300
490,790400
490,790500
508,790600
489,790700
489,790800
489,790900
489,791000
489,791100
506,791200
488,791300
488,791400
488,791500
488,791600
488,791700
494,791800
476,791900
476,792000
476,792100
476,792200
476,792300
502,792400
485,792500
485,792600
485,792700
485,792800
485,792900
506,793000
488,793100
488,793200
488,793300
488,793400
488,793500
506,793600
488,793700
488,793800
488,793900
488,794000
488,794100
506,794200
488,794300
488,794400
488,794500
488,794600
488,794700
507,794800
489,794900
489,795000
489,795100
489,795200
489,795300
506,795400
488,795500
488,795600
488,795700
488,795800
488,795900
506,796000
489,796100
489,796200
489,796300
489,796400
489,796500
506,796600
489,796700
489,796800
489,796900
489,797000
489,797100
505,797200
488,797300
488,797400
488,797500
488,797600
488,797700
506,797800
488,797900
488,798000
488,798100
488,798200
488,798300
506,798400
488,798500
488,798600
488,798700
488,798800
488,798900
506,799000
489,799100
489,799200
489,799300
489,799400
489,799500
505,799600
487,799700
487,799800
487,799900
487,800000
487,800100
505,800200
487,800300
487,800400
487,800500
487,800600
487,800700
504,800800
487,800900
487,801000
487,801100
487,801200
487,801300
505,801400
488,801500
