2,100
2,200
2,300
2,400
2,500
2,600
2,700
2,800
2,900
2,1000
2,1100
2,1200
2,1300
160,1400
162,1500
162,1600
162,1700
162,1800
162,1900
337,2000
333,2100
333,2200
333,2300
333,2400
333,2500
376,2600
370,2700
370,2800
370,2900
370,3000
370,3100
379,3200
373,3300
373,3400
373,3500
373,3600
373,3700
376,3800
370,3900
370,4000
370,4100
370,4200
370,4300
365,4400
365,4500
365,4600
365,4700
365,4800
363,4900
361,5000
361,5100
361,5200
361,5300
361,5400
357,5500
357,5600
357,5700
357,5800
357,5900
354,6000
354,6100
354,6200
354,6300
354,6400
351,6500
351,6600
351,6700
351,6800
351,6900
355,7000
348,7100
348,7200
348,7300
348,7400
348,7500
348,7600
352,7700
345,7800
345,7900
345,8000
345,8100
345,8200
350,8300
342,8400
342,8500
342,8600
342,8700
342,8800
346,8900
340,9000
340,9100
340,9200
340,9300
340,9400
345,9500
337,9600
337,9700
337,9800
337,9900
337,10000
343,10100
336,10200
336,10300
336,10400
336,10500
336,10600
347,10700
339,10800
339,10900
339,11000
339,11100
339,11200
339,11300
332,11400
332,11500
332,11600
332,11700
332,11800
336,11900
329,12000
329,12100
329,12200
329,12300
329,12400
340,12500
332,12600
332,12700
332,12800
332,12900
332,13000
333,13100
326,13200
326,13300
326,13400
326,13500
326,13600
331,13700
323,13800
323,13900
323,14000
323,14100
323,14200
329,14300
320,14400
320,14500
320,14600
320,14700
320,14800
328,14900
319,15000
319,15100
319,15200
319,15300
319,15400
325,15500
318,15600
318,15700
318,15800
318,15900
318,16000
324,16100
316,16200
316,16300
316,16400
316,16500
316,16600
322,16700
314,16800
314,16900
314,17000
314,17100
314,17200
355,17300
343,17400
343,17500
343,17600
343,17700
343,17800
325,17900
317,18000
317,18100
317,18200
317,18300
317,18400
319,18500
311,18600
311,18700
311,18800
311,18900
311,19000
317,19100
310,19200
310,19300
310,19400
310,19500
310,19600
316,19700
308,19800
308,19900
308,20000
308,20100
308,20200
315,20300
306,20400
306,20500
306,20600
306,20700
306,20800
314,20900
305,21000
305,21100
305,21200
305,21300
305,21400
314,21500
304,21600
304,21700
304,21800
304,21900
304,22000
312,22100
303,22200
303,22300
303,22400
303,22500
303,22600
319,22700
310,22800
310,22900
310,23000
310,23100
310,23200
312,23300
302,23400
302,23500
302,23600
302,23700
302,23800
309,23900
300,24000
300,24100
300,24200
300,24300
300,24400
308,24500
299,24600
299,24700
299,24800
299,24900
299,25000
307,25100
298,25200
298,25300
298,25400
298,25500
298,25600
320,25700
309,25800
309,25900
309,26000
309,26100
309,26200
313,26300
303,26400
303,26500
303,26600
303,26700
303,26800
306,26900
297,27000
297,27100
297,27200
305,27300
295,27400
295,27500
295,27600
295,27700
295,27800
304,27900
303,28000
294,28100
294,28200
294,28300
294,28400
294,28500
302,28600
292,28700
292,28800
292,28900
292,29000
292,29100
302,29200
292,29300
292,29400
292,29500
292,29600
292,29700
301,29800
291,29900
291,30000
291,30100
291,30200
291,30300
301,30400
291,30500
291,30600
291,30700
291,30800
291,30900
290,31000
290,31100
290,31200
290,31300
290,31400
299,31500
289,31600
289,31700
289,31800
289,31900
289,32000
317,32100
304,32200
304,32300
304,32400
304,32500
304,32600
301,32700
291,32800
291,32900
291,33000
291,33100
291,33200
291,33300
297,33400
287,33500
287,33600
287,33700
287,33800
287,33900
297,34000
287,34100
287,34200
287,34300
287,34400
287,34500
298,34600
288,34700
288,34800
288,34900
288,35000
288,35100
296,35200
285,35300
285,35400
285,35500
285,35600
296,35700
285,35800
285,35900
285,36000
285,36100
295,36200
284,36300
284,36400
284,36500
284,36600
284,36700
294,36800
283,36900
283,37000
283,37100
283,37200
283,37300
293,37400
283,37500
283,37600
283,37700
283,37800
294,37900
282,38000
282,38100
282,38200
282,38300
282,38400
292,38500
282,38600
282,38700
282,38800
282,38900
282,39000
292,39100
281,39200
281,39300
281,39400
281,39500
281,39600
292,39700
281,39800
281,39900
281,40000
281,40100
281,40200
291,40300
280,40400
280,40500
280,40600
280,40700
280,40800
291,40900
280,41000
280,41100
280,41200
280,41300
280,41400
291,41500
279,41600
279,41700
279,41800
279,41900
279,42000
290,42100
278,42200
278,42300
278,42400
278,42500
281,42600
278,42700
278,42800
278,42900
278,43000
278,43100
289,43200
277,43300
277,43400
277,43500
277,43600
277,43700
289,43800
277,43900
277,44000
277,44100
277,44200
277,44300
289,44400
276,44500
276,44600
276,44700
276,44800
276,44900
288,45000
276,45100
276,45200
276,45300
276,45400
276,45500
287,45600
276,45700
276,45800
276,45900
276,46000
276,46100
287,46200
275,46300
275,46400
275,46500
275,46600
275,46700
287,46800
275,46900
275,47000
275,47100
275,47200
275,47300
287,47400
274,47500
274,47600
274,47700
274,47800
274,47900
299,48000
285,48100
285,48200
285,48300
285,48400
285,48500
287,48600
275,48700
275,48800
275,48900
275,49000
275,49100
328,49200
311,49300
311,49400
311,49500
311,49600
311,49700
292,49800
279,49900
279,50000
279,50100
279,50200
279,50300
287,50400
273,50500
273,50600
273,50700
273,50800
273,50900
285,51000
272,51100
272,51200
272,51300
272,51400
272,51500
286,51600
273,51700
273,51800
273,51900
273,52000
273,52100
284,52200
272,52300
272,52400
272,52500
272,52600
272,52700
283,52800
271,52900
271,53000
271,53100
271,53200
271,53300
283,53400
271,53500
271,53600
271,53700
271,53800
271,53900
283,54000
271,54100
271,54200
271,54300
271,54400
271,54500
282,54600
270,54700
270,54800
270,54900
270,55000
270,55100
283,55200
270,55300
270,55400
270,55500
270,55600
270,55700
282,55800
270,55900
270,56000
270,56100
270,56200
270,56300
282,56400
269,56500
269,56600
269,56700
269,56800
269,56900
282,57000
269,57100
269,57200
269,57300
269,57400
269,57500
282,57600
269,57700
269,57800
269,57900
269,58000
269,58100
281,58200
268,58300
268,58400
268,58500
268,58600
268,58700
281,58800
268,58900
268,59000
268,59100
268,59200
268,59300
281,59400
268,59500
268,59600
268,59700
268,59800
268,59900
280,60000
268,60100
268,60200
268,60300
268,60400
268,60500
281,60600
267,60700
267,60800
267,60900
267,61000
267,61100
280,61200
267,61300
267,61400
267,61500
267,61600
267,61700
279,61800
267,61900
267,62000
267,62100
267,62200
267,62300
279,62400
266,62500
266,62600
266,62700
266,62800
266,62900
279,63000
267,63100
267,63200
267,63300
267,63400
267,63500
279,63600
267,63700
267,63800
267,63900
267,64000
267,64100
279,64200
266,64300
266,64400
266,64500
266,64600
266,64700
278,64800
266,64900
266,65000
266,65100
266,65200
266,65300
278,65400
265,65500
265,65600
265,65700
265,65800
265,65900
278,66000
265,66100
265,66200
265,66300
265,66400
265,66500
278,66600
265,66700
265,66800
265,66900
265,67000
265,67100
278,67200
265,67300
265,67400
265,67500
265,67600
265,67700
277,67800
265,67900
265,68000
265,68100
265,68200
265,68300
277,68400
264,68500
264,68600
264,68700
264,68800
264,68900
276,69000
264,69100
264,69200
264,69300
264,69400
264,69500
277,69600
264,69700
264,69800
264,69900
264,70000
264,70100
276,70200
263,70300
263,70400
263,70500
263,70600
263,70700
276,70800
263,70900
263,71000
263,71100
263,71200
263,71300
276,71400
263,71500
263,71600
263,71700
263,71800
277,71900
263,72000
263,72100
263,72200
263,72300
263,72400
263,72500
263,72600
263,72700
276,72800
262,72900
262,73000
262,73100
276,73200
262,73300
262,73400
262,73500
262,73600
262,73700
276,73800
262,73900
262,74000
262,74100
262,74200
262,74300
276,74400
262,74500
262,74600
262,74700
262,74800
262,74900
275,75000
262,75100
262,75200
262,75300
262,75400
262,75500
276,75600
262,75700
262,75800
262,75900
262,76000
262,76100
275,76200
262,76300
262,76400
262,76500
262,76600
262,76700
275,76800
262,76900
262,77000
262,77100
262,77200
262,77300
275,77400
261,77500
261,77600
261,77700
261,77800
261,77900
275,78000
261,78100
261,78200
261,78300
261,78400
274,78500
261,78600
261,78700
261,78800
261,78900
261,79000
272,79100
261,79200
261,79300
261,79400
261,79500
261,79600
274,79700
261,79800
261,79900
261,80000
261,80100
261,80200
274,80300
261,80400
261,80500
261,80600
261,80700
261,80800
273,80900
260,81000
260,81100
260,81200
260,81300
260,81400
274,81500
261,81600
261,81700
261,81800
261,81900
261,82000
274,82100
261,82200
261,82300
261,82400
261,82500
261,82600
273,82700
260,82800
260,82900
260,83000
260,83100
260,83200
273,83300
260,83400
260,83500
260,83600
260,83700
260,83800
273,83900
260,84000
260,84100
260,84200
260,84300
260,84400
273,84500
260,84600
260,84700
260,84800
260,84900
260,85000
274,85100
260,85200
260,85300
260,85400
260,85500
260,85600
273,85700
259,85800
259,85900
259,86000
259,86100
259,86200
273,86300
260,86400
260,86500
260,86600
260,86700
260,86800
272,86900
260,87000
260,87100
260,87200
260,87300
260,87400
272,87500
260,87600
260,87700
260,87800
260,87900
260,88000
272,88100
259,88200
259,88300
259,88400
259,88500
259,88600
272,88700
259,88800
259,88900
259,89000
259,89100
259,89200
273,89300
259,89400
259,89500
259,89600
259,89700
259,89800
272,89900
259,90000
259,90100
259,90200
259,90300
259,90400
272,90500
258,90600
258,90700
258,90800
258,90900
258,91000
273,91100
258,91200
258,91300
258,91400
258,91500
258,91600
272,91700
259,91800
259,91900
259,92000
259,92100
259,92200
272,92300
259,92400
259,92500
259,92600
259,92700
259,92800
272,92900
258,93000
258,93100
258,93200
258,93300
258,93400
272,93500
258,93600
258,93700
258,93800
258,93900
258,94000
271,94100
258,94200
258,94300
258,94400
258,94500
258,94600
271,94700
258,94800
258,94900
258,95000
258,95100
258,95200
271,95300
258,95400
258,95500
258,95600
258,95700
258,95800
271,95900
257,96000
257,96100
257,96200
257,96300
257,96400
271,96500
259,96600
259,96700
259,96800
259,96900
259,97000
271,97100
258,97200
258,97300
258,97400
258,97500
258,97600
271,97700
257,97800
257,97900
257,98000
257,98100
257,98200
270,98300
257,98400
257,98500
257,98600
257,98700
271,98800
257,98900
257,99000
257,99100
257,99200
257,99300
257,99400
270,99500
257,99600
257,99700
257,99800
257,99900
257,100000
270,100100
257,100200
257,100300
257,100400
257,100500
257,100600
270,100700
257,100800
257,100900
257,101000
257,101100
257,101200
271,101300
257,101400
257,101500
257,101600
257,101700
257,101800
270,101900
257,102000
257,102100
257,102200
257,102300
257,102400
271,102500
257,102600
257,102700
257,102800
257,102900
257,103000
270,103100
257,103200
257,103300
257,103400
257,103500
257,103600
270,103700
257,103800
257,103900
257,104000
257,104100
257,104200
270,104300
257,104400
257,104500
257,104600
257,104700
257,104800
270,104900
257,105000
257,105100
257,105200
257,105300
257,105400
270,105500
256,105600
256,105700
256,105800
256,105900
256,106000
270,106100
257,106200
257,106300
257,106400
257,106500
257,106600
270,106700
256,106800
256,106900
256,107000
256,107100
256,107200
270,107300
256,107400
256,107500
256,107600
256,107700
256,107800
270,107900
256,108000
256,108100
256,108200
256,108300
256,108400
269,108500
256,108600
256,108700
256,108800
256,108900
256,109000
270,109100
257,109200
257,109300
257,109400
257,109500
257,109600
270,109700
256,109800
256,109900
256,110000
256,110100
256,110200
269,110300
256,110400
256,110500
256,110600
256,110700
256,110800
269,110900
256,111000
256,111100
256,111200
256,111300
256,111400
269,111500
256,111600
256,111700
256,111800
256,111900
256,112000
269,112100
256,112200
256,112300
256,112400
256,112500
256,112600
269,112700
256,112800
256,112900
256,113000
256,113100
256,113200
269,113300
256,113400
256,113500
256,113600
256,113700
256,113800
269,113900
256,114000
256,114100
256,114200
256,114300
256,114400
269,114500
256,114600
256,114700
256,114800
256,114900
256,115000
302,115100
285,115200
285,115300
285,115400
285,115500
285,115600
281,115700
266,115800
266,115900
266,116000
266,116100
266,116200
272,116300
258,116400
258,116500
258,116600
258,116700
258,116800
269,116900
256,117000
256,117100
256,117200
256,117300
256,117400
269,117500
256,117600
256,117700
256,117800
256,117900
256,118000
270,118100
256,118200
256,118300
256,118400
256,118500
256,118600
270,118700
257,118800
257,118900
257,119000
257,119100
257,119200
270,119300
256,119400
256,119500
256,119600
256,119700
270,119800
255,119900
255,120000
255,120100
255,120200
255,120300
269,120400
255,120500
255,120600
255,120700
255,120800
255,120900
255,121000
265,121100
256,121200
256,121300
256,121400
256,121500
256,121600
268,121700
255,121800
255,121900
255,122000
255,122100
255,122200
268,122300
255,122400
255,122500
255,122600
255,122700
255,122800
268,122900
256,123000
256,123100
256,123200
256,123300
256,123400
268,123500
255,123600
255,123700
255,123800
255,123900
255,124000
269,124100
256,124200
256,124300
256,124400
256,124500
256,124600
268,124700
255,124800
255,124900
255,125000
255,125100
255,125200
268,125300
255,125400
255,125500
255,125600
255,125700
255,125800
266,125900
255,126000
255,126100
255,126200
255,126300
255,126400
255,126500
255,126600
255,126700
255,126800
255,126900
270,127000
255,127100
255,127200
255,127300
255,127400
255,127500
269,127600
266,127700
255,127800
255,127900
255,128000
255,128100
255,128200
266,128300
255,128400
255,128500
255,128600
255,128700
255,128800
269,128900
255,129000
255,129100
255,129200
255,129300
255,129400
255,129500
255,129600
255,129700
255,129800
255,129900
279,130000
264,130100
264,130200
264,130300
264,130400
264,130500
272,130600
257,130700
257,130800
257,130900
257,131000
257,131100
257,131200
267,131300
255,131400
255,131500
255,131600
255,131700
255,131800
260,131900
254,132000
254,132100
254,132200
254,132300
254,132400
263,132500
254,132600
254,132700
254,132800
254,132900
254,133000
266,133100
255,133200
255,133300
255,133400
255,133500
255,133600
266,133700
255,133800
255,133900
255,134000
255,134100
255,134200
266,134300
254,134400
254,134500
254,134600
254,134700
254,134800
266,134900
254,135000
254,135100
254,135200
254,135300
254,135400
264,135500
255,135600
255,135700
255,135800
255,135900
255,136000
266,136100
254,136200
254,136300
254,136400
254,136500
254,136600
263,136700
255,136800
255,136900
255,137000
255,137100
255,137200
267,137300
256,137400
256,137500
256,137600
256,137700
256,137800
261,137900
255,138000
255,138100
255,138200
255,138300
255,138400
255,138500
255,138600
255,138700
255,138800
255,138900
255,139000
264,139100
255,139200
255,139300
255,139400
255,139500
269,139600
254,139700
254,139800
254,139900
254,140000
254,140100
269,140200
254,140300
254,140400
254,140500
254,140600
254,140700
254,140800
263,140900
254,141000
254,141100
254,141200
254,141300
268,141400
254,141500
254,141600
254,141700
254,141800
254,141900
255,142000
255,142100
255,142200
255,142300
254,142400
254,142500
254,142600
254,142700
255,142800
255,142900
255,143000
255,143100
255,143200
255,143300
269,143400
254,143500
254,143600
254,143700
254,143800
254,143900
268,144000
254,144100
254,144200
254,144300
254,144400
254,144500
268,144600
254,144700
254,144800
254,144900
254,145000
254,145100
254,145200
254,145300
254,145400
254,145500
254,145600
254,145700
254,145800
268,145900
254,146000
254,146100
254,146200
254,146300
254,146400
268,146500
254,146600
254,146700
254,146800
254,146900
254,147000
268,147100
254,147200
254,147300
254,147400
254,147500
254,147600
269,147700
254,147800
254,147900
254,148000
254,148100
254,148200
269,148300
255,148400
255,148500
255,148600
255,148700
255,148800
269,148900
254,149000
254,149100
254,149200
254,149300
254,149400
269,149500
254,149600
254,149700
254,149800
254,149900
254,150000
269,150100
255,150200
255,150300
255,150400
255,150500
255,150600
268,150700
254,150800
254,150900
268,151000
254,151100
254,151200
254,151300
254,151400
254,151500
254,151600
254,151700
254,151800
254,151900
268,152000
255,152100
255,152200
255,152300
255,152400
269,152500
254,152600
254,152700
254,152800
254,152900
254,153000
269,153100
254,153200
254,153300
254,153400
254,153500
254,153600
269,153700
255,153800
255,153900
255,154000
255,154100
255,154200
269,154300
255,154400
255,154500
255,154600
255,154700
255,154800
268,154900
254,155000
254,155100
254,155200
254,155300
269,155400
254,155500
254,155600
254,155700
254,155800
260,155900
254,156000
254,156100
254,156200
268,156300
254,156400
254,156500
254,156600
254,156700
254,156800
254,156900
254,157000
254,157100
254,157200
268,157300
255,157400
255,157500
255,157600
255,157700
255,157800
269,157900
255,158000
255,158100
255,158200
255,158300
255,158400
269,158500
255,158600
255,158700
255,158800
255,158900
255,159000
268,159100
255,159200
255,159300
255,159400
255,159500
255,159600
268,159700
254,159800
254,159900
254,160000
254,160100
254,160200
269,160300
254,160400
254,160500
254,160600
254,160700
254,160800
268,160900
255,161000
255,161100
255,161200
255,161300
255,161400
269,161500
255,161600
255,161700
255,161800
255,161900
255,162000
269,162100
256,162200
256,162300
256,162400
256,162500
256,162600
269,162700
254,162800
254,162900
254,163000
254,163100
254,163200
269,163300
255,163400
255,163500
255,163600
255,163700
255,163800
256,163900
256,164000
256,164100
256,164200
256,164300
256,164400
268,164500
255,164600
255,164700
255,164800
255,164900
255,165000
261,165100
255,165200
255,165300
255,165400
255,165500
255,165600
269,165700
255,165800
255,165900
255,166000
255,166100
255,166200
268,166300
254,166400
254,166500
254,166600
254,166700
254,166800
275,166900
260,167000
260,167100
260,167200
260,167300
260,167400
269,167500
255,167600
255,167700
255,167800
255,167900
255,168000
268,168100
254,168200
254,168300
254,168400
254,168500
254,168600
268,168700
254,168800
254,168900
254,169000
254,169100
254,169200
268,169300
254,169400
254,169500
254,169600
254,169700
254,169800
268,169900
255,170000
255,170100
255,170200
255,170300
255,170400
268,170500
255,170600
255,170700
255,170800
255,170900
255,171000
263,171100
254,171200
254,171300
254,171400
254,171500
255,171600
255,171700
255,171800
255,171900
255,172000
261,172100
254,172200
254,172300
254,172400
254,172500
269,172600
255,172700
255,172800
255,172900
255,173000
255,173100
269,173200
255,173300
255,173400
255,173500
255,173600
255,173700
269,173800
255,173900
255,174000
255,174100
255,174200
255,174300
269,174400
255,174500
255,174600
255,174700
255,174800
255,174900
269,175000
255,175100
255,175200
255,175300
255,175400
255,175500
269,175600
255,175700
255,175800
255,175900
255,176000
255,176100
269,176200
255,176300
255,176400
255,176500
268,176600
255,176700
255,176800
255,176900
269,177000
255,177100
255,177200
255,177300
255,177400
254,177500
254,177600
254,177700
254,177800
254,177900
268,178000
255,178100
255,178200
255,178300
255,178400
255,178500
264,178600
255,178700
255,178800
255,178900
255,179000
269,179100
256,179200
256,179300
256,179400
256,179500
256,179600
267,179700
255,179800
255,179900
255,180000
255,180100
255,180200
269,180300
256,180400
256,180500
256,180600
256,180700
256,180800
269,180900
255,181000
255,181100
255,181200
255,181300
255,181400
268,181500
255,181600
255,181700
255,181800
255,181900
255,182000
268,182100
255,182200
255,182300
255,182400
255,182500
255,182600
269,182700
255,182800
255,182900
255,183000
255,183100
255,183200
268,183300
255,183400
255,183500
255,183600
255,183700
255,183800
270,183900
256,184000
256,184100
256,184200
256,184300
256,184400
269,184500
255,184600
255,184700
255,184800
255,184900
255,185000
261,185100
255,185200
255,185300
255,185400
255,185500
255,185600
269,185700
255,185800
255,185900
255,186000
255,186100
269,186200
269,186300
255,186400
255,186500
255,186600
255,186700
255,186800
255,186900
255,187000
258,187100
255,187200
255,187300
255,187400
255,187500
255,187600
269,187700
255,187800
255,187900
255,188000
255,188100
255,188200
269,188300
255,188400
255,188500
255,188600
255,188700
255,188800
269,188900
255,189000
255,189100
255,189200
255,189300
255,189400
269,189500
256,189600
256,189700
256,189800
256,189900
256,190000
269,190100
255,190200
255,190300
255,190400
255,190500
255,190600
270,190700
256,190800
256,190900
256,191000
256,191100
256,191200
269,191300
255,191400
255,191500
255,191600
255,191700
255,191800
269,191900
255,192000
255,192100
255,192200
255,192300
255,192400
269,192500
255,192600
255,192700
255,192800
255,192900
255,193000
269,193100
255,193200
255,193300
255,193400
255,193500
255,193600
269,193700
256,193800
256,193900
256,194000
256,194100
256,194200
269,194300
255,194400
255,194500
255,194600
255,194700
255,194800
269,194900
256,195000
256,195100
256,195200
256,195300
256,195400
269,195500
255,195600
255,195700
255,195800
255,195900
255,196000
269,196100
255,196200
255,196300
255,196400
255,196500
255,196600
269,196700
255,196800
255,196900
255,197000
255,197100
255,197200
269,197300
256,197400
256,197500
256,197600
256,197700
256,197800
269,197900
256,198000
256,198100
256,198200
256,198300
256,198400
269,198500
256,198600
256,198700
256,198800
256,198900
256,199000
269,199100
256,199200
256,199300
256,199400
256,199500
269,199600
255,199700
255,199800
255,199900
255,200000
269,200100
256,200200
256,200300
256,200400
256,200500
256,200600
269,200700
256,200800
256,200900
256,201000
256,201100
256,201200
270,201300
256,201400
256,201500
256,201600
256,201700
256,201800
269,201900
256,202000
256,202100
256,202200
256,202300
256,202400
270,202500
256,202600
256,202700
256,202800
256,202900
256,203000
270,203100
256,203200
256,203300
256,203400
256,203500
256,203600
269,203700
256,203800
256,203900
256,204000
256,204100
256,204200
269,204300
256,204400
256,204500
256,204600
256,204700
256,204800
269,204900
256,205000
256,205100
256,205200
256,205300
256,205400
269,205500
256,205600
256,205700
256,205800
256,205900
256,206000
269,206100
256,206200
256,206300
256,206400
256,206500
256,206600
269,206700
256,206800
256,206900
256,207000
256,207100
256,207200
269,207300
256,207400
256,207500
256,207600
256,207700
256,207800
256,207900
256,208000
256,208100
256,208200
269,208300
256,208400
256,208500
256,208600
256,208700
256,208800
271,208900
256,209000
256,209100
256,209200
256,209300
270,209400
256,209500
256,209600
256,209700
256,209800
270,209900
256,210000
256,210100
256,210200
256,210300
256,210400
269,210500
256,210600
256,210700
256,210800
256,210900
256,211000
270,211100
256,211200
256,211300
256,211400
256,211500
256,211600
270,211700
256,211800
256,211900
256,212000
256,212100
256,212200
270,212300
256,212400
256,212500
256,212600
256,212700
256,212800
270,212900
256,213000
256,213100
256,213200
256,213300
256,213400
270,213500
256,213600
256,213700
256,213800
256,213900
256,214000
271,214100
257,214200
257,214300
257,214400
257,214500
257,214600
270,214700
256,214800
256,214900
256,215000
256,215100
256,215200
270,215300
256,215400
256,215500
256,215600
256,215700
256,215800
270,215900
256,216000
256,216100
256,216200
256,216300
256,216400
270,216500
256,216600
256,216700
256,216800
256,216900
256,217000
271,217100
257,217200
257,217300
257,217400
257,217500
257,217600
270,217700
257,217800
257,217900
257,218000
257,218100
257,218200
271,218300
257,218400
257,218500
257,218600
257,218700
257,218800
270,218900
257,219000
257,219100
257,219200
257,219300
257,219400
270,219500
257,219600
257,219700
257,219800
257,219900
257,220000
271,220100
257,220200
257,220300
257,220400
257,220500
257,220600
271,220700
257,220800
257,220900
257,221000
257,221100
257,221200
271,221300
257,221400
257,221500
257,221600
257,221700
257,221800
257,221900
257,222000
257,222100
271,222200
257,222300
257,222400
257,222500
257,222600
260,222700
256,222800
256,222900
256,223000
256,223100
256,223200
263,223300
257,223400
257,223500
257,223600
257,223700
257,223800
260,223900
257,224000
257,224100
257,224200
257,224300
257,224400
263,224500
257,224600
257,224700
257,224800
257,224900
257,225000
260,225100
257,225200
257,225300
257,225400
257,225500
257,225600
260,225700
257,225800
257,225900
257,226000
257,226100
257,226200
260,226300
257,226400
257,226500
257,226600
257,226700
257,226800
260,226900
258,227000
258,227100
258,227200
258,227300
258,227400
260,227500
257,227600
257,227700
257,227800
257,227900
257,228000
260,228100
257,228200
257,228300
257,228400
257,228500
257,228600
260,228700
257,228800
257,228900
257,229000
257,229100
257,229200
260,229300
257,229400
257,229500
257,229600
257,229700
257,229800
260,229900
257,230000
257,230100
257,230200
257,230300
257,230400
260,230500
257,230600
257,230700
257,230800
257,230900
257,231000
260,231100
257,231200
257,231300
257,231400
257,231500
271,231600
257,231700
257,231800
257,231900
257,232000
271,232100
257,232200
257,232300
257,232400
257,232500
257,232600
270,232700
257,232800
257,232900
257,233000
257,233100
257,233200
271,233300
257,233400
257,233500
257,233600
257,233700
257,233800
271,233900
258,234000
258,234100
258,234200
258,234300
258,234400
271,234500
257,234600
257,234700
257,234800
257,234900
257,235000
271,235100
258,235200
258,235300
258,235400
258,235500
258,235600
271,235700
258,235800
258,235900
258,236000
258,236100
258,236200
271,236300
257,236400
257,236500
257,236600
257,236700
257,236800
271,236900
257,237000
257,237100
257,237200
257,237300
257,237400
271,237500
258,237600
258,237700
258,237800
258,237900
271,238000
258,238100
258,238200
258,238300
258,238400
258,238500
271,238600
257,238700
257,238800
257,238900
257,239000
257,239100
272,239200
258,239300
258,239400
258,239500
258,239600
258,239700
272,239800
258,239900
258,240000
258,240100
258,240200
258,240300
272,240400
258,240500
258,240600
258,240700
258,240800
258,240900
272,241000
258,241100
258,241200
258,241300
258,241400
258,241500
272,241600
258,241700
258,241800
258,241900
258,242000
258,242100
272,242200
258,242300
258,242400
258,242500
258,242600
258,242700
267,242800
258,242900
258,243000
258,243100
258,243200
258,243300
272,243400
258,243500
258,243600
258,243700
258,243800
258,243900
271,244000
258,244100
258,244200
258,244300
258,244400
258,244500
272,244600
258,244700
258,244800
258,244900
258,245000
258,245100
272,245200
258,245300
258,245400
258,245500
258,245600
258,245700
272,245800
258,245900
258,246000
258,246100
258,246200
258,246300
272,246400
258,246500
258,246600
258,246700
258,246800
258,246900
272,247000
258,247100
258,247200
258,247300
258,247400
258,247500
272,247600
259,247700
259,247800
259,247900
259,248000
259,248100
272,248200
258,248300
258,248400
258,248500
258,248600
258,248700
272,248800
259,248900
259,249000
259,249100
259,249200
259,249300
272,249400
258,249500
258,249600
258,249700
258,249800
258,249900
272,250000
258,250100
258,250200
258,250300
258,250400
258,250500
272,250600
259,250700
259,250800
259,250900
259,251000
259,251100
272,251200
258,251300
258,251400
258,251500
258,251600
258,251700
272,251800
259,251900
259,252000
259,252100
259,252200
259,252300
273,252400
259,252500
259,252600
259,252700
259,252800
259,252900
273,253000
259,253100
259,253200
259,253300
259,253400
259,253500
272,253600
259,253700
259,253800
259,253900
259,254000
259,254100
272,254200
259,254300
259,254400
259,254500
259,254600
259,254700
273,254800
259,254900
259,255000
259,255100
259,255200
259,255300
272,255400
259,255500
259,255600
259,255700
259,255800
259,255900
273,256000
259,256100
259,256200
259,256300
259,256400
259,256500
273,256600
259,256700
259,256800
259,256900
259,257000
259,257100
273,257200
260,257300
260,257400
260,257500
260,257600
260,257700
272,257800
259,257900
259,258000
259,258100
259,258200
259,258300
272,258400
259,258500
259,258600
259,258700
259,258800
259,258900
272,259000
259,259100
259,259200
259,259300
259,259400
259,259500
272,259600
259,259700
259,259800
259,259900
259,260000
259,260100
273,260200
259,260300
259,260400
259,260500
259,260600
272,260700
259,260800
259,260900
273,261000
259,261100
259,261200
259,261300
259,261400
259,261500
273,261600
259,261700
259,261800
259,261900
259,262000
259,262100
259,262200
259,262300
272,262400
259,262500
259,262600
259,262700
259,262800
273,262900
259,263000
259,263100
259,263200
259,263300
259,263400
259,263500
272,263600
259,263700
259,263800
259,263900
259,264000
259,264100
272,264200
259,264300
259,264400
259,264500
259,264600
271,264700
260,264800
260,264900
260,265000
263,265100
260,265200
260,265300
260,265400
260,265500
260,265600
259,265700
259,265800
259,265900
268,266000
260,266100
260,266200
260,266300
260,266400
273,266500
259,266600
259,266700
259,266800
260,266900
260,267000
260,267100
269,267200
260,267300
260,267400
260,267500
260,267600
260,267700
273,267800
260,267900
260,268000
260,268100
260,268200
260,268300
273,268400
260,268500
260,268600
260,268700
260,268800
266,268900
260,269000
260,269100
260,269200
260,269300
260,269400
260,269500
273,269600
260,269700
260,269800
260,269900
273,270000
271,270100
260,270200
260,270300
260,270400
260,270500
273,270600
260,270700
260,270800
260,270900
260,271000
260,271100
260,271200
260,271300
260,271400
260,271500
273,271600
260,271700
260,271800
260,271900
260,272000
260,272100
273,272200
260,272300
260,272400
260,272500
260,272600
260,272700
274,272800
261,272900
261,273000
261,273100
261,273200
261,273300
261,273400
261,273500
261,273600
261,273700
274,273800
260,273900
260,274000
260,274100
260,274200
260,274300
260,274400
260,274500
274,274600
260,274700
260,274800
260,274900
260,275000
260,275100
273,275200
260,275300
260,275400
260,275500
261,275600
261,275700
261,275800
261,275900
274,276000
261,276100
261,276200
261,276300
261,276400
261,276500
264,276600
261,276700
261,276800
261,276900
274,277000
261,277100
261,277200
261,277300
261,277400
261,277500
274,277600
261,277700
261,277800
261,277900
261,278000
261,278100
261,278200
267,278300
261,278400
261,278500
261,278600
261,278700
261,278800
267,278900
261,279000
261,279100
261,279200
274,279300
261,279400
261,279500
261,279600
261,279700
261,279800
274,279900
261,280000
261,280100
261,280200
261,280300
261,280400
274,280500
262,280600
262,280700
262,280800
262,280900
262,281000
275,281100
261,281200
261,281300
261,281400
261,281500
261,281600
261,281700
261,281800
261,281900
261,282000
261,282100
261,282200
261,282300
261,282400
261,282500
261,282600
261,282700
261,282800
261,282900
261,283000
261,283100
272,283200
261,283300
261,283400
261,283500
261,283600
261,283700
261,283800
261,283900
261,284000
261,284100
261,284200
261,284300
261,284400
261,284500
261,284600
261,284700
275,284800
264,284900
261,285000
261,285100
261,285200
261,285300
261,285400
262,285500
262,285600
262,285700
274,285800
261,285900
261,286000
261,286100
261,286200
261,286300
261,286400
261,286500
261,286600
261,286700
261,286800
261,286900
261,287000
261,287100
261,287200
261,287300
261,287400
274,287500
261,287600
261,287700
261,287800
261,287900
261,288000
275,288100
261,288200
261,288300
261,288400
261,288500
261,288600
275,288700
262,288800
262,288900
262,289000
262,289100
262,289200
262,289300
262,289400
262,289500
275,289600
262,289700
262,289800
262,289900
274,290000
262,290100
262,290200
262,290300
262,290400
262,290500
262,290600
262,290700
262,290800
262,290900
273,291000
262,291100
262,291200
262,291300
271,291400
262,291500
262,291600
262,291700
262,291800
262,291900
262,292000
262,292100
262,292200
262,292300
262,292400
262,292500
262,292600
262,292700
275,292800
262,292900
262,293000
262,293100
262,293200
262,293300
276,293400
265,293500
262,293600
262,293700
262,293800
262,293900
262,294000
271,294100
262,294200
262,294300
262,294400
262,294500
262,294600
269,294700
262,294800
262,294900
276,295000
269,295100
263,295200
263,295300
263,295400
263,295500
275,295600
262,295700
262,295800
262,295900
262,296000
262,296100
263,296200
263,296300
263,296400
263,296500
263,296600
263,296700
263,296800
263,296900
263,297000
263,297100
266,297200
263,297300
263,297400
275,297500
262,297600
262,297700
262,297800
262,297900
276,298000
263,298100
263,298200
263,298300
263,298400
263,298500
276,298600
263,298700
263,298800
263,298900
263,299000
275,299100
263,299200
263,299300
263,299400
263,299500
263,299600
262,299700
262,299800
262,299900
262,300000
262,300100
262,300200
276,300300
263,300400
263,300500
263,300600
263,300700
263,300800
275,300900
263,301000
263,301100
263,301200
263,301300
273,301400
263,301500
263,301600
263,301700
263,301800
263,301900
263,302000
276,302100
263,302200
263,302300
263,302400
263,302500
263,302600
263,302700
276,302800
263,302900
263,303000
263,303100
263,303200
276,303300
263,303400
263,303500
272,303600
263,303700
263,303800
263,303900
263,304000
263,304100
263,304200
263,304300
263,304400
263,304500
277,304600
263,304700
263,304800
263,304900
263,305000
263,305100
276,305200
263,305300
263,305400
263,305500
263,305600
263,305700
277,305800
263,305900
263,306000
263,306100
263,306200
276,306300
263,306400
263,306500
263,306600
276,306700
263,306800
263,306900
263,307000
263,307100
263,307200
263,307300
276,307400
263,307500
263,307600
263,307700
263,307800
264,307900
264,308000
264,308100
263,308200
263,308300
263,308400
277,308500
264,308600
264,308700
264,308800
264,308900
264,309000
264,309100
264,309200
264,309300
264,309400
277,309500
264,309600
264,309700
264,309800
264,309900
264,310000
264,310100
264,310200
264,310300
277,310400
264,310500
264,310600
264,310700
264,310800
264,310900
277,311000
264,311100
264,311200
264,311300
264,311400
264,311500
277,311600
264,311700
264,311800
264,311900
264,312000
264,312100
264,312200
264,312300
264,312400
264,312500
275,312600
264,312700
264,312800
264,312900
264,313000
264,313100
264,313200
276,313300
264,313400
264,313500
277,313600
264,313700
264,313800
264,313900
273,314000
265,314100
265,314200
265,314300
265,314400
265,314500
277,314600
265,314700
265,314800
265,314900
265,315000
265,315100
277,315200
264,315300
264,315400
264,315500
264,315600
264,315700
277,315800
265,315900
265,316000
265,316100
265,316200
265,316300
277,316400
264,316500
264,316600
264,316700
264,316800
264,316900
264,317000
264,317100
264,317200
264,317300
264,317400
264,317500
264,317600
264,317700
264,317800
264,317900
264,318000
277,318100
264,318200
264,318300
264,318400
264,318500
264,318600
265,318700
265,318800
265,318900
264,319000
264,319100
264,319200
264,319300
264,319400
275,319500
264,319600
264,319700
264,319800
264,319900
265,320000
265,320100
265,320200
265,320300
265,320400
265,320500
275,320600
264,320700
264,320800
264,320900
264,321000
277,321100
265,321200
265,321300
265,321400
277,321500
268,321600
264,321700
264,321800
264,321900
278,322000
265,322100
265,322200
265,322300
265,322400
277,322500
265,322600
265,322700
265,322800
265,322900
265,323000
265,323100
265,323200
278,323300
265,323400
265,323500
265,323600
265,323700
278,323800
266,323900
266,324000
266,324100
266,324200
266,324300
266,324400
266,324500
266,324600
266,324700
278,324800
266,324900
266,325000
266,325100
266,325200
266,325300
266,325400
266,325500
266,325600
266,325700
266,325800
265,325900
265,326000
265,326100
265,326200
278,326300
266,326400
266,326500
266,326600
266,326700
266,326800
277,326900
265,327000
265,327100
265,327200
265,327300
265,327400
266,327500
266,327600
266,327700
266,327800
278,327900
266,328000
266,328100
266,328200
266,328300
266,328400
278,328500
266,328600
266,328700
266,328800
266,328900
266,329000
269,329100
266,329200
266,329300
266,329400
266,329500
266,329600
278,329700
266,329800
266,329900
266,330000
266,330100
266,330200
267,330300
267,330400
267,330500
267,330600
278,330700
266,330800
266,330900
266,331000
279,331100
266,331200
266,331300
266,331400
266,331500
266,331600
266,331700
266,331800
266,331900
278,332000
266,332100
266,332200
266,332300
266,332400
266,332500
266,332600
269,332700
266,332800
266,332900
279,333000
266,333100
266,333200
266,333300
269,333400
266,333500
266,333600
266,333700
266,333800
266,333900
276,334000
266,334100
266,334200
266,334300
278,334400
266,334500
266,334600
266,334700
266,334800
266,334900
266,335000
266,335100
266,335200
273,335300
267,335400
267,335500
267,335600
279,335700
267,335800
267,335900
279,336000
267,336100
267,336200
267,336300
267,336400
267,336500
278,336600
266,336700
266,336800
266,336900
266,337000
279,337100
267,337200
267,337300
267,337400
267,337500
267,337600
273,337700
266,337800
266,337900
266,338000
266,338100
266,338200
279,338300
267,338400
267,338500
267,338600
267,338700
267,338800
280,338900
267,339000
267,339100
267,339200
267,339300
279,339400
267,339500
267,339600
267,339700
267,339800
267,339900
279,340000
267,340100
267,340200
267,340300
267,340400
267,340500
280,340600
267,340700
267,340800
267,340900
267,341000
267,341100
279,341200
267,341300
267,341400
267,341500
267,341600
267,341700
280,341800
267,341900
267,342000
267,342100
267,342200
279,342300
267,342400
267,342500
267,342600
267,342700
267,342800
267,342900
267,343000
267,343100
267,343200
279,343300
267,343400
267,343500
267,343600
267,343700
267,343800
279,343900
267,344000
267,344100
267,344200
267,344300
267,344400
267,344500
267,344600
280,344700
267,344800
267,344900
267,345000
267,345100
267,345200
270,345300
267,345400
267,345500
267,345600
267,345700
267,345800
267,345900
267,346000
267,346100
280,346200
267,346300
267,346400
267,346500
267,346600
267,346700
277,346800
267,346900
267,347000
267,347100
267,347200
267,347300
280,347400
268,347500
268,347600
268,347700
268,347800
268,347900
280,348000
267,348100
267,348200
267,348300
267,348400
267,348500
279,348600
269,348700
269,348800
269,348900
269,349000
269,349100
278,349200
268,349300
268,349400
268,349500
268,349600
280,349700
268,349800
268,349900
268,350000
268,350100
278,350200
268,350300
268,350400
268,350500
268,350600
280,350700
268,350800
268,350900
268,351000
268,351100
279,351200
268,351300
268,351400
268,351500
279,351600
268,351700
268,351800
268,351900
268,352000
268,352100
280,352200
268,352300
268,352400
268,352500
268,352600
268,352700
279,352800
268,352900
268,353000
268,353100
268,353200
268,353300
280,353400
269,353500
269,353600
269,353700
269,353800
269,353900
268,354000
268,354100
268,354200
268,354300
278,354400
268,354500
268,354600
268,354700
280,354800
269,354900
269,355000
269,355100
269,355200
269,355300
280,355400
269,355500
269,355600
269,355700
269,355800
281,355900
269,356000
269,356100
269,356200
269,356300
281,356400
269,356500
269,356600
269,356700
269,356800
269,356900
269,357000
277,357100
269,357200
269,357300
269,357400
269,357500
269,357600
277,357700
269,357800
269,357900
269,358000
269,358100
269,358200
277,358300
269,358400
269,358500
269,358600
269,358700
269,358800
277,358900
269,359000
269,359100
269,359200
269,359300
269,359400
269,359500
269,359600
269,359700
269,359800
269,359900
280,360000
269,360100
269,360200
269,360300
269,360400
282,360500
269,360600
269,360700
269,360800
269,360900
269,361000
282,361100
270,361200
270,361300
270,361400
270,361500
270,361600
281,361700
269,361800
269,361900
269,362000
269,362100
269,362200
282,362300
269,362400
269,362500
269,362600
269,362700
269,362800
281,362900
269,363000
269,363100
269,363200
269,363300
269,363400
281,363500
269,363600
269,363700
269,363800
269,363900
269,364000
282,364100
270,364200
270,364300
270,364400
270,364500
270,364600
281,364700
270,364800
270,364900
270,365000
270,365100
270,365200
282,365300
271,365400
271,365500
271,365600
271,365700
271,365800
282,365900
270,366000
270,366100
270,366200
270,366300
270,366400
282,366500
270,366600
270,366700
270,366800
270,366900
270,367000
282,367100
270,367200
270,367300
270,367400
270,367500
270,367600
282,367700
270,367800
270,367900
270,368000
270,368100
270,368200
281,368300
270,368400
270,368500
270,368600
270,368700
270,368800
282,368900
270,369000
270,369100
270,369200
270,369300
270,369400
283,369500
271,369600
271,369700
271,369800
271,369900
271,370000
283,370100
270,370200
270,370300
270,370400
270,370500
270,370600
282,370700
270,370800
270,370900
270,371000
270,371100
270,371200
282,371300
271,371400
271,371500
271,371600
271,371700
271,371800
282,371900
270,372000
270,372100
270,372200
270,372300
270,372400
282,372500
271,372600
271,372700
271,372800
271,372900
271,373000
282,373100
271,373200
271,373300
271,373400
271,373500
271,373600
282,373700
271,373800
271,373900
271,374000
271,374100
271,374200
282,374300
271,374400
271,374500
271,374600
271,374700
271,374800
282,374900
271,375000
271,375100
271,375200
271,375300
271,375400
282,375500
271,375600
271,375700
271,375800
271,375900
271,376000
283,376100
271,376200
271,376300
271,376400
271,376500
271,376600
282,376700
271,376800
271,376900
271,377000
271,377100
271,377200
283,377300
271,377400
271,377500
271,377600
271,377700
271,377800
283,377900
272,378000
272,378100
272,378200
272,378300
272,378400
282,378500
271,378600
271,378700
271,378800
271,378900
271,379000
274,379100
271,379200
271,379300
271,379400
271,379500
271,379600
272,379700
272,379800
272,379900
272,380000
272,380100
281,380200
271,380300
271,380400
271,380500
271,380600
271,380700
282,380800
272,380900
272,381000
272,381100
272,381200
272,381300
281,381400
271,381500
271,381600
271,381700
271,381800
271,381900
282,382000
272,382100
272,382200
272,382300
272,382400
272,382500
281,382600
272,382700
272,382800
272,382900
272,383000
272,383100
281,383200
272,383300
272,383400
272,383500
272,383600
272,383700
281,383800
272,383900
272,384000
272,384100
272,384200
272,384300
281,384400
272,384500
272,384600
272,384700
272,384800
284,384900
272,385000
272,385100
272,385200
272,385300
272,385400
284,385500
275,385600
272,385700
272,385800
272,385900
272,386000
272,386100
282,386200
272,386300
272,386400
272,386500
272,386600
272,386700
281,386800
272,386900
272,387000
272,387100
272,387200
272,387300
280,387400
272,387500
272,387600
272,387700
272,387800
272,387900
282,388000
272,388100
272,388200
272,388300
272,388400
272,388500
280,388600
272,388700
272,388800
272,388900
272,389000
272,389100
282,389200
273,389300
273,389400
273,389500
273,389600
273,389700
280,389800
273,389900
273,390000
273,390100
273,390200
273,390300
280,390400
272,390500
272,390600
272,390700
272,390800
272,390900
281,391000
273,391100
273,391200
273,391300
273,391400
273,391500
281,391600
273,391700
273,391800
273,391900
273,392000
273,392100
279,392200
273,392300
273,392400
273,392500
273,392600
273,392700
276,392800
274,392900
274,393000
274,393100
274,393200
274,393300
281,393400
273,393500
273,393600
273,393700
273,393800
273,393900
281,394000
273,394100
273,394200
273,394300
273,394400
273,394500
280,394600
274,394700
274,394800
274,394900
274,395000
274,395100
273,395200
273,395300
273,395400
273,395500
273,395600
285,395700
273,395800
273,395900
273,396000
273,396100
273,396200
285,396300
273,396400
273,396500
273,396600
273,396700
273,396800
273,396900
281,397000
274,397100
274,397200
274,397300
274,397400
274,397500
280,397600
274,397700
274,397800
274,397900
274,398000
274,398100
280,398200
274,398300
274,398400
274,398500
274,398600
274,398700
280,398800
274,398900
274,399000
274,399100
274,399200
274,399300
280,399400
274,399500
274,399600
274,399700
274,399800
285,399900
274,400000
274,400100
274,400200
274,400300
285,400400
274,400500
274,400600
274,400700
274,400800
274,400900
285,401000
274,401100
274,401200
274,401300
274,401400
274,401500
286,401600
274,401700
274,401800
274,401900
274,402000
274,402100
285,402200
274,402300
274,402400
274,402500
274,402600
274,402700
285,402800
275,402900
275,403000
275,403100
275,403200
275,403300
286,403400
274,403500
274,403600
274,403700
274,403800
274,403900
280,404000
274,404100
274,404200
274,404300
274,404400
286,404500
275,404600
275,404700
275,404800
275,404900
286,405000
275,405100
275,405200
275,405300
275,405400
275,405500
275,405600
281,405700
275,405800
275,405900
275,406000
275,406100
286,406200
275,406300
275,406400
275,406500
275,406600
275,406700
286,406800
275,406900
275,407000
275,407100
275,407200
275,407300
286,407400
275,407500
275,407600
275,407700
275,407800
275,407900
287,408000
275,408100
275,408200
275,408300
275,408400
275,408500
286,408600
276,408700
276,408800
276,408900
276,409000
276,409100
287,409200
276,409300
276,409400
276,409500
276,409600
276,409700
286,409800
275,409900
275,410000
275,410100
275,410200
275,410300
286,410400
276,410500
276,410600
276,410700
276,410800
276,410900
287,411000
276,411100
276,411200
276,411300
276,411400
276,411500
287,411600
276,411700
276,411800
276,411900
276,412000
276,412100
286,412200
276,412300
276,412400
276,412500
276,412600
276,412700
286,412800
276,412900
276,413000
276,413100
276,413200
276,413300
287,413400
276,413500
276,413600
276,413700
276,413800
276,413900
287,414000
276,414100
276,414200
276,414300
276,414400
276,414500
287,414600
276,414700
276,414800
276,414900
276,415000
276,415100
288,415200
277,415300
277,415400
277,415500
277,415600
277,415700
287,415800
277,415900
277,416000
277,416100
277,416200
287,416300
276,416400
276,416500
277,416600
277,416700
277,416800
277,416900
277,417000
287,417100
277,417200
277,417300
276,417400
276,417500
276,417600
276,417700
276,417800
287,417900
276,418000
276,418100
276,418200
276,418300
276,418400
287,418500
277,418600
277,418700
277,418800
277,418900
277,419000
287,419100
277,419200
277,419300
277,419400
277,419500
277,419600
287,419700
277,419800
277,419900
277,420000
277,420100
277,420200
287,420300
277,420400
277,420500
277,420600
277,420700
277,420800
288,420900
277,421000
277,421100
277,421200
277,421300
277,421400
288,421500
277,421600
277,421700
277,421800
277,421900
277,422000
288,422100
277,422200
277,422300
277,422400
277,422500
277,422600
288,422700
277,422800
277,422900
277,423000
277,423100
277,423200
287,423300
277,423400
277,423500
277,423600
277,423700
277,423800
288,423900
277,424000
277,424100
277,424200
277,424300
277,424400
288,424500
278,424600
278,424700
278,424800
278,424900
278,425000
288,425100
278,425200
278,425300
278,425400
278,425500
278,425600
288,425700
277,425800
277,425900
277,426000
277,426100
277,426200
288,426300
278,426400
278,426500
278,426600
278,426700
278,426800
288,426900
278,427000
278,427100
278,427200
278,427300
278,427400
288,427500
279,427600
279,427700
279,427800
279,427900
279,428000
288,428100
278,428200
278,428300
278,428400
278,428500
278,428600
288,428700
278,428800
278,428900
278,429000
278,429100
278,429200
288,429300
279,429400
279,429500
279,429600
279,429700
279,429800
288,429900
278,430000
278,430100
278,430200
278,430300
278,430400
289,430500
279,430600
279,430700
279,430800
279,430900
279,431000
288,431100
279,431200
279,431300
279,431400
279,431500
279,431600
288,431700
279,431800
279,431900
279,432000
279,432100
279,432200
289,432300
279,432400
279,432500
279,432600
279,432700
279,432800
288,432900
279,433000
279,433100
279,433200
279,433300
279,433400
289,433500
279,433600
279,433700
279,433800
279,433900
279,434000
289,434100
279,434200
279,434300
279,434400
279,434500
279,434600
289,434700
279,434800
279,434900
279,435000
279,435100
279,435200
289,435300
280,435400
280,435500
280,435600
280,435700
280,435800
289,435900
280,436000
280,436100
280,436200
280,436300
280,436400
289,436500
280,436600
280,436700
280,436800
280,436900
280,437000
289,437100
280,437200
280,437300
280,437400
280,437500
280,437600
289,437700
280,437800
280,437900
280,438000
280,438100
280,438200
289,438300
280,438400
280,438500
280,438600
280,438700
280,438800
289,438900
280,439000
280,439100
280,439200
280,439300
280,439400
289,439500
280,439600
280,439700
280,439800
280,439900
280,440000
290,440100
281,440200
281,440300
281,440400
281,440500
281,440600
290,440700
281,440800
281,440900
281,441000
281,441100
281,441200
289,441300
281,441400
281,441500
281,441600
281,441700
281,441800
289,441900
280,442000
280,442100
280,442200
280,442300
280,442400
290,442500
281,442600
281,442700
281,442800
281,442900
281,443000
290,443100
281,443200
281,443300
281,443400
281,443500
281,443600
290,443700
281,443800
281,443900
281,444000
281,444100
281,444200
290,444300
281,444400
281,444500
281,444600
281,444700
281,444800
290,444900
281,445000
281,445100
281,445200
281,445300
281,445400
291,445500
282,445600
282,445700
282,445800
282,445900
282,446000
290,446100
281,446200
281,446300
281,446400
281,446500
281,446600
289,446700
281,446800
281,446900
281,447000
281,447100
281,447200
291,447300
282,447400
282,447500
282,447600
282,447700
282,447800
290,447900
281,448000
281,448100
281,448200
281,448300
281,448400
290,448500
282,448600
282,448700
282,448800
282,448900
282,449000
290,449100
282,449200
282,449300
282,449400
282,449500
282,449600
289,449700
282,449800
282,449900
282,450000
282,450100
282,450200
291,450300
282,450400
282,450500
282,450600
282,450700
282,450800
290,450900
281,451000
281,451100
281,451200
281,451300
281,451400
291,451500
282,451600
282,451700
282,451800
282,451900
282,452000
290,452100
282,452200
282,452300
282,452400
282,452500
282,452600
291,452700
282,452800
282,452900
282,453000
282,453100
282,453200
290,453300
283,453400
283,453500
283,453600
283,453700
283,453800
290,453900
283,454000
283,454100
283,454200
283,454300
283,454400
290,454500
283,454600
283,454700
283,454800
283,454900
283,455000
291,455100
283,455200
283,455300
283,455400
283,455500
283,455600
290,455700
283,455800
283,455900
283,456000
283,456100
283,456200
290,456300
283,456400
283,456500
283,456600
283,456700
283,456800
291,456900
283,457000
283,457100
283,457200
283,457300
283,457400
293,457500
288,457600
288,457700
288,457800
288,457900
288,458000
292,458100
285,458200
285,458300
285,458400
285,458500
285,458600
291,458700
284,458800
284,458900
284,459000
284,459100
284,459200
291,459300
283,459400
283,459500
283,459600
283,459700
283,459800
291,459900
284,460000
284,460100
284,460200
284,460300
284,460400
289,460500
284,460600
284,460700
284,460800
284,460900
284,461000
290,461100
284,461200
284,461300
284,461400
284,461500
284,461600
289,461700
284,461800
284,461900
284,462000
284,462100
284,462200
291,462300
284,462400
284,462500
284,462600
284,462700
284,462800
290,462900
285,463000
285,463100
285,463200
285,463300
285,463400
292,463500
284,463600
284,463700
284,463800
284,463900
284,464000
291,464100
285,464200
285,464300
285,464400
285,464500
285,464600
290,464700
284,464800
284,464900
284,465000
284,465100
284,465200
290,465300
285,465400
285,465500
285,465600
285,465700
285,465800
290,465900
285,466000
285,466100
285,466200
285,466300
285,466400
290,466500
285,466600
285,466700
285,466800
285,466900
285,467000
290,467100
285,467200
285,467300
285,467400
285,467500
285,467600
291,467700
285,467800
285,467900
285,468000
285,468100
285,468200
291,468300
285,468400
285,468500
285,468600
285,468700
285,468800
289,468900
285,469000
285,469100
285,469200
285,469300
285,469400
291,469500
285,469600
285,469700
285,469800
285,469900
285,470000
289,470100
286,470200
286,470300
286,470400
286,470500
286,470600
290,470700
286,470800
286,470900
286,471000
286,471100
286,471200
290,471300
286,471400
286,471500
286,471600
286,471700
286,471800
290,471900
286,472000
286,472100
286,472200
286,472300
286,472400
290,472500
286,472600
286,472700
286,472800
286,472900
286,473000
290,473100
286,473200
286,473300
286,473400
286,473500
286,473600
291,473700
287,473800
287,473900
287,474000
287,474100
287,474200
290,474300
286,474400
286,474500
286,474600
286,474700
286,474800
291,474900
287,475000
287,475100
287,475200
287,475300
287,475400
291,475500
286,475600
286,475700
286,475800
286,475900
286,476000
291,476100
287,476200
287,476300
287,476400
287,476500
287,476600
291,476700
287,476800
287,476900
287,477000
287,477100
287,477200
289,477300
287,477400
287,477500
287,477600
287,477700
287,477800
291,477900
288,478000
288,478100
288,478200
288,478300
288,478400
290,478500
287,478600
287,478700
287,478800
287,478900
287,479000
292,479100
288,479200
288,479300
288,479400
288,479500
288,479600
290,479700
288,479800
288,479900
288,480000
288,480100
288,480200
291,480300
288,480400
288,480500
288,480600
288,480700
288,480800
290,480900
288,481000
288,481100
288,481200
288,481300
288,481400
290,481500
288,481600
288,481700
288,481800
288,481900
288,482000
292,482100
288,482200
288,482300
288,482400
288,482500
288,482600
290,482700
288,482800
288,482900
288,483000
288,483100
288,483200
291,483300
288,483400
288,483500
288,483600
288,483700
288,483800
291,483900
288,484000
288,484100
288,484200
288,484300
288,484400
291,484500
289,484600
289,484700
289,484800
289,484900
289,485000
290,485100
289,485200
289,485300
289,485400
289,485500
289,485600
291,485700
289,485800
289,485900
289,486000
289,486100
289,486200
290,486300
289,486400
289,486500
289,486600
289,486700
289,486800
292,486900
289,487000
289,487100
289,487200
289,487300
289,487400
291,487500
289,487600
289,487700
289,487800
289,487900
289,488000
291,488100
289,488200
289,488300
289,488400
289,488500
289,488600
292,488700
290,488800
290,488900
290,489000
290,489100
290,489200
291,489300
289,489400
289,489500
289,489600
289,489700
289,489800
289,489900
289,490000
289,490100
289,490200
289,490300
289,490400
291,490500
289,490600
289,490700
289,490800
289,490900
289,491000
289,491100
289,491200
289,491300
289,491400
289,491500
298,491600
291,491700
289,491800
289,491900
289,492000
289,492100
289,492200
290,492300
290,492400
290,492500
290,492600
290,492700
297,492800
289,492900
289,493000
289,493100
289,493200
289,493300
289,493400
290,493500
290,493600
290,493700
290,493800
290,493900
298,494000
290,494100
290,494200
290,494300
290,494400
290,494500
299,494600
290,494700
290,494800
290,494900
290,495000
290,495100
299,495200
291,495300
291,495400
291,495500
291,495600
291,495700
298,495800
290,495900
290,496000
290,496100
290,496200
290,496300
298,496400
290,496500
290,496600
290,496700
290,496800
290,496900
299,497000
291,497100
291,497200
291,497300
291,497400
291,497500
299,497600
291,497700
291,497800
291,497900
291,498000
291,498100
299,498200
291,498300
291,498400
291,498500
291,498600
291,498700
299,498800
290,498900
290,499000
290,499100
290,499200
290,499300
299,499400
291,499500
291,499600
291,499700
291,499800
291,499900
299,500000
291,500100
291,500200
291,500300
291,500400
291,500500
299,500600
291,500700
291,500800
291,500900
291,501000
291,501100
299,501200
291,501300
291,501400
291,501500
291,501600
291,501700
299,501800
291,501900
291,502000
291,502100
291,502200
291,502300
299,502400
292,502500
292,502600
292,502700
292,502800
292,502900
299,503000
292,503100
292,503200
292,503300
292,503400
292,503500
300,503600
292,503700
292,503800
292,503900
292,504000
292,504100
300,504200
292,504300
292,504400
292,504500
292,504600
292,504700
300,504800
293,504900
293,505000
293,505100
293,505200
293,505300
300,505400
293,505500
293,505600
293,505700
293,505800
293,505900
300,506000
292,506100
292,506200
292,506300
292,506400
292,506500
301,506600
293,506700
293,506800
293,506900
293,507000
293,507100
300,507200
293,507300
293,507400
293,507500
293,507600
293,507700
300,507800
293,507900
293,508000
293,508100
293,508200
293,508300
300,508400
293,508500
293,508600
293,508700
293,508800
293,508900
300,509000
293,509100
293,509200
293,509300
293,509400
293,509500
301,509600
293,509700
293,509800
293,509900
293,510000
293,510100
301,510200
293,510300
293,510400
293,510500
293,510600
293,510700
301,510800
294,510900
294,511000
294,511100
294,511200
294,511300
301,511400
294,511500
294,511600
294,511700
294,511800
294,511900
301,512000
294,512100
294,512200
294,512300
294,512400
294,512500
301,512600
294,512700
294,512800
294,512900
294,513000
294,513100
302,513200
294,513300
294,513400
294,513500
294,513600
294,513700
302,513800
294,513900
294,514000
294,514100
294,514200
294,514300
303,514400
295,514500
295,514600
295,514700
295,514800
295,514900
302,515000
294,515100
294,515200
294,515300
294,515400
294,515500
302,515600
295,515700
295,515800
295,515900
295,516000
295,516100
302,516200
294,516300
294,516400
294,516500
294,516600
294,516700
302,516800
295,516900
295,517000
295,517100
295,517200
295,517300
302,517400
295,517500
295,517600
295,517700
295,517800
295,517900
302,518000
295,518100
295,518200
295,518300
295,518400
295,518500
303,518600
295,518700
295,518800
295,518900
295,519000
295,519100
303,519200
295,519300
295,519400
295,519500
295,519600
295,519700
302,519800
295,519900
295,520000
295,520100
295,520200
295,520300
303,520400
295,520500
295,520600
295,520700
295,520800
295,520900
303,521000
295,521100
295,521200
295,521300
295,521400
295,521500
303,521600
296,521700
296,521800
296,521900
296,522000
296,522100
303,522200
296,522300
296,522400
296,522500
296,522600
296,522700
303,522800
296,522900
296,523000
296,523100
296,523200
296,523300
303,523400
296,523500
296,523600
296,523700
296,523800
296,523900
303,524000
296,524100
296,524200
296,524300
296,524400
296,524500
304,524600
296,524700
296,524800
296,524900
296,525000
296,525100
304,525200
297,525300
297,525400
297,525500
297,525600
297,525700
304,525800
296,525900
296,526000
296,526100
296,526200
296,526300
304,526400
297,526500
297,526600
297,526700
297,526800
297,526900
304,527000
296,527100
296,527200
296,527300
296,527400
296,527500
304,527600
296,527700
296,527800
296,527900
296,528000
296,528100
304,528200
297,528300
297,528400
297,528500
297,528600
297,528700
304,528800
298,528900
298,529000
298,529100
298,529200
298,529300
305,529400
297,529500
297,529600
297,529700
297,529800
297,529900
304,530000
298,530100
298,530200
298,530300
298,530400
298,530500
305,530600
297,530700
297,530800
297,530900
297,531000
297,531100
305,531200
298,531300
298,531400
298,531500
298,531600
298,531700
305,531800
298,531900
298,532000
298,532100
298,532200
298,532300
305,532400
298,532500
298,532600
298,532700
298,532800
298,532900
305,533000
298,533100
298,533200
298,533300
298,533400
298,533500
305,533600
298,533700
298,533800
298,533900
298,534000
298,534100
306,534200
298,534300
298,534400
298,534500
298,534600
298,534700
306,534800
301,534900
299,535000
299,535100
299,535200
299,535300
306,535400
299,535500
299,535600
299,535700
299,535800
299,535900
306,536000
299,536100
299,536200
299,536300
299,536400
299,536500
306,536600
299,536700
299,536800
299,536900
299,537000
299,537100
299,537200
299,537300
299,537400
299,537500
299,537600
299,537700
307,537800
300,537900
300,538000
300,538100
300,538200
300,538300
300,538400
299,538500
299,538600
299,538700
299,538800
299,538900
306,539000
300,539100
300,539200
300,539300
300,539400
300,539500
300,539600
300,539700
300,539800
300,539900
300,540000
300,540100
307,540200
302,540300
300,540400
300,540500
300,540600
300,540700
300,540800
301,540900
301,541000
301,541100
301,541200
301,541300
301,541400
302,541500
301,541600
301,541700
301,541800
301,541900
301,542000
300,542100
300,542200
300,542300
300,542400
300,542500
300,542600
302,542700
300,542800
300,542900
300,543000
300,543100
300,543200
301,543300
301,543400
301,543500
301,543600
301,543700
301,543800
302,543900
301,544000
301,544100
301,544200
301,544300
301,544400
301,544500
301,544600
301,544700
301,544800
301,544900
301,545000
302,545100
301,545200
301,545300
301,545400
301,545500
301,545600
301,545700
301,545800
301,545900
301,546000
301,546100
301,546200
303,546300
301,546400
301,546500
301,546600
301,546700
301,546800
303,546900
301,547000
301,547100
301,547200
301,547300
301,547400
303,547500
302,547600
302,547700
302,547800
302,547900
302,548000
303,548100
301,548200
301,548300
301,548400
301,548500
301,548600
303,548700
302,548800
302,548900
302,549000
302,549100
302,549200
303,549300
302,549400
302,549500
302,549600
302,549700
302,549800
303,549900
302,550000
302,550100
302,550200
302,550300
302,550400
304,550500
302,550600
302,550700
302,550800
302,550900
302,551000
304,551100
302,551200
302,551300
302,551400
302,551500
302,551600
304,551700
302,551800
302,551900
302,552000
302,552100
302,552200
304,552300
303,552400
303,552500
303,552600
303,552700
303,552800
304,552900
303,553000
303,553100
303,553200
303,553300
303,553400
305,553500
303,553600
303,553700
303,553800
303,553900
303,554000
305,554100
303,554200
303,554300
303,554400
303,554500
303,554600
305,554700
304,554800
304,554900
304,555000
304,555100
304,555200
305,555300
303,555400
303,555500
303,555600
303,555700
303,555800
305,555900
304,556000
304,556100
304,556200
304,556300
304,556400
306,556500
304,556600
304,556700
304,556800
304,556900
304,557000
305,557100
304,557200
304,557300
304,557400
304,557500
304,557600
306,557700
304,557800
304,557900
304,558000
304,558100
304,558200
306,558300
304,558400
304,558500
304,558600
304,558700
304,558800
306,558900
304,559000
304,559100
304,559200
304,559300
304,559400
304,559500
304,559600
304,559700
304,559800
304,559900
304,560000
306,560100
305,560200
305,560300
305,560400
305,560500
305,560600
305,560700
305,560800
305,560900
305,561000
305,561100
305,561200
307,561300
305,561400
305,561500
305,561600
305,561700
305,561800
305,561900
305,562000
305,562100
305,562200
305,562300
305,562400
307,562500
305,562600
305,562700
305,562800
305,562900
305,563000
306,563100
306,563200
306,563300
306,563400
306,563500
312,563600
307,563700
305,563800
305,563900
305,564000
305,564100
305,564200
306,564300
306,564400
306,564500
306,564600
306,564700
313,564800
307,564900
306,565000
306,565100
306,565200
306,565300
306,565400
306,565500
306,565600
306,565700
306,565800
306,565900
313,566000
308,566100
306,566200
306,566300
306,566400
306,566500
306,566600
306,566700
306,566800
306,566900
306,567000
306,567100
313,567200
308,567300
307,567400
307,567500
307,567600
307,567700
307,567800
307,567900
307,568000
307,568100
307,568200
307,568300
314,568400
307,568500
307,568600
307,568700
307,568800
307,568900
307,569000
307,569100
307,569200
307,569300
307,569400
307,569500
314,569600
307,569700
307,569800
307,569900
307,570000
307,570100
307,570200
308,570300
308,570400
308,570500
308,570600
308,570700
314,570800
308,570900
308,571000
308,571100
308,571200
308,571300
308,571400
308,571500
308,571600
308,571700
308,571800
308,571900
314,572000
308,572100
308,572200
308,572300
308,572400
308,572500
308,572600
308,572700
308,572800
308,572900
308,573000
308,573100
315,573200
308,573300
308,573400
308,573500
308,573600
308,573700
308,573800
308,573900
308,574000
308,574100
308,574200
308,574300
315,574400
308,574500
308,574600
308,574700
308,574800
308,574900
315,575000
309,575100
309,575200
309,575300
309,575400
309,575500
315,575600
309,575700
309,575800
309,575900
309,576000
309,576100
315,576200
309,576300
309,576400
309,576500
309,576600
309,576700
315,576800
309,576900
309,577000
309,577100
309,577200
309,577300
315,577400
309,577500
309,577600
309,577700
309,577800
309,577900
315,578000
309,578100
309,578200
309,578300
309,578400
309,578500
316,578600
309,578700
309,578800
309,578900
309,579000
309,579100
316,579200
310,579300
310,579400
310,579500
310,579600
310,579700
316,579800
310,579900
310,580000
310,580100
310,580200
310,580300
316,580400
310,580500
310,580600
310,580700
310,580800
310,580900
316,581000
310,581100
310,581200
310,581300
310,581400
310,581500
316,581600
310,581700
310,581800
310,581900
310,582000
310,582100
317,582200
310,582300
310,582400
310,582500
310,582600
310,582700
317,582800
311,582900
311,583000
311,583100
311,583200
311,583300
317,583400
311,583500
311,583600
311,583700
311,583800
311,583900
317,584000
311,584100
311,584200
311,584300
311,584400
311,584500
317,584600
311,584700
311,584800
311,584900
311,585000
311,585100
318,585200
311,585300
311,585400
311,585500
311,585600
311,585700
318,585800
312,585900
312,586000
312,586100
312,586200
312,586300
318,586400
312,586500
312,586600
312,586700
312,586800
312,586900
318,587000
312,587100
312,587200
312,587300
312,587400
312,587500
318,587600
312,587700
312,587800
312,587900
312,588000
312,588100
319,588200
313,588300
313,588400
313,588500
313,588600
313,588700
319,588800
313,588900
313,589000
313,589100
313,589200
313,589300
319,589400
313,589500
313,589600
313,589700
313,589800
313,589900
319,590000
313,590100
313,590200
313,590300
313,590400
313,590500
319,590600
313,590700
313,590800
313,590900
313,591000
313,591100
313,591200
313,591300
313,591400
313,591500
313,591600
313,591700
320,591800
313,591900
313,592000
313,592100
313,592200
313,592300
313,592400
314,592500
314,592600
314,592700
314,592800
314,592900
320,593000
314,593100
314,593200
314,593300
314,593400
314,593500
314,593600
314,593700
314,593800
314,593900
314,594000
314,594100
320,594200
314,594300
314,594400
314,594500
314,594600
314,594700
314,594800
314,594900
314,595000
314,595100
314,595200
314,595300
321,595400
315,595500
315,595600
315,595700
315,595800
315,595900
315,596000
315,596100
315,596200
315,596300
315,596400
315,596500
321,596600
315,596700
315,596800
315,596900
315,597000
315,597100
315,597200
315,597300
315,597400
315,597500
315,597600
315,597700
321,597800
315,597900
315,598000
315,598100
315,598200
315,598300
315,598400
316,598500
316,598600
316,598700
316,598800
316,598900
322,599000
316,599100
316,599200
316,599300
316,599400
316,599500
316,599600
316,599700
316,599800
316,599900
316,600000
316,600100
322,600200
316,600300
316,600400
316,600500
316,600600
316,600700
316,600800
317,600900
317,601000
317,601100
317,601200
317,601300
322,601400
316,601500
316,601600
316,601700
316,601800
316,601900
316,602000
316,602100
316,602200
316,602300
316,602400
316,602500
323,602600
317,602700
317,602800
317,602900
317,603000
317,603100
317,603200
317,603300
317,603400
317,603500
317,603600
317,603700
323,603800
317,603900
317,604000
317,604100
317,604200
317,604300
317,604400
317,604500
317,604600
317,604700
317,604800
317,604900
323,605000
317,605100
317,605200
317,605300
317,605400
317,605500
317,605600
319,605700
318,605800
318,605900
318,606000
318,606100
324,606200
318,606300
318,606400
318,606500
318,606600
318,606700
318,606800
318,606900
318,607000
318,607100
318,607200
318,607300
324,607400
318,607500
318,607600
318,607700
318,607800
318,607900
318,608000
318,608100
318,608200
318,608300
318,608400
318,608500
324,608600
318,608700
318,608800
318,608900
318,609000
318,609100
318,609200
318,609300
318,609400
318,609500
318,609600
318,609700
325,609800
319,609900
319,610000
319,610100
319,610200
319,610300
319,610400
320,610500
319,610600
319,610700
319,610800
319,610900
325,611000
319,611100
319,611200
319,611300
319,611400
319,611500
319,611600
319,611700
319,611800
319,611900
319,612000
319,612100
325,612200
319,612300
319,612400
319,612500
319,612600
319,612700
319,612800
320,612900
320,613000
320,613100
320,613200
320,613300
326,613400
320,613500
320,613600
320,613700
320,613800
320,613900
320,614000
321,614100
321,614200
321,614300
321,614400
321,614500
326,614600
320,614700
320,614800
320,614900
320,615000
320,615100
320,615200
320,615300
320,615400
320,615500
320,615600
320,615700
327,615800
321,615900
321,616000
321,616100
321,616200
321,616300
321,616400
321,616500
321,616600
321,616700
321,616800
321,616900
326,617000
321,617100
321,617200
321,617300
321,617400
321,617500
321,617600
322,617700
321,617800
321,617900
321,618000
321,618100
327,618200
322,618300
321,618400
321,618500
321,618600
321,618700
321,618800
323,618900
321,619000
321,619100
321,619200
321,619300
321,619400
323,619500
322,619600
322,619700
322,619800
322,619900
322,620000
323,620100
322,620200
322,620300
322,620400
322,620500
322,620600
323,620700
322,620800
322,620900
322,621000
322,621100
322,621200
324,621300
323,621400
323,621500
323,621600
323,621700
323,621800
324,621900
323,622000
323,622100
323,622200
323,622300
323,622400
324,622500
322,622600
322,622700
322,622800
322,622900
322,623000
324,623100
323,623200
323,623300
323,623400
323,623500
323,623600
325,623700
323,623800
323,623900
323,624000
323,624100
323,624200
325,624300
324,624400
324,624500
324,624600
324,624700
324,624800
325,624900
324,625000
324,625100
324,625200
324,625300
324,625400
325,625500
324,625600
324,625700
324,625800
324,625900
324,626000
326,626100
324,626200
324,626300
324,626400
324,626500
324,626600
325,626700
324,626800
324,626900
324,627000
324,627100
324,627200
327,627300
324,627400
324,627500
324,627600
324,627700
324,627800
325,627900
324,628000
324,628100
324,628200
324,628300
324,628400
327,628500
325,628600
325,628700
325,628800
325,628900
325,629000
326,629100
325,629200
325,629300
325,629400
325,629500
325,629600
327,629700
325,629800
325,629900
325,630000
325,630100
325,630200
328,630300
325,630400
325,630500
325,630600
325,630700
325,630800
328,630900
325,631000
325,631100
325,631200
325,631300
325,631400
327,631500
325,631600
325,631700
325,631800
325,631900
325,632000
328,632100
326,632200
326,632300
326,632400
326,632500
326,632600
328,632700
326,632800
326,632900
326,633000
326,633100
326,633200
328,633300
326,633400
326,633500
326,633600
326,633700
326,633800
328,633900
326,634000
326,634100
326,634200
326,634300
326,634400
328,634500
326,634600
326,634700
326,634800
326,634900
326,635000
329,635100
327,635200
327,635300
327,635400
327,635500
327,635600
330,635700
327,635800
327,635900
327,636000
327,636100
327,636200
329,636300
327,636400
327,636500
327,636600
327,636700
327,636800
330,636900
327,637000
327,637100
327,637200
327,637300
327,637400
330,637500
327,637600
327,637700
327,637800
327,637900
327,638000
330,638100
327,638200
327,638300
327,638400
327,638500
327,638600
330,638700
328,638800
328,638900
328,639000
328,639100
328,639200
331,639300
328,639400
328,639500
328,639600
328,639700
328,639800
330,639900
328,640000
328,640100
328,640200
328,640300
328,640400
331,640500
328,640600
328,640700
328,640800
328,640900
328,641000
331,641100
329,641200
329,641300
329,641400
329,641500
329,641600
331,641700
329,641800
329,641900
329,642000
329,642100
329,642200
332,642300
329,642400
329,642500
329,642600
329,642700
329,642800
331,642900
329,643000
329,643100
329,643200
329,643300
329,643400
332,643500
329,643600
329,643700
329,643800
329,643900
329,644000
333,644100
330,644200
330,644300
330,644400
330,644500
330,644600
333,644700
330,644800
330,644900
330,645000
330,645100
330,645200
332,645300
330,645400
330,645500
330,645600
330,645700
330,645800
333,645900
331,646000
331,646100
331,646200
331,646300
331,646400
333,646500
331,646600
331,646700
331,646800
331,646900
331,647000
333,647100
331,647200
331,647300
331,647400
331,647500
331,647600
333,647700
331,647800
331,647900
331,648000
331,648100
331,648200
333,648300
331,648400
331,648500
331,648600
331,648700
331,648800
334,648900
331,649000
331,649100
331,649200
331,649300
331,649400
334,649500
332,649600
332,649700
332,649800
332,649900
332,650000
334,650100
332,650200
332,650300
332,650400
332,650500
332,650600
334,650700
332,650800
332,650900
332,651000
332,651100
332,651200
334,651300
332,651400
332,651500
332,651600
332,651700
332,651800
335,651900
332,652000
332,652100
332,652200
332,652300
332,652400
334,652500
332,652600
332,652700
332,652800
332,652900
332,653000
336,653100
332,653200
332,653300
332,653400
332,653500
332,653600
335,653700
332,653800
332,653900
332,654000
332,654100
332,654200
336,654300
333,654400
333,654500
333,654600
333,654700
333,654800
335,654900
333,655000
333,655100
333,655200
333,655300
333,655400
336,655500
333,655600
333,655700
333,655800
333,655900
333,656000
336,656100
333,656200
333,656300
333,656400
333,656500
333,656600
337,656700
333,656800
333,656900
333,657000
333,657100
333,657200
336,657300
333,657400
333,657500
333,657600
333,657700
333,657800
337,657900
334,658000
334,658100
334,658200
334,658300
334,658400
336,658500
334,658600
334,658700
334,658800
334,658900
334,659000
338,659100
334,659200
334,659300
334,659400
334,659500
334,659600
337,659700
335,659800
335,659900
335,660000
335,660100
335,660200
338,660300
335,660400
335,660500
335,660600
335,660700
335,660800
337,660900
335,661000
335,661100
335,661200
335,661300
335,661400
338,661500
335,661600
335,661700
335,661800
335,661900
335,662000
338,662100
335,662200
335,662300
335,662400
335,662500
335,662600
339,662700
336,662800
336,662900
336,663000
336,663100
336,663200
338,663300
336,663400
336,663500
336,663600
336,663700
336,663800
339,663900
336,664000
336,664100
336,664200
336,664300
336,664400
339,664500
336,664600
336,664700
336,664800
336,664900
336,665000
340,665100
337,665200
337,665300
337,665400
337,665500
337,665600
341,665700
339,665800
339,665900
339,666000
339,666100
339,666200
342,666300
338,666400
338,666500
338,666600
338,666700
338,666800
340,666900
337,667000
337,667100
337,667200
337,667300
337,667400
341,667500
338,667600
338,667700
338,667800
338,667900
338,668000
340,668100
338,668200
338,668300
338,668400
338,668500
338,668600
341,668700
338,668800
338,668900
338,669000
338,669100
338,669200
340,669300
337,669400
337,669500
337,669600
337,669700
337,669800
341,669900
338,670000
338,670100
338,670200
338,670300
338,670400
341,670500
339,670600
339,670700
339,670800
339,670900
339,671000
341,671100
338,671200
338,671300
338,671400
338,671500
338,671600
341,671700
338,671800
338,671900
338,672000
338,672100
338,672200
342,672300
339,672400
339,672500
339,672600
339,672700
339,672800
341,672900
339,673000
339,673100
339,673200
339,673300
339,673400
342,673500
339,673600
339,673700
339,673800
339,673900
339,674000
342,674100
339,674200
339,674300
339,674400
339,674500
339,674600
339,674700
339,674800
339,674900
339,675000
339,675100
339,675200
342,675300
340,675400
340,675500
340,675600
340,675700
340,675800
343,675900
340,676000
340,676100
340,676200
340,676300
340,676400
340,676500
340,676600
340,676700
340,676800
340,676900
340,677000
343,677100
340,677200
340,677300
340,677400
340,677500
340,677600
343,677700
340,677800
340,677900
340,678000
340,678100
340,678200
343,678300
340,678400
340,678500
340,678600
340,678700
340,678800
344,678900
340,679000
340,679100
340,679200
340,679300
346,679400
341,679500
341,679600
341,679700
341,679800
341,679900
341,680000
344,680100
341,680200
341,680300
341,680400
341,680500
341,680600
344,680700
341,680800
341,680900
341,681000
341,681100
341,681200
344,681300
341,681400
341,681500
341,681600
341,681700
341,681800
344,681900
341,682000
341,682100
341,682200
341,682300
341,682400
345,682500
343,682600
343,682700
343,682800
343,682900
343,683000
346,683100
342,683200
342,683300
342,683400
342,683500
342,683600
346,683700
343,683800
343,683900
343,684000
343,684100
343,684200
346,684300
342,684400
342,684500
342,684600
342,684700
342,684800
347,684900
343,685000
343,685100
343,685200
343,685300
343,685400
346,685500
342,685600
342,685700
342,685800
342,685900
342,686000
347,686100
343,686200
343,686300
343,686400
343,686500
343,686600
347,686700
343,686800
343,686900
343,687000
343,687100
343,687200
348,687300
343,687400
343,687500
343,687600
343,687700
343,687800
347,687900
343,688000
343,688100
343,688200
343,688300
343,688400
348,688500
343,688600
343,688700
343,688800
343,688900
343,689000
348,689100
344,689200
344,689300
344,689400
344,689500
344,689600
348,689700
344,689800
344,689900
344,690000
344,690100
344,690200
349,690300
344,690400
344,690500
344,690600
344,690700
344,690800
348,690900
345,691000
345,691100
345,691200
345,691300
345,691400
350,691500
345,691600
345,691700
345,691800
345,691900
345,692000
349,692100
345,692200
345,692300
345,692400
345,692500
345,692600
349,692700
345,692800
345,692900
345,693000
345,693100
345,693200
481,693300
469,693400
469,693500
469,693600
469,693700
469,693800
497,693900
552,694000
552,694100
552,694200
552,694300
552,694400
575,694500
561,694600
561,694700
561,694800
561,694900
561,695000
547,695100
532,695200
532,695300
532,695400
532,695500
532,695600
423,695700
415,695800
415,695900
415,696000
415,696100
415,696200
365,696300
360,696400
360,696500
360,696600
360,696700
360,696800
354,696900
350,697000
350,697100
350,697200
350,697300
350,697400
352,697500
348,697600
348,697700
348,697800
348,697900
348,698000
434,698100
426,698200
426,698300
426,698400
426,698500
426,698600
390,698700
384,698800
384,698900
384,699000
384,699100
384,699200
361,699300
356,699400
356,699500
356,699600
356,699700
356,699800
354,699900
349,700000
349,700100
349,700200
349,700300
349,700400
353,700500
349,700600
349,700700
349,700800
349,700900
349,701000
355,701100
351,701200
351,701300
351,701400
351,701500
351,701600
353,701700
350,701800
350,701900
350,702000
350,702100
350,702200
359,702300
354,702400
354,702500
354,702600
354,702700
354,702800
363,702900
359,703000
359,703100
359,703200
359,703300
359,703400
411,703500
404,703600
404,703700
404,703800
404,703900
404,704000
413,704100
405,704200
405,704300
405,704400
405,704500
405,704600
416,704700
427,704800
427,704900
427,705000
427,705100
427,705200
551,705300
533,705400
533,705500
533,705600
533,705700
533,705800
545,705900
530,706000
530,706100
530,706200
530,706300
530,706400
422,706500
434,706600
434,706700
434,706800
434,706900
434,707000
584,707100
564,707200
564,707300
564,707400
564,707500
564,707600
589,707700
584,707800
584,707900
584,708000
584,708100
584,708200
580,708300
563,708400
563,708500
563,708600
563,708700
563,708800
638,708900
671,709000
671,709100
671,709200
671,709300
671,709400
655,709500
630,709600
630,709700
630,709800
630,709900
630,710000
621,710100
598,710200
598,710300
598,710400
598,710500
598,710600
656,710700
698,710800
698,710900
698,711000
698,711100
698,711200
676,711300
649,711400
649,711500
649,711600
649,711700
649,711800
435,711900
425,712000
425,712100
425,712200
425,712300
425,712400
749,712500
798,712600
798,712700
798,712800
798,712900
798,713000
725,713100
695,713200
695,713300
695,713400
695,713500
695,713600
728,713700
735,713800
735,713900
735,714000
735,714100
735,714200
719,714300
748,714400
748,714500
748,714600
748,714700
748,714800
744,714900
760,715000
760,715100
760,715200
760,715300
760,715400
706,715500
730,715600
730,715700
730,715800
730,715900
730,716000
681,716100
654,716200
654,716300
654,716400
654,716500
654,716600
674,716700
685,716800
685,716900
685,717000
685,717100
685,717200
654,717300
665,717400
665,717500
665,717600
665,717700
665,717800
660,717900
634,718000
634,718100
634,718200
634,718300
634,718400
618,718500
594,718600
594,718700
594,718800
594,718900
594,719000
626,719100
602,719200
602,719300
602,719400
602,719500
602,719600
679,719700
689,719800
689,719900
689,720000
689,720100
689,720200
641,720300
616,720400
616,720500
616,720600
616,720700
616,720800
601,720900
628,721000
628,721100
628,721200
628,721300
628,721400
631,721500
608,721600
608,721700
608,721800
608,721900
608,722000
605,722100
584,722200
584,722300
584,722400
584,722500
584,722600
593,722700
572,722800
572,722900
572,723000
572,723100
572,723200
594,723300
617,723400
617,723500
617,723600
617,723700
617,723800
656,723900
657,724000
657,724100
657,724200
657,724300
657,724400
677,724500
691,724600
691,724700
691,724800
691,724900
691,725000
663,725100
650,725200
650,725300
650,725400
650,725500
650,725600
602,725700
609,725800
609,725900
609,726000
609,726100
609,726200
633,726300
633,726400
633,726500
633,726600
633,726700
633,726800
609,726900
610,727000
610,727100
610,727200
610,727300
610,727400
602,727500
596,727600
596,727700
596,727800
596,727900
596,728000
595,728100
596,728200
596,728300
596,728400
596,728500
596,728600
610,728700
608,728800
608,728900
608,729000
608,729100
608,729200
614,729300
617,729400
617,729500
617,729600
617,729700
617,729800
627,729900
631,730000
631,730100
631,730200
631,730300
631,730400
618,730500
622,730600
622,730700
622,730800
622,730900
622,731000
616,731100
619,731200
619,731300
619,731400
619,731500
619,731600
580,731700
560,731800
560,731900
560,732000
560,732100
560,732200
576,732300
579,732400
579,732500
579,732600
579,732700
579,732800
583,732900
579,733000
579,733100
579,733200
579,733300
579,733400
558,733500
539,733600
539,733700
539,733800
539,733900
539,734000
532,734100
566,734200
566,734300
566,734400
566,734500
566,734600
606,734700
583,734800
583,734900
583,735000
583,735100
583,735200
508,735300
540,735400
540,735500
540,735600
540,735700
540,735800
602,735900
594,736000
594,736100
594,736200
594,736300
594,736400
593,736500
597,736600
597,736700
597,736800
597,736900
597,737000
606,737100
603,737200
603,737300
603,737400
603,737500
603,737600
584,737700
582,737800
582,737900
582,738000
582,738100
582,738200
598,738300
603,738400
603,738500
603,738600
603,738700
603,738800
609,738900
612,739000
612,739100
612,739200
612,739300
612,739400
580,739500
560,739600
560,739700
560,739800
560,739900
560,740000
494,740100
506,740200
506,740300
506,740400
506,740500
506,740600
575,740700
581,740800
581,740900
581,741000
581,741100
581,741200
572,741300
553,741400
553,741500
553,741600
553,741700
553,741800
564,741900
547,742000
547,742100
547,742200
547,742300
547,742400
564,742500
563,742600
563,742700
563,742800
563,742900
563,743000
482,743100
479,743200
479,743300
479,743400
479,743500
479,743600
407,743700
399,743800
399,743900
399,744000
399,744100
399,744200
620,744300
628,744400
628,744500
628,744600
628,744700
628,744800
626,744900
626,745000
626,745100
626,745200
626,745300
626,745400
599,745500
602,745600
602,745700
602,745800
602,745900
602,746000
604,746100
607,746200
607,746300
607,746400
607,746500
607,746600
579,746700
560,746800
560,746900
560,747000
560,747100
560,747200
581,747300
580,747400
580,747500
580,747600
580,747700
580,747800
619,747900
625,748000
625,748100
625,748200
625,748300
625,748400
638,748500
645,748600
645,748700
645,748800
645,748900
645,749000
643,749100
647,749200
647,749300
647,749400
647,749500
647,749600
625,749700
620,749800
620,749900
620,750000
620,750100
620,750200
607,750300
610,750400
610,750500
610,750600
610,750700
610,750800
595,750900
575,751000
575,751100
575,751200
575,751300
575,751400
419,751500
410,751600
410,751700
410,751800
410,751900
410,752000
527,752100
511,752200
511,752300
511,752400
511,752500
511,752600
543,752700
526,752800
526,752900
526,753000
526,753100
526,753200
535,753300
524,753400
524,753500
524,753600
524,753700
524,753800
572,753900
570,754000
570,754100
570,754200
570,754300
570,754400
566,754500
565,754600
565,754700
565,754800
565,754900
565,755000
584,755100
588,755200
588,755300
588,755400
588,755500
588,755600
651,755700
626,755800
626,755900
626,756000
626,756100
626,756200
581,756300
578,756400
578,756500
578,756600
578,756700
578,756800
559,756900
540,757000
540,757100
540,757200
540,757300
540,757400
451,757500
465,757600
465,757700
465,757800
465,757900
465,758000
561,758100
559,758200
559,758300
559,758400
559,758500
559,758600
559,758700
541,758800
541,758900
541,759000
541,759100
541,759200
559,759300
557,759400
557,759500
557,759600
557,759700
557,759800
556,759900
554,760000
554,760100
554,760200
554,760300
554,760400
559,760500
547,760600
547,760700
547,760800
547,760900
547,761000
596,761100
590,761200
590,761300
590,761400
590,761500
590,761600
580,761700
590,761800
590,761900
590,762000
590,762100
590,762200
568,762300
555,762400
555,762500
555,762600
555,762700
555,762800
574,762900
570,763000
570,763100
570,763200
570,763300
570,763400
566,763500
549,763600
549,763700
549,763800
549,763900
549,764000
542,764100
524,764200
524,764300
524,764400
524,764500
524,764600
529,764700
513,764800
513,764900
513,765000
513,765100
513,765200
404,765300
397,765400
397,765500
397,765600
397,765700
397,765800
571,765900
567,766000
567,766100
567,766200
567,766300
567,766400
555,766500
537,766600
537,766700
537,766800
537,766900
537,767000
405,767100
398,767200
398,767300
398,767400
398,767500
398,767600
384,767700
378,767800
378,767900
378,768000
378,768100
378,768200
373,768300
368,768400
368,768500
368,768600
368,768700
368,768800
379,768900
374,769000
374,769100
374,769200
374,769300
374,769400
716,769500
730,769600
730,769700
730,769800
730,769900
730,770000
673,770100
649,770200
649,770300
649,770400
649,770500
649,770600
680,770700
653,770800
653,770900
653,771000
653,771100
653,771200
536,771300
603,771400
603,771500
603,771600
603,771700
603,771800
666,771900
640,772000
640,772100
640,772200
640,772300
640,772400
470,772500
463,772600
463,772700
463,772800
463,772900
463,773000
488,773100
559,773200
559,773300
559,773400
559,773500
559,773600
668,773700
651,773800
651,773900
651,774000
651,774100
651,774200
619,774300
646,774400
646,774500
646,774600
646,774700
646,774800
564,774900
605,775000
605,775100
605,775200
605,775300
605,775400
645,775500
622,775600
622,775700
622,775800
622,775900
622,776000
680,776100
690,776200
690,776300
690,776400
690,776500
690,776600
694,776700
704,776800
704,776900
704,777000
704,777100
704,777200
691,777300
701,777400
701,777500
701,777600
701,777700
701,777800
686,777900
697,778000
697,778100
697,778200
697,778300
697,778400
692,778500
700,778600
700,778700
700,778800
700,778900
700,779000
661,779100
646,779200
646,779300
646,779400
646,779500
646,779600
641,779700
653,779800
653,779900
653,780000
653,780100
653,780200
651,780300
656,780400
656,780500
656,780600
656,780700
656,780800
626,780900
603,781000
603,781100
603,781200
603,781300
603,781400
591,781500
571,781600
571,781700
571,781800
571,781900
571,782000
414,782100
406,782200
406,782300
406,782400
406,782500
406,782600
454,782700
443,782800
443,782900
443,783000
443,783100
443,783200
437,783300
432,783400
432,783500
432,783600
432,783700
432,783800
599,783900
616,784000
616,784100
616,784200
616,784300
616,784400
652,784500
655,784600
655,784700
655,784800
655,784900
655,785000
623,785100
600,785200
600,785300
600,785400
600,785500
600,785600
590,785700
570,785800
570,785900
570,786000
570,786100
570,786200
426,786300
417,786400
417,786500
417,786600
417,786700
417,786800
700,786900
723,787000
723,787100
723,787200
723,787300
723,787400
693,787500
665,787600
665,787700
665,787800
665,787900
665,788000
690,788100
662,788200
662,788300
662,788400
662,788500
662,788600
729,788700
697,788800
697,788900
697,789000
697,789100
697,789200
717,789300
730,789400
730,789500
730,789600
730,789700
730,789800
687,789900
660,790000
660,790100
660,790200
660,790300
660,790400
684,790500
656,790600
656,790700
656,790800
656,790900
656,791000
573,791100
644,791200
644,791300
644,791400
644,791500
644,791600
712,791700
717,791800
717,791900
717,792000
717,792100
717,792200
669,792300
644,792400
644,792500
644,792600
644,792700
644,792800
654,792900
629,793000
629,793100
629,793200
629,793300
629,793400
602,793500
655,793600
655,793700
655,793800
655,793900
655,794000
690,794100
708,794200
708,794300
708,794400
708,794500
708,794600
690,794700
662,794800
662,794900
662,795000
662,795100
662,795200
682,795300
696,795400
696,795500
696,795600
696,795700
696,795800
663,795900
637,796000
637,796100
637,796200
637,796300
637,796400
663,796500
638,796600
638,796700
638,796800
638,796900
638,797000
459,797100
448,797200
448,797300
448,797400
448,797500
448,797600
746,797700
752,797800
752,797900
752,798000
752,798100
752,798200
685,798300
658,798400
658,798500
658,798600
658,798700
658,798800
620,798900
672,799000
672,799100
672,799200
672,799300
672,799400
677,799500
697,799600
697,799700
697,799800
697,799900
697,800000
537,800100
612,800200
612,800300
612,800400
612,800500
612,800600
691,800700
664,800800
664,800900
664,801000
664,801100
664,801200
698,801300
717,801400
717,801500
717,801600
717,801700
717,801800
710,801900
726,802000
726,802100
726,802200
726,802300
726,802400
678,802500
653,802600
653,802700
653,802800
653,802900
653,803000
478,803100
574,803200
574,803300
574,803400
574,803500
574,803600
670,803700
644,803800
644,803900
644,804000
644,804100
644,804200
571,804300
626,804400
626,804500
626,804600
626,804700
626,804800
675,804900
691,805000
691,805100
691,805200
691,805300
691,805400
676,805500
648,805600
648,805700
648,805800
648,805900
648,806000
574,806100
653,806200
653,806300
653,806400
653,806500
653,806600
680,806700
654,806800
654,806900
654,807000
654,807100
654,807200
594,807300
573,807400
573,807500
573,807600
573,807700
573,807800
526,807900
614,808000
614,808100
614,808200
614,808300
614,808400
699,808500
709,808600
709,808700
709,808800
709,808900
709,809000
681,809100
654,809200
654,809300
654,809400
654,809500
654,809600
677,809700
692,809800
692,809900
692,810000
692,810100
692,810200
703,810300
712,810400
712,810500
712,810600
712,810700
712,810800
667,810900
641,811000
641,811100
641,811200
641,811300
641,811400
512,811500
498,811600
498,811700
498,811800
498,811900
498,812000
545,812100
566,812200
566,812300
566,812400
566,812500
566,812600
650,812700
625,812800
625,812900
625,813000
625,813100
625,813200
639,813300
661,813400
661,813500
661,813600
661,813700
661,813800
644,813900
620,814000
620,814100
620,814200
620,814300
620,814400
586,814500
620,814600
620,814700
620,814800
620,814900
620,815000
661,815100
636,815200
636,815300
636,815400
636,815500
636,815600
547,815700
559,815800
559,815900
559,816000
559,816100
559,816200
652,816300
670,816400
670,816500
670,816600
670,816700
670,816800
668,816900
643,817000
643,817100
643,817200
643,817300
643,817400
579,817500
560,817600
560,817700
560,817800
560,817900
560,818000
672,818100
686,818200
686,818300
686,818400
686,818500
686,818600
660,818700
635,818800
635,818900
635,819000
635,819100
635,819200
587,819300
572,819400
572,819500
572,819600
572,819700
572,819800
634,819900
611,820000
611,820100
611,820200
611,820300
611,820400
432,820500
423,820600
423,820700
423,820800
423,820900
423,821000
713,821100
756,821200
756,821300
756,821400
756,821500
756,821600
719,821700
693,821800
693,821900
693,822000
693,822100
693,822200
717,822300
711,822400
711,822500
711,822600
711,822700
711,822800
705,822900
689,823000
689,823100
689,823200
689,823300
689,823400
680,823500
717,823600
717,823700
717,823800
717,823900
717,824000
676,824100
716,824200
716,824300
716,824400
716,824500
716,824600
725,824700
726,824800
726,824900
726,825000
726,825100
726,825200
719,825300
689,825400
689,825500
689,825600
689,825700
689,825800
698,825900
670,826000
670,826100
670,826200
670,826300
670,826400
696,826500
669,826600
669,826700
669,826800
669,826900
669,827000
670,827100
654,827200
654,827300
654,827400
654,827500
654,827600
608,827700
602,827800
602,827900
602,828000
602,828100
602,828200
673,828300
693,828400
693,828500
693,828600
693,828700
693,828800
699,828900
713,829000
713,829100
713,829200
713,829300
713,829400
685,829500
667,829600
667,829700
667,829800
667,829900
667,830000
635,830100
643,830200
643,830300
643,830400
643,830500
643,830600
612,830700
590,830800
590,830900
590,831000
590,831100
590,831200
663,831300
637,831400
637,831500
637,831600
637,831700
637,831800
656,831900
635,832000
635,832100
635,832200
635,832300
635,832400
649,832500
679,832600
679,832700
679,832800
679,832900
679,833000
556,833100
556,833200
556,833300
556,833400
556,833500
556,833600
578,833700
648,833800
648,833900
648,834000
648,834100
648,834200
669,834300
645,834400
645,834500
645,834600
645,834700
645,834800
584,834900
578,835000
578,835100
578,835200
578,835300
578,835400
717,835500
740,835600
740,835700
740,835800
740,835900
740,836000
709,836100
735,836200
735,836300
735,836400
735,836500
735,836600
704,836700
721,836800
721,836900
721,837000
721,837100
721,837200
658,837300
646,837400
646,837500
646,837600
646,837700
646,837800
688,837900
662,838000
662,838100
662,838200
662,838300
662,838400
592,838500
584,838600
584,838700
584,838800
584,838900
584,839000
671,839100
695,839200
695,839300
695,839400
695,839500
695,839600
687,839700
664,839800
664,839900
664,840000
664,840100
664,840200
709,840300
728,840400
728,840500
728,840600
728,840700
728,840800
713,840900
724,841000
724,841100
724,841200
724,841300
724,841400
684,841500
657,841600
657,841700
657,841800
657,841900
657,842000
643,842100
696,842200
696,842300
696,842400
696,842500
696,842600
707,842700
728,842800
728,842900
728,843000
728,843100
728,843200
711,843300
718,843400
718,843500
718,843600
718,843700
718,843800
679,843900
692,844000
692,844100
692,844200
692,844300
692,844400
612,844500
590,844600
590,844700
590,844800
590,844900
590,845000
426,845100
417,845200
417,845300
417,845400
417,845500
417,845600
392,845700
386,845800
386,845900
386,846000
386,846100
386,846200
386,846300
380,846400
380,846500
380,846600
380,846700
380,846800
385,846900
380,847000
380,847100
380,847200
380,847300
380,847400
385,847500
379,847600
379,847700
379,847800
379,847900
379,848000
384,848100
379,848200
379,848300
379,848400
379,848500
379,848600
384,848700
379,848800
379,848900
379,849000
379,849100
379,849200
385,849300
378,849400
378,849500
378,849600
378,849700
378,849800
385,849900
378,850000
378,850100
378,850200
378,850300
378,850400
384,850500
379,850600
379,850700
379,850800
379,850900
379,851000
385,851100
379,851200
379,851300
379,851400
379,851500
379,851600
385,851700
379,851800
379,851900
379,852000
379,852100
379,852200
385,852300
379,852400
379,852500
379,852600
379,852700
379,852800
384,852900
379,853000
379,853100
379,853200
379,853300
379,853400
385,853500
379,853600
379,853700
379,853800
379,853900
379,854000
385,854100
379,854200
379,854300
379,854400
379,854500
379,854600
386,854700
379,854800
379,854900
379,855000
379,855100
379,855200
385,855300
379,855400
379,855500
379,855600
379,855700
379,855800
385,855900
379,856000
379,856100
379,856200
379,856300
379,856400
385,856500
379,856600
379,856700
379,856800
379,856900
379,857000
385,857100
379,857200
379,857300
379,857400
379,857500
379,857600
385,857700
379,857800
379,857900
379,858000
379,858100
379,858200
385,858300
379,858400
379,858500
379,858600
379,858700
379,858800
385,858900
379,859000
379,859100
379,859200
379,859300
379,859400
385,859500
379,859600
379,859700
379,859800
379,859900
379,860000
385,860100
380,860200
380,860300
380,860400
380,860500
380,860600
386,860700
380,860800
380,860900
380,861000
380,861100
380,861200
385,861300
380,861400
380,861500
380,861600
380,861700
380,861800
386,861900
380,862000
380,862100
380,862200
380,862300
380,862400
385,862500
380,862600
380,862700
380,862800
380,862900
380,863000
386,863100
380,863200
380,863300
380,863400
380,863500
380,863600
386,863700
380,863800
380,863900
380,864000
380,864100
380,864200
385,864300
380,864400
380,864500
380,864600
380,864700
380,864800
385,864900
379,865000
379,865100
379,865200
379,865300
379,865400
386,865500
380,865600
380,865700
380,865800
380,865900
380,866000
386,866100
380,866200
380,866300
380,866400
380,866500
380,866600
386,866700
380,866800
380,866900
380,867000
380,867100
380,867200
386,867300
380,867400
380,867500
380,867600
380,867700
380,867800
386,867900
380,868000
380,868100
380,868200
380,868300
380,868400
386,868500
380,868600
380,868700
380,868800
380,868900
380,869000
386,869100
380,869200
380,869300
380,869400
380,869500
380,869600
387,869700
381,869800
381,869900
381,870000
381,870100
381,870200
386,870300
380,870400
380,870500
380,870600
380,870700
380,870800
387,870900
381,871000
381,871100
381,871200
381,871300
381,871400
387,871500
381,871600
381,871700
381,871800
381,871900
381,872000
387,872100
381,872200
381,872300
381,872400
381,872500
381,872600
386,872700
381,872800
381,872900
381,873000
381,873100
