-8372914
-8348821
-8305415
-8293325
-8290429
-8257192
-8244992
-8243000
-8224003
-8208534
-8189960
-8184879
-8176707
-8170252
-8159614
-8155191
-8152482
-8145485
-8126642
-8114063
-8014303
-7988947
-7967979
-7965433
-7937182
-7926402
-7877105
-7845375
-7838702
-7818436
-7795757
-7778735
-7766957
-7706430
-7698690
-7692184
-7680613
-7680180
-7676463
-7673180
-7670338
-7647616
-7640521
-7637442
-7614590
-7605889
-7565388
-7529178
-7527956
-7491090
-7466064
-7461903
-7446831
-7440956
-7422440
-7414130
-7402265
-7402173
-7400721
-7362661
-7344031
-7326997
-7313021
-7303810
-7279005
-7259147
-7256704
-7225886
-7190661
-7187284
-7185985
-7169263
-7166473
-7147514
-7024338
-7016166
-6996884
-6965209
-6949449
-6935400
-6911000
-6883707
-6882769
-6856206
-6841196
-6823846
-6822620
-6802233
-6795114
-6785986
-6784286
-6747122
-6714090
-6710431
-6674273
-6663467
-6657429
-6611326
-6569510
-6550160
-6539782
-6532889
-6529357
-6515192
-6508435
-6490218
-6475641
-6447112
-6427975
-6405856
-6388398
-6379945
-6358960
-6352825
-6330987
-6321990
-6299040
-6277929
-6265986
-6264310
-6263229
-6262358
-6252287
-6247376
-6238165
-6215727
-6212043
-6205090
-6201201
-6189836
-6189676
-6187276
-6167571
-6110175
-6070138
-6068444
-6052852
-6033261
-6025660
-5954858
-5918646
-5852923
-5843963
-5804809
-5797071
-5752780
-5741580
-5719593
-5680480
-5679118
-5678651
-5676607
-5675754
-5654676
-5653430
-5648713
-5618771
-5606136
-5578504
-5563602
-5560446
-5533176
-5500805
-5496742
-5492062
-5483987
-5437365
-5424581
-5382571
-5378714
-5338887
-5278679
-5254149
-5228632
-5216117
-5212700
-5194348
-5185032
-5163881
-5136475
-5089467
-5088259
-5085884
-5082895
-5064634
-5057923
-5054906
-5030305
-5024194
-5019102
-5002682
-4998953
-4985229
-4959493
-4946435
-4936581
-4923703
-4890160
-4881168
-4880915
-4852021
-4849619
-4811632
-4802972
-4797818
-4784159
-4778603
-4766270
-4765426
-4724293
-4698449
-4695819
-4689343
-4687606
-4677378
-4671658
-4665978
-4648357
-4643498
-4592380
-4587839
-4577129
-4572097
-4563900
-4550753
-4549351
-4546461
-4535539
-4514675
-4502066
-4490340
-4489399
-4418718
-4379054
-4367670
-4364041
-4357616
-4354813
-4352075
-4323599
-4280004
-4274766
-4273728
-4258135
-4247171
-4188283
-4173761
-4163130
-4157796
-4151123
-4145687
-4128791
-4106759
-4103472
-4090534
-4076210
-4056747
-4053868
-4035109
-4020227
-4015238
-4006936
-4005874
-3990090
-3985425
-3960983
-3959551
-3929187
-3925597
-3877116
-3855889
-3782017
-3779225
-3758638
-3743263
-3721547
-3684846
-3669288
-3664667
-3652987
-3652262
-3636454
-3630360
-3628282
-3620829
-3588583
-3586791
-3570920
-3540646
-3533164
-3519083
-3514627
-3509279
-3480477
-3460494
-3454461
-3418634
-3417365
-3398073
-3396404
-3346655
-3328593
-3274770
-3260921
-3246816
-3233789
-3212282
-3120061
-3108353
-3084467
-3077569
-3067525
-3058332
-3035353
-3020960
-3020639
-2998924
-2976169
-2959555
-2958818
-2924432
-2906563
-2897913
-2893653
-2892613
-2882920
-2869989
-2863399
-2834110
-2825653
-2807706
-2774293
-2725798
-2698909
-2674429
-2638654
-2627960
-2608813
-2593710
-2592436
-2577815
-2562817
-2553724
-2531572
-2480274
-2461684
-2443042
-2413596
-2406019
-2398434
-2344450
-2343508
-2308275
-2260382
-2254192
-2201853
-2185825
-2179924
-2178134
-2163792
-2146494
-2127708
-2127545
-2108481
-2065759
-2057468
-2011660
-2010359
-2003230
-1980655
-1977205
-1974950
-1972741
-1971663
-1965834
-1897556
-1878951
-1866822
-1865515
-1865301
-1861252
-1745065
-1724260
-1708032
-1701931
-1683177
-1668047
-1662579
-1645284
-1635818
-1614110
-1606239
-1603273
-1596250
-1592286
-1587472
-1534107
-1509227
-1500251
-1478247
-1434893
-1432853
-1395253
-1383051
-1373829
-1364793
-1342574
-1327573
-1307986
-1304947
-1299147
-1261093
-1220156
-1200853
-1186817
-1178192
-1121782
-1118560
-1118001
-1113694
-1093433
-1085961
-1081792
-1058338
-1008269
-984202
-962213
-960501
-945538
-895721
-831136
-828422
-786825
-762408
-733043
-730860
-723721
-720136
-718562
-683767
-673731
-668110
-667021
-662121
-660765
-645653
-635969
-619925
-600081
-590831
-583280
-581097
-573787
-570060
-568251
-540180
-537070
-525041
-524824
-522576
-472324
-461959
-449118
-435310
-398518
-377399
-374924
-357607
-351127
-341727
-336876
-293219
-281449
-260323
-238549
-234229
-229417
-201827
-187520
-124396
-118546
-109891
-94917
-66256
-36615
-36498
-30654
-15467
-7070
14219
67406
93083
93334
103796
118903
127446
139456
170369
171234
192142
203135
209688
213996
242811
245655
278744
284935
286721
295137
314495
319059
323490
344789
373141
377649
386555
410560
463513
468757
477084
478288
486139
500314
515888
542075
543189
599155
621835
628201
633268
648944
683804
690384
729946
752933
777569
784282
800219
827549
829103
841139
849068
849224
879982
905960
914232
917231
926751
939493
943513
975021
1008107
1035484
1045710
1073572
1092423
1095985
1096474
1114985
1117488
1122220
1165391
1166045
1190988
1194845
1195814
1212854
1218306
1248850
1297847
1305794
1308387
1317912
1326617
1327644
1335080
1363728
1369215
1385016
1386317
1392691
1398762
1400831
1420739
1422475
1424397
1429280
1468543
1490351
1503032
1512676
1530142
1542158
1542673
1584613
1585632
1619255
1624376
1659564
1662349
1694135
1720964
1746428
1769283
1770234
1792652
1852802
1875450
1881136
1884694
1897981
1907613
1942369
1950529
1963869
1968077
1975725
1987124
2003290
2016121
2037608
2046105
2049743
2069674
2073681
2090287
2103680
2113515
2118053
2155047
2155200
2167936
2193559
2197093
2211742
2238733
2252177
2263482
2264244
2271422
2271926
2274608
2296380
2309849
2310893
2336845
2376038
2401128
2420326
2429785
2433566
2445822
2474003
2553935
2560911
2568994
2572293
2577550
2581305
2601161
2617144
2628219
2643072
2646656
2686791
2696005
2698041
2710215
2723975
2760032
2761791
2783990
2799160
2805340
2816126
2874782
2884079
2886521
2901930
2907646
2922129
2988169
2998264
3004391
3044641
3075902
3076508
3090424
3092968
3116977
3121454
3130108
3140107
3161512
3166524
3179426
3197541
3239118
3243921
3249954
3267434
3273968
3273970
3275989
3291844
3299342
3313688
3333362
3345055
3399206
3427563
3447675
3561238
3578864
3580360
3581340
3583648
3598883
3613349
3648145
3665394
3688174
3717766
3730572
3780229
3781162
3793316
3805207
3816667
3825076
3856261
3868266
3875575
3879468
3895676
3899022
3904724
3919458
3922829
3929908
3946522
3979508
3989850
4003490
4021899
4026635
4034916
4077429
4080944
4096756
4100386
4107793
4129477
4142159
4174806
4177772
4199213
4201456
4225274
4240198
4295790
4297949
4306943
4328896
4343767
4403572
4410378
4431667
4466318
4505167
4511920
4535431
4552059
4552966
4562196
4572700
4606239
4610483
4623242
4641852
4653220
4663059
4742773
4746085
4757345
4764281
4789715
4790410
4817022
4828312
4869860
4871896
4876892
4886863
4894908
4899747
4916462
4928841
4938290
4940735
4951654
4987186
4993761
5000920
5010681
5039027
5074304
5153449
5169560
5172116
5229903
5246540
5310969
5315223
5373006
5373759
5379910
5387463
5401497
5417609
5438184
5445218
5481773
5499320
5509543
5511941
5525492
5553241
5561834
5561946
5566889
5582078
5586550
5592904
5597651
5636661
5642337
5651202
5656208
5676709
5685046
5705203
5737692
5739654
5739901
5745077
5767716
5807839
5815763
5829224
5841397
5856690
5886911
5928242
5987671
5987958
5989376
5994198
5998106
6038531
6049322
6072097
6079861
6092214
6096105
6097235
6120993
6129650
6136733
6147873
6156491
6198942
6215363
6222261
6249500
6280907
6301555
6307818
6343431
6381523
6388830
6391267
6405571
6411132
6418410
6428626
6428939
6434462
6440925
6443093
6468273
6470593
6494102
6520151
6523513
6568383
6595044
6597133
6609166
6627974
6650339
6656720
6698143
6708797
6726038
6737227
6786341
6805447
6815272
6863445
6866750
6891381
6907982
6930509
6957585
6959483
6984141
6988359
7001454
7026631
7040479
7086177
7096769
7115183
7115333
7155359
7169420
7176295
7196510
7198358
7240846
7241065
7244321
7248461
7249456
7266087
7299682
7308646
7320135
7336371
7338226
7362626
7378496
7413687
7415153
7440427
7455598
7473435
7479252
7492232
7534222
7557532
7578722
7584352
7591577
7597427
7651630
7654148
7675041
7675180
7677074
7688194
7692150
7701400
7722182
7723304
7733120
7757535
7763525
7853076
7854931
7874479
7875084
7878423
7896958
7915443
7945869
7951072
7977522
7984638
7994918
8001303
8012699
8021314
8025928
8035425
8071771
8104010
8122361
8126477
8149867
8217159
8234011
8238923
8242061
8268324
8280158
8319455
8348289
8373792
