                                                                        S      1
1H,,1H;,,                                                               G      1
39HD:\Documents\Ortodoxia\Interfaz CNC.igs,                             G      2
26HRhinoceros ( Jan 18 2007 ),31HTrout Lake IGES 012 Jan 18 2007,       G      3
32,38,6,308,15,                                                         G      4
,                                                                       G      5
1.0D0,1,4HINCH,1,0.01D0,13H120919.165603,                               G      6
0.001D0,                                                                G      7
3.19D0,                                                                 G      8
,                                                                       G      9
,                                                                       G     10
10,0,13H120919.165603;                                                  G     11
     314       1       0       0       0       0       0       000000200D      1
     314       0       2       1       0       0       0   COLOR       0D      2
     314       2       0       0       0       0       0       000000200D      3
     314       0       4       1       0       0       0   COLOR       0D      4
     314       3       0       0       0       0       0       000000200D      5
     314       0       4       1       0       0       0   COLOR       0D      6
     314       4       0       0       0       0       0       000000200D      7
     314       0       1       1       0       0       0   COLOR       0D      8
     314       5       0       0       0       0       0       000000200D      9
     314       0       8       1       0       0       0   COLOR       0D     10
     406       6       0       0       1       0       0       000000300D     11
     406       0      -1       1       3       0       0LEVELDEF       0D     12
     406       7       0       0       2       0       0       000000300D     13
     406       0      -1       1       3       0       0LEVELDEF       0D     14
     406       8       0       0       3       0       0       000000300D     15
     406       0      -3       1       3       0       0LEVELDEF       0D     16
     406       9       0       0       4       0       0       000000300D     17
     406       0      -5       1       3       0       0LEVELDEF       0D     18
     406      10       0       0       5       0       0       000000300D     19
     406       0      -7       1       3       0       0LEVELDEF       0D     20
     406      11       0       0       6       0       0       000000300D     21
     406       0      -9       1       3       0       0LEVELDEF       0D     22
     116      12       0       0       1       0       0       000000000D     23
     116       0      -1       1       0       0       03d Point       0D     24
     116      13       0       0       1       0       0       000000000D     25
     116       0      -1       1       0       0       03d Point       0D     26
     116      14       0       0       1       0       0       000000000D     27
     116       0      -1       1       0       0       03d Point       0D     28
     116      15       0       0       1       0       0       000000000D     29
     116       0      -1       1       0       0       03d Point       0D     30
     116      16       0       0       1       0       0       000000000D     31
     116       0      -1       1       0       0       03d Point       0D     32
     116      17       0       0       1       0       0       000000000D     33
     116       0      -1       1       0       0       03d Point       0D     34
     116      18       0       0       1       0       0       000000000D     35
     116       0      -1       1       0       0       03d Point       0D     36
     116      19       0       0       1       0       0       000000000D     37
     116       0      -1       1       0       0       03d Point       0D     38
     116      20       0       0       1       0       0       000000000D     39
     116       0      -1       1       0       0       03d Point       0D     40
     116      21       0       0       1       0       0       000000000D     41
     116       0      -1       1       0       0       03d Point       0D     42
     116      22       0       0       1       0       0       000000000D     43
     116       0      -1       1       0       0       03d Point       0D     44
     116      23       0       0       1       0       0       000000000D     45
     116       0      -1       1       0       0       03d Point       0D     46
     116      24       0       0       1       0       0       000000000D     47
     116       0      -1       1       0       0       03d Point       0D     48
     116      25       0       0       1       0       0       000000000D     49
     116       0      -1       1       0       0       03d Point       0D     50
     116      26       0       0       1       0       0       000000000D     51
     116       0      -1       1       0       0       03d Point       0D     52
     116      27       0       0       1       0       0       000000000D     53
     116       0      -1       1       0       0       03d Point       0D     54
     116      28       0       0       1       0       0       000000000D     55
     116       0      -1       1       0       0       03d Point       0D     56
     116      29       0       0       1       0       0       000000000D     57
     116       0      -1       1       0       0       03d Point       0D     58
     116      30       0       0       1       0       0       000000000D     59
     116       0      -1       1       0       0       03d Point       0D     60
     116      31       0       0       1       0       0       000000000D     61
     116       0      -1       1       0       0       03d Point       0D     62
     116      32       0       0       1       0       0       000000000D     63
     116       0      -1       1       0       0       03d Point       0D     64
     116      33       0       0       1       0       0       000000000D     65
     116       0      -1       1       0       0       03d Point       0D     66
     116      34       0       0       1       0       0       000000000D     67
     116       0      -1       1       0       0       03d Point       0D     68
     116      35       0       0       1       0       0       000000000D     69
     116       0      -1       1       0       0       03d Point       0D     70
     116      36       0       0       1       0       0       000000000D     71
     116       0      -1       1       0       0       03d Point       0D     72
     116      37       0       0       1       0       0       000000000D     73
     116       0      -1       1       0       0       03d Point       0D     74
     116      38       0       0       1       0       0       000000000D     75
     116       0      -1       1       0       0       03d Point       0D     76
     116      39       0       0       1       0       0       000000000D     77
     116       0      -1       1       0       0       03d Point       0D     78
     116      40       0       0       1       0       0       000000000D     79
     116       0      -1       1       0       0       03d Point       0D     80
     116      41       0       0       1       0       0       000000000D     81
     116       0      -1       1       0       0       03d Point       0D     82
     116      42       0       0       1       0       0       000000000D     83
     116       0      -1       1       0       0       03d Point       0D     84
     116      43       0       0       1       0       0       000000000D     85
     116       0      -1       1       0       0       03d Point       0D     86
     116      44       0       0       1       0       0       000000000D     87
     116       0      -1       1       0       0       03d Point       0D     88
     116      45       0       0       1       0       0       000000000D     89
     116       0      -1       1       0       0       03d Point       0D     90
     116      46       0       0       1       0       0       000000000D     91
     116       0      -1       1       0       0       03d Point       0D     92
     116      47       0       0       1       0       0       000000000D     93
     116       0      -1       1       0       0       03d Point       0D     94
     116      48       0       0       1       0       0       000000000D     95
     116       0      -1       1       0       0       03d Point       0D     96
     116      49       0       0       1       0       0       000000000D     97
     116       0      -1       1       0       0       03d Point       0D     98
     116      50       0       0       1       0       0       000000000D     99
     116       0      -1       1       0       0       03d Point       0D    100
     116      51       0       0       1       0       0       000000000D    101
     116       0      -1       1       0       0       03d Point       0D    102
     116      52       0       0       1       0       0       000000000D    103
     116       0      -1       1       0       0       03d Point       0D    104
     116      53       0       0       1       0       0       000000000D    105
     116       0      -1       1       0       0       03d Point       0D    106
     116      54       0       0       1       0       0       000000000D    107
     116       0      -1       1       0       0       03d Point       0D    108
     116      55       0       0       1       0       0       000000000D    109
     116       0      -1       1       0       0       03d Point       0D    110
     116      56       0       0       1       0       0       000000000D    111
     116       0      -1       1       0       0       03d Point       0D    112
     116      57       0       0       1       0       0       000000000D    113
     116       0      -1       1       0       0       03d Point       0D    114
     116      58       0       0       1       0       0       000000000D    115
     116       0      -1       1       0       0       03d Point       0D    116
     116      59       0       0       1       0       0       000000000D    117
     116       0      -1       1       0       0       03d Point       0D    118
     116      60       0       0       1       0       0       000000000D    119
     116       0      -1       1       0       0       03d Point       0D    120
     116      61       0       0       1       0       0       000000000D    121
     116       0      -1       1       0       0       03d Point       0D    122
     116      62       0       0       1       0       0       000000000D    123
     116       0      -1       1       0       0       03d Point       0D    124
     116      63       0       0       1       0       0       000000000D    125
     116       0      -1       1       0       0       03d Point       0D    126
     116      64       0       0       1       0       0       000000000D    127
     116       0      -1       1       0       0       03d Point       0D    128
     116      65       0       0       1       0       0       000000000D    129
     116       0      -1       1       0       0       03d Point       0D    130
     116      66       0       0       1       0       0       000000000D    131
     116       0      -1       1       0       0       03d Point       0D    132
     116      67       0       0       1       0       0       000000000D    133
     116       0      -1       1       0       0       03d Point       0D    134
     116      68       0       0       1       0       0       000000000D    135
     116       0      -1       1       0       0       03d Point       0D    136
     116      69       0       0       1       0       0       000000000D    137
     116       0      -1       1       0       0       03d Point       0D    138
     116      70       0       0       1       0       0       000000000D    139
     116       0      -1       1       0       0       03d Point       0D    140
     116      71       0       0       1       0       0       000000000D    141
     116       0      -1       1       0       0       03d Point       0D    142
     116      72       0       0       1       0       0       000000000D    143
     116       0      -1       1       0       0       03d Point       0D    144
     116      73       0       0       1       0       0       000000000D    145
     116       0      -1       1       0       0       03d Point       0D    146
     116      74       0       0       1       0       0       000000000D    147
     116       0      -1       1       0       0       03d Point       0D    148
     116      75       0       0       1       0       0       000000000D    149
     116       0      -1       1       0       0       03d Point       0D    150
     116      76       0       0       1       0       0       000000000D    151
     116       0      -1       1       0       0       03d Point       0D    152
     116      77       0       0       1       0       0       000000000D    153
     116       0      -1       1       0       0       03d Point       0D    154
     116      78       0       0       1       0       0       000000000D    155
     116       0      -1       1       0       0       03d Point       0D    156
     116      79       0       0       1       0       0       000000000D    157
     116       0      -1       1       0       0       03d Point       0D    158
     116      80       0       0       1       0       0       000000000D    159
     116       0      -1       1       0       0       03d Point       0D    160
     116      81       0       0       1       0       0       000000000D    161
     116       0      -1       1       0       0       03d Point       0D    162
     116      82       0       0       1       0       0       000000000D    163
     116       0      -1       1       0       0       03d Point       0D    164
     116      83       0       0       1       0       0       000000000D    165
     116       0      -1       1       0       0       03d Point       0D    166
     116      84       0       0       1       0       0       000000000D    167
     116       0      -1       1       0       0       03d Point       0D    168
     116      85       0       0       1       0       0       000000000D    169
     116       0      -1       1       0       0       03d Point       0D    170
     116      86       0       0       1       0       0       000000000D    171
     116       0      -1       1       0       0       03d Point       0D    172
     116      87       0       0       1       0       0       000000000D    173
     116       0      -1       1       0       0       03d Point       0D    174
     116      88       0       0       1       0       0       000000000D    175
     116       0      -1       1       0       0       03d Point       0D    176
     116      89       0       0       1       0       0       000000000D    177
     116       0      -1       1       0       0       03d Point       0D    178
     116      90       0       0       1       0       0       000000000D    179
     116       0      -1       1       0       0       03d Point       0D    180
     116      91       0       0       1       0       0       000000000D    181
     116       0      -1       1       0       0       03d Point       0D    182
     116      92       0       0       1       0       0       000000000D    183
     116       0      -1       1       0       0       03d Point       0D    184
     116      93       0       0       1       0       0       000000000D    185
     116       0      -1       1       0       0       03d Point       0D    186
     116      94       0       0       1       0       0       000000000D    187
     116       0      -1       1       0       0       03d Point       0D    188
     116      95       0       0       1       0       0       000000000D    189
     116       0      -1       1       0       0       03d Point       0D    190
     116      96       0       0       1       0       0       000000000D    191
     116       0      -1       1       0       0       03d Point       0D    192
     116      97       0       0       1       0       0       000000000D    193
     116       0      -1       1       0       0       03d Point       0D    194
     116      98       0       0       1       0       0       000000000D    195
     116       0      -1       1       0       0       03d Point       0D    196
     116      99       0       0       1       0       0       000000000D    197
     116       0      -1       1       0       0       03d Point       0D    198
     116     100       0       0       1       0       0       000000000D    199
     116       0      -1       1       0       0       03d Point       0D    200
     116     101       0       0       1       0       0       000000000D    201
     116       0      -1       1       0       0       03d Point       0D    202
     116     102       0       0       1       0       0       000000000D    203
     116       0      -1       1       0       0       03d Point       0D    204
     116     103       0       0       1       0       0       000000000D    205
     116       0      -1       1       0       0       03d Point       0D    206
     116     104       0       0       1       0       0       000000000D    207
     116       0      -1       1       0       0       03d Point       0D    208
     116     105       0       0       1       0       0       000000000D    209
     116       0      -1       1       0       0       03d Point       0D    210
     116     106       0       0       1       0       0       000000000D    211
     116       0      -1       1       0       0       03d Point       0D    212
     126     107       0       0       1       0       0       000000000D    213
     126       0      -1       4       0       0       03d BsCrv       0D    214
     116     111       0       0       1       0       0       000000000D    215
     116       0      -1       1       0       0       03d Point       0D    216
314,100.0,0.0,0.0,20HRGB( 255,   0,   0 );                       0000001P      1
314,49.01961,14.90196,80.39216,20HRGB( 125,  38, 205 );          0000003P      2
314,0.0,0.0,100.0,20HRGB(   0,   0, 255 );                       0000005P      3
314,0.0,49.80392,0.0,20HRGB(   0, 127,   0 );                    0000007P      4
314,100.0,100.0,100.0,20HRGB( 255, 255, 255 );                   0000009P      5
406,2,1,7HDefault;                                               0000011P      6
406,2,2,8HLayer 01;                                              0000013P      7
406,2,3,8HLayer 02;                                              0000015P      8
406,2,4,8HLayer 03;                                              0000017P      9
406,2,5,8HLayer 04;                                              0000019P     10
406,2,6,8HLayer 05;                                              0000021P     11
116,1.4175D0,2.3D0,0.0D0,0;                                      0000023P     12
116,1.4175D0,2.2D0,0.0D0,0;                                      0000025P     13
116,1.4175D0,1.6D0,0.0D0,0;                                      0000027P     14
116,1.4175D0,1.7975D0,0.0D0,0;                                   0000029P     15
116,1.4175D0,2.0D0,0.0D0,0;                                      0000031P     16
116,1.4175D0,2.1D0,0.0D0,0;                                      0000033P     17
116,1.4175D0,1.7D0,0.0D0,0;                                      0000035P     18
116,1.4175D0,1.9D0,0.0D0,0;                                      0000037P     19
116,1.1225D0,1.6D0,0.0D0,0;                                      0000039P     20
116,1.1225D0,1.7D0,0.0D0,0;                                      0000041P     21
116,1.1225D0,1.7975D0,0.0D0,0;                                   0000043P     22
116,1.1225D0,1.9D0,0.0D0,0;                                      0000045P     23
116,1.1225D0,2.0D0,0.0D0,0;                                      0000047P     24
116,1.1225D0,2.1D0,0.0D0,0;                                      0000049P     25
116,1.1225D0,2.2D0,0.0D0,0;                                      0000051P     26
116,1.1225D0,2.3D0,0.0D0,0;                                      0000053P     27
116,1.67D0,2.7D0,0.0D0,0;                                        0000055P     28
116,1.3725D0,2.7D0,0.0D0,0;                                      0000057P     29
116,1.4675D0,2.5475D0,0.0D0,0;                                   0000059P     30
116,1.87D0,2.35D0,0.0D0,0;                                       0000061P     31
116,1.67D0,2.35D0,0.0D0,0;                                       0000063P     32
116,1.8675D0,1.7475D0,0.0D0,0;                                   0000065P     33
116,1.6675D0,1.7475D0,0.0D0,0;                                   0000067P     34
116,1.56875D0,1.39875D0,0.0D0,0;                                 0000069P     35
116,1.42D0,1.3975D0,0.0D0,0;                                     0000071P     36
116,1.2225D0,1.4D0,0.0D0,0;                                      0000073P     37
116,1.0225D0,1.4D0,0.0D0,0;                                      0000075P     38
116,0.895D0,1.7475D0,0.0D0,0;                                    0000077P     39
116,0.895D0,2.0D0,0.0D0,0;                                       0000079P     40
116,0.595D0,2.1D0,0.0D0,0;                                       0000081P     41
116,0.9225D0,2.34875D0,0.0D0,0;                                  0000083P     42
116,0.9225D0,2.45D0,0.0D0,0;                                     0000085P     43
116,0.8225D0,2.45D0,0.0D0,0;                                     0000087P     44
116,0.3725D0,2.45D0,0.0D0,0;                                     0000089P     45
116,0.4725D0,2.45D0,0.0D0,0;                                     0000091P     46
116,0.6225000000000001D0,1.99875D0,0.0D0,0;                      0000093P     47
116,0.595D0,1.8475D0,0.0D0,0;                                    0000095P     48
116,0.7725D0,1.5975D0,0.0D0,0;                                   0000097P     49
116,1.6175D0,1.1975D0,0.0D0,0;                                   0000099P     50
116,1.41875D0,1.19875D0,0.0D0,0;                                 0000101P     51
116,1.22125D0,1.19875D0,0.0D0,0;                                 0000103P     52
116,1.0225D0,1.19875D0,0.0D0,0;                                  0000105P     53
116,0.7725D0,1.29875D0,0.0D0,0;                                  0000107P     54
116,0.57125D0,1.24875D0,0.0D0,0;                                 0000109P     55
116,1.02125D0,0.94875D0,0.0D0,0;                                 0000111P     56
116,0.1725D0,0.9D0,0.0D0,0;                                      0000113P     57
116,0.3725D0,0.7975D0,0.0D0,0;                                   0000115P     58
116,0.5700000000000001D0,0.7975D0,0.0D0,0;                       0000117P     59
116,0.8200000000000001D0,0.7975D0,0.0D0,0;                       0000119P     60
116,1.0175D0,0.7975D0,0.0D0,0;                                   0000121P     61
116,1.27D0,0.7975D0,0.0D0,0;                                     0000123P     62
116,1.4675D0,0.7975D0,0.0D0,0;                                   0000125P     63
116,1.96875D0,0.84875D0,0.0D0,0;                                 0000127P     64
116,1.96875D0,1.39875D0,0.0D0,0;                                 0000129P     65
116,2.0675D0,1.5975D0,0.0D0,0;                                   0000131P     66
116,2.0675D0,1.6975D0,0.0D0,0;                                   0000133P     67
116,2.0675D0,1.7975D0,0.0D0,0;                                   0000135P     68
116,2.0675D0,1.8975D0,0.0D0,0;                                   0000137P     69
116,2.0675D0,2.0D0,0.0D0,0;                                      0000139P     70
116,2.0675D0,2.1D0,0.0D0,0;                                      0000141P     71
116,2.0675D0,2.3D0,0.0D0,0;                                      0000143P     72
116,2.0675D0,2.4D0,0.0D0,0;                                      0000145P     73
116,2.0675D0,2.4975D0,0.0D0,0;                                   0000147P     74
116,2.0675D0,2.5975D0,0.0D0,0;                                   0000149P     75
116,2.0675D0,2.6975D0,0.0D0,0;                                   0000151P     76
116,2.0675D0,2.7975D0,0.0D0,0;                                   0000153P     77
116,1.8675D0,2.8975D0,0.0D0,0;                                   0000155P     78
116,1.66875D0,2.89875D0,0.0D0,0;                                 0000157P     79
116,1.37125D0,2.89875D0,0.0D0,0;                                 0000159P     80
116,1.0175D0,2.7975D0,0.0D0,0;                                   0000161P     81
116,0.8225D0,2.7975D0,0.0D0,0;                                   0000163P     82
116,0.5700000000000001D0,2.7975D0,0.0D0,0;                       0000165P     83
116,0.37D0,2.7975D0,0.0D0,0;                                     0000167P     84
116,0.1725D0,1.25D0,0.0D0,0;                                     0000169P     85
116,0.2725D0,1.3475D0,0.0D0,0;                                   0000171P     86
116,0.1725D0,1.35D0,0.0D0,0;                                     0000173P     87
116,0.1725D0,1.45D0,0.0D0,0;                                     0000175P     88
116,0.1725D0,1.65D0,0.0D0,0;                                     0000177P     89
116,0.1725D0,1.55D0,0.0D0,0;                                     0000179P     90
116,0.2725D0,1.6475D0,0.0D0,0;                                   0000181P     91
116,0.27D0,1.65D0,0.0D0,0;                                       0000183P     92
116,0.395D0,1.75D0,0.0D0,0;                                      0000185P     93
116,0.17D0,1.75D0,0.0D0,0;                                       0000187P     94
116,0.395D0,2.0D0,0.0D0,0;                                       0000189P     95
116,0.17D0,1.85D0,0.0D0,0;                                       0000191P     96
116,0.17D0,1.95D0,0.0D0,0;                                       0000193P     97
116,0.27D0,2.1D0,0.0D0,0;                                        0000195P     98
116,0.17D0,2.1D0,0.0D0,0;                                        0000197P     99
116,0.17D0,2.2D0,0.0D0,0;                                        0000199P    100
116,0.17D0,2.7D0,0.0D0,0;                                        0000201P    101
116,0.17D0,2.6D0,0.0D0,0;                                        0000203P    102
116,0.17D0,2.5D0,0.0D0,0;                                        0000205P    103
116,0.17D0,2.4D0,0.0D0,0;                                        0000207P    104
116,0.17D0,2.3D0,0.0D0,0;                                        0000209P    105
116,0.17D0,2.8D0,0.0D0,0;                                        0000211P    106
126,4,1,1,1,1,0,0.0D0,0.0D0,2.26D0,5.449999999999999D0,          0000213P    107
7.709999999999999D0,10.9D0,10.9D0,1.0D0,1.0D0,1.0D0,1.0D0,1.0D0, 0000213P    108
0.0D0,0.0D0,0.0D0,2.26D0,0.0D0,0.0D0,2.26D0,3.19D0,0.0D0,0.0D0,  0000213P    109
3.19D0,0.0D0,0.0D0,0.0D0,0.0D0,0.0D0,10.9D0,0.0D0,0.0D0,1.0D0;   0000213P    110
116,0.0D0,0.0D0,0.0D0,0;                                         0000215P    111
S0000001G0000011D0000216P0000111                                        T      1
